0.005435	0.994565
0.759774	0.240226
0.987669	0.012331
0.033675	0.966325
0.002247	0.997753
0.999852	0.000148
0.048264	0.951736
0.002459	0.997541
0.993352	0.006648
0.020372	0.979628
0.982328	0.017672
0.464524	0.535476
0.001762	0.998238
0.318208	0.681792
0.054087	0.945913
0.976372	0.023628
0.977639	0.022361
0.386919	0.613081
0.999965	0.000035
0.000455	0.999545
0.999728	0.000272
0.703136	0.296864
0.200437	0.799563
0.992726	0.007274
0.998543	0.001457
0.999009	0.000991
0.989021	0.010979
0.991497	0.008503
0.956140	0.043860
0.998793	0.001207
0.936646	0.063354
