0.901689	0.098311
0.880492	0.119508
0.115299	0.884701
0.968355	0.031645
0.998308	0.001692
0.000828	0.999172
0.952616	0.047384
0.044282	0.955718
0.000179	0.999821
0.449623	0.550377
0.995720	0.004280
0.049627	0.950373
0.979513	0.020487
0.999667	0.000333
0.999619	0.000381
0.001454	0.998546
0.888142	0.111858
0.000205	0.999795
0.995816	0.004184
0.000101	0.999899
0.999224	0.000776
0.399467	0.600533
0.978693	0.021307
0.999399	0.000601
0.320193	0.679807
0.541996	0.458004
0.001219	0.998781
0.375942	0.624058
0.002010	0.997990
0.556219	0.443781
0.396594	0.603406
