0.991968	0.008032
0.986006	0.013994
0.004576	0.995424
0.940213	0.059787
0.010244	0.989756
0.985121	0.014879
0.962603	0.037397
0.934367	0.065633
0.505521	0.494479
0.010421	0.989579
0.110965	0.889035
0.998275	0.001725
0.999699	0.000301
0.573838	0.426162
0.997239	0.002761
0.998323	0.001677
0.940395	0.059605
0.977358	0.022642
0.896590	0.103410
0.001765	0.998235
0.002903	0.997097
0.942711	0.057289
0.783790	0.216210
0.985873	0.014127
0.072565	0.927435
0.002215	0.997785
0.296362	0.703638
0.005850	0.994150
0.001178	0.998822
0.558223	0.441777
0.791490	0.208510
0.649304	0.350696
