0.790948	0.209052
0.731839	0.268161
0.080246	0.919754
0.232966	0.767034
0.766262	0.233738
0.386593	0.613407
0.142092	0.857908
0.106035	0.893965
0.785890	0.214110
0.382861	0.617139
0.444025	0.555975
0.163701	0.836299
0.687365	0.312635
0.184085	0.815915
0.868263	0.131737
0.475008	0.524992
0.153829	0.846171
0.290676	0.709324
0.601667	0.398333
0.100663	0.899337
0.280489	0.719511
0.611632	0.388368
0.489254	0.510746
0.135315	0.864685
0.737918	0.262082
0.760108	0.239892
0.365292	0.634708
0.344033	0.655967
0.304367	0.695633
0.178972	0.821028
0.427283	0.572717
