-1.1	 3	 11.3	 0.219	 -0.36	 103	 -1	 -3	 -1	 1	 -3	 -2	 -1	 -3	 5	 -2	 -1	 0	 -1	 1	 2	 0	 -1	 -2	 -3	 -2	 -1	 2	 0	 -1	 -3	 1	 1	 -2	 -1	 -3	 -2	 5	 -1	 -3	 -1	 0	 -1	 -3	 -2	 -2	 22.00	 25.00	 17.00	 20.00	 42.00	 3.97	 3.57	 73	 56	 0.767123287671233	 0.35609756097561	 0.273170731707317	 1
0.37	 -3.4	 5.4	 0.409	 0.83	 34.7	 -3	 -2	 -4	 -3	 1	 -2	 -2	 -3	 -3	 -2	 -1	 -4	 -4	 -2	 -3	 -3	 -2	 -3	 11	 2	 -3	 -3	 -3	 -2	 -4	 -2	 -2	 2	 -2	 -2	 -2	 -3	 -2	 2	 -4	 1	 -1	 6	 6	 0	 25.00	 24.00	 24.00	 23.00	 48.00	 6.70	 6.77	 116	 94	 0.810344827586207	 0.511013215859031	 0.414096916299559	 1
-0.62	 3	 12.3	 0.151	 -0.13	 68.2	 -1	 -4	 2	 5	 -3	 -2	 0	 -3	 1	 -3	 -2	 0	 -1	 2	 0	 0	 -1	 -2	 -3	 -2	 -1	 0	 0	 2	 -4	 2	 5	 -2	 0	 -3	 -3	 1	 -2	 -3	 -1	 0	 -1	 -3	 -2	 -2	 22.00	 22.00	 25.00	 25.00	 47.00	 2.52	 2.00	 108	 108	 1	 0.556701030927835	 0.556701030927835	 1
-0.26	 0.3	 9.2	 0.062	 -0.33	 42	 1	 -1	 0	 0	 -2	 0	 -1	 -2	 0	 -2	 -1	 1	 -1	 0	 -1	 4	 1	 -2	 -3	 -2	 3	 -1	 0	 -1	 -1	 0	 0	 0	 -1	 -2	 -2	 0	 -1	 -3	 -1	 3	 1	 -3	 -2	 -1	 27.00	 25.00	 21.00	 19.00	 46.00	 6.33	 6.64	 31	 31	 1	 0.238461538461538	 0.238461538461538	 -1
0.16	 0	 9	 0	 -0.07	 24.5	 0	 -3	 -1	 -2	 -3	 6	 -2	 -4	 -2	 -4	 -3	 0	 -2	 -2	 -2	 0	 -2	 -3	 -2	 -3	 1	 -1	 0	 -1	 -1	 -1	 -1	 4	 -1	 -2	 -2	 -1	 -1	 -2	 2	 0	 -1	 -1	 -1	 -1	 30.00	 31.00	 22.00	 23.00	 53.00	 1.61	 2.00	 72	 56	 0.777777777777778	 0.857142857142857	 0.666666666666667	 1
0.02	 -2.3	 6.2	 0.298	 0.66	 55.2	 -2	 -2	 -3	 -2	 3	 -3	 2	 -1	 -2	 -1	 -1	 -2	 -3	 -1	 -2	 -2	 -2	 -1	 2	 7	 -2	 -2	 -3	 -4	 -3	 -2	 -3	 -4	 1	 -1	 0	 -3	 -1	 4	 -4	 -2	 -2	 1	 7	 -1	 32.00	 27.00	 12.00	 7.00	 39.00	 4.00	 2.79	 61	 49	 0.80327868852459	 0.274774774774775	 0.220720720720721	 1
-0.72	 3	 13	 0.105	 -0.38	 60.6	 -2	 -3	 6	 2	 -3	 -1	 -1	 -3	 -1	 -4	 -3	 1	 -1	 0	 -2	 0	 -1	 -3	 -4	 -3	 1	 0	 2	 1	 -3	 0	 0	 -1	 0	 -2	 -2	 -1	 -1	 0	 -1	 1	 0	 1	 3	 -1	 11.00	 13.00	 25.00	 27.00	 38.00	 3.75	 4.62	 19	 0	 0	 0.139705882352941	 0	 -1
-1.76	 3	 10.5	 0.291	 0.27	 94.7	 -1	 -3	 -2	 0	 -3	 -2	 0	 -3	 2	 -2	 -1	 0	 -2	 1	 5	 -1	 -1	 -3	 -3	 -2	 -2	 6	 -2	 -3	 -4	 0	 -1	 -3	 -1	 -1	 -2	 1	 -2	 2	 -3	 -2	 -2	 5	 -1	 -2	 24.00	 22.00	 27.00	 25.00	 49.00	 6.44	 6.97	 25	 7	 0.28	 0.100806451612903	 0.0282258064516129	 1
-1.1	 3	 11.3	 0.219	 -0.36	 103	 -1	 -3	 -1	 1	 -3	 -2	 -1	 -3	 5	 -2	 -1	 0	 -1	 1	 2	 0	 -1	 -2	 -3	 -2	 -1	 2	 0	 -1	 -3	 1	 1	 -2	 -1	 -3	 -2	 5	 -1	 -3	 -1	 0	 -1	 -3	 -2	 -2	 12.00	 5.00	 12.00	 5.00	 17.00	 1.89	 2.00	 147	 0	 0	 0.717073170731707	 0	 -1
0.54	 -1.5	 5.9	 0.14	 0.27	 23.7	 0	 -1	 -3	 -2	 -1	 -3	 -3	 3	 -2	 1	 1	 -3	 -2	 -2	 -3	 -2	 0	 4	 -3	 -1	 -2	 -1	 -1	 -1	 2	 0	 0	 -2	 2	 -1	 -1	 -2	 0	 -1	 3	 0	 1	 2	 1	 -1	 12.00	 22.00	 20.00	 30.00	 42.00	 4.26	 4.32	 130	 109	 0.838461538461538	 0.915492957746479	 0.767605633802817	 -1
0.73	 -1.8	 5.2	 0.186	 0.44	 22.8	 -1	 -1	 -3	 -3	 0	 -4	 -3	 4	 -3	 2	 1	 -3	 -3	 -3	 -3	 -2	 -1	 3	 -3	 -1	 -1	 -1	 -1	 -1	 -2	 0	 -1	 -1	 0	 1	 0	 -1	 2	 2	 0	 0	 0	 1	 -1	 1	 21.00	 24.00	 18.00	 21.00	 42.00	 2.50	 2.81	 57	 28	 0.491228070175439	 0.337278106508876	 0.165680473372781	 1
-0.26	 0.3	 9.2	 0.062	 -0.33	 42	 1	 -1	 0	 0	 -2	 0	 -1	 -2	 0	 -2	 -1	 1	 -1	 0	 -1	 4	 1	 -2	 -3	 -2	 -1	 -1	 2	 0	 -3	 0	 0	 1	 -1	 -2	 -2	 0	 -3	 -1	 1	 3	 0	 -3	 1	 -2	 19.00	 17.00	 30.00	 28.00	 47.00	 2.31	 2.87	 66	 55	 0.833333333333333	 0.507692307692308	 0.423076923076923	 -1
-0.62	 3	 12.3	 0.151	 -0.13	 68.2	 -1	 -4	 2	 5	 -3	 -2	 0	 -3	 1	 -3	 -2	 0	 -1	 2	 0	 0	 -1	 -2	 -3	 -2	 -1	 0	 1	 3	 -4	 -1	 2	 -2	 1	 -1	 -3	 0	 -3	 -3	 1	 0	 0	 1	 2	 -1	 17.00	 13.00	 32.00	 28.00	 45.00	 2.08	 2.62	 111	 75	 0.675675675675676	 0.572164948453608	 0.38659793814433	 -1
-0.62	 3	 12.3	 0.151	 -0.13	 68.2	 -1	 -4	 2	 5	 -3	 -2	 0	 -3	 1	 -3	 -2	 0	 -1	 2	 0	 0	 -1	 -2	 -3	 -2	 -1	 0	 -1	 0	 -2	 1	 3	 -2	 -1	 1	 -1	 2	 -1	 -2	 -2	 -1	 -1	 -3	 -2	 1	 16.00	 17.00	 21.00	 22.00	 38.00	 2.26	 2.67	 65	 41	 0.630769230769231	 0.335051546391753	 0.211340206185567	 1
-0.72	 3	 13	 0.105	 -0.38	 60.6	 -2	 -3	 6	 2	 -3	 -1	 -1	 -3	 -1	 -4	 -3	 1	 -1	 0	 -2	 0	 -1	 -3	 -4	 -3	 -2	 -2	 1	 6	 -4	 0	 2	 -1	 -1	 -3	 -4	 -1	 -3	 -4	 -2	 0	 -1	 -5	 -3	 -3	 32.00	 27.00	 28.00	 23.00	 55.00	 7.83	 7.32	 92	 90	 0.978260869565217	 0.56441717791411	 0.552147239263804	 1
-1.1	 3	 11.3	 0.219	 -0.36	 103	 -1	 -3	 -1	 1	 -3	 -2	 -1	 -3	 5	 -2	 -1	 0	 -1	 1	 2	 0	 -1	 -2	 -3	 -2	 -1	 3	 -1	 -1	 -3	 1	 3	 -2	 -1	 -2	 -1	 2	 2	 -2	 -2	 -1	 1	 -3	 -2	 -2	 9.00	 12.00	 24.00	 27.00	 36.00	 1.91	 2.33	 174	 72	 0.413793103448276	 0.848780487804878	 0.351219512195122	 -1
-0.26	 0.3	 9.2	 0.062	 -0.33	 42	 1	 -1	 0	 0	 -2	 0	 -1	 -2	 0	 -2	 -1	 1	 -1	 0	 -1	 4	 1	 -2	 -3	 -2	 -1	 0	 -1	 1	 -2	 -1	 0	 2	 2	 -2	 -2	 -1	 -2	 -1	 -2	 1	 -1	 7	 0	 -2	 19.00	 20.00	 25.00	 26.00	 45.00	 2.40	 2.00	 45	 22	 0.488888888888889	 0.346153846153846	 0.169230769230769	 -1
-0.69	 0.2	 10.5	 0.18	 -0.11	 68.7	 -1	 -3	 0	 2	 -3	 -2	 0	 -3	 1	 -2	 0	 0	 -1	 5	 1	 0	 -1	 -2	 -2	 -1	 -1	 3	 0	 -1	 -3	 3	 1	 -2	 -1	 -3	 -3	 2	 -1	 -3	 2	 1	 1	 -3	 -2	 -2	 29.00	 27.00	 22.00	 20.00	 49.00	 2.31	 2.37	 20	 12	 0.6	 0.101010101010101	 0.0606060606060606	 1
0.53	 -1.8	 4.9	 0.186	 0.4	 27.6	 -1	 -1	 -4	 -3	 0	 -4	 -3	 2	 -2	 4	 2	 -3	 -3	 -2	 -2	 -2	 -1	 1	 -2	 -1	 -1	 4	 -2	 -2	 -3	 1	 -2	 -1	 0	 -1	 1	 1	 3	 -3	 0	 -1	 -1	 -4	 -3	 -1	 39.00	 34.00	 28.00	 23.00	 62.00	 6.40	 6.60	 168	 167	 0.994047619047619	 1.02439024390244	 1.01829268292683	 1
-1.1	 3	 11.3	 0.219	 -0.36	 103	 -1	 -3	 -1	 1	 -3	 -2	 -1	 -3	 5	 -2	 -1	 0	 -1	 1	 2	 0	 -1	 -2	 -3	 -2	 -1	 -1	 0	 -1	 -3	 -2	 -2	 2	 0	 0	 -4	 -1	 -3	 -4	 -2	 4	 3	 -4	 -3	 -2	 5.00	 12.00	 22.00	 29.00	 34.00	 2.27	 2.79	 101	 5	 0.0495049504950495	 0.492682926829268	 0.024390243902439	 -1
-0.69	 0.2	 10.5	 0.18	 -0.11	 68.7	 -1	 -3	 0	 2	 -3	 -2	 0	 -3	 1	 -2	 0	 0	 -1	 5	 1	 0	 -1	 -2	 -2	 -1	 -2	 1	 0	 -1	 -3	 1	 0	 -1	 3	 -2	 1	 2	 -1	 1	 -1	 -1	 -1	 -2	 3	 -2	 1.00	 12.00	 13.00	 24.00	 25.00	 1.79	 2.00	 193	 29	 0.150259067357513	 0.974747474747475	 0.146464646464646	 -1
-0.4	 -0.5	 10.4	 0.23	 0.41	 50.7	 -2	 -3	 -1	 0	 -1	 -2	 8	 -3	 -1	 -3	 -2	 1	 -2	 0	 0	 -1	 -2	 -3	 -2	 2	 -2	 0	 0	 -1	 -3	 0	 0	 -2	 8	 -4	 -3	 -1	 -2	 -1	 -2	 -1	 -2	 -3	 2	 -3	 28.00	 25.00	 11.00	 8.00	 36.00	 2.44	 2.74	 28	 0	 0	 0.152173913043478	 0	 -1
-0.18	 -0.4	 8.6	 0.108	 -0.18	 45	 0	 -1	 -1	 -1	 -2	 -2	 -2	 -1	 -1	 -1	 -1	 0	 -1	 -1	 -1	 1	 5	 0	 -2	 -2	 0	 -1	 0	 -1	 -1	 -1	 -1	 -2	 -2	 -1	 -1	 -1	 -1	 -2	 -1	 1	 5	 -2	 -2	 0	 14.00	 13.00	 27.00	 26.00	 40.00	 2.23	 2.54	 56	 31	 0.553571428571429	 0.394366197183099	 0.21830985915493	 -1
-1.1	 3	 11.3	 0.219	 -0.36	 103	 -1	 -3	 -1	 1	 -3	 -2	 -1	 -3	 5	 -2	 -1	 0	 -1	 1	 2	 0	 -1	 -2	 -3	 -2	 -1	 0	 -1	 2	 -1	 2	 1	 -3	 2	 -3	 -2	 0	 -1	 0	 -4	 1	 2	 1	 2	 -1	 7.00	 0.00	 32.00	 25.00	 32.00	 2.15	 2.00	 161	 0	 0	 0.785365853658537	 0	 1
-0.64	 2	 11.6	 0.134	 0.12	 60.1	 -2	 -3	 1	 0	 -3	 0	 1	 -3	 0	 -3	 -2	 6	 -2	 0	 0	 1	 0	 -3	 -4	 -2	 0	 -2	 3	 4	 -3	 0	 1	 1	 -2	 -3	 -3	 -1	 -3	 -2	 -2	 1	 -1	 -3	 -1	 -2	 12.00	 6.00	 19.00	 13.00	 25.00	 1.84	 2.00	 114	 17	 0.149122807017544	 0.726114649681529	 0.10828025477707	 -1
-0.72	 3	 13	 0.105	 -0.38	 60.6	 -2	 -3	 6	 2	 -3	 -1	 -1	 -3	 -1	 -4	 -3	 1	 -1	 0	 -2	 0	 -1	 -3	 -4	 -3	 0	 -1	 3	 2	 -2	 0	 0	 1	 0	 -3	 -2	 0	 -2	 -1	 -1	 1	 0	 0	 -1	 -2	 14.00	 16.00	 24.00	 26.00	 40.00	 5.12	 5.96	 89	 12	 0.134831460674157	 0.54601226993865	 0.0736196319018405	 1
0.54	 -1.5	 5.9	 0.14	 0.27	 23.7	 0	 -1	 -3	 -2	 -1	 -3	 -3	 3	 -2	 1	 1	 -3	 -2	 -2	 -3	 -2	 0	 4	 -3	 -1	 -1	 -1	 -1	 -1	 1	 -1	 -1	 -2	 -1	 2	 1	 0	 0	 -2	 0	 0	 2	 -3	 -2	 1	 20.00	 22.00	 27.00	 29.00	 49.00	 3.37	 3.74	 70	 40	 0.571428571428571	 0.492957746478873	 0.28169014084507	 -1
0.37	 -3.4	 5.4	 0.409	 0.83	 34.7	 -3	 -2	 -4	 -3	 1	 -2	 -2	 -3	 -3	 -2	 -1	 -4	 -4	 -2	 -3	 -3	 -2	 -3	 11	 2	 -2	 -2	 1	 -3	 -3	 -2	 -2	 -3	 0	 -2	 0	 -2	 -1	 1	 -3	 -2	 0	 6	 6	 -2	 19.00	 15.00	 31.00	 27.00	 46.00	 3.46	 5.73	 84	 51	 0.607142857142857	 0.370044052863436	 0.224669603524229	 1
-0.72	 3	 13	 0.105	 -0.38	 60.6	 -2	 -3	 6	 2	 -3	 -1	 -1	 -3	 -1	 -4	 -3	 1	 -1	 0	 -2	 0	 -1	 -3	 -4	 -3	 -3	 -1	 4	 1	 -4	 1	 0	 2	 3	 -1	 -2	 0	 -4	 -4	 -2	 1	 -1	 -6	 -1	 -5	 23.00	 21.00	 24.00	 22.00	 45.00	 2.06	 2.72	 130	 98	 0.753846153846154	 0.797546012269939	 0.601226993865031	 1
-1.1	 3	 11.3	 0.219	 -0.36	 103	 -1	 -3	 -1	 1	 -3	 -2	 -1	 -3	 5	 -2	 -1	 0	 -1	 1	 2	 0	 -1	 -2	 -3	 -2	 -2	 4	 1	 -2	 -4	 0	 -1	 0	 0	 -4	 -1	 3	 1	 -1	 -4	 -1	 2	 -4	 0	 -3	 39.00	 33.00	 31.00	 25.00	 64.00	 6.94	 6.62	 184	 180	 0.978260869565217	 0.897560975609756	 0.878048780487805	 1
-0.07	 0	 8	 0.131	 -0.25	 51.5	 -1	 -3	 -1	 -1	 -4	 -2	 -2	 -3	 -1	 -3	 -2	 -2	 7	 -1	 -2	 -1	 -1	 -2	 -4	 -3	 -1	 -2	 -2	 -2	 -3	 -1	 -1	 -2	 -2	 -3	 -3	 -1	 -3	 -4	 8	 -1	 -1	 -4	 -3	 -3	 23.00	 23.00	 13.00	 13.00	 36.00	 2.22	 2.76	 30	 1	 0.0333333333333333	 0.220588235294118	 0.00735294117647059	 1
