-0.62	 3	 12.3	 0.151	 -0.13	 68.2	 -1	 -4	 2	 5	 -3	 -2	 0	 -3	 1	 -3	 -2	 0	 -1	 2	 0	 0	 -1	 -2	 -3	 -2	 0	 0	 2	 -1	 0	 1	 0	 -2	 2	 -2	 -1	 -1	 -1	 0	 -1	 2	 -1	 1	 -1	 0	 22.00	 21.00	 24.00	 23.00	 45.00	 2.90	 3.74	 51	 30	 0.588235294117647	 0.262886597938144	 0.154639175257732	 -1
-0.72	 3	 13	 0.105	 -0.38	 60.6	 -2	 -3	 6	 2	 -3	 -1	 -1	 -3	 -1	 -4	 -3	 1	 -1	 0	 -2	 0	 -1	 -3	 -4	 -3	 -3	 -2	 3	 1	 -4	 -2	 -2	 -1	 1	 -2	 -3	 -2	 -2	 0	 -4	 1	 1	 -2	 6	 -3	 24.00	 22.00	 26.00	 24.00	 48.00	 2.76	 2.86	 35	 27	 0.771428571428571	 0.214723926380368	 0.165644171779141	 1
-0.72	 3	 13	 0.105	 -0.38	 60.6	 -2	 -3	 6	 2	 -3	 -1	 -1	 -3	 -1	 -4	 -3	 1	 -1	 0	 -2	 0	 -1	 -3	 -4	 -3	 -2	 -2	 1	 6	 -3	 0	 1	 -1	 -1	 -3	 -4	 -1	 -3	 -3	 -1	 0	 -1	 -4	 -3	 -3	 8.00	 12.00	 22.00	 26.00	 34.00	 1.87	 2.72	 124	 42	 0.338709677419355	 0.760736196319018	 0.257668711656442	 -1
-0.64	 2	 11.6	 0.134	 0.12	 60.1	 -2	 -3	 1	 0	 -3	 0	 1	 -3	 0	 -3	 -2	 6	 -2	 0	 0	 1	 0	 -3	 -4	 -2	 0	 -1	 1	 1	 -1	 1	 0	 -1	 -1	 -1	 0	 0	 -1	 -1	 -1	 2	 1	 -2	 -1	 -1	 28.00	 23.00	 27.00	 22.00	 50.00	 4.42	 4.30	 125	 125	 1	 0.796178343949045	 0.796178343949045	 1
0.53	 -1.8	 4.9	 0.186	 0.4	 27.6	 -1	 -1	 -4	 -3	 0	 -4	 -3	 2	 -2	 4	 2	 -3	 -3	 -2	 -2	 -2	 -1	 1	 -2	 -1	 -1	 -2	 -3	 -4	 -1	 -2	 -3	 -4	 -3	 2	 4	 -2	 2	 0	 -3	 -2	 -1	 -2	 -1	 1	 16.00	 18.00	 14.00	 16.00	 32.00	 2.77	 3.09	 82	 65	 0.792682926829268	 0.5	 0.396341463414634	 1
-1.76	 3	 10.5	 0.291	 0.27	 94.7	 -1	 -3	 -2	 0	 -3	 -2	 0	 -3	 2	 -2	 -1	 0	 -2	 1	 5	 -1	 -1	 -3	 -3	 -2	 -3	 4	 0	 -3	 -5	 1	 0	 -4	 -3	 -5	 -5	 6	 -3	 -5	 -4	 -1	 1	 -5	 -4	 -4	 23.00	 27.00	 24.00	 28.00	 51.00	 3.17	 4.21	 104	 64	 0.615384615384615	 0.419354838709677	 0.258064516129032	 1
-0.62	 3	 12.3	 0.151	 -0.13	 68.2	 -1	 -4	 2	 5	 -3	 -2	 0	 -3	 1	 -3	 -2	 0	 -1	 2	 0	 0	 -1	 -2	 -3	 -2	 -2	 -1	 0	 -2	 0	 -1	 3	 -3	 4	 0	 0	 1	 -2	 0	 -3	 -1	 1	 1	 2	 -1	 14.00	 10.00	 29.00	 25.00	 39.00	 3.02	 3.59	 58	 30	 0.517241379310345	 0.298969072164948	 0.154639175257732	 -1
-0.72	 3	 13	 0.105	 -0.38	 60.6	 -2	 -3	 6	 2	 -3	 -1	 -1	 -3	 -1	 -4	 -3	 1	 -1	 0	 -2	 0	 -1	 -3	 -4	 -3	 -1	 0	 2	 1	 -2	 2	 0	 -3	 -1	 -2	 0	 -1	 0	 0	 -3	 -2	 3	 -4	 -2	 0	 26.00	 29.00	 21.00	 24.00	 50.00	 5.84	 6.42	 30	 23	 0.766666666666667	 0.184049079754601	 0.141104294478528	 -1
-0.18	 -0.4	 8.6	 0.108	 -0.18	 45	 0	 -1	 -1	 -1	 -2	 -2	 -2	 -1	 -1	 -1	 -1	 0	 -1	 -1	 -1	 1	 5	 0	 -2	 -2	 -1	 -1	 0	 0	 -1	 0	 -1	 -2	 2	 1	 0	 -1	 -1	 0	 0	 1	 1	 -2	 1	 0	 33.00	 33.00	 26.00	 26.00	 59.00	 5.72	 4.96	 57	 24	 0.421052631578947	 0.401408450704225	 0.169014084507042	 -1
0.16	 0	 9	 0	 -0.07	 24.5	 0	 -3	 -1	 -2	 -3	 6	 -2	 -4	 -2	 -4	 -3	 0	 -2	 -2	 -2	 0	 -2	 -3	 -2	 -3	 0	 -2	 0	 -2	 -4	 -3	 -2	 1	 1	 -1	 -2	 -3	 1	 5	 3	 0	 -1	 2	 0	 -2	 29.00	 28.00	 20.00	 19.00	 48.00	 3.32	 5.12	 62	 58	 0.935483870967742	 0.329787234042553	 0.308510638297872	 -1
-0.18	 -0.4	 8.6	 0.108	 -0.18	 45	 0	 -1	 -1	 -1	 -2	 -2	 -2	 -1	 -1	 -1	 -1	 0	 -1	 -1	 -1	 1	 5	 0	 -2	 -2	 0	 -1	 0	 -1	 -2	 0	 -1	 -1	 -2	 -2	 -2	 1	 -2	 -3	 -1	 4	 4	 -3	 -2	 -1	 29.00	 29.00	 27.00	 27.00	 56.00	 30.73	 30.70	 144	 144	 1	 1.01408450704225	 1.01408450704225	 1
0.54	 -1.5	 5.9	 0.14	 0.27	 23.7	 0	 -1	 -3	 -2	 -1	 -3	 -3	 3	 -2	 1	 1	 -3	 -2	 -2	 -3	 -2	 0	 4	 -3	 -1	 0	 -3	 -3	 -3	 -1	 -2	 -3	 -3	 -3	 3	 1	 -3	 1	 -1	 -3	 -2	 0	 -3	 -1	 4	 24.00	 23.00	 13.00	 12.00	 36.00	 4.63	 5.15	 81	 81	 1	 0.570422535211268	 0.570422535211268	 1
-0.72	 3	 13	 0.105	 -0.38	 60.6	 -2	 -3	 6	 2	 -3	 -1	 -1	 -3	 -1	 -4	 -3	 1	 -1	 0	 -2	 0	 -1	 -3	 -4	 -3	 -1	 1	 0	 1	 -3	 0	 1	 -2	 3	 -1	 -1	 1	 -2	 -1	 1	 1	 -1	 -3	 2	 -1	 23.00	 27.00	 9.00	 13.00	 36.00	 2.27	 2.00	 75	 5	 0.0666666666666667	 0.460122699386503	 0.0306748466257669	 1
-1.76	 3	 10.5	 0.291	 0.27	 94.7	 -1	 -3	 -2	 0	 -3	 -2	 0	 -3	 2	 -2	 -1	 0	 -2	 1	 5	 -1	 -1	 -3	 -3	 -2	 -1	 5	 0	 -2	 -3	 1	 0	 -2	 0	 -3	 -2	 2	 -1	 -3	 -2	 -1	 -1	 -3	 -2	 -3	 20.00	 13.00	 19.00	 12.00	 32.00	 3.05	 2.54	 214	 170	 0.794392523364486	 0.862903225806452	 0.685483870967742	 1
0.16	 0	 9	 0	 -0.07	 24.5	 0	 -3	 -1	 -2	 -3	 6	 -2	 -4	 -2	 -4	 -3	 0	 -2	 -2	 -2	 0	 -2	 -3	 -2	 -3	 -1	 3	 0	 0	 -3	 1	 3	 3	 -1	 -4	 -3	 1	 -2	 -3	 -2	 0	 -1	 -3	 -2	 -3	 16.00	 11.00	 18.00	 13.00	 29.00	 2.40	 2.00	 29	 11	 0.379310344827586	 0.345238095238095	 0.130952380952381	 -1
0.53	 -1.8	 4.9	 0.186	 0.4	 27.6	 -1	 -1	 -4	 -3	 0	 -4	 -3	 2	 -2	 4	 2	 -3	 -3	 -2	 -2	 -2	 -1	 1	 -2	 -1	 -1	 -2	 -3	 -4	 -1	 -2	 -3	 -4	 -3	 2	 4	 -2	 2	 0	 -3	 -2	 -1	 -2	 -1	 1	 28.00	 23.00	 13.00	 8.00	 36.00	 3.62	 3.17	 121	 94	 0.776859504132231	 0.73780487804878	 0.573170731707317	 -1
0.37	 -3.4	 5.4	 0.409	 0.83	 34.7	 -3	 -2	 -4	 -3	 1	 -2	 -2	 -3	 -3	 -2	 -1	 -4	 -4	 -2	 -3	 -3	 -2	 -3	 11	 2	 0	 1	 2	 -1	 -1	 -1	 -1	 -1	 0	 -1	 -1	 -1	 -1	 1	 -1	 1	 -1	 2	 4	 -1	 24.00	 28.00	 26.00	 30.00	 54.00	 6.67	 6.33	 19	 19	 1	 0.0837004405286344	 0.0837004405286344	 1
0.02	 -2.3	 6.2	 0.298	 0.66	 55.2	 -2	 -2	 -3	 -2	 3	 -3	 2	 -1	 -2	 -1	 -1	 -2	 -3	 -1	 -2	 -2	 -2	 -1	 2	 7	 -1	 -1	 1	 -2	 -4	 -2	 -2	 1	 -1	 -2	 -1	 -3	 -1	 1	 1	 1	 0	 2	 4	 -2	 25.00	 22.00	 28.00	 25.00	 50.00	 8.72	 8.77	 182	 155	 0.851648351648352	 0.81981981981982	 0.698198198198198	 1
-1.1	 3	 11.3	 0.219	 -0.36	 103	 -1	 -3	 -1	 1	 -3	 -2	 -1	 -3	 5	 -2	 -1	 0	 -1	 1	 2	 0	 -1	 -2	 -3	 -2	 -1	 4	 0	 -1	 -3	 1	 0	 -2	 -1	 -3	 -2	 4	 -1	 -3	 -1	 0	 -1	 -3	 -2	 -2	 14.00	 18.00	 19.00	 23.00	 37.00	 2.16	 2.00	 121	 58	 0.479338842975207	 0.590243902439024	 0.282926829268293	 -1
-0.64	 2	 11.6	 0.134	 0.12	 60.1	 -2	 -3	 1	 0	 -3	 0	 1	 -3	 0	 -3	 -2	 6	 -2	 0	 0	 1	 0	 -3	 -4	 -2	 -1	 -2	 4	 2	 -2	 -1	 -1	 1	 -1	 -2	 -2	 -1	 -2	 -2	 -2	 1	 -1	 6	 -1	 0	 20.00	 17.00	 17.00	 14.00	 34.00	 1.82	 2.00	 75	 53	 0.706666666666667	 0.477707006369427	 0.337579617834395	 -1
-0.72	 3	 13	 0.105	 -0.38	 60.6	 -2	 -3	 6	 2	 -3	 -1	 -1	 -3	 -1	 -4	 -3	 1	 -1	 0	 -2	 0	 -1	 -3	 -4	 -3	 -3	 1	 -2	 3	 -5	 2	 4	 -4	 0	 -1	 -4	 2	 -2	 -5	 -3	 -1	 -1	 -5	 -4	 -4	 15.00	 9.00	 31.00	 25.00	 40.00	 1.86	 2.00	 75	 1	 0.0133333333333333	 0.460122699386503	 0.00613496932515337	 -1
0.53	 -1.8	 4.9	 0.186	 0.4	 27.6	 -1	 -1	 -4	 -3	 0	 -4	 -3	 2	 -2	 4	 2	 -3	 -3	 -2	 -2	 -2	 -1	 1	 -2	 -1	 -2	 -2	 -2	 1	 -2	 -2	 -2	 -3	 -1	 0	 3	 -2	 0	 0	 3	 -2	 -1	 -1	 2	 0	 16.00	 18.00	 17.00	 19.00	 35.00	 2.84	 2.97	 34	 13	 0.382352941176471	 0.207317073170732	 0.0792682926829268	 1
-1.76	 3	 10.5	 0.291	 0.27	 94.7	 -1	 -3	 -2	 0	 -3	 -2	 0	 -3	 2	 -2	 -1	 0	 -2	 1	 5	 -1	 -1	 -3	 -3	 -2	 -1	 4	 -1	 -1	 -3	 3	 1	 0	 1	 -3	 -1	 2	 -2	 -3	 -2	 -1	 -2	 1	 -1	 -2	 19.00	 19.00	 18.00	 18.00	 37.00	 2.01	 2.00	 161	 126	 0.782608695652174	 0.649193548387097	 0.508064516129032	 -1
0.53	 -1.8	 4.9	 0.186	 0.4	 27.6	 -1	 -1	 -4	 -3	 0	 -4	 -3	 2	 -2	 4	 2	 -3	 -3	 -2	 -2	 -2	 -1	 1	 -2	 -1	 -1	 -1	 -2	 -1	 -2	 0	 2	 -3	 -2	 1	 3	 -1	 3	 0	 -2	 -1	 -1	 -2	 -1	 0	 10.00	 8.00	 28.00	 26.00	 36.00	 3.36	 3.94	 80	 53	 0.6625	 0.48780487804878	 0.323170731707317	 -1
0.73	 -1.8	 5.2	 0.186	 0.44	 22.8	 -1	 -1	 -3	 -3	 0	 -4	 -3	 4	 -3	 2	 1	 -3	 -3	 -3	 -3	 -2	 -1	 3	 -3	 -1	 -1	 -3	 -2	 -2	 -2	 -2	 -3	 -3	 0	 3	 2	 -2	 0	 2	 -1	 1	 -1	 -3	 -1	 2	 29.00	 31.00	 18.00	 20.00	 49.00	 4.19	 3.78	 21	 19	 0.904761904761905	 0.124260355029586	 0.112426035502959	 -1
-0.69	 0.2	 10.5	 0.18	 -0.11	 68.7	 -1	 -3	 0	 2	 -3	 -2	 0	 -3	 1	 -2	 0	 0	 -1	 5	 1	 0	 -1	 -2	 -2	 -1	 0	 2	 0	 1	 -3	 1	 0	 -2	 1	 -3	 -3	 2	 -2	 -3	 3	 0	 0	 -3	 -1	 -3	 7.00	 10.00	 22.00	 25.00	 32.00	 1.79	 2.00	 140	 36	 0.257142857142857	 0.707070707070707	 0.181818181818182	 -1
-1.1	 3	 11.3	 0.219	 -0.36	 103	 -1	 -3	 -1	 1	 -3	 -2	 -1	 -3	 5	 -2	 -1	 0	 -1	 1	 2	 0	 -1	 -2	 -3	 -2	 0	 1	 2	 0	 -3	 2	 0	 -1	 0	 -4	 -2	 -1	 0	 -2	 -3	 3	 -2	 1	 -1	 -1	 24.00	 23.00	 24.00	 23.00	 47.00	 2.61	 3.49	 96	 52	 0.541666666666667	 0.468292682926829	 0.253658536585366	 -1
0.02	 -2.3	 6.2	 0.298	 0.66	 55.2	 -2	 -2	 -3	 -2	 3	 -3	 2	 -1	 -2	 -1	 -1	 -2	 -3	 -1	 -2	 -2	 -2	 -1	 2	 7	 0	 0	 -1	 0	 -1	 -3	 -3	 0	 0	 -3	 -3	 -2	 0	 1	 -1	 0	 0	 5	 6	 -2	 25.00	 22.00	 31.00	 28.00	 53.00	 6.46	 6.00	 78	 78	 1	 0.351351351351351	 0.351351351351351	 1
-0.26	 0.3	 9.2	 0.062	 -0.33	 42	 1	 -1	 0	 0	 -2	 0	 -1	 -2	 0	 -2	 -1	 1	 -1	 0	 -1	 4	 1	 -2	 -3	 -2	 0	 -1	 0	 0	 -3	 1	 -1	 0	 4	 -1	 -3	 1	 -3	 1	 0	 2	 -1	 -3	 1	 -2	 30.00	 28.00	 21.00	 19.00	 49.00	 2.69	 2.34	 41	 31	 0.75609756097561	 0.315384615384615	 0.238461538461538	 -1
0.73	 -1.8	 5.2	 0.186	 0.44	 22.8	 -1	 -1	 -3	 -3	 0	 -4	 -3	 4	 -3	 2	 1	 -3	 -3	 -3	 -3	 -2	 -1	 3	 -3	 -1	 -1	 -3	 -3	 -3	 -1	 -3	 -3	 -4	 -3	 4	 2	 -3	 1	 0	 -3	 -3	 -1	 -3	 -1	 2	 30.00	 35.00	 21.00	 26.00	 56.00	 6.88	 6.74	 11	 11	 1	 0.0650887573964497	 0.0650887573964497	 -1
-0.62	 3	 12.3	 0.151	 -0.13	 68.2	 -1	 -4	 2	 5	 -3	 -2	 0	 -3	 1	 -3	 -2	 0	 -1	 2	 0	 0	 -1	 -2	 -3	 -2	 -1	 0	 0	 1	 -4	 2	 5	 -2	 0	 -3	 -3	 1	 -2	 -3	 -1	 0	 -1	 -3	 -2	 -2	 21.00	 28.00	 24.00	 31.00	 52.00	 5.16	 5.71	 70	 69	 0.985714285714286	 0.360824742268041	 0.355670103092784	 1
-0.62	 3	 12.3	 0.151	 -0.13	 68.2	 -1	 -4	 2	 5	 -3	 -2	 0	 -3	 1	 -3	 -2	 0	 -1	 2	 0	 0	 -1	 -2	 -3	 -2	 0	 -1	 2	 3	 -3	 -1	 2	 -2	 -2	 -3	 -3	 1	 -3	 -2	 -3	 3	 0	 -4	 1	 -2	 23.00	 27.00	 21.00	 25.00	 48.00	 2.03	 2.36	 67	 25	 0.373134328358209	 0.345360824742268	 0.128865979381443	 -1
