0.952226	0.047774
0.001524	0.998476
0.924069	0.075931
0.339705	0.660295
0.999071	0.000929
0.000257	0.999743
0.130492	0.869508
0.999413	0.000587
0.006773	0.993227
0.001480	0.998520
0.965055	0.034945
0.999683	0.000317
0.177993	0.822007
0.187698	0.812302
0.001239	0.998761
0.999674	0.000326
0.991409	0.008591
0.999959	0.000041
0.018241	0.981759
0.998662	0.001338
0.000069	0.999931
0.976162	0.023838
0.730834	0.269166
0.966363	0.033637
0.410419	0.589581
0.022964	0.977036
0.956449	0.043551
0.005285	0.994715
0.049423	0.950577
0.025337	0.974663
0.000667	0.999333
