0.001113	0.998887
0.999674	0.000326
0.000333	0.999667
0.534218	0.465782
0.953663	0.046337
0.998152	0.001848
0.106899	0.893101
0.301530	0.698470
0.774372	0.225628
0.994447	0.005553
0.551850	0.448150
0.001444	0.998556
0.055127	0.944873
0.001498	0.998502
0.843934	0.156066
0.999800	0.000200
0.233781	0.766219
0.965584	0.034416
0.015364	0.984636
0.002722	0.997278
0.940388	0.059612
0.003328	0.996672
0.999782	0.000218
0.705304	0.294696
0.765212	0.234788
0.001441	0.998559
0.999805	0.000195
0.012365	0.987635
0.259282	0.740718
0.984396	0.015604
0.995532	0.004468
