0.003450	0.996550
0.872519	0.127481
0.980106	0.019894
0.177641	0.822359
0.986886	0.013114
0.009495	0.990505
0.407982	0.592018
0.734360	0.265640
0.542459	0.457541
0.109187	0.890813
0.000111	0.999889
0.712754	0.287246
0.224355	0.775645
0.393983	0.606017
0.761779	0.238221
0.998292	0.001708
0.994986	0.005014
0.005082	0.994918
0.908890	0.091110
0.998072	0.001928
0.023895	0.976105
0.999577	0.000423
0.996707	0.003293
0.765746	0.234254
0.919703	0.080297
0.181548	0.818452
0.475185	0.524815
0.000091	0.999909
0.046049	0.953951
0.518236	0.481764
0.450995	0.549005
