0.704690	0.295310
0.974058	0.025942
0.461400	0.538600
0.997910	0.002090
0.999951	0.000049
0.392413	0.607587
0.990198	0.009802
0.663708	0.336292
0.076979	0.923021
0.319276	0.680724
0.821783	0.178217
0.971027	0.028973
0.999257	0.000743
0.980720	0.019280
0.999198	0.000802
0.138797	0.861203
0.001961	0.998039
0.001977	0.998023
0.416616	0.583384
0.017152	0.982848
0.222553	0.777447
0.999893	0.000107
0.778534	0.221466
0.005833	0.994167
0.976460	0.023540
0.857810	0.142190
0.999536	0.000464
0.874060	0.125940
0.999780	0.000220
0.003459	0.996541
0.993037	0.006963
