0.395870	0.604130
0.670133	0.329867
0.620266	0.379734
0.477761	0.522239
0.685739	0.314261
0.660618	0.339382
0.393135	0.606865
0.181128	0.818872
0.776820	0.223180
0.614393	0.385607
0.271983	0.728017
0.656587	0.343413
0.749567	0.250433
0.226910	0.773090
0.647570	0.352430
0.336411	0.663589
0.209767	0.790233
0.566371	0.433629
0.657764	0.342236
0.687086	0.312914
0.481292	0.518708
0.510815	0.489185
0.641697	0.358303
0.516944	0.483056
0.813116	0.186884
0.698473	0.301527
0.482266	0.517734
0.176646	0.823354
0.666852	0.333148
0.453207	0.546793
0.639873	0.360127
0.361219	0.638781
