0.607029	0.392971
0.353855	0.646145
0.415906	0.584094
0.680577	0.319423
0.439682	0.560318
0.622822	0.377178
0.519902	0.480098
0.443694	0.556306
0.324537	0.675463
0.519861	0.480139
0.657685	0.342315
0.486426	0.513574
0.350718	0.649282
0.474910	0.525090
0.587815	0.412185
0.475971	0.524029
0.587805	0.412195
0.486431	0.513569
0.559782	0.440218
0.533237	0.466763
0.381832	0.618168
0.387740	0.612260
0.351696	0.648304
0.527446	0.472554
0.545549	0.454451
0.388845	0.611155
0.524290	0.475710
0.561529	0.438471
0.656311	0.343689
0.608352	0.391648
0.420703	0.579297
