0.806241	0.193759
0.160599	0.839401
0.265629	0.734371
0.753137	0.246863
0.316005	0.683995
0.469956	0.530044
0.714548	0.285452
0.614859	0.385141
0.619999	0.380001
0.787303	0.212697
0.829377	0.170623
0.593390	0.406610
0.287196	0.712804
0.494431	0.505569
0.854253	0.145747
0.253688	0.746312
0.628077	0.371923
0.572647	0.427353
0.767250	0.232750
0.740826	0.259174
0.769244	0.230756
0.241912	0.758088
0.752592	0.247408
0.391045	0.608955
0.257316	0.742684
0.700808	0.299192
0.320437	0.679563
0.579190	0.420810
0.666189	0.333811
0.224479	0.775521
0.825088	0.174912
0.361613	0.638387
