0.160257	0.839743
0.423152	0.576848
0.773300	0.226700
0.266769	0.733231
0.493353	0.506647
0.882783	0.117217
0.774054	0.225946
0.822696	0.177304
0.291877	0.708123
0.694363	0.305637
0.596651	0.403349
0.124672	0.875328
0.606636	0.393364
0.091987	0.908013
0.392393	0.607607
0.709853	0.290147
0.889797	0.110203
0.416343	0.583657
0.423236	0.576764
0.902889	0.097111
0.606798	0.393202
0.398652	0.601348
0.561199	0.438801
0.700477	0.299523
0.286772	0.713228
0.467677	0.532323
0.844909	0.155091
0.828152	0.171848
0.304349	0.695651
0.185862	0.814138
0.201198	0.798802
