0.999422	0.000578
0.005420	0.994580
0.001747	0.998253
0.999719	0.000281
0.058540	0.941460
0.001351	0.998649
0.973727	0.026273
0.198228	0.801772
0.469046	0.530954
0.811449	0.188551
0.965743	0.034257
0.343497	0.656503
0.994884	0.005116
0.000265	0.999735
0.999821	0.000179
0.999708	0.000292
0.197369	0.802631
0.521400	0.478600
0.033700	0.966300
0.977856	0.022144
0.001827	0.998173
0.142111	0.857889
0.922194	0.077806
0.963034	0.036966
0.040774	0.959226
0.987153	0.012847
0.012329	0.987671
0.555212	0.444788
0.881536	0.118464
0.996532	0.003468
0.002282	0.997718
