0.634381	0.365619
0.836816	0.163184
0.067504	0.932496
0.441345	0.558655
0.781648	0.218352
0.998595	0.001405
0.099758	0.900242
0.857846	0.142154
0.026123	0.973877
0.968782	0.031218
0.949013	0.050987
0.002693	0.997307
0.010431	0.989569
0.997773	0.002227
0.003628	0.996372
0.002976	0.997024
0.999114	0.000886
0.005598	0.994402
0.000414	0.999586
0.964642	0.035358
0.999780	0.000220
0.009139	0.990861
0.025952	0.974048
0.996856	0.003144
0.852260	0.147740
0.998503	0.001497
0.959122	0.040878
0.994107	0.005893
0.998922	0.001078
0.857001	0.142999
0.835314	0.164686
0.232987	0.767013
