0.986568	0.013432
0.996167	0.003833
0.207042	0.792958
0.976865	0.023135
0.999447	0.000553
0.999338	0.000662
0.999492	0.000508
0.090062	0.909938
0.003784	0.996216
0.466942	0.533058
0.005759	0.994241
0.055233	0.944767
0.557972	0.442028
0.000892	0.999108
0.069517	0.930483
0.477716	0.522284
0.006670	0.993330
0.082611	0.917389
0.002083	0.997917
0.969989	0.030011
0.139188	0.860812
0.081454	0.918546
0.967813	0.032187
0.993085	0.006915
0.998254	0.001746
0.112538	0.887462
0.048183	0.951817
0.000265	0.999735
0.999851	0.000149
0.000082	0.999918
0.975986	0.024014
0.000433	0.999567
