-1.1	 3	 11.3	 0.219	 -0.36	 103	 -1	 -3	 -1	 1	 -3	 -2	 -1	 -3	 5	 -2	 -1	 0	 -1	 1	 2	 0	 -1	 -2	 -3	 -2	 -2	 4	 1	 -2	 -4	 0	 -1	 0	 0	 -4	 -1	 3	 1	 -1	 -4	 -1	 2	 -4	 0	 -3	 39.00	 33.00	 31.00	 25.00	 64.00	 6.94	 6.62	 184	 180	 0.978260869565217	 0.897560975609756	 0.878048780487805	 1
-1.76	 3	 10.5	 0.291	 0.27	 94.7	 -1	 -3	 -2	 0	 -3	 -2	 0	 -3	 2	 -2	 -1	 0	 -2	 1	 5	 -1	 -1	 -3	 -3	 -2	 -3	 5	 -2	 0	 -5	 -1	 -2	 -2	 1	 -5	 -2	 4	 -3	 -2	 -4	 -3	 -3	 -4	 1	 -3	 25.00	 22.00	 29.00	 26.00	 51.00	 5.39	 7.95	 61	 39	 0.639344262295082	 0.245967741935484	 0.157258064516129	 -1
0.37	 -3.4	 5.4	 0.409	 0.83	 34.7	 -3	 -2	 -4	 -3	 1	 -2	 -2	 -3	 -3	 -2	 -1	 -4	 -4	 -2	 -3	 -3	 -2	 -3	 11	 2	 -1	 -1	 -2	 -1	 -3	 1	 -1	 -1	 0	 0	 -1	 0	 -1	 0	 -3	 0	 1	 7	 1	 0	 13.00	 15.00	 10.00	 12.00	 25.00	 1.98	 2.33	 99	 4	 0.0404040404040404	 0.436123348017621	 0.0176211453744493	 -1
-0.26	 0.3	 9.2	 0.062	 -0.33	 42	 1	 -1	 0	 0	 -2	 0	 -1	 -2	 0	 -2	 -1	 1	 -1	 0	 -1	 4	 1	 -2	 -3	 -2	 1	 -1	 3	 0	 -1	 0	 0	 0	 0	 -3	 -3	 0	 -2	 -3	 -1	 4	 1	 -3	 -2	 -2	 7.00	 7.00	 27.00	 27.00	 34.00	 2.27	 2.00	 109	 33	 0.302752293577982	 0.838461538461538	 0.253846153846154	 -1
0.54	 -1.5	 5.9	 0.14	 0.27	 23.7	 0	 -1	 -3	 -2	 -1	 -3	 -3	 3	 -2	 1	 1	 -3	 -2	 -2	 -3	 -2	 0	 4	 -3	 -1	 -1	 -1	 -1	 -1	 1	 -1	 -1	 -2	 -1	 2	 1	 0	 0	 -2	 0	 0	 2	 -3	 -2	 1	 20.00	 22.00	 27.00	 29.00	 49.00	 3.37	 3.74	 70	 40	 0.571428571428571	 0.492957746478873	 0.28169014084507	 -1
0.37	 -3.4	 5.4	 0.409	 0.83	 34.7	 -3	 -2	 -4	 -3	 1	 -2	 -2	 -3	 -3	 -2	 -1	 -4	 -4	 -2	 -3	 -3	 -2	 -3	 11	 2	 -3	 -3	 -4	 -5	 -3	 -2	 -3	 -3	 -3	 -3	 -2	 -3	 -2	 1	 -4	 -3	 -3	 12	 2	 -3	 18.00	 20.00	 12.00	 14.00	 32.00	 2.21	 2.00	 192	 138	 0.71875	 0.845814977973568	 0.607929515418502	 1
-0.72	 3	 13	 0.105	 -0.38	 60.6	 -2	 -3	 6	 2	 -3	 -1	 -1	 -3	 -1	 -4	 -3	 1	 -1	 0	 -2	 0	 -1	 -3	 -4	 -3	 -1	 -1	 0	 4	 -4	 1	 4	 -2	 -1	 -3	 -3	 0	 -3	 -4	 -1	 0	 -1	 -4	 -3	 -3	 11.00	 14.00	 24.00	 27.00	 38.00	 2.10	 2.69	 89	 20	 0.224719101123595	 0.54601226993865	 0.122699386503067	 -1
-0.64	 2	 11.6	 0.134	 0.12	 60.1	 -2	 -3	 1	 0	 -3	 0	 1	 -3	 0	 -3	 -2	 6	 -2	 0	 0	 1	 0	 -3	 -4	 -2	 -1	 -1	 3	 -1	 -2	 -1	 -3	 -1	 1	 -3	 -4	 -3	 -4	 1	 -2	 1	 0	 5	 6	 -3	 26.00	 24.00	 31.00	 29.00	 55.00	 5.88	 5.85	 35	 35	 1	 0.222929936305732	 0.222929936305732	 1
0.16	 0	 9	 0	 -0.07	 24.5	 0	 -3	 -1	 -2	 -3	 6	 -2	 -4	 -2	 -4	 -3	 0	 -2	 -2	 -2	 0	 -2	 -3	 -2	 -3	 0	 -2	 0	 -2	 -4	 -3	 -2	 1	 1	 -1	 -2	 -3	 1	 5	 3	 0	 -1	 2	 0	 -2	 29.00	 28.00	 20.00	 19.00	 48.00	 3.32	 5.12	 62	 58	 0.935483870967742	 0.329787234042553	 0.308510638297872	 -1
-1.1	 3	 11.3	 0.219	 -0.36	 103	 -1	 -3	 -1	 1	 -3	 -2	 -1	 -3	 5	 -2	 -1	 0	 -1	 1	 2	 0	 -1	 -2	 -3	 -2	 -2	 4	 -1	 -2	 -4	 1	 -1	 -3	 0	 -4	 -3	 6	 -3	 -4	 -3	 0	 0	 -4	 -3	 -3	 26.00	 23.00	 27.00	 24.00	 50.00	 2.75	 2.70	 100	 82	 0.82	 0.48780487804878	 0.4	 1
-0.72	 3	 13	 0.105	 -0.38	 60.6	 -2	 -3	 6	 2	 -3	 -1	 -1	 -3	 -1	 -4	 -3	 1	 -1	 0	 -2	 0	 -1	 -3	 -4	 -3	 -4	 2	 -1	 0	 -6	 2	 -1	 -5	 9	 -6	 -5	 1	 -4	 -2	 -5	 -1	 -4	 -5	 0	 -6	 28.00	 28.00	 28.00	 28.00	 56.00	 8.25	 8.62	 77	 71	 0.922077922077922	 0.47239263803681	 0.43558282208589	 -1
0.61	 -2.5	 5.2	 0.29	 0.82	 25.5	 -2	 -2	 -3	 -3	 6	 -3	 -1	 0	 -3	 0	 0	 -3	 -4	 -3	 -3	 -2	 -2	 -1	 1	 3	 -2	 -3	 -3	 -4	 -3	 -4	 -4	 -3	 -1	 0	 0	 -3	 0	 7	 -4	 -3	 -2	 1	 3	 -1	 26.00	 25.00	 20.00	 19.00	 45.00	 5.04	 4.50	 179	 155	 0.865921787709497	 0.908629441624365	 0.786802030456853	 1
-1.76	 3	 10.5	 0.291	 0.27	 94.7	 -1	 -3	 -2	 0	 -3	 -2	 0	 -3	 2	 -2	 -1	 0	 -2	 1	 5	 -1	 -1	 -3	 -3	 -2	 -1	 5	 0	 -2	 -3	 1	 0	 -2	 0	 -3	 -2	 2	 -1	 -3	 -2	 -1	 -1	 -3	 -2	 -3	 28.00	 28.00	 22.00	 22.00	 50.00	 8.51	 8.92	 3	 3	 1	 0.0120967741935484	 0.0120967741935484	 1
-1.1	 3	 11.3	 0.219	 -0.36	 103	 -1	 -3	 -1	 1	 -3	 -2	 -1	 -3	 5	 -2	 -1	 0	 -1	 1	 2	 0	 -1	 -2	 -3	 -2	 -1	 1	 -1	 -1	 -3	 0	 0	 -2	 -1	 2	 -1	 4	 0	 -2	 -2	 -1	 -1	 -3	 -2	 0	 15.00	 11.00	 27.00	 23.00	 38.00	 2.78	 2.74	 110	 3	 0.0272727272727273	 0.536585365853659	 0.0146341463414634	 -1
-0.69	 0.2	 10.5	 0.18	 -0.11	 68.7	 -1	 -3	 0	 2	 -3	 -2	 0	 -3	 1	 -2	 0	 0	 -1	 5	 1	 0	 -1	 -2	 -2	 -1	 0	 1	 0	 1	 -3	 4	 1	 0	 -1	 -2	 0	 -1	 0	 -2	 -1	 0	 0	 0	 -2	 -2	 12.00	 16.00	 19.00	 23.00	 35.00	 2.46	 2.61	 107	 32	 0.299065420560748	 0.54040404040404	 0.161616161616162	 -1
-0.72	 3	 13	 0.105	 -0.38	 60.6	 -2	 -3	 6	 2	 -3	 -1	 -1	 -3	 -1	 -4	 -3	 1	 -1	 0	 -2	 0	 -1	 -3	 -4	 -3	 -2	 -2	 1	 6	 -4	 0	 2	 -1	 -1	 -3	 -4	 -1	 -3	 -4	 -2	 0	 -1	 -5	 -3	 -3	 19.00	 22.00	 27.00	 30.00	 49.00	 5.66	 5.28	 53	 45	 0.849056603773585	 0.325153374233129	 0.276073619631902	 1
-1.1	 3	 11.3	 0.219	 -0.36	 103	 -1	 -3	 -1	 1	 -3	 -2	 -1	 -3	 5	 -2	 -1	 0	 -1	 1	 2	 0	 -1	 -2	 -3	 -2	 -1	 2	 -1	 -1	 -3	 1	 0	 -2	 -1	 0	 -1	 4	 -1	 -2	 -1	 -1	 -1	 -3	 -2	 -1	 24.00	 20.00	 26.00	 22.00	 46.00	 3.02	 2.93	 36	 25	 0.694444444444444	 0.175609756097561	 0.121951219512195	 -1
-1.1	 3	 11.3	 0.219	 -0.36	 103	 -1	 -3	 -1	 1	 -3	 -2	 -1	 -3	 5	 -2	 -1	 0	 -1	 1	 2	 0	 -1	 -2	 -3	 -2	 -1	 4	 0	 -1	 -3	 1	 0	 -2	 -1	 -3	 -2	 4	 -1	 -3	 -1	 0	 -1	 -3	 -2	 -2	 14.00	 18.00	 19.00	 23.00	 37.00	 2.16	 2.00	 121	 58	 0.479338842975207	 0.590243902439024	 0.282926829268293	 -1
-0.18	 -0.4	 8.6	 0.108	 -0.18	 45	 0	 -1	 -1	 -1	 -2	 -2	 -2	 -1	 -1	 -1	 -1	 0	 -1	 -1	 -1	 1	 5	 0	 -2	 -2	 0	 -1	 -1	 -1	 -2	 -1	 -1	 3	 -2	 -1	 -2	 1	 -1	 -2	 -2	 0	 2	 -3	 -2	 0	 22.00	 16.00	 11.00	 5.00	 27.00	 2.29	 2.00	 38	 16	 0.421052631578947	 0.267605633802817	 0.112676056338028	 -1
0.02	 -2.3	 6.2	 0.298	 0.66	 55.2	 -2	 -2	 -3	 -2	 3	 -3	 2	 -1	 -2	 -1	 -1	 -2	 -3	 -1	 -2	 -2	 -2	 -1	 2	 7	 -2	 -2	 -2	 -3	 -3	 -2	 -2	 -3	 2	 -2	 -1	 -2	 -1	 3	 -3	 -2	 -2	 2	 7	 -1	 28.00	 28.00	 22.00	 22.00	 50.00	 5.35	 3.77	 98	 96	 0.979591836734694	 0.441441441441441	 0.432432432432432	 1
-1.76	 3	 10.5	 0.291	 0.27	 94.7	 -1	 -3	 -2	 0	 -3	 -2	 0	 -3	 2	 -2	 -1	 0	 -2	 1	 5	 -1	 -1	 -3	 -3	 -2	 -2	 2	 1	 0	 0	 0	 1	 -3	 0	 -1	 -2	 0	 -2	 -4	 -3	 1	 3	 -4	 -3	 1	 10.00	 5.00	 27.00	 22.00	 32.00	 2.10	 2.31	 168	 36	 0.214285714285714	 0.67741935483871	 0.145161290322581	 -1
0.53	 -1.8	 4.9	 0.186	 0.4	 27.6	 -1	 -1	 -4	 -3	 0	 -4	 -3	 2	 -2	 4	 2	 -3	 -3	 -2	 -2	 -2	 -1	 1	 -2	 -1	 -2	 -2	 -2	 1	 -2	 -2	 -2	 -3	 -1	 0	 3	 -2	 0	 0	 3	 -2	 -1	 -1	 2	 0	 16.00	 18.00	 17.00	 19.00	 35.00	 2.84	 2.97	 34	 13	 0.382352941176471	 0.207317073170732	 0.0792682926829268	 1
-0.69	 0.2	 10.5	 0.18	 -0.11	 68.7	 -1	 -3	 0	 2	 -3	 -2	 0	 -3	 1	 -2	 0	 0	 -1	 5	 1	 0	 -1	 -2	 -2	 -1	 -2	 1	 0	 -1	 -3	 1	 0	 -1	 3	 -2	 1	 2	 -1	 1	 -1	 -1	 -1	 -2	 3	 -2	 1.00	 12.00	 13.00	 24.00	 25.00	 1.79	 2.00	 193	 29	 0.150259067357513	 0.974747474747475	 0.146464646464646	 -1
0.61	 -2.5	 5.2	 0.29	 0.82	 25.5	 -2	 -2	 -3	 -3	 6	 -3	 -1	 0	 -3	 0	 0	 -3	 -4	 -3	 -3	 -2	 -2	 -1	 1	 3	 -2	 -3	 -3	 -4	 -2	 -3	 -3	 -3	 -1	 0	 0	 -3	 0	 6	 -4	 -2	 -2	 1	 3	 -1	 24.00	 20.00	 12.00	 8.00	 32.00	 2.45	 2.72	 110	 93	 0.845454545454545	 0.558375634517767	 0.472081218274112	 1
-1.76	 3	 10.5	 0.291	 0.27	 94.7	 -1	 -3	 -2	 0	 -3	 -2	 0	 -3	 2	 -2	 -1	 0	 -2	 1	 5	 -1	 -1	 -3	 -3	 -2	 -1	 1	 0	 1	 1	 0	 1	 -1	 1	 0	 -1	 1	 -1	 0	 -1	 1	 0	 -2	 0	 -1	 20.00	 26.00	 21.00	 27.00	 47.00	 2.23	 2.71	 120	 62	 0.516666666666667	 0.483870967741935	 0.25	 -1
0.37	 -3.4	 5.4	 0.409	 0.83	 34.7	 -3	 -2	 -4	 -3	 1	 -2	 -2	 -3	 -3	 -2	 -1	 -4	 -4	 -2	 -3	 -3	 -2	 -3	 11	 2	 -3	 -3	 -4	 -5	 -3	 -2	 -3	 -3	 -3	 -3	 -2	 -3	 -2	 1	 -4	 -3	 -3	 11	 2	 -3	 24.00	 21.00	 20.00	 17.00	 41.00	 4.28	 2.66	 97	 67	 0.690721649484536	 0.427312775330396	 0.295154185022026	 -1
0.02	 -2.3	 6.2	 0.298	 0.66	 55.2	 -2	 -2	 -3	 -2	 3	 -3	 2	 -1	 -2	 -1	 -1	 -2	 -3	 -1	 -2	 -2	 -2	 -1	 2	 7	 -1	 -1	 4	 0	 -3	 0	 0	 -2	 2	 -2	 -2	 0	 -2	 -1	 -2	 0	 0	 -1	 4	 -1	 15.00	 10.00	 20.00	 15.00	 30.00	 2.07	 2.00	 116	 89	 0.767241379310345	 0.522522522522523	 0.400900900900901	 -1
-0.72	 3	 13	 0.105	 -0.38	 60.6	 -2	 -3	 6	 2	 -3	 -1	 -1	 -3	 -1	 -4	 -3	 1	 -1	 0	 -2	 0	 -1	 -3	 -4	 -3	 -1	 -2	 1	 5	 -4	 0	 2	 2	 -1	 -4	 -4	 -1	 -3	 -4	 -2	 -1	 -1	 -4	 -3	 -3	 24.00	 25.00	 19.00	 20.00	 44.00	 5.12	 4.69	 29	 23	 0.793103448275862	 0.177914110429448	 0.141104294478528	 1
-0.72	 3	 13	 0.105	 -0.38	 60.6	 -2	 -3	 6	 2	 -3	 -1	 -1	 -3	 -1	 -4	 -3	 1	 -1	 0	 -2	 0	 -1	 -3	 -4	 -3	 0	 -1	 3	 2	 -2	 0	 0	 1	 0	 -3	 -2	 0	 -2	 -1	 -1	 1	 0	 0	 -1	 -2	 14.00	 16.00	 24.00	 26.00	 40.00	 5.12	 5.96	 89	 12	 0.134831460674157	 0.54601226993865	 0.0736196319018405	 1
0.54	 -1.5	 5.9	 0.14	 0.27	 23.7	 0	 -1	 -3	 -2	 -1	 -3	 -3	 3	 -2	 1	 1	 -3	 -2	 -2	 -3	 -2	 0	 4	 -3	 -1	 0	 -1	 -1	 -1	 -2	 1	 1	 -2	 -1	 0	 0	 -1	 0	 -2	 4	 -1	 0	 -2	 -2	 1	 16.00	 16.00	 15.00	 15.00	 31.00	 1.84	 2.16	 90	 34	 0.377777777777778	 0.633802816901408	 0.23943661971831	 1
0.02	 -2.3	 6.2	 0.298	 0.66	 55.2	 -2	 -2	 -3	 -2	 3	 -3	 2	 -1	 -2	 -1	 -1	 -2	 -3	 -1	 -2	 -2	 -2	 -1	 2	 7	 -1	 0	 -1	 0	 -3	 -1	 0	 1	 -1	 0	 -1	 -1	 -1	 1	 -1	 1	 -1	 2	 3	 -1	 11.00	 15.00	 27.00	 31.00	 42.00	 2.56	 3.37	 117	 57	 0.487179487179487	 0.527027027027027	 0.256756756756757	 -1
