0.958475	0.041525
0.883048	0.116952
0.109253	0.890747
0.995747	0.004253
0.999667	0.000333
0.894443	0.105557
0.138489	0.861511
0.998622	0.001378
0.999891	0.000109
0.962200	0.037800
0.010079	0.989921
0.884994	0.115006
0.999047	0.000953
0.000260	0.999740
0.972454	0.027546
0.027418	0.972582
0.001382	0.998618
0.994917	0.005083
0.000188	0.999812
0.065146	0.934854
0.000459	0.999541
0.587728	0.412272
0.981324	0.018676
0.000278	0.999722
0.992977	0.007023
0.515474	0.484526
0.853676	0.146324
0.966606	0.033394
0.988101	0.011899
0.850371	0.149629
0.999969	0.000031
0.998374	0.001626
