0.038377	0.961623
0.029631	0.970369
0.471405	0.528595
0.991666	0.008334
0.613180	0.386820
0.999438	0.000562
0.865123	0.134877
0.934081	0.065919
0.934756	0.065244
0.977958	0.022042
0.010561	0.989439
0.014038	0.985962
0.017667	0.982333
0.999661	0.000339
0.012001	0.987999
0.014851	0.985149
0.013421	0.986579
0.988902	0.011098
0.960883	0.039117
0.997073	0.002927
0.999170	0.000830
0.961427	0.038573
0.993157	0.006843
0.964587	0.035413
0.128430	0.871570
0.075264	0.924736
0.999574	0.000426
0.000558	0.999442
0.906970	0.093030
0.003198	0.996802
0.987691	0.012309
0.220216	0.779784
