0.992774	0.007226
0.894760	0.105240
0.018721	0.981279
0.991496	0.008504
0.500835	0.499165
0.000280	0.999720
0.992578	0.007422
0.000077	0.999923
0.802594	0.197406
0.894688	0.105312
0.944217	0.055783
0.972358	0.027642
0.001153	0.998847
0.627293	0.372707
0.985012	0.014988
0.155951	0.844049
0.004053	0.995947
0.173432	0.826568
0.991727	0.008273
0.909601	0.090399
0.833708	0.166292
0.920810	0.079190
0.998613	0.001387
0.498981	0.501019
0.498024	0.501976
0.001127	0.998873
0.000609	0.999391
0.999654	0.000346
0.857920	0.142080
0.002793	0.997207
0.021428	0.978572
