0.010349	0.989651
0.005188	0.994812
0.001216	0.998784
0.083360	0.916640
0.095504	0.904496
0.813561	0.186439
0.009248	0.990752
0.406531	0.593469
0.989553	0.010447
0.166483	0.833517
0.005371	0.994629
0.236801	0.763199
0.699995	0.300005
0.996071	0.003929
0.996996	0.003004
0.922091	0.077909
0.996393	0.003607
0.972721	0.027279
0.002286	0.997714
0.000693	0.999307
0.989810	0.010190
0.999742	0.000258
0.851154	0.148846
0.143873	0.856127
0.095915	0.904085
0.009160	0.990840
0.978805	0.021195
0.755831	0.244169
0.979994	0.020006
0.902922	0.097078
0.939298	0.060702
