0.999861	0.000139
0.971062	0.028938
0.001518	0.998482
0.009587	0.990413
0.961292	0.038708
0.002084	0.997916
0.000843	0.999157
0.985260	0.014740
0.981752	0.018248
0.994062	0.005938
0.040758	0.959242
0.110916	0.889084
0.017279	0.982721
0.885056	0.114944
0.999758	0.000242
0.988634	0.011366
0.111001	0.888999
0.952459	0.047541
0.841244	0.158756
0.002779	0.997221
0.016182	0.983818
0.968294	0.031706
0.909506	0.090494
0.454628	0.545372
0.019038	0.980962
0.000278	0.999722
0.047229	0.952771
0.981402	0.018598
0.003111	0.996889
0.960461	0.039539
0.149444	0.850556
0.067647	0.932353
