0.966660	0.033340
0.434702	0.565298
0.478030	0.521970
0.878091	0.121909
0.002095	0.997905
0.003715	0.996285
0.003888	0.996112
0.004439	0.995561
0.637407	0.362593
0.052833	0.947167
0.971335	0.028665
0.669241	0.330759
0.984270	0.015730
0.000079	0.999921
0.007888	0.992112
0.008538	0.991462
0.989600	0.010400
0.989309	0.010691
0.400153	0.599847
0.000539	0.999461
0.949991	0.050009
0.999382	0.000618
0.007245	0.992755
0.359163	0.640837
0.378398	0.621602
0.252982	0.747018
0.999393	0.000607
0.942815	0.057185
0.997989	0.002011
0.031770	0.968230
0.999331	0.000669
