0.999531	0.000469
0.040236	0.959764
0.112373	0.887627
0.999943	0.000057
0.772085	0.227915
0.962506	0.037494
0.974347	0.025653
0.064618	0.935382
0.996345	0.003655
0.015450	0.984550
0.816885	0.183115
0.257824	0.742176
0.994286	0.005714
0.759472	0.240528
0.583401	0.416599
0.999029	0.000971
0.989608	0.010392
0.283637	0.716363
0.038645	0.961355
0.997818	0.002182
0.208099	0.791901
0.869596	0.130404
0.010122	0.989878
0.588600	0.411400
0.007250	0.992750
0.626595	0.373405
0.004632	0.995368
0.107315	0.892685
0.116326	0.883674
0.680515	0.319485
0.993607	0.006393
