0.933449	0.066551
0.021176	0.978824
0.007649	0.992351
0.971298	0.028702
0.511993	0.488007
0.005909	0.994091
0.130835	0.869165
0.002416	0.997584
0.739777	0.260223
0.998577	0.001423
0.022709	0.977291
0.999305	0.000695
0.476112	0.523888
0.001122	0.998878
0.981654	0.018346
0.986360	0.013640
0.000997	0.999003
0.233077	0.766923
0.617382	0.382618
0.998803	0.001197
0.030255	0.969745
0.018795	0.981205
0.824089	0.175911
0.279776	0.720224
0.991920	0.008080
0.001284	0.998716
0.040906	0.959094
0.000412	0.999588
0.953503	0.046497
0.088459	0.911541
0.802574	0.197426
0.690177	0.309823
