0.023262	0.976738
0.974450	0.025550
0.022581	0.977419
0.009863	0.990137
0.511315	0.488685
0.609777	0.390223
0.961753	0.038247
0.000280	0.999720
0.635560	0.364440
0.048980	0.951020
0.992955	0.007045
0.522009	0.477991
0.995214	0.004786
0.875984	0.124016
0.997764	0.002236
0.023464	0.976536
0.962554	0.037446
0.971181	0.028819
0.291573	0.708427
0.998595	0.001405
0.995644	0.004356
0.753718	0.246282
0.674444	0.325556
0.000135	0.999865
0.000612	0.999388
0.471124	0.528876
0.710834	0.289166
0.014968	0.985032
0.045765	0.954235
0.998428	0.001572
0.728743	0.271257
