0.998480	0.001520
0.579419	0.420581
0.993924	0.006076
0.995434	0.004566
0.099814	0.900186
0.998476	0.001524
0.216663	0.783337
0.087462	0.912538
0.006047	0.993953
0.998232	0.001768
0.129895	0.870105
0.988335	0.011665
0.596620	0.403380
0.235308	0.764692
0.991467	0.008533
0.801023	0.198977
0.999758	0.000242
0.013853	0.986147
0.531859	0.468141
0.998765	0.001235
0.006574	0.993426
0.085981	0.914019
0.999726	0.000274
0.623351	0.376649
0.009009	0.990991
0.070765	0.929235
0.993765	0.006235
0.626265	0.373735
0.897638	0.102362
0.757293	0.242707
0.003764	0.996236
