0.002398	0.997602
0.336599	0.663401
0.020339	0.979661
0.000672	0.999328
0.876663	0.123337
0.231217	0.768783
0.979680	0.020320
0.997469	0.002531
0.984976	0.015024
0.045843	0.954157
0.928243	0.071757
0.000392	0.999608
0.647363	0.352637
0.904717	0.095283
0.892277	0.107723
0.636231	0.363769
0.999625	0.000375
0.003562	0.996438
0.005523	0.994477
0.044781	0.955219
0.001842	0.998158
0.011351	0.988649
0.805835	0.194165
0.002589	0.997411
0.897221	0.102779
0.000132	0.999868
0.055577	0.944423
0.769699	0.230301
0.463197	0.536803
0.997805	0.002195
0.996232	0.003768
