0.61	 -2.5	 5.2	 0.29	 0.82	 25.5	 -2	 -2	 -3	 -3	 6	 -3	 -1	 0	 -3	 0	 0	 -3	 -4	 -3	 -3	 -2	 -2	 -1	 1	 3	 -2	 -3	 -3	 -4	 -3	 -4	 -4	 -3	 -1	 0	 0	 -3	 0	 7	 -4	 -3	 -2	 1	 3	 -1	 26.00	 25.00	 20.00	 19.00	 45.00	 5.04	 4.50	 179	 155	 0.865921787709497	 0.908629441624365	 0.786802030456853	 1
-0.18	 -0.4	 8.6	 0.108	 -0.18	 45	 0	 -1	 -1	 -1	 -2	 -2	 -2	 -1	 -1	 -1	 -1	 0	 -1	 -1	 -1	 1	 5	 0	 -2	 -2	 -1	 -2	 1	 -1	 -1	 -1	 -1	 -2	 -2	 1	 -1	 -1	 1	 -2	 -2	 1	 5	 -3	 -2	 0	 25.00	 23.00	 19.00	 17.00	 42.00	 5.48	 5.24	 10	 8	 0.8	 0.0704225352112676	 0.0563380281690141	 -1
-0.64	 2	 11.6	 0.134	 0.12	 60.1	 -2	 -3	 1	 0	 -3	 0	 1	 -3	 0	 -3	 -2	 6	 -2	 0	 0	 1	 0	 -3	 -4	 -2	 -2	 0	 6	 1	 -3	 0	 0	 0	 1	 -3	 -3	 0	 -2	 -3	 -2	 1	 0	 -4	 -2	 -3	 14.00	 14.00	 16.00	 16.00	 30.00	 1.92	 2.00	 112	 82	 0.732142857142857	 0.713375796178344	 0.522292993630573	 1
0.73	 -1.8	 5.2	 0.186	 0.44	 22.8	 -1	 -1	 -3	 -3	 0	 -4	 -3	 4	 -3	 2	 1	 -3	 -3	 -3	 -3	 -2	 -1	 3	 -3	 -1	 -1	 -3	 -3	 -3	 -1	 -3	 -3	 -4	 -3	 4	 2	 -3	 1	 0	 -3	 -2	 -1	 -3	 -1	 3	 23.00	 20.00	 22.00	 19.00	 42.00	 4.96	 5.07	 26	 26	 1	 0.153846153846154	 0.153846153846154	 1
-0.72	 3	 13	 0.105	 -0.38	 60.6	 -2	 -3	 6	 2	 -3	 -1	 -1	 -3	 -1	 -4	 -3	 1	 -1	 0	 -2	 0	 -1	 -3	 -4	 -3	 -2	 -2	 1	 6	 -4	 0	 2	 -1	 -1	 -3	 -4	 -1	 -3	 -4	 -2	 0	 -1	 -5	 -3	 -3	 32.00	 27.00	 28.00	 23.00	 55.00	 7.83	 7.32	 92	 90	 0.978260869565217	 0.56441717791411	 0.552147239263804	 1
0.54	 -1.5	 5.9	 0.14	 0.27	 23.7	 0	 -1	 -3	 -2	 -1	 -3	 -3	 3	 -2	 1	 1	 -3	 -2	 -2	 -3	 -2	 0	 4	 -3	 -1	 -1	 1	 0	 -1	 -3	 2	 -1	 -3	 -1	 1	 -2	 2	 0	 -3	 -2	 0	 1	 -4	 -2	 1	 13.00	 12.00	 36.00	 35.00	 48.00	 5.66	 5.41	 38	 36	 0.947368421052632	 0.267605633802817	 0.253521126760563	 1
-0.72	 3	 13	 0.105	 -0.38	 60.6	 -2	 -3	 6	 2	 -3	 -1	 -1	 -3	 -1	 -4	 -3	 1	 -1	 0	 -2	 0	 -1	 -3	 -4	 -3	 -2	 -2	 1	 6	 -3	 0	 2	 -1	 -1	 -3	 -4	 -1	 -3	 -4	 -1	 0	 -1	 -4	 -3	 -3	 5.00	 3.00	 28.00	 26.00	 31.00	 2.26	 2.00	 76	 19	 0.25	 0.466257668711656	 0.116564417177914	 -1
0.54	 -1.5	 5.9	 0.14	 0.27	 23.7	 0	 -1	 -3	 -2	 -1	 -3	 -3	 3	 -2	 1	 1	 -3	 -2	 -2	 -3	 -2	 0	 4	 -3	 -1	 1	 -2	 -3	 -3	 -1	 -2	 -2	 -2	 -3	 2	 2	 -2	 3	 -1	 -2	 -1	 -1	 -3	 -1	 3	 25.00	 27.00	 26.00	 28.00	 53.00	 7.49	 8.42	 50	 50	 1	 0.352112676056338	 0.352112676056338	 1
0.53	 -1.8	 4.9	 0.186	 0.4	 27.6	 -1	 -1	 -4	 -3	 0	 -4	 -3	 2	 -2	 4	 2	 -3	 -3	 -2	 -2	 -2	 -1	 1	 -2	 -1	 -2	 -2	 0	 -2	 -3	 -1	 -1	 -3	 -3	 0	 4	 -2	 2	 0	 2	 0	 -1	 -4	 -3	 -1	 27.00	 28.00	 20.00	 21.00	 48.00	 7.12	 6.91	 173	 160	 0.92485549132948	 1.05487804878049	 0.975609756097561	 1
0.53	 -1.8	 4.9	 0.186	 0.4	 27.6	 -1	 -1	 -4	 -3	 0	 -4	 -3	 2	 -2	 4	 2	 -3	 -3	 -2	 -2	 -2	 -1	 1	 -2	 -1	 -2	 -2	 -4	 -4	 -1	 -2	 -3	 -4	 -3	 2	 4	 -3	 2	 0	 -3	 -3	 -1	 -2	 -1	 1	 17.00	 17.00	 30.00	 30.00	 47.00	 3.54	 4.33	 47	 40	 0.851063829787234	 0.286585365853659	 0.24390243902439	 1
-1.1	 3	 11.3	 0.219	 -0.36	 103	 -1	 -3	 -1	 1	 -3	 -2	 -1	 -3	 5	 -2	 -1	 0	 -1	 1	 2	 0	 -1	 -2	 -3	 -2	 -1	 2	 0	 -1	 -3	 1	 1	 -2	 -1	 -3	 -2	 4	 -1	 -3	 -1	 0	 -1	 -3	 -2	 -2	 26.00	 32.00	 21.00	 27.00	 53.00	 4.13	 4.86	 78	 75	 0.961538461538462	 0.380487804878049	 0.365853658536585	 1
-1.76	 3	 10.5	 0.291	 0.27	 94.7	 -1	 -3	 -2	 0	 -3	 -2	 0	 -3	 2	 -2	 -1	 0	 -2	 1	 5	 -1	 -1	 -3	 -3	 -2	 -3	 4	 0	 -3	 -5	 1	 0	 -4	 -3	 -5	 -5	 6	 -3	 -5	 -4	 -1	 1	 -5	 -4	 -4	 23.00	 27.00	 24.00	 28.00	 51.00	 3.17	 4.21	 104	 64	 0.615384615384615	 0.419354838709677	 0.258064516129032	 1
-0.64	 2	 11.6	 0.134	 0.12	 60.1	 -2	 -3	 1	 0	 -3	 0	 1	 -3	 0	 -3	 -2	 6	 -2	 0	 0	 1	 0	 -3	 -4	 -2	 3	 -1	 3	 -2	 -3	 -1	 -1	 1	 -2	 -3	 -3	 -2	 -3	 -4	 3	 1	 0	 -4	 -3	 -2	 24.00	 15.00	 26.00	 17.00	 41.00	 2.17	 2.00	 22	 0	 0	 0.140127388535032	 0	 -1
-0.69	 0.2	 10.5	 0.18	 -0.11	 68.7	 -1	 -3	 0	 2	 -3	 -2	 0	 -3	 1	 -2	 0	 0	 -1	 5	 1	 0	 -1	 -2	 -2	 -1	 -1	 0	 1	 1	 -1	 2	 1	 0	 1	 -1	 -1	 0	 -1	 0	 1	 0	 0	 -2	 0	 -1	 32.00	 28.00	 25.00	 21.00	 53.00	 4.97	 5.33	 120	 101	 0.841666666666667	 0.606060606060606	 0.51010101010101	 -1
-0.26	 0.3	 9.2	 0.062	 -0.33	 42	 1	 -1	 0	 0	 -2	 0	 -1	 -2	 0	 -2	 -1	 1	 -1	 0	 -1	 4	 1	 -2	 -3	 -2	 1	 -1	 3	 0	 -1	 0	 0	 0	 0	 -3	 -3	 0	 -2	 -3	 -1	 4	 1	 -3	 -2	 -2	 7.00	 7.00	 27.00	 27.00	 34.00	 2.27	 2.00	 109	 33	 0.302752293577982	 0.838461538461538	 0.253846153846154	 -1
-0.72	 3	 13	 0.105	 -0.38	 60.6	 -2	 -3	 6	 2	 -3	 -1	 -1	 -3	 -1	 -4	 -3	 1	 -1	 0	 -2	 0	 -1	 -3	 -4	 -3	 1	 0	 2	 1	 -3	 0	 0	 -1	 0	 -2	 -2	 -1	 -1	 0	 -1	 1	 0	 1	 3	 -1	 11.00	 13.00	 25.00	 27.00	 38.00	 3.75	 4.62	 19	 0	 0	 0.139705882352941	 0	 -1
0.02	 -2.3	 6.2	 0.298	 0.66	 55.2	 -2	 -2	 -3	 -2	 3	 -3	 2	 -1	 -2	 -1	 -1	 -2	 -3	 -1	 -2	 -2	 -2	 -1	 2	 7	 0	 0	 -1	 0	 -1	 -3	 -3	 0	 0	 -3	 -3	 -2	 0	 1	 -1	 0	 0	 5	 6	 -2	 25.00	 22.00	 31.00	 28.00	 53.00	 6.46	 6.00	 78	 78	 1	 0.351351351351351	 0.351351351351351	 1
-0.72	 3	 13	 0.105	 -0.38	 60.6	 -2	 -3	 6	 2	 -3	 -1	 -1	 -3	 -1	 -4	 -3	 1	 -1	 0	 -2	 0	 -1	 -3	 -4	 -3	 -2	 -2	 1	 6	 -4	 0	 2	 -1	 -1	 -3	 -4	 -1	 -3	 -4	 -2	 0	 -1	 -5	 -3	 -3	 19.00	 22.00	 27.00	 30.00	 49.00	 5.66	 5.28	 53	 45	 0.849056603773585	 0.325153374233129	 0.276073619631902	 1
-0.26	 0.3	 9.2	 0.062	 -0.33	 42	 1	 -1	 0	 0	 -2	 0	 -1	 -2	 0	 -2	 -1	 1	 -1	 0	 -1	 4	 1	 -2	 -3	 -2	 1	 -1	 2	 2	 -3	 1	 -1	 -3	 3	 -3	 -2	 -1	 -3	 0	 -1	 2	 2	 -4	 -1	 -2	 21.00	 21.00	 28.00	 28.00	 49.00	 4.83	 5.21	 12	 12	 1	 0.0923076923076923	 0.0923076923076923	 -1
0.53	 -1.8	 4.9	 0.186	 0.4	 27.6	 -1	 -1	 -4	 -3	 0	 -4	 -3	 2	 -2	 4	 2	 -3	 -3	 -2	 -2	 -2	 -1	 1	 -2	 -1	 -1	 4	 -2	 -2	 -3	 1	 -2	 -1	 0	 -1	 1	 1	 3	 -3	 0	 -1	 -1	 -4	 -3	 -1	 39.00	 34.00	 28.00	 23.00	 62.00	 6.40	 6.60	 168	 167	 0.994047619047619	 1.02439024390244	 1.01829268292683	 1
-1.76	 3	 10.5	 0.291	 0.27	 94.7	 -1	 -3	 -2	 0	 -3	 -2	 0	 -3	 2	 -2	 -1	 0	 -2	 1	 5	 -1	 -1	 -3	 -3	 -2	 -1	 2	 3	 1	 -4	 0	 3	 2	 -1	 -4	 -4	 1	 -2	 -4	 -3	 1	 0	 -4	 -3	 -3	 10.00	 16.00	 16.00	 22.00	 32.00	 2.85	 4.69	 229	 96	 0.419213973799127	 0.923387096774194	 0.387096774193548	 1
-0.26	 0.3	 9.2	 0.062	 -0.33	 42	 1	 -1	 0	 0	 -2	 0	 -1	 -2	 0	 -2	 -1	 1	 -1	 0	 -1	 4	 1	 -2	 -3	 -2	 0	 -2	 2	 0	 0	 -1	 -1	 0	 -2	 -2	 -2	 0	 1	 -2	 1	 2	 2	 -3	 0	 -1	 22.00	 27.00	 14.00	 19.00	 41.00	 3.44	 2.94	 13	 12	 0.923076923076923	 0.1	 0.0923076923076923	 -1
-0.69	 0.2	 10.5	 0.18	 -0.11	 68.7	 -1	 -3	 0	 2	 -3	 -2	 0	 -3	 1	 -2	 0	 0	 -1	 5	 1	 0	 -1	 -2	 -2	 -1	 -1	 1	 1	 0	 -3	 1	 1	 -3	 3	 -2	 -2	 -1	 -2	 -1	 0	 2	 2	 -4	 -1	 -1	 14.00	 17.00	 30.00	 33.00	 47.00	 2.37	 2.60	 68	 27	 0.397058823529412	 0.343434343434343	 0.136363636363636	 -1
0.02	 -2.3	 6.2	 0.298	 0.66	 55.2	 -2	 -2	 -3	 -2	 3	 -3	 2	 -1	 -2	 -1	 -1	 -2	 -3	 -1	 -2	 -2	 -2	 -1	 2	 7	 -2	 -1	 -2	 1	 -2	 0	 -2	 -3	 -1	 0	 1	 -1	 2	 2	 -2	 -2	 -1	 3	 3	 1	 25.00	 23.00	 19.00	 17.00	 42.00	 6.71	 6.43	 125	 121	 0.968	 0.563063063063063	 0.545045045045045	 1
-0.18	 -0.4	 8.6	 0.108	 -0.18	 45	 0	 -1	 -1	 -1	 -2	 -2	 -2	 -1	 -1	 -1	 -1	 0	 -1	 -1	 -1	 1	 5	 0	 -2	 -2	 0	 -1	 0	 -1	 -1	 -1	 -1	 -2	 -2	 -1	 -1	 -1	 -1	 -2	 -1	 1	 5	 -3	 -2	 0	 18.00	 21.00	 30.00	 33.00	 51.00	 2.95	 3.38	 109	 74	 0.678899082568807	 0.767605633802817	 0.52112676056338	 -1
0.53	 -1.8	 4.9	 0.186	 0.4	 27.6	 -1	 -1	 -4	 -3	 0	 -4	 -3	 2	 -2	 4	 2	 -3	 -3	 -2	 -2	 -2	 -1	 1	 -2	 -1	 -1	 -2	 0	 3	 -2	 -1	 0	 -2	 3	 0	 1	 -1	 0	 -1	 -2	 -1	 -1	 -3	 -1	 1	 28.00	 25.00	 16.00	 13.00	 41.00	 4.84	 3.88	 30	 29	 0.966666666666667	 0.182926829268293	 0.176829268292683	 1
-0.62	 3	 12.3	 0.151	 -0.13	 68.2	 -1	 -4	 2	 5	 -3	 -2	 0	 -3	 1	 -3	 -2	 0	 -1	 2	 0	 0	 -1	 -2	 -3	 -2	 -1	 3	 -2	 1	 -4	 2	 4	 0	 -2	 -4	 -4	 1	 -3	 -4	 0	 1	 0	 -4	 -3	 -2	 5.00	 8.00	 17.00	 20.00	 25.00	 1.91	 2.47	 128	 25	 0.1953125	 0.65979381443299	 0.128865979381443	 -1
-0.18	 -0.4	 8.6	 0.108	 -0.18	 45	 0	 -1	 -1	 -1	 -2	 -2	 -2	 -1	 -1	 -1	 -1	 0	 -1	 -1	 -1	 1	 5	 0	 -2	 -2	 0	 -1	 0	 -1	 -1	 -1	 -1	 -2	 -2	 -1	 -1	 -1	 -1	 -2	 -1	 1	 5	 -3	 -2	 0	 28.00	 28.00	 23.00	 23.00	 51.00	 5.06	 5.22	 18	 16	 0.888888888888889	 0.126760563380282	 0.112676056338028	 1
-0.72	 3	 13	 0.105	 -0.38	 60.6	 -2	 -3	 6	 2	 -3	 -1	 -1	 -3	 -1	 -4	 -3	 1	 -1	 0	 -2	 0	 -1	 -3	 -4	 -3	 -1	 -1	 0	 4	 -4	 1	 4	 -2	 -1	 -3	 -3	 0	 -3	 -4	 -1	 0	 -1	 -4	 -3	 -3	 11.00	 14.00	 24.00	 27.00	 38.00	 2.10	 2.69	 89	 20	 0.224719101123595	 0.54601226993865	 0.122699386503067	 -1
0.61	 -2.5	 5.2	 0.29	 0.82	 25.5	 -2	 -2	 -3	 -3	 6	 -3	 -1	 0	 -3	 0	 0	 -3	 -4	 -3	 -3	 -2	 -2	 -1	 1	 3	 2	 -1	 -1	 1	 -3	 1	 1	 -1	 -2	 0	 -2	 0	 0	 -1	 -2	 2	 2	 -4	 -2	 -1	 18.00	 17.00	 27.00	 26.00	 44.00	 2.98	 3.96	 76	 49	 0.644736842105263	 0.385786802030457	 0.248730964467005	 -1
-0.62	 3	 12.3	 0.151	 -0.13	 68.2	 -1	 -4	 2	 5	 -3	 -2	 0	 -3	 1	 -3	 -2	 0	 -1	 2	 0	 0	 -1	 -2	 -3	 -2	 -1	 0	 -1	 0	 -3	 2	 3	 -3	 0	 -1	 -2	 0	 1	 1	 -2	 1	 -1	 0	 -2	 0	 17.00	 13.00	 28.00	 24.00	 41.00	 2.32	 2.26	 16	 4	 0.25	 0.0824742268041237	 0.0206185567010309	 -1
-1.1	 3	 11.3	 0.219	 -0.36	 103	 -1	 -3	 -1	 1	 -3	 -2	 -1	 -3	 5	 -2	 -1	 0	 -1	 1	 2	 0	 -1	 -2	 -3	 -2	 -2	 4	 -1	 -2	 -4	 1	 -1	 -3	 0	 -4	 -3	 6	 -3	 -4	 -3	 0	 0	 -4	 -3	 -3	 26.00	 23.00	 27.00	 24.00	 50.00	 2.75	 2.70	 100	 82	 0.82	 0.48780487804878	 0.4	 1
