-0.62	 3	 12.3	 0.151	 -0.13	 68.2	 -1	 -4	 2	 5	 -3	 -2	 0	 -3	 1	 -3	 -2	 0	 -1	 2	 0	 0	 -1	 -2	 -3	 -2	 -2	 0	 -1	 -3	 -3	 -2	 2	 -6	 4	 -1	 -4	 1	 -4	 -1	 -8	 2	 2	 0	 3	 1	 13.00	 16.00	 24.00	 27.00	 40.00	 2.50	 2.73	 50	 7	 0.14	 0.257731958762887	 0.0360824742268041	 -1
-0.72	 3	 13	 0.105	 -0.38	 60.6	 -2	 -3	 6	 2	 -3	 -1	 -1	 -3	 -1	 -4	 -3	 1	 -1	 0	 -2	 0	 -1	 -3	 -4	 -3	 -1	 1	 0	 1	 -3	 0	 1	 -2	 3	 -1	 -1	 1	 -2	 -1	 1	 1	 -1	 -3	 2	 -1	 23.00	 27.00	 9.00	 13.00	 36.00	 2.27	 2.00	 75	 5	 0.0666666666666667	 0.460122699386503	 0.0306748466257669	 1
-0.62	 3	 12.3	 0.151	 -0.13	 68.2	 -1	 -4	 2	 5	 -3	 -2	 0	 -3	 1	 -3	 -2	 0	 -1	 2	 0	 0	 -1	 -2	 -3	 -2	 -3	 -2	 2	 6	 -4	 -1	 2	 -2	 -2	 -4	 -4	 -1	 -4	 -4	 -2	 -1	 -2	 -5	 -4	 -4	 25.00	 29.00	 33.00	 37.00	 62.00	 6.38	 7.83	 74	 70	 0.945945945945946	 0.381443298969072	 0.360824742268041	 1
0.37	 -3.4	 5.4	 0.409	 0.83	 34.7	 -3	 -2	 -4	 -3	 1	 -2	 -2	 -3	 -3	 -2	 -1	 -4	 -4	 -2	 -3	 -3	 -2	 -3	 11	 2	 -1	 -1	 0	 -1	 2	 0	 -1	 1	 1	 -1	 0	 -1	 -1	 0	 -1	 0	 -1	 6	 2	 -1	 23.00	 23.00	 25.00	 25.00	 48.00	 5.88	 5.82	 90	 89	 0.988888888888889	 0.39647577092511	 0.392070484581498	 1
-0.64	 2	 11.6	 0.134	 0.12	 60.1	 -2	 -3	 1	 0	 -3	 0	 1	 -3	 0	 -3	 -2	 6	 -2	 0	 0	 1	 0	 -3	 -4	 -2	 3	 -1	 3	 -2	 -3	 -1	 -1	 1	 -2	 -3	 -3	 -2	 -3	 -4	 3	 1	 0	 -4	 -3	 -2	 24.00	 15.00	 26.00	 17.00	 41.00	 2.17	 2.00	 22	 0	 0	 0.140127388535032	 0	 -1
-0.18	 -0.4	 8.6	 0.108	 -0.18	 45	 0	 -1	 -1	 -1	 -2	 -2	 -2	 -1	 -1	 -1	 -1	 0	 -1	 -1	 -1	 1	 5	 0	 -2	 -2	 -1	 -2	 -1	 -2	 -2	 -2	 -2	 -3	 1	 -2	 -2	 -2	 -2	 -3	 2	 0	 6	 -3	 -2	 -1	 30.00	 31.00	 33.00	 34.00	 64.00	 6.77	 7.42	 82	 81	 0.98780487804878	 0.577464788732394	 0.570422535211268	 1
0.02	 -2.3	 6.2	 0.298	 0.66	 55.2	 -2	 -2	 -3	 -2	 3	 -3	 2	 -1	 -2	 -1	 -1	 -2	 -3	 -1	 -2	 -2	 -2	 -1	 2	 7	 -3	 -2	 -1	 -2	 -4	 0	 -2	 -4	 1	 -3	 -1	 -2	 1	 2	 -2	 -1	 -3	 3	 7	 -1	 30.00	 28.00	 30.00	 28.00	 58.00	 3.48	 4.77	 141	 122	 0.865248226950355	 0.635135135135135	 0.54954954954955	 1
-0.26	 0.3	 9.2	 0.062	 -0.33	 42	 1	 -1	 0	 0	 -2	 0	 -1	 -2	 0	 -2	 -1	 1	 -1	 0	 -1	 4	 1	 -2	 -3	 -2	 0	 2	 -1	 -1	 -2	 2	 0	 -1	 -1	 -3	 -2	 3	 -2	 -3	 -1	 2	 0	 -3	 -2	 -2	 30.00	 27.00	 22.00	 19.00	 49.00	 2.74	 2.00	 40	 40	 1	 0.307692307692308	 0.307692307692308	 -1
-0.69	 0.2	 10.5	 0.18	 -0.11	 68.7	 -1	 -3	 0	 2	 -3	 -2	 0	 -3	 1	 -2	 0	 0	 -1	 5	 1	 0	 -1	 -2	 -2	 -1	 -1	 0	 1	 1	 -1	 2	 1	 0	 1	 -1	 -1	 0	 -1	 0	 1	 0	 0	 -2	 0	 -1	 32.00	 28.00	 25.00	 21.00	 53.00	 4.97	 5.33	 120	 101	 0.841666666666667	 0.606060606060606	 0.51010101010101	 -1
0.53	 -1.8	 4.9	 0.186	 0.4	 27.6	 -1	 -1	 -4	 -3	 0	 -4	 -3	 2	 -2	 4	 2	 -3	 -3	 -2	 -2	 -2	 -1	 1	 -2	 -1	 -2	 -2	 -4	 -4	 -1	 -2	 -3	 -4	 -3	 2	 4	 -3	 2	 0	 -3	 -3	 -1	 -2	 -1	 1	 17.00	 17.00	 30.00	 30.00	 47.00	 3.54	 4.33	 47	 40	 0.851063829787234	 0.286585365853659	 0.24390243902439	 1
-1.1	 3	 11.3	 0.219	 -0.36	 103	 -1	 -3	 -1	 1	 -3	 -2	 -1	 -3	 5	 -2	 -1	 0	 -1	 1	 2	 0	 -1	 -2	 -3	 -2	 -2	 0	 -1	 -1	 -3	 2	 1	 -2	 0	 1	 1	 1	 -1	 -2	 2	 0	 -1	 -4	 -1	 0	 23.00	 18.00	 24.00	 19.00	 42.00	 2.60	 2.55	 71	 19	 0.267605633802817	 0.346341463414634	 0.0926829268292683	 -1
0.61	 -2.5	 5.2	 0.29	 0.82	 25.5	 -2	 -2	 -3	 -3	 6	 -3	 -1	 0	 -3	 0	 0	 -3	 -4	 -3	 -3	 -2	 -2	 -1	 1	 3	 -3	 -5	 -3	 -6	 -5	 -4	 -5	 -6	 0	 -3	 -1	 -3	 -3	 5	 -6	 -3	 -4	 -1	 8	 -4	 29.00	 24.00	 30.00	 25.00	 54.00	 6.44	 7.36	 6	 6	 1	 0.0304568527918782	 0.0304568527918782	 -1
-0.69	 0.2	 10.5	 0.18	 -0.11	 68.7	 -1	 -3	 0	 2	 -3	 -2	 0	 -3	 1	 -2	 0	 0	 -1	 5	 1	 0	 -1	 -2	 -2	 -1	 -2	 1	 0	 -1	 -3	 1	 0	 -1	 3	 -2	 1	 2	 -1	 1	 -1	 -1	 -1	 -2	 3	 -2	 1.00	 12.00	 13.00	 24.00	 25.00	 1.79	 2.00	 193	 29	 0.150259067357513	 0.974747474747475	 0.146464646464646	 -1
-0.26	 0.3	 9.2	 0.062	 -0.33	 42	 1	 -1	 0	 0	 -2	 0	 -1	 -2	 0	 -2	 -1	 1	 -1	 0	 -1	 4	 1	 -2	 -3	 -2	 -1	 0	 -1	 1	 -2	 -1	 0	 2	 2	 -2	 -2	 -1	 -2	 -1	 -2	 1	 -1	 7	 0	 -2	 19.00	 20.00	 25.00	 26.00	 45.00	 2.40	 2.00	 45	 22	 0.488888888888889	 0.346153846153846	 0.169230769230769	 -1
-0.62	 3	 12.3	 0.151	 -0.13	 68.2	 -1	 -4	 2	 5	 -3	 -2	 0	 -3	 1	 -3	 -2	 0	 -1	 2	 0	 0	 -1	 -2	 -3	 -2	 -1	 0	 0	 2	 -4	 2	 5	 -2	 0	 -3	 -3	 1	 -2	 -3	 -1	 0	 -1	 -3	 -2	 -2	 22.00	 22.00	 25.00	 25.00	 47.00	 2.52	 2.00	 108	 108	 1	 0.556701030927835	 0.556701030927835	 1
0.02	 -2.3	 6.2	 0.298	 0.66	 55.2	 -2	 -2	 -3	 -2	 3	 -3	 2	 -1	 -2	 -1	 -1	 -2	 -3	 -1	 -2	 -2	 -2	 -1	 2	 7	 0	 0	 -1	 0	 -1	 -3	 -3	 0	 0	 -3	 -3	 -2	 0	 1	 -1	 0	 0	 5	 6	 -2	 25.00	 22.00	 31.00	 28.00	 53.00	 6.46	 6.00	 78	 78	 1	 0.351351351351351	 0.351351351351351	 1
-0.26	 0.3	 9.2	 0.062	 -0.33	 42	 1	 -1	 0	 0	 -2	 0	 -1	 -2	 0	 -2	 -1	 1	 -1	 0	 -1	 4	 1	 -2	 -3	 -2	 0	 -2	 -1	 -2	 -1	 -1	 -1	 -2	 -2	 0	 2	 -1	 1	 -1	 -2	 2	 0	 -2	 -1	 0	 4.00	 8.00	 17.00	 21.00	 25.00	 1.85	 2.31	 113	 34	 0.300884955752212	 0.869230769230769	 0.261538461538462	 -1
-1.76	 3	 10.5	 0.291	 0.27	 94.7	 -1	 -3	 -2	 0	 -3	 -2	 0	 -3	 2	 -2	 -1	 0	 -2	 1	 5	 -1	 -1	 -3	 -3	 -2	 -1	 5	 0	 -2	 -3	 1	 0	 -2	 0	 -3	 -2	 2	 -1	 -3	 -2	 -1	 -1	 -3	 -2	 -3	 20.00	 13.00	 19.00	 12.00	 32.00	 3.05	 2.54	 214	 170	 0.794392523364486	 0.862903225806452	 0.685483870967742	 1
0.61	 -2.5	 5.2	 0.29	 0.82	 25.5	 -2	 -2	 -3	 -3	 6	 -3	 -1	 0	 -3	 0	 0	 -3	 -4	 -3	 -3	 -2	 -2	 -1	 1	 3	 -1	 -1	 3	 0	 -2	 -1	 -1	 -1	 0	 -1	 -1	 -1	 -1	 3	 -1	 0	 -1	 0	 3	 -1	 17.00	 24.00	 18.00	 25.00	 42.00	 1.93	 2.37	 145	 45	 0.310344827586207	 0.736040609137056	 0.228426395939086	 1
-0.64	 2	 11.6	 0.134	 0.12	 60.1	 -2	 -3	 1	 0	 -3	 0	 1	 -3	 0	 -3	 -2	 6	 -2	 0	 0	 1	 0	 -3	 -4	 -2	 -2	 0	 6	 1	 -3	 0	 0	 0	 1	 -3	 -3	 0	 -2	 -3	 -2	 1	 0	 -4	 -2	 -3	 14.00	 14.00	 16.00	 16.00	 30.00	 1.92	 2.00	 112	 82	 0.732142857142857	 0.713375796178344	 0.522292993630573	 1
-1.76	 3	 10.5	 0.291	 0.27	 94.7	 -1	 -3	 -2	 0	 -3	 -2	 0	 -3	 2	 -2	 -1	 0	 -2	 1	 5	 -1	 -1	 -3	 -3	 -2	 -1	 0	 1	 -3	 -4	 -1	 -1	 -2	 2	 -1	 -1	 -1	 1	 2	 -1	 2	 -2	 3	 4	 -1	 32.00	 26.00	 33.00	 27.00	 59.00	 3.12	 3.95	 210	 199	 0.947619047619048	 0.846774193548387	 0.80241935483871	 -1
-0.62	 3	 12.3	 0.151	 -0.13	 68.2	 -1	 -4	 2	 5	 -3	 -2	 0	 -3	 1	 -3	 -2	 0	 -1	 2	 0	 0	 -1	 -2	 -3	 -2	 -1	 0	 -1	 0	 -2	 1	 3	 -2	 -1	 1	 -1	 2	 -1	 -2	 -2	 -1	 -1	 -3	 -2	 1	 16.00	 16.00	 20.00	 20.00	 36.00	 2.58	 2.58	 58	 45	 0.775862068965517	 0.298969072164948	 0.231958762886598	 1
-1.1	 3	 11.3	 0.219	 -0.36	 103	 -1	 -3	 -1	 1	 -3	 -2	 -1	 -3	 5	 -2	 -1	 0	 -1	 1	 2	 0	 -1	 -2	 -3	 -2	 -1	 3	 -1	 -1	 -3	 1	 3	 -2	 -1	 -2	 -1	 2	 2	 -2	 -2	 -1	 1	 -3	 -2	 -2	 9.00	 12.00	 24.00	 27.00	 36.00	 1.91	 2.33	 174	 72	 0.413793103448276	 0.848780487804878	 0.351219512195122	 -1
0.37	 -3.4	 5.4	 0.409	 0.83	 34.7	 -3	 -2	 -4	 -3	 1	 -2	 -2	 -3	 -3	 -2	 -1	 -4	 -4	 -2	 -3	 -3	 -2	 -3	 11	 2	 -3	 -3	 -4	 -4	 -2	 -2	 -3	 -2	 -2	 -3	 -2	 -3	 -1	 1	 -4	 -3	 -2	 10	 2	 -3	 3.00	 0.00	 16.00	 13.00	 16.00	 1.67	 2.00	 136	 99	 0.727941176470588	 0.599118942731278	 0.436123348017621	 1
-0.64	 2	 11.6	 0.134	 0.12	 60.1	 -2	 -3	 1	 0	 -3	 0	 1	 -3	 0	 -3	 -2	 6	 -2	 0	 0	 1	 0	 -3	 -4	 -2	 1	 -1	 2	 2	 -3	 1	 1	 1	 -2	 -2	 -3	 -1	 -2	 -1	 -1	 2	 1	 -3	 -1	 -1	 14.00	 11.00	 25.00	 22.00	 36.00	 2.29	 2.00	 97	 56	 0.577319587628866	 0.617834394904459	 0.356687898089172	 -1
0.73	 -1.8	 5.2	 0.186	 0.44	 22.8	 -1	 -1	 -3	 -3	 0	 -4	 -3	 4	 -3	 2	 1	 -3	 -3	 -3	 -3	 -2	 -1	 3	 -3	 -1	 -1	 -3	 -3	 -3	 -1	 -3	 -3	 -4	 -3	 4	 2	 -3	 1	 0	 -3	 -3	 -1	 -3	 -1	 2	 30.00	 35.00	 21.00	 26.00	 56.00	 6.88	 6.74	 11	 11	 1	 0.0650887573964497	 0.0650887573964497	 -1
0.37	 -3.4	 5.4	 0.409	 0.83	 34.7	 -3	 -2	 -4	 -3	 1	 -2	 -2	 -3	 -3	 -2	 -1	 -4	 -4	 -2	 -3	 -3	 -2	 -3	 11	 2	 0	 1	 2	 -1	 -1	 -1	 -1	 -1	 0	 -1	 -1	 -1	 -1	 1	 -1	 1	 -1	 2	 4	 -1	 24.00	 28.00	 26.00	 30.00	 54.00	 6.67	 6.33	 19	 19	 1	 0.0837004405286344	 0.0837004405286344	 1
-1.76	 3	 10.5	 0.291	 0.27	 94.7	 -1	 -3	 -2	 0	 -3	 -2	 0	 -3	 2	 -2	 -1	 0	 -2	 1	 5	 -1	 -1	 -3	 -3	 -2	 -3	 5	 -2	 0	 -5	 -1	 -2	 -2	 1	 -5	 -2	 4	 -3	 -2	 -4	 -3	 -3	 -4	 1	 -3	 25.00	 22.00	 29.00	 26.00	 51.00	 5.39	 7.95	 61	 39	 0.639344262295082	 0.245967741935484	 0.157258064516129	 -1
0.73	 -1.8	 5.2	 0.186	 0.44	 22.8	 -1	 -1	 -3	 -3	 0	 -4	 -3	 4	 -3	 2	 1	 -3	 -3	 -3	 -3	 -2	 -1	 3	 -3	 -1	 -1	 0	 -2	 0	 -3	 2	 0	 -2	 -2	 2	 -1	 0	 -1	 -1	 -1	 0	 2	 -3	 -1	 2	 22.00	 21.00	 26.00	 25.00	 47.00	 2.99	 2.69	 34	 13	 0.382352941176471	 0.201183431952663	 0.0769230769230769	 -1
-0.64	 2	 11.6	 0.134	 0.12	 60.1	 -2	 -3	 1	 0	 -3	 0	 1	 -3	 0	 -3	 -2	 6	 -2	 0	 0	 1	 0	 -3	 -4	 -2	 -2	 0	 6	 1	 -3	 0	 0	 0	 1	 -3	 -3	 0	 -2	 -3	 -2	 1	 0	 -4	 -2	 -3	 22.00	 20.00	 30.00	 28.00	 50.00	 3.24	 3.91	 91	 89	 0.978021978021978	 0.579617834394904	 0.56687898089172	 1
-0.64	 2	 11.6	 0.134	 0.12	 60.1	 -2	 -3	 1	 0	 -3	 0	 1	 -3	 0	 -3	 -2	 6	 -2	 0	 0	 1	 0	 -3	 -4	 -2	 -2	 0	 6	 1	 -3	 0	 0	 0	 1	 -3	 -3	 0	 -2	 -3	 -2	 1	 0	 -4	 -2	 -3	 19.00	 24.00	 14.00	 19.00	 38.00	 3.53	 4.28	 29	 2	 0.0689655172413793	 0.184713375796178	 0.0127388535031847	 1
