0.660624	0.339376
0.239925	0.760075
0.127551	0.872449
0.015424	0.984576
0.968172	0.031828
0.999468	0.000532
0.008284	0.991716
0.918142	0.081858
0.001278	0.998722
0.970582	0.029418
0.040021	0.959979
0.004947	0.995053
0.907781	0.092219
0.999728	0.000272
0.003073	0.996927
0.826860	0.173140
0.197393	0.802607
0.695662	0.304338
0.976712	0.023288
0.019904	0.980096
0.127057	0.872943
0.002780	0.997220
0.037225	0.962775
0.851368	0.148632
0.001102	0.998898
0.112307	0.887693
0.051041	0.948959
0.996420	0.003580
0.997327	0.002673
0.999665	0.000335
0.487496	0.512504
