0.985445	0.014555
0.997551	0.002449
0.997330	0.002670
0.098645	0.901355
0.987331	0.012669
0.023493	0.976507
0.967510	0.032490
0.717416	0.282584
0.702280	0.297720
0.039654	0.960346
0.991084	0.008916
0.975280	0.024720
0.963467	0.036533
0.585339	0.414661
0.933353	0.066647
0.073664	0.926336
0.059669	0.940331
0.005810	0.994190
0.055065	0.944935
0.008111	0.991889
0.392606	0.607394
0.999374	0.000626
0.069886	0.930114
0.875224	0.124776
0.668965	0.331035
0.987391	0.012609
0.996515	0.003485
0.990168	0.009832
0.982570	0.017430
0.997616	0.002384
0.000212	0.999788
