0.787780	0.212220
0.998978	0.001022
0.517185	0.482815
0.982943	0.017057
0.337519	0.662481
0.327726	0.672274
0.724329	0.275671
0.783923	0.216077
0.001781	0.998219
0.581617	0.418383
0.992773	0.007227
0.894929	0.105071
0.882093	0.117907
0.720527	0.279473
0.987673	0.012327
0.011728	0.988272
0.230622	0.769378
0.998705	0.001295
0.354974	0.645026
0.000449	0.999551
0.997100	0.002900
0.029700	0.970300
0.462473	0.537527
0.036353	0.963647
0.004039	0.995961
0.017331	0.982669
0.042091	0.957909
0.067082	0.932918
0.724098	0.275902
0.919887	0.080113
0.881889	0.118111
