0.991473	0.008527
0.990139	0.009861
0.001395	0.998605
0.997515	0.002485
0.869854	0.130146
0.002466	0.997534
0.194090	0.805910
0.001482	0.998518
0.172373	0.827627
0.832111	0.167889
0.049293	0.950707
0.099144	0.900856
0.979984	0.020016
0.999305	0.000695
0.006086	0.993914
0.955501	0.044499
0.999791	0.000209
0.774562	0.225438
0.821547	0.178453
0.004061	0.995939
0.998789	0.001211
0.926736	0.073264
0.965058	0.034942
0.316032	0.683968
0.089762	0.910238
0.609751	0.390249
0.994693	0.005307
0.707033	0.292967
0.827908	0.172092
0.809770	0.190230
0.855779	0.144221
