0.415131	0.584869
0.678911	0.321089
0.354985	0.645015
0.735976	0.264024
0.276042	0.723958
0.270241	0.729759
0.685343	0.314657
0.660012	0.339988
0.484875	0.515125
0.640784	0.359216
0.590243	0.409757
0.421849	0.578151
0.408212	0.591788
0.466589	0.533411
0.577153	0.422847
0.536360	0.463640
0.478610	0.521390
0.714219	0.285781
0.513847	0.486153
0.366146	0.633854
0.569442	0.430558
0.766521	0.233479
0.363186	0.636814
0.540127	0.459873
0.307531	0.692469
0.569089	0.430911
0.341110	0.658890
0.755819	0.244181
0.804721	0.195279
0.254842	0.745158
0.264272	0.735728
