0.004143	0.995857
0.998172	0.001828
0.083258	0.916742
0.997361	0.002639
0.972202	0.027798
0.008583	0.991417
0.843582	0.156418
0.999784	0.000216
0.007286	0.992714
0.883575	0.116425
0.049069	0.950931
0.999788	0.000212
0.843063	0.156937
0.004347	0.995653
0.506940	0.493060
0.814545	0.185455
0.932144	0.067856
0.467231	0.532769
0.003661	0.996339
0.939288	0.060712
0.037557	0.962443
0.275791	0.724209
0.260818	0.739182
0.999895	0.000105
0.022962	0.977038
0.054149	0.945851
0.346870	0.653130
0.156922	0.843078
0.999378	0.000622
0.999730	0.000270
0.998654	0.001346
0.009443	0.990557
