0.012611	0.987389
0.149848	0.850152
0.046344	0.953656
0.994431	0.005569
0.996537	0.003463
0.975280	0.024720
0.841457	0.158543
0.995408	0.004592
0.405309	0.594691
0.998053	0.001947
0.927321	0.072679
0.718808	0.281192
0.034124	0.965876
0.007758	0.992242
0.033320	0.966680
0.998448	0.001552
0.808072	0.191928
0.901160	0.098840
0.991588	0.008412
0.979309	0.020691
0.953555	0.046445
0.997654	0.002346
0.000305	0.999695
0.978175	0.021825
0.003361	0.996639
0.999925	0.000075
0.989012	0.010988
0.993997	0.006003
0.192927	0.807073
0.998361	0.001639
0.004332	0.995668
