-1.76	 3	 10.5	 0.291	 0.27	 94.7	 -1	 -3	 -2	 0	 -3	 -2	 0	 -3	 2	 -2	 -1	 0	 -2	 1	 5	 -1	 -1	 -3	 -3	 -2	 -1	 5	 0	 -2	 -3	 1	 0	 -2	 0	 -3	 -2	 2	 -1	 -3	 -2	 -1	 -1	 -3	 -2	 -3	 20.00	 13.00	 19.00	 12.00	 32.00	 3.05	 2.54	 214	 170	 0.794392523364486	 0.862903225806452	 0.685483870967742	 1
-0.62	 3	 12.3	 0.151	 -0.13	 68.2	 -1	 -4	 2	 5	 -3	 -2	 0	 -3	 1	 -3	 -2	 0	 -1	 2	 0	 0	 -1	 -2	 -3	 -2	 -1	 0	 -1	 0	 -2	 1	 3	 -2	 -1	 1	 -1	 2	 -1	 -2	 -2	 -1	 -1	 -3	 -2	 1	 16.00	 16.00	 20.00	 20.00	 36.00	 2.58	 2.58	 58	 45	 0.775862068965517	 0.298969072164948	 0.231958762886598	 1
-0.62	 3	 12.3	 0.151	 -0.13	 68.2	 -1	 -4	 2	 5	 -3	 -2	 0	 -3	 1	 -3	 -2	 0	 -1	 2	 0	 0	 -1	 -2	 -3	 -2	 -1	 0	 2	 1	 -2	 1	 1	 -2	 -1	 0	 -2	 2	 -1	 -3	 -2	 1	 0	 -3	 -2	 -1	 12.00	 15.00	 20.00	 23.00	 35.00	 1.77	 2.31	 172	 76	 0.441860465116279	 0.88659793814433	 0.391752577319588	 -1
-0.69	 0.2	 10.5	 0.18	 -0.11	 68.7	 -1	 -3	 0	 2	 -3	 -2	 0	 -3	 1	 -2	 0	 0	 -1	 5	 1	 0	 -1	 -2	 -2	 -1	 -1	 4	 -1	 -1	 -3	 3	 1	 -2	 0	 -3	 -3	 3	 -1	 -3	 1	 -1	 -1	 -3	 -2	 -3	 16.00	 14.00	 27.00	 25.00	 41.00	 1.97	 2.00	 71	 19	 0.267605633802817	 0.358585858585859	 0.095959595959596	 -1
0.73	 -1.8	 5.2	 0.186	 0.44	 22.8	 -1	 -1	 -3	 -3	 0	 -4	 -3	 4	 -3	 2	 1	 -3	 -3	 -3	 -3	 -2	 -1	 3	 -3	 -1	 -1	 -3	 -3	 -3	 -1	 -3	 -3	 -4	 -4	 4	 1	 -3	 1	 0	 -3	 -2	 -1	 -3	 -1	 3	 21.00	 21.00	 22.00	 22.00	 43.00	 4.79	 4.76	 76	 59	 0.776315789473684	 0.449704142011834	 0.349112426035503	 1
0.02	 -2.3	 6.2	 0.298	 0.66	 55.2	 -2	 -2	 -3	 -2	 3	 -3	 2	 -1	 -2	 -1	 -1	 -2	 -3	 -1	 -2	 -2	 -2	 -1	 2	 7	 -3	 -4	 -4	 -4	 -4	 -4	 -2	 -4	 2	 1	 -2	 -4	 -1	 0	 -3	 -2	 3	 -3	 5	 4	 22.00	 20.00	 21.00	 19.00	 41.00	 5.88	 4.81	 90	 0	 0	 0.405405405405405	 0	 1
-0.26	 0.3	 9.2	 0.062	 -0.33	 42	 1	 -1	 0	 0	 -2	 0	 -1	 -2	 0	 -2	 -1	 1	 -1	 0	 -1	 4	 1	 -2	 -3	 -2	 -1	 -1	 2	 0	 -3	 0	 0	 1	 -1	 -2	 -2	 0	 -3	 -1	 1	 3	 0	 -3	 1	 -2	 19.00	 17.00	 30.00	 28.00	 47.00	 2.31	 2.87	 66	 55	 0.833333333333333	 0.507692307692308	 0.423076923076923	 -1
-0.26	 0.3	 9.2	 0.062	 -0.33	 42	 1	 -1	 0	 0	 -2	 0	 -1	 -2	 0	 -2	 -1	 1	 -1	 0	 -1	 4	 1	 -2	 -3	 -2	 3	 -1	 0	 -1	 -1	 0	 0	 0	 -1	 -2	 -2	 0	 -1	 -3	 -1	 3	 1	 -3	 -2	 -1	 27.00	 25.00	 21.00	 19.00	 46.00	 6.33	 6.64	 31	 31	 1	 0.238461538461538	 0.238461538461538	 -1
-0.18	 -0.4	 8.6	 0.108	 -0.18	 45	 0	 -1	 -1	 -1	 -2	 -2	 -2	 -1	 -1	 -1	 -1	 0	 -1	 -1	 -1	 1	 5	 0	 -2	 -2	 0	 -2	 2	 -1	 -1	 -1	 -1	 -2	 -2	 0	 -1	 -1	 -1	 -2	 2	 1	 4	 -3	 -2	 0	 20.00	 22.00	 20.00	 22.00	 42.00	 3.16	 3.51	 32	 19	 0.59375	 0.225352112676056	 0.133802816901408	 -1
-0.72	 3	 13	 0.105	 -0.38	 60.6	 -2	 -3	 6	 2	 -3	 -1	 -1	 -3	 -1	 -4	 -3	 1	 -1	 0	 -2	 0	 -1	 -3	 -4	 -3	 -3	 1	 -2	 3	 -5	 2	 4	 -4	 0	 -1	 -4	 2	 -2	 -5	 -3	 -1	 -1	 -5	 -4	 -4	 15.00	 9.00	 31.00	 25.00	 40.00	 1.86	 2.00	 75	 1	 0.0133333333333333	 0.460122699386503	 0.00613496932515337	 -1
-1.76	 3	 10.5	 0.291	 0.27	 94.7	 -1	 -3	 -2	 0	 -3	 -2	 0	 -3	 2	 -2	 -1	 0	 -2	 1	 5	 -1	 -1	 -3	 -3	 -2	 -2	 2	 1	 -1	 -5	 2	 2	 4	 1	 -5	 -2	 0	 -1	 -4	 -2	 -2	 -3	 -4	 0	 -4	 15.00	 8.00	 25.00	 18.00	 33.00	 2.23	 2.00	 171	 70	 0.409356725146199	 0.689516129032258	 0.282258064516129	 -1
-0.69	 0.2	 10.5	 0.18	 -0.11	 68.7	 -1	 -3	 0	 2	 -3	 -2	 0	 -3	 1	 -2	 0	 0	 -1	 5	 1	 0	 -1	 -2	 -2	 -1	 -1	 1	 3	 1	 -3	 2	 0	 -2	 1	 0	 0	 0	 0	 -2	 -3	 1	 0	 -4	 -2	 -2	 13.00	 8.00	 31.00	 26.00	 39.00	 2.53	 3.02	 65	 16	 0.246153846153846	 0.328282828282828	 0.0808080808080808	 -1
-0.26	 0.3	 9.2	 0.062	 -0.33	 42	 1	 -1	 0	 0	 -2	 0	 -1	 -2	 0	 -2	 -1	 1	 -1	 0	 -1	 4	 1	 -2	 -3	 -2	 0	 -2	 2	 0	 -1	 0	 1	 -2	 -1	 -1	 -2	 0	 -2	 -4	 5	 0	 -2	 -4	 0	 1	 22.00	 26.00	 15.00	 19.00	 41.00	 2.25	 2.67	 46	 3	 0.0652173913043478	 0.353846153846154	 0.0230769230769231	 -1
0.73	 -1.8	 5.2	 0.186	 0.44	 22.8	 -1	 -1	 -3	 -3	 0	 -4	 -3	 4	 -3	 2	 1	 -3	 -3	 -3	 -3	 -2	 -1	 3	 -3	 -1	 -1	 0	 -2	 0	 -3	 2	 0	 -2	 -2	 2	 -1	 0	 -1	 -1	 -1	 0	 2	 -3	 -1	 2	 22.00	 21.00	 26.00	 25.00	 47.00	 2.99	 2.69	 34	 13	 0.382352941176471	 0.201183431952663	 0.0769230769230769	 -1
-0.64	 2	 11.6	 0.134	 0.12	 60.1	 -2	 -3	 1	 0	 -3	 0	 1	 -3	 0	 -3	 -2	 6	 -2	 0	 0	 1	 0	 -3	 -4	 -2	 0	 -2	 3	 4	 -3	 0	 1	 1	 -2	 -3	 -3	 -1	 -3	 -2	 -2	 1	 -1	 -3	 -1	 -2	 12.00	 6.00	 19.00	 13.00	 25.00	 1.84	 2.00	 114	 17	 0.149122807017544	 0.726114649681529	 0.10828025477707	 -1
-0.62	 3	 12.3	 0.151	 -0.13	 68.2	 -1	 -4	 2	 5	 -3	 -2	 0	 -3	 1	 -3	 -2	 0	 -1	 2	 0	 0	 -1	 -2	 -3	 -2	 -1	 0	 0	 2	 -4	 2	 5	 -2	 0	 -3	 -3	 1	 -2	 -3	 -1	 0	 -1	 -3	 -2	 -3	 7.00	 13.00	 28.00	 34.00	 41.00	 2.41	 2.71	 74	 16	 0.216216216216216	 0.381443298969072	 0.0824742268041237	 -1
-0.72	 3	 13	 0.105	 -0.38	 60.6	 -2	 -3	 6	 2	 -3	 -1	 -1	 -3	 -1	 -4	 -3	 1	 -1	 0	 -2	 0	 -1	 -3	 -4	 -3	 -2	 -2	 1	 6	 -4	 0	 2	 -1	 -1	 -3	 -4	 -1	 -3	 -4	 -2	 0	 -1	 -5	 -3	 -3	 4.00	 14.00	 21.00	 31.00	 35.00	 2.86	 3.20	 84	 40	 0.476190476190476	 0.515337423312883	 0.245398773006135	 -1
0.02	 -2.3	 6.2	 0.298	 0.66	 55.2	 -2	 -2	 -3	 -2	 3	 -3	 2	 -1	 -2	 -1	 -1	 -2	 -3	 -1	 -2	 -2	 -2	 -1	 2	 7	 -2	 -2	 1	 0	 -4	 -2	 -1	 -3	 1	 -3	 -3	 -2	 -3	 1	 -4	 1	 0	 -1	 7	 -3	 6.00	 4.00	 22.00	 20.00	 26.00	 1.82	 2.00	 199	 76	 0.381909547738693	 0.896396396396396	 0.342342342342342	 -1
0.02	 -2.3	 6.2	 0.298	 0.66	 55.2	 -2	 -2	 -3	 -2	 3	 -3	 2	 -1	 -2	 -1	 -1	 -2	 -3	 -1	 -2	 -2	 -2	 -1	 2	 7	 0	 0	 -1	 0	 -1	 -3	 -3	 0	 0	 -3	 -3	 -2	 0	 1	 -1	 0	 0	 5	 6	 -2	 25.00	 22.00	 31.00	 28.00	 53.00	 6.46	 6.00	 78	 78	 1	 0.351351351351351	 0.351351351351351	 1
-0.72	 3	 13	 0.105	 -0.38	 60.6	 -2	 -3	 6	 2	 -3	 -1	 -1	 -3	 -1	 -4	 -3	 1	 -1	 0	 -2	 0	 -1	 -3	 -4	 -3	 -1	 -1	 0	 4	 -4	 1	 4	 -2	 -1	 -3	 -3	 0	 -3	 -4	 -1	 0	 -1	 -4	 -3	 -3	 11.00	 14.00	 24.00	 27.00	 38.00	 2.10	 2.69	 89	 20	 0.224719101123595	 0.54601226993865	 0.122699386503067	 -1
-0.62	 3	 12.3	 0.151	 -0.13	 68.2	 -1	 -4	 2	 5	 -3	 -2	 0	 -3	 1	 -3	 -2	 0	 -1	 2	 0	 0	 -1	 -2	 -3	 -2	 -1	 0	 0	 1	 -4	 2	 5	 -2	 0	 -3	 -3	 1	 -2	 -3	 -1	 0	 -1	 -3	 -2	 -2	 21.00	 28.00	 24.00	 31.00	 52.00	 5.16	 5.71	 70	 69	 0.985714285714286	 0.360824742268041	 0.355670103092784	 1
0.37	 -3.4	 5.4	 0.409	 0.83	 34.7	 -3	 -2	 -4	 -3	 1	 -2	 -2	 -3	 -3	 -2	 -1	 -4	 -4	 -2	 -3	 -3	 -2	 -3	 11	 2	 -3	 -3	 -4	 -5	 -3	 -2	 -3	 -3	 -3	 -3	 -2	 -3	 -2	 1	 -4	 -3	 -3	 11	 2	 -3	 24.00	 21.00	 20.00	 17.00	 41.00	 4.28	 2.66	 97	 67	 0.690721649484536	 0.427312775330396	 0.295154185022026	 -1
0.02	 -2.3	 6.2	 0.298	 0.66	 55.2	 -2	 -2	 -3	 -2	 3	 -3	 2	 -1	 -2	 -1	 -1	 -2	 -3	 -1	 -2	 -2	 -2	 -1	 2	 7	 -2	 -2	 -2	 -3	 -3	 -2	 -2	 -3	 2	 -2	 -1	 -2	 -1	 3	 -3	 -2	 -2	 2	 7	 -1	 16.00	 13.00	 23.00	 20.00	 36.00	 2.37	 2.00	 176	 102	 0.579545454545455	 0.792792792792793	 0.459459459459459	 1
-1.1	 3	 11.3	 0.219	 -0.36	 103	 -1	 -3	 -1	 1	 -3	 -2	 -1	 -3	 5	 -2	 -1	 0	 -1	 1	 2	 0	 -1	 -2	 -3	 -2	 -1	 0	 -1	 2	 -1	 2	 1	 -3	 2	 -3	 -2	 0	 -1	 0	 -4	 1	 2	 1	 2	 -1	 7.00	 0.00	 32.00	 25.00	 32.00	 2.15	 2.00	 161	 0	 0	 0.785365853658537	 0	 1
-0.26	 0.3	 9.2	 0.062	 -0.33	 42	 1	 -1	 0	 0	 -2	 0	 -1	 -2	 0	 -2	 -1	 1	 -1	 0	 -1	 4	 1	 -2	 -3	 -2	 0	 -1	 0	 0	 -3	 1	 -1	 0	 4	 -1	 -3	 1	 -3	 1	 0	 2	 -1	 -3	 1	 -2	 30.00	 28.00	 21.00	 19.00	 49.00	 2.69	 2.34	 41	 31	 0.75609756097561	 0.315384615384615	 0.238461538461538	 -1
0.54	 -1.5	 5.9	 0.14	 0.27	 23.7	 0	 -1	 -3	 -2	 -1	 -3	 -3	 3	 -2	 1	 1	 -3	 -2	 -2	 -3	 -2	 0	 4	 -3	 -1	 -1	 -3	 -3	 -3	 -1	 -3	 -3	 -4	 -3	 3	 1	 -3	 1	 -1	 -3	 -2	 0	 -3	 -1	 4	 16.00	 15.00	 37.00	 36.00	 52.00	 4.84	 4.83	 2	 1	 0.5	 0.0140845070422535	 0.00704225352112676	 -1
-0.62	 3	 12.3	 0.151	 -0.13	 68.2	 -1	 -4	 2	 5	 -3	 -2	 0	 -3	 1	 -3	 -2	 0	 -1	 2	 0	 0	 -1	 -2	 -3	 -2	 -2	 1	 2	 1	 2	 1	 1	 0	 1	 -2	 -1	 0	 -1	 1	 -1	 -1	 -2	 1	 0	 -3	 7.00	 10.00	 31.00	 34.00	 41.00	 2.18	 2.88	 167	 73	 0.437125748502994	 0.860824742268041	 0.376288659793814	 -1
-0.18	 -0.4	 8.6	 0.108	 -0.18	 45	 0	 -1	 -1	 -1	 -2	 -2	 -2	 -1	 -1	 -1	 -1	 0	 -1	 -1	 -1	 1	 5	 0	 -2	 -2	 -1	 -2	 1	 -1	 -1	 -1	 -1	 -2	 -2	 1	 -1	 -1	 1	 -2	 -2	 1	 5	 -3	 -2	 0	 25.00	 23.00	 19.00	 17.00	 42.00	 5.48	 5.24	 10	 8	 0.8	 0.0704225352112676	 0.0563380281690141	 -1
-0.18	 -0.4	 8.6	 0.108	 -0.18	 45	 0	 -1	 -1	 -1	 -2	 -2	 -2	 -1	 -1	 -1	 -1	 0	 -1	 -1	 -1	 1	 5	 0	 -2	 -2	 -1	 -1	 0	 0	 -1	 0	 -1	 -2	 2	 1	 0	 -1	 -1	 0	 0	 1	 1	 -2	 1	 0	 33.00	 33.00	 26.00	 26.00	 59.00	 5.72	 4.96	 57	 24	 0.421052631578947	 0.401408450704225	 0.169014084507042	 -1
0.02	 -2.3	 6.2	 0.298	 0.66	 55.2	 -2	 -2	 -3	 -2	 3	 -3	 2	 -1	 -2	 -1	 -1	 -2	 -3	 -1	 -2	 -2	 -2	 -1	 2	 7	 -3	 -3	 -3	 -4	 -3	 -3	 -3	 -4	 -1	 0	 2	 -3	 0	 5	 -4	 -3	 -2	 0	 5	 -1	 24.00	 25.00	 21.00	 22.00	 46.00	 4.78	 7.24	 159	 106	 0.666666666666667	 0.716216216216216	 0.477477477477477	 1
0.37	 -3.4	 5.4	 0.409	 0.83	 34.7	 -3	 -2	 -4	 -3	 1	 -2	 -2	 -3	 -3	 -2	 -1	 -4	 -4	 -2	 -3	 -3	 -2	 -3	 11	 2	 -1	 1	 1	 0	 -3	 -1	 -1	 -2	 0	 -1	 -2	 -1	 -1	 1	 1	 1	 -1	 2	 5	 -2	 18.00	 21.00	 22.00	 25.00	 43.00	 5.67	 5.68	 80	 71	 0.8875	 0.352422907488987	 0.312775330396476	 1
