-0.62	 3	 12.3	 0.151	 -0.13	 68.2	 -1	 -4	 2	 5	 -3	 -2	 0	 -3	 1	 -3	 -2	 0	 -1	 2	 0	 0	 -1	 -2	 -3	 -2	 -1	 0	 0	 2	 -4	 2	 5	 -2	 0	 -3	 -3	 1	 -2	 -3	 -1	 0	 -1	 -3	 -2	 -2	 22.00	 22.00	 25.00	 25.00	 47.00	 2.52	 2.00	 108	 108	 1	 0.556701030927835	 0.556701030927835	 1
-0.62	 3	 12.3	 0.151	 -0.13	 68.2	 -1	 -4	 2	 5	 -3	 -2	 0	 -3	 1	 -3	 -2	 0	 -1	 2	 0	 0	 -1	 -2	 -3	 -2	 -3	 1	 2	 4	 -5	 -1	 5	 -3	 -2	 -5	 -3	 -1	 -4	 -5	 -3	 -2	 -3	 0	 -4	 -3	 18.00	 17.00	 17.00	 16.00	 34.00	 1.79	 2.00	 84	 52	 0.619047619047619	 0.43298969072165	 0.268041237113402	 -1
-0.69	 0.2	 10.5	 0.18	 -0.11	 68.7	 -1	 -3	 0	 2	 -3	 -2	 0	 -3	 1	 -2	 0	 0	 -1	 5	 1	 0	 -1	 -2	 -2	 -1	 0	 1	 1	 0	 -2	 3	 0	 -1	 1	 -2	 -2	 1	 -2	 -2	 1	 1	 -1	 -2	 2	 -1	 14.00	 5.00	 23.00	 14.00	 28.00	 2.19	 2.00	 126	 34	 0.26984126984127	 0.636363636363636	 0.171717171717172	 -1
-1.1	 3	 11.3	 0.219	 -0.36	 103	 -1	 -3	 -1	 1	 -3	 -2	 -1	 -3	 5	 -2	 -1	 0	 -1	 1	 2	 0	 -1	 -2	 -3	 -2	 -1	 3	 -1	 -1	 -3	 1	 3	 -2	 -1	 -2	 -1	 2	 2	 -2	 -2	 -1	 1	 -3	 -2	 -2	 9.00	 12.00	 24.00	 27.00	 36.00	 1.91	 2.33	 174	 72	 0.413793103448276	 0.848780487804878	 0.351219512195122	 -1
-0.4	 -0.5	 10.4	 0.23	 0.41	 50.7	 -2	 -3	 -1	 0	 -1	 -2	 8	 -3	 -1	 -3	 -2	 1	 -2	 0	 0	 -1	 -2	 -3	 -2	 2	 -4	 -1	 0	 1	 -6	 5	 3	 -2	 7	 -6	 -5	 -1	 -4	 -5	 -4	 -2	 -2	 0	 -3	 -5	 14.00	 18.00	 24.00	 28.00	 42.00	 2.42	 3.19	 96	 73	 0.760416666666667	 0.521739130434783	 0.396739130434783	 -1
-0.64	 2	 11.6	 0.134	 0.12	 60.1	 -2	 -3	 1	 0	 -3	 0	 1	 -3	 0	 -3	 -2	 6	 -2	 0	 0	 1	 0	 -3	 -4	 -2	 -2	 0	 6	 1	 -3	 0	 0	 0	 1	 -3	 -3	 0	 -2	 -3	 -2	 1	 0	 -4	 -2	 -3	 14.00	 14.00	 16.00	 16.00	 30.00	 1.92	 2.00	 112	 82	 0.732142857142857	 0.713375796178344	 0.522292993630573	 1
0.53	 -1.8	 4.9	 0.186	 0.4	 27.6	 -1	 -1	 -4	 -3	 0	 -4	 -3	 2	 -2	 4	 2	 -3	 -3	 -2	 -2	 -2	 -1	 1	 -2	 -1	 -2	 -2	 0	 -2	 -3	 -1	 -1	 -3	 -3	 0	 4	 -2	 2	 0	 2	 0	 -1	 -4	 -3	 -1	 27.00	 28.00	 20.00	 21.00	 48.00	 7.12	 6.91	 173	 160	 0.92485549132948	 1.05487804878049	 0.975609756097561	 1
0.73	 -1.8	 5.2	 0.186	 0.44	 22.8	 -1	 -1	 -3	 -3	 0	 -4	 -3	 4	 -3	 2	 1	 -3	 -3	 -3	 -3	 -2	 -1	 3	 -3	 -1	 -2	 2	 -1	 -2	 -4	 2	 1	 -3	 3	 -1	 -2	 1	 -2	 -1	 -3	 0	 2	 -4	 1	 0	 23.00	 22.00	 25.00	 24.00	 47.00	 3.24	 3.19	 80	 72	 0.9	 0.473372781065089	 0.42603550295858	 -1
-1.1	 3	 11.3	 0.219	 -0.36	 103	 -1	 -3	 -1	 1	 -3	 -2	 -1	 -3	 5	 -2	 -1	 0	 -1	 1	 2	 0	 -1	 -2	 -3	 -2	 -1	 1	 -1	 -1	 -3	 0	 0	 -2	 -1	 2	 -1	 4	 0	 -2	 -2	 -1	 -1	 -3	 -2	 0	 15.00	 11.00	 27.00	 23.00	 38.00	 2.78	 2.74	 110	 3	 0.0272727272727273	 0.536585365853659	 0.0146341463414634	 -1
0.37	 -3.4	 5.4	 0.409	 0.83	 34.7	 -3	 -2	 -4	 -3	 1	 -2	 -2	 -3	 -3	 -2	 -1	 -4	 -4	 -2	 -3	 -3	 -2	 -3	 11	 2	 -4	 1	 2	 3	 -1	 1	 0	 -3	 2	 0	 -2	 -1	 -1	 -2	 -4	 1	 -3	 4	 1	 -1	 20.00	 23.00	 23.00	 26.00	 46.00	 2.94	 4.56	 39	 33	 0.846153846153846	 0.171806167400881	 0.145374449339207	 -1
-0.26	 0.3	 9.2	 0.062	 -0.33	 42	 1	 -1	 0	 0	 -2	 0	 -1	 -2	 0	 -2	 -1	 1	 -1	 0	 -1	 4	 1	 -2	 -3	 -2	 2	 0	 0	 2	 -1	 0	 0	 -1	 -1	 -2	 -2	 2	 -2	 -3	 -1	 2	 0	 -3	 -2	 -1	 0.00	 0.00	 20.00	 20.00	 20.00	 1.90	 2.00	 110	 5	 0.0454545454545455	 0.846153846153846	 0.0384615384615385	 -1
-0.26	 0.3	 9.2	 0.062	 -0.33	 42	 1	 -1	 0	 0	 -2	 0	 -1	 -2	 0	 -2	 -1	 1	 -1	 0	 -1	 4	 1	 -2	 -3	 -2	 -1	 0	 -1	 1	 -2	 -1	 0	 2	 2	 -2	 -2	 -1	 -2	 -1	 -2	 1	 -1	 7	 0	 -2	 19.00	 20.00	 25.00	 26.00	 45.00	 2.40	 2.00	 45	 22	 0.488888888888889	 0.346153846153846	 0.169230769230769	 -1
-0.26	 0.3	 9.2	 0.062	 -0.33	 42	 1	 -1	 0	 0	 -2	 0	 -1	 -2	 0	 -2	 -1	 1	 -1	 0	 -1	 4	 1	 -2	 -3	 -2	 0	 -1	 1	 3	 -2	 0	 0	 -1	 -1	 -3	 -3	 0	 -2	 -3	 -1	 3	 1	 -3	 -2	 -2	 13.00	 14.00	 16.00	 17.00	 30.00	 2.24	 2.00	 42	 7	 0.166666666666667	 0.323076923076923	 0.0538461538461538	 -1
0.73	 -1.8	 5.2	 0.186	 0.44	 22.8	 -1	 -1	 -3	 -3	 0	 -4	 -3	 4	 -3	 2	 1	 -3	 -3	 -3	 -3	 -2	 -1	 3	 -3	 -1	 -1	 1	 -3	 -3	 -4	 1	 -1	 -2	 1	 -1	 -1	 0	 -3	 0	 5	 -1	 1	 -4	 -2	 -1	 22.00	 22.00	 29.00	 29.00	 51.00	 2.40	 2.70	 114	 69	 0.605263157894737	 0.674556213017751	 0.408284023668639	 -1
-0.72	 3	 13	 0.105	 -0.38	 60.6	 -2	 -3	 6	 2	 -3	 -1	 -1	 -3	 -1	 -4	 -3	 1	 -1	 0	 -2	 0	 -1	 -3	 -4	 -3	 -1	 1	 2	 4	 -3	 2	 2	 -2	 3	 -3	 -3	 0	 -2	 -3	 -2	 0	 -1	 -3	 -1	 -3	 17.00	 16.00	 23.00	 22.00	 39.00	 3.96	 3.16	 107	 95	 0.88785046728972	 0.656441717791411	 0.582822085889571	 1
0.54	 -1.5	 5.9	 0.14	 0.27	 23.7	 0	 -1	 -3	 -2	 -1	 -3	 -3	 3	 -2	 1	 1	 -3	 -2	 -2	 -3	 -2	 0	 4	 -3	 -1	 -1	 -1	 -1	 -1	 1	 -1	 -1	 -2	 -1	 2	 1	 0	 0	 -2	 0	 0	 2	 -3	 -2	 1	 20.00	 22.00	 27.00	 29.00	 49.00	 3.37	 3.74	 70	 40	 0.571428571428571	 0.492957746478873	 0.28169014084507	 -1
-0.4	 -0.5	 10.4	 0.23	 0.41	 50.7	 -2	 -3	 -1	 0	 -1	 -2	 8	 -3	 -1	 -3	 -2	 1	 -2	 0	 0	 -1	 -2	 -3	 -2	 2	 -2	 0	 1	 -1	 -3	 0	 0	 -2	 8	 -3	 -3	 -1	 -2	 -1	 -2	 -1	 -2	 -2	 2	 -3	 19.00	 25.00	 17.00	 23.00	 42.00	 5.41	 5.20	 108	 108	 1	 0.58695652173913	 0.58695652173913	 1
-0.64	 2	 11.6	 0.134	 0.12	 60.1	 -2	 -3	 1	 0	 -3	 0	 1	 -3	 0	 -3	 -2	 6	 -2	 0	 0	 1	 0	 -3	 -4	 -2	 0	 -2	 3	 4	 -3	 0	 1	 1	 -2	 -3	 -3	 -1	 -3	 -2	 -2	 1	 -1	 -3	 -1	 -2	 12.00	 6.00	 19.00	 13.00	 25.00	 1.84	 2.00	 114	 17	 0.149122807017544	 0.726114649681529	 0.10828025477707	 -1
-1.76	 3	 10.5	 0.291	 0.27	 94.7	 -1	 -3	 -2	 0	 -3	 -2	 0	 -3	 2	 -2	 -1	 0	 -2	 1	 5	 -1	 -1	 -3	 -3	 -2	 0	 2	 -1	 -2	 3	 0	 -1	 4	 -2	 -3	 -3	 2	 -2	 -3	 -2	 -1	 -1	 -3	 -3	 -3	 28.00	 21.00	 27.00	 20.00	 48.00	 6.11	 6.25	 102	 96	 0.941176470588235	 0.411290322580645	 0.387096774193548	 -1
-0.62	 3	 12.3	 0.151	 -0.13	 68.2	 -1	 -4	 2	 5	 -3	 -2	 0	 -3	 1	 -3	 -2	 0	 -1	 2	 0	 0	 -1	 -2	 -3	 -2	 -2	 -1	 0	 3	 -5	 0	 5	 -1	 4	 -5	 -4	 -1	 -4	 -5	 -3	 1	 0	 -5	 -3	 -4	 7.00	 3.00	 24.00	 20.00	 27.00	 1.83	 2.00	 144	 32	 0.222222222222222	 0.742268041237113	 0.164948453608247	 -1
-1.76	 3	 10.5	 0.291	 0.27	 94.7	 -1	 -3	 -2	 0	 -3	 -2	 0	 -3	 2	 -2	 -1	 0	 -2	 1	 5	 -1	 -1	 -3	 -3	 -2	 -1	 0	 1	 -3	 -4	 -1	 -1	 -2	 2	 -1	 -1	 -1	 1	 2	 -1	 2	 -2	 3	 4	 -1	 32.00	 26.00	 33.00	 27.00	 59.00	 3.12	 3.95	 210	 199	 0.947619047619048	 0.846774193548387	 0.80241935483871	 -1
-0.72	 3	 13	 0.105	 -0.38	 60.6	 -2	 -3	 6	 2	 -3	 -1	 -1	 -3	 -1	 -4	 -3	 1	 -1	 0	 -2	 0	 -1	 -3	 -4	 -3	 -2	 -2	 1	 6	 -4	 0	 2	 -1	 -1	 -3	 -4	 -1	 -3	 -4	 -2	 0	 -1	 -5	 -3	 -3	 32.00	 27.00	 28.00	 23.00	 55.00	 7.83	 7.32	 92	 90	 0.978260869565217	 0.56441717791411	 0.552147239263804	 1
-0.72	 3	 13	 0.105	 -0.38	 60.6	 -2	 -3	 6	 2	 -3	 -1	 -1	 -3	 -1	 -4	 -3	 1	 -1	 0	 -2	 0	 -1	 -3	 -4	 -3	 -1	 1	 0	 1	 -3	 0	 1	 -2	 3	 -1	 -1	 1	 -2	 -1	 1	 1	 -1	 -3	 2	 -1	 23.00	 27.00	 9.00	 13.00	 36.00	 2.27	 2.00	 75	 5	 0.0666666666666667	 0.460122699386503	 0.0306748466257669	 1
-1.1	 3	 11.3	 0.219	 -0.36	 103	 -1	 -3	 -1	 1	 -3	 -2	 -1	 -3	 5	 -2	 -1	 0	 -1	 1	 2	 0	 -1	 -2	 -3	 -2	 -2	 0	 -1	 -1	 -3	 2	 1	 -2	 0	 1	 1	 1	 -1	 -2	 2	 0	 -1	 -4	 -1	 0	 23.00	 18.00	 24.00	 19.00	 42.00	 2.60	 2.55	 71	 19	 0.267605633802817	 0.346341463414634	 0.0926829268292683	 -1
-0.26	 0.3	 9.2	 0.062	 -0.33	 42	 1	 -1	 0	 0	 -2	 0	 -1	 -2	 0	 -2	 -1	 1	 -1	 0	 -1	 4	 1	 -2	 -3	 -2	 0	 -2	 2	 0	 0	 -1	 -1	 0	 -2	 -2	 -2	 0	 1	 -2	 1	 2	 2	 -3	 0	 -1	 22.00	 27.00	 14.00	 19.00	 41.00	 3.44	 2.94	 13	 12	 0.923076923076923	 0.1	 0.0923076923076923	 -1
-0.18	 -0.4	 8.6	 0.108	 -0.18	 45	 0	 -1	 -1	 -1	 -2	 -2	 -2	 -1	 -1	 -1	 -1	 0	 -1	 -1	 -1	 1	 5	 0	 -2	 -2	 -1	 -2	 1	 -1	 -1	 -1	 -1	 -2	 -2	 1	 -1	 -1	 1	 -2	 -2	 1	 5	 -3	 -2	 0	 25.00	 23.00	 19.00	 17.00	 42.00	 5.48	 5.24	 10	 8	 0.8	 0.0704225352112676	 0.0563380281690141	 -1
-0.64	 2	 11.6	 0.134	 0.12	 60.1	 -2	 -3	 1	 0	 -3	 0	 1	 -3	 0	 -3	 -2	 6	 -2	 0	 0	 1	 0	 -3	 -4	 -2	 0	 1	 2	 1	 -3	 0	 1	 -1	 2	 -2	 -2	 1	 -2	 0	 -1	 1	 0	 -2	 0	 -2	 12.00	 19.00	 15.00	 22.00	 34.00	 1.92	 2.58	 68	 28	 0.411764705882353	 0.43312101910828	 0.178343949044586	 -1
0.16	 0	 9	 0	 -0.07	 24.5	 0	 -3	 -1	 -2	 -3	 6	 -2	 -4	 -2	 -4	 -3	 0	 -2	 -2	 -2	 0	 -2	 -3	 -2	 -3	 1	 -1	 0	 -1	 -1	 -1	 -1	 4	 -1	 -2	 -2	 -1	 -1	 -2	 2	 0	 -1	 -1	 -1	 -1	 30.00	 31.00	 22.00	 23.00	 53.00	 1.61	 2.00	 72	 56	 0.777777777777778	 0.857142857142857	 0.666666666666667	 1
-0.26	 0.3	 9.2	 0.062	 -0.33	 42	 1	 -1	 0	 0	 -2	 0	 -1	 -2	 0	 -2	 -1	 1	 -1	 0	 -1	 4	 1	 -2	 -3	 -2	 0	 0	 3	 0	 -2	 -1	 1	 -1	 -1	 -2	 -3	 0	 -1	 -2	 2	 2	 0	 -3	 0	 -2	 11.00	 14.00	 22.00	 25.00	 36.00	 2.42	 2.00	 92	 53	 0.576086956521739	 0.707692307692308	 0.407692307692308	 -1
-0.72	 3	 13	 0.105	 -0.38	 60.6	 -2	 -3	 6	 2	 -3	 -1	 -1	 -3	 -1	 -4	 -3	 1	 -1	 0	 -2	 0	 -1	 -3	 -4	 -3	 -2	 -2	 1	 6	 -3	 0	 2	 -1	 -1	 -3	 -4	 -1	 -3	 -3	 -1	 0	 -1	 -4	 -3	 -3	 21.00	 14.00	 21.00	 14.00	 35.00	 3.83	 3.73	 37	 0	 0	 0.226993865030675	 0	 -1
-0.18	 -0.4	 8.6	 0.108	 -0.18	 45	 0	 -1	 -1	 -1	 -2	 -2	 -2	 -1	 -1	 -1	 -1	 0	 -1	 -1	 -1	 1	 5	 0	 -2	 -2	 -1	 -2	 -1	 1	 0	 -1	 1	 -2	 -2	 1	 0	 0	 -1	 1	 0	 0	 3	 -3	 -2	 0	 24.00	 27.00	 19.00	 22.00	 46.00	 4.63	 4.10	 15	 12	 0.8	 0.105633802816901	 0.0845070422535211	 -1
0.16	 0	 9	 0	 -0.07	 24.5	 0	 -3	 -1	 -2	 -3	 6	 -2	 -4	 -2	 -4	 -3	 0	 -2	 -2	 -2	 0	 -2	 -3	 -2	 -3	 -2	 -6	 0	 -5	 -6	 -5	 -5	 7	 -5	 -6	 -6	 -5	 -6	 -6	 -6	 -4	 -5	 -5	 1	 -6	 5.00	 10.00	 17.00	 22.00	 27.00	 1.81	 2.00	 6	 4	 0.666666666666667	 0.0714285714285714	 0.0476190476190476	 -1
