0.966235	0.033765
0.829806	0.170194
0.996941	0.003059
0.016172	0.983828
0.764581	0.235419
0.991237	0.008763
0.118689	0.881311
0.035031	0.964969
0.590009	0.409991
0.001564	0.998436
0.986396	0.013604
0.226298	0.773702
0.504111	0.495889
0.020086	0.979914
0.907611	0.092389
0.369775	0.630225
0.502601	0.497399
0.018579	0.981421
0.001106	0.998894
0.000322	0.999678
0.995402	0.004598
0.540311	0.459689
0.994025	0.005975
0.033118	0.966882
0.990617	0.009383
0.011528	0.988472
0.011829	0.988171
0.992308	0.007692
0.009774	0.990226
0.731980	0.268020
0.009192	0.990808
