0.999683	0.000317
0.950730	0.049270
0.998208	0.001792
0.030309	0.969691
0.995776	0.004224
0.599518	0.400482
0.442485	0.557515
0.006606	0.993394
0.978896	0.021104
0.951331	0.048669
0.999464	0.000536
0.984410	0.015590
0.680272	0.319728
0.000348	0.999652
0.300380	0.699620
0.943205	0.056795
0.950011	0.049989
0.950334	0.049666
0.908625	0.091375
0.006638	0.993362
0.046125	0.953875
0.809903	0.190097
0.539518	0.460482
0.996928	0.003072
0.259524	0.740476
0.563296	0.436704
0.999860	0.000140
0.763760	0.236240
0.863820	0.136180
0.998819	0.001181
0.999934	0.000066
0.002996	0.997004
