0.191219	0.808781
0.301221	0.698779
0.647852	0.352148
0.756653	0.243347
0.345218	0.654782
0.690670	0.309330
0.323779	0.676221
0.473216	0.526784
0.848309	0.151691
0.500000	0.500000
0.591868	0.408132
0.532592	0.467408
0.144827	0.855173
0.318768	0.681232
0.557524	0.442476
0.617529	0.382471
0.696941	0.303059
0.431643	0.568357
0.522092	0.477908
0.797336	0.202664
0.608330	0.391670
0.655469	0.344531
0.524120	0.475880
0.576218	0.423782
0.748385	0.251615
0.735770	0.264230
0.146152	0.853848
0.695355	0.304645
0.286668	0.713332
0.552196	0.447804
0.350557	0.649443
0.770239	0.229761
