0.276604	0.723396
0.400504	0.599496
0.363081	0.636919
0.846212	0.153788
0.309251	0.690749
0.440285	0.559715
0.765638	0.234362
0.514141	0.485859
0.465198	0.534802
0.250828	0.749172
0.617846	0.382154
0.743855	0.256145
0.251026	0.748974
0.273940	0.726060
0.601552	0.398448
0.532510	0.467490
0.278691	0.721309
0.575513	0.424487
0.482661	0.517339
0.478300	0.521700
0.667863	0.332137
0.575126	0.424874
0.786233	0.213767
0.755313	0.244687
0.545884	0.454116
0.321281	0.678719
0.277688	0.722312
0.464864	0.535136
0.657020	0.342980
0.731854	0.268146
0.312695	0.687305
