0.113582	0.886418
0.573356	0.426644
0.641780	0.358220
0.768534	0.231466
0.801159	0.198841
0.346693	0.653307
0.480012	0.519988
0.290956	0.709044
0.598808	0.401192
0.461787	0.538213
0.331391	0.668609
0.354580	0.645420
0.717510	0.282490
0.500000	0.500000
0.260203	0.739797
0.705020	0.294980
0.311450	0.688550
0.416473	0.583527
0.657458	0.342542
0.292580	0.707420
0.203638	0.796362
0.692600	0.307400
0.270760	0.729240
0.694411	0.305589
0.662607	0.337393
0.270481	0.729519
0.382715	0.617285
0.882730	0.117270
0.605512	0.394488
0.595621	0.404379
0.521262	0.478738
