0.419833	0.580167
0.391783	0.608217
0.765368	0.234632
0.771665	0.228335
0.582098	0.417902
0.425921	0.574079
0.606539	0.393461
0.731978	0.268022
0.551360	0.448640
0.352242	0.647758
0.568743	0.431257
0.311319	0.688681
0.483924	0.516076
0.641879	0.358121
0.269502	0.730498
0.713878	0.286122
0.635433	0.364567
0.645655	0.354345
0.662493	0.337507
0.549393	0.450607
0.303560	0.696440
0.637786	0.362214
0.286105	0.713895
0.478657	0.521343
0.718317	0.281683
0.261122	0.738878
0.523588	0.476412
0.764417	0.235583
0.331788	0.668212
0.385640	0.614360
0.601935	0.398065
0.360947	0.639053
