0.729895	0.270105
0.299360	0.700640
0.559534	0.440466
0.342482	0.657518
0.549570	0.450430
0.766364	0.233636
0.650936	0.349064
0.325343	0.674657
0.754175	0.245825
0.339652	0.660348
0.492123	0.507877
0.601662	0.398338
0.553877	0.446123
0.470299	0.529701
0.695934	0.304066
0.321542	0.678458
0.697854	0.302146
0.512602	0.487398
0.714908	0.285092
0.397861	0.602139
0.602456	0.397544
0.391365	0.608635
0.330982	0.669018
0.446127	0.553873
0.317353	0.682647
0.534867	0.465133
0.360996	0.639004
0.362495	0.637505
0.578536	0.421464
0.572504	0.427496
0.397203	0.602797
