0.645893	0.354107
0.307219	0.692781
0.541857	0.458143
0.138706	0.861294
0.624550	0.375450
0.512340	0.487660
0.602101	0.397899
0.309043	0.690957
0.903580	0.096420
0.839797	0.160203
0.686449	0.313551
0.288229	0.711771
0.398551	0.601449
0.704643	0.295357
0.380469	0.619531
0.301069	0.698931
0.533753	0.466247
0.656727	0.343273
0.222378	0.777622
0.489380	0.510620
0.520170	0.479830
0.120296	0.879704
0.701118	0.298882
0.455101	0.544899
0.270012	0.729988
0.373987	0.626013
0.826479	0.173521
0.627584	0.372416
0.522573	0.477427
0.635290	0.364710
0.583284	0.416716
