0.02	 -2.3	 6.2	 0.298	 0.66	 55.2	 -2	 -2	 -3	 -2	 3	 -3	 2	 -1	 -2	 -1	 -1	 -2	 -3	 -1	 -2	 -2	 -2	 -1	 2	 7	 -3	 -2	 -1	 -2	 -4	 0	 -2	 -4	 1	 -3	 -1	 -2	 1	 2	 -2	 -1	 -3	 3	 7	 -1	 30.00	 28.00	 30.00	 28.00	 58.00	 3.48	 4.77	 141	 122	 0.865248226950355	 0.635135135135135	 0.54954954954955	 1
0.53	 -1.8	 4.9	 0.186	 0.4	 27.6	 -1	 -1	 -4	 -3	 0	 -4	 -3	 2	 -2	 4	 2	 -3	 -3	 -2	 -2	 -2	 -1	 1	 -2	 -1	 -2	 -2	 -4	 -4	 -1	 -2	 -3	 -4	 -3	 2	 4	 -3	 2	 0	 -3	 -3	 -1	 -2	 -1	 1	 17.00	 17.00	 30.00	 30.00	 47.00	 3.54	 4.33	 47	 40	 0.851063829787234	 0.286585365853659	 0.24390243902439	 1
0.73	 -1.8	 5.2	 0.186	 0.44	 22.8	 -1	 -1	 -3	 -3	 0	 -4	 -3	 4	 -3	 2	 1	 -3	 -3	 -3	 -3	 -2	 -1	 3	 -3	 -1	 -1	 -3	 -3	 -3	 -1	 -3	 -3	 -4	 -3	 4	 2	 -3	 1	 0	 -3	 -2	 -1	 -3	 -1	 3	 20.00	 29.00	 10.00	 19.00	 39.00	 4.31	 4.50	 92	 83	 0.902173913043478	 0.544378698224852	 0.49112426035503	 1
0.02	 -2.3	 6.2	 0.298	 0.66	 55.2	 -2	 -2	 -3	 -2	 3	 -3	 2	 -1	 -2	 -1	 -1	 -2	 -3	 -1	 -2	 -2	 -2	 -1	 2	 7	 -2	 -2	 -2	 -3	 -3	 -2	 -3	 2	 1	 -2	 -2	 -2	 -2	 2	 -3	 -2	 -2	 1	 7	 -2	 29.00	 26.00	 24.00	 21.00	 50.00	 7.32	 6.53	 2	 0	 0	 0.00900900900900901	 0	 1
-1.1	 3	 11.3	 0.219	 -0.36	 103	 -1	 -3	 -1	 1	 -3	 -2	 -1	 -3	 5	 -2	 -1	 0	 -1	 1	 2	 0	 -1	 -2	 -3	 -2	 -1	 2	 -1	 -1	 -3	 1	 0	 -2	 -1	 0	 -1	 4	 -1	 -2	 -1	 -1	 -1	 -3	 -2	 -1	 24.00	 20.00	 26.00	 22.00	 46.00	 3.02	 2.93	 36	 25	 0.694444444444444	 0.175609756097561	 0.121951219512195	 -1
-0.62	 3	 12.3	 0.151	 -0.13	 68.2	 -1	 -4	 2	 5	 -3	 -2	 0	 -3	 1	 -3	 -2	 0	 -1	 2	 0	 0	 -1	 -2	 -3	 -2	 -1	 -1	 -1	 1	 -4	 1	 -1	 1	 -2	 -2	 -1	 -2	 -1	 1	 -3	 1	 -1	 4	 4	 0	 24.00	 27.00	 22.00	 25.00	 49.00	 8.63	 7.91	 28	 28	 1	 0.144329896907216	 0.144329896907216	 1
-0.69	 0.2	 10.5	 0.18	 -0.11	 68.7	 -1	 -3	 0	 2	 -3	 -2	 0	 -3	 1	 -2	 0	 0	 -1	 5	 1	 0	 -1	 -2	 -2	 -1	 0	 1	 1	 0	 -2	 3	 0	 -1	 1	 -2	 -2	 1	 -2	 -2	 1	 1	 -1	 -2	 2	 -1	 14.00	 5.00	 23.00	 14.00	 28.00	 2.19	 2.00	 126	 34	 0.26984126984127	 0.636363636363636	 0.171717171717172	 -1
-0.64	 2	 11.6	 0.134	 0.12	 60.1	 -2	 -3	 1	 0	 -3	 0	 1	 -3	 0	 -3	 -2	 6	 -2	 0	 0	 1	 0	 -3	 -4	 -2	 -2	 0	 6	 1	 -3	 0	 0	 0	 1	 -3	 -3	 0	 -2	 -3	 -2	 1	 0	 -4	 -2	 -3	 8.00	 10.00	 25.00	 27.00	 35.00	 2.10	 2.65	 99	 55	 0.555555555555556	 0.630573248407643	 0.35031847133758	 -1
-1.76	 3	 10.5	 0.291	 0.27	 94.7	 -1	 -3	 -2	 0	 -3	 -2	 0	 -3	 2	 -2	 -1	 0	 -2	 1	 5	 -1	 -1	 -3	 -3	 -2	 -1	 6	 -1	 -2	 -4	 1	 0	 -3	 -1	 -3	 -3	 2	 -2	 -3	 -2	 0	 -1	 -3	 -2	 -3	 20.00	 15.00	 32.00	 27.00	 47.00	 4.82	 7.32	 160	 133	 0.83125	 0.645161290322581	 0.536290322580645	 1
-1.1	 3	 11.3	 0.219	 -0.36	 103	 -1	 -3	 -1	 1	 -3	 -2	 -1	 -3	 5	 -2	 -1	 0	 -1	 1	 2	 0	 -1	 -2	 -3	 -2	 -1	 0	 -1	 2	 -1	 2	 1	 -3	 2	 -3	 -2	 0	 -1	 0	 -4	 1	 2	 1	 2	 -1	 7.00	 0.00	 32.00	 25.00	 32.00	 2.15	 2.00	 161	 0	 0	 0.785365853658537	 0	 1
-0.26	 0.3	 9.2	 0.062	 -0.33	 42	 1	 -1	 0	 0	 -2	 0	 -1	 -2	 0	 -2	 -1	 1	 -1	 0	 -1	 4	 1	 -2	 -3	 -2	 0	 -2	 -1	 -2	 -1	 -1	 -1	 -2	 -2	 0	 2	 -1	 1	 -1	 -2	 2	 0	 -2	 -1	 0	 4.00	 8.00	 17.00	 21.00	 25.00	 1.85	 2.31	 113	 34	 0.300884955752212	 0.869230769230769	 0.261538461538462	 -1
-1.76	 3	 10.5	 0.291	 0.27	 94.7	 -1	 -3	 -2	 0	 -3	 -2	 0	 -3	 2	 -2	 -1	 0	 -2	 1	 5	 -1	 -1	 -3	 -3	 -2	 -2	 7	 -1	 -3	 -5	 0	 -1	 -3	 -1	 -4	 -3	 1	 -2	 -4	 -3	 -2	 -2	 -4	 -3	 -4	 17.00	 17.00	 18.00	 18.00	 35.00	 4.82	 5.42	 23	 1	 0.0434782608695652	 0.092741935483871	 0.00403225806451613	 1
-1.76	 3	 10.5	 0.291	 0.27	 94.7	 -1	 -3	 -2	 0	 -3	 -2	 0	 -3	 2	 -2	 -1	 0	 -2	 1	 5	 -1	 -1	 -3	 -3	 -2	 -1	 4	 -1	 -1	 -3	 3	 1	 0	 1	 -3	 -1	 2	 -2	 -3	 -2	 -1	 -2	 1	 -1	 -2	 19.00	 19.00	 18.00	 18.00	 37.00	 2.01	 2.00	 161	 126	 0.782608695652174	 0.649193548387097	 0.508064516129032	 -1
-0.26	 0.3	 9.2	 0.062	 -0.33	 42	 1	 -1	 0	 0	 -2	 0	 -1	 -2	 0	 -2	 -1	 1	 -1	 0	 -1	 4	 1	 -2	 -3	 -2	 0	 -1	 0	 0	 -3	 1	 -1	 0	 4	 -1	 -3	 1	 -3	 1	 0	 2	 -1	 -3	 1	 -2	 30.00	 28.00	 21.00	 19.00	 49.00	 2.69	 2.34	 41	 31	 0.75609756097561	 0.315384615384615	 0.238461538461538	 -1
-1.76	 3	 10.5	 0.291	 0.27	 94.7	 -1	 -3	 -2	 0	 -3	 -2	 0	 -3	 2	 -2	 -1	 0	 -2	 1	 5	 -1	 -1	 -3	 -3	 -2	 -1	 5	 0	 -2	 -3	 1	 0	 -2	 0	 -3	 -2	 2	 -1	 -3	 -2	 -1	 -1	 -3	 -2	 -3	 28.00	 28.00	 22.00	 22.00	 50.00	 8.51	 8.92	 3	 3	 1	 0.0120967741935484	 0.0120967741935484	 1
-0.4	 -0.5	 10.4	 0.23	 0.41	 50.7	 -2	 -3	 -1	 0	 -1	 -2	 8	 -3	 -1	 -3	 -2	 1	 -2	 0	 0	 -1	 -2	 -3	 -2	 2	 -5	 -3	 0	 -1	 -6	 -2	 -3	 -5	 11	 -6	 -6	 -4	 -5	 -4	 -5	 -4	 -5	 -5	 -1	 -6	 22.00	 18.00	 32.00	 28.00	 50.00	 3.66	 3.83	 85	 62	 0.729411764705882	 0.46195652173913	 0.33695652173913	 -1
-0.62	 3	 12.3	 0.151	 -0.13	 68.2	 -1	 -4	 2	 5	 -3	 -2	 0	 -3	 1	 -3	 -2	 0	 -1	 2	 0	 0	 -1	 -2	 -3	 -2	 -2	 -1	 0	 2	 -4	 1	 4	 -3	 2	 0	 -1	 0	 0	 -3	 -3	 0	 0	 -4	 -1	 0	 23.00	 26.00	 32.00	 35.00	 58.00	 3.97	 5.15	 77	 56	 0.727272727272727	 0.396907216494845	 0.288659793814433	 1
-0.26	 0.3	 9.2	 0.062	 -0.33	 42	 1	 -1	 0	 0	 -2	 0	 -1	 -2	 0	 -2	 -1	 1	 -1	 0	 -1	 4	 1	 -2	 -3	 -2	 -1	 -2	 2	 -1	 -3	 0	 4	 -2	 -1	 1	 -3	 0	 -1	 -3	 0	 1	 2	 -4	 -3	 0	 18.00	 21.00	 21.00	 24.00	 42.00	 2.37	 2.00	 100	 77	 0.77	 0.769230769230769	 0.592307692307692	 -1
-0.26	 0.3	 9.2	 0.062	 -0.33	 42	 1	 -1	 0	 0	 -2	 0	 -1	 -2	 0	 -2	 -1	 1	 -1	 0	 -1	 4	 1	 -2	 -3	 -2	 2	 -1	 0	 -1	 -1	 -1	 0	 -1	 -2	 -3	 -3	 -1	 -2	 -3	 2	 4	 0	 -3	 -2	 -2	 24.00	 35.00	 19.00	 30.00	 54.00	 27.56	 28.10	 97	 87	 0.896907216494845	 0.746153846153846	 0.669230769230769	 1
-0.62	 3	 12.3	 0.151	 -0.13	 68.2	 -1	 -4	 2	 5	 -3	 -2	 0	 -3	 1	 -3	 -2	 0	 -1	 2	 0	 0	 -1	 -2	 -3	 -2	 3	 -2	 -2	 0	 -3	 0	 5	 -2	 -2	 -4	 -4	 -1	 -3	 -4	 -2	 -1	 -2	 -4	 -3	 -3	 21.00	 23.00	 19.00	 21.00	 42.00	 5.11	 5.09	 40	 40	 1	 0.206185567010309	 0.206185567010309	 1
-0.64	 2	 11.6	 0.134	 0.12	 60.1	 -2	 -3	 1	 0	 -3	 0	 1	 -3	 0	 -3	 -2	 6	 -2	 0	 0	 1	 0	 -3	 -4	 -2	 -3	 -2	 1	 -1	 7	 0	 1	 -1	 1	 -1	 -2	 -1	 -1	 -1	 1	 -1	 -1	 -7	 1	 -1	 13.00	 12.00	 24.00	 23.00	 36.00	 2.30	 3.09	 71	 34	 0.47887323943662	 0.452229299363057	 0.21656050955414	 -1
0.53	 -1.8	 4.9	 0.186	 0.4	 27.6	 -1	 -1	 -4	 -3	 0	 -4	 -3	 2	 -2	 4	 2	 -3	 -3	 -2	 -2	 -2	 -1	 1	 -2	 -1	 0	 0	 0	 -1	 2	 1	 2	 0	 1	 -2	 0	 0	 -1	 -2	 0	 0	 0	 -3	 0	 -1	 21.00	 14.00	 21.00	 14.00	 35.00	 2.43	 2.00	 128	 115	 0.8984375	 0.780487804878049	 0.701219512195122	 -1
-0.72	 3	 13	 0.105	 -0.38	 60.6	 -2	 -3	 6	 2	 -3	 -1	 -1	 -3	 -1	 -4	 -3	 1	 -1	 0	 -2	 0	 -1	 -3	 -4	 -3	 -1	 0	 3	 1	 -3	 1	 1	 -1	 2	 -1	 -2	 1	 -1	 -2	 0	 0	 0	 -3	 3	 -2	 19.00	 12.00	 27.00	 20.00	 39.00	 2.43	 2.29	 72	 51	 0.708333333333333	 0.441717791411043	 0.312883435582822	 -1
0.53	 -1.8	 4.9	 0.186	 0.4	 27.6	 -1	 -1	 -4	 -3	 0	 -4	 -3	 2	 -2	 4	 2	 -3	 -3	 -2	 -2	 -2	 -1	 1	 -2	 -1	 -1	 -1	 -2	 -1	 -2	 -2	 -1	 -2	 -2	 1	 2	 -1	 2	 0	 0	 -1	 -1	 5	 2	 0	 24.00	 22.00	 30.00	 28.00	 52.00	 3.17	 3.47	 33	 30	 0.909090909090909	 0.201219512195122	 0.182926829268293	 -1
-0.69	 0.2	 10.5	 0.18	 -0.11	 68.7	 -1	 -3	 0	 2	 -3	 -2	 0	 -3	 1	 -2	 0	 0	 -1	 5	 1	 0	 -1	 -2	 -2	 -1	 -3	 -1	 -2	 -3	 -5	 7	 0	 -4	 0	 -5	 -2	 3	 -3	 -5	 -4	 0	 -2	 -5	 -4	 -4	 23.00	 21.00	 23.00	 21.00	 44.00	 4.61	 5.28	 45	 29	 0.644444444444444	 0.227272727272727	 0.146464646464646	 -1
0.02	 -2.3	 6.2	 0.298	 0.66	 55.2	 -2	 -2	 -3	 -2	 3	 -3	 2	 -1	 -2	 -1	 -1	 -2	 -3	 -1	 -2	 -2	 -2	 -1	 2	 7	 -2	 -1	 -2	 1	 -2	 0	 -2	 -3	 -1	 0	 1	 -1	 2	 2	 -2	 -2	 -1	 3	 3	 1	 25.00	 23.00	 19.00	 17.00	 42.00	 6.71	 6.43	 125	 121	 0.968	 0.563063063063063	 0.545045045045045	 1
-1.1	 3	 11.3	 0.219	 -0.36	 103	 -1	 -3	 -1	 1	 -3	 -2	 -1	 -3	 5	 -2	 -1	 0	 -1	 1	 2	 0	 -1	 -2	 -3	 -2	 -1	 -1	 0	 -1	 -3	 -2	 -2	 2	 0	 0	 -4	 -1	 -3	 -4	 -2	 4	 3	 -4	 -3	 -2	 5.00	 12.00	 22.00	 29.00	 34.00	 2.27	 2.79	 101	 5	 0.0495049504950495	 0.492682926829268	 0.024390243902439	 -1
-0.72	 3	 13	 0.105	 -0.38	 60.6	 -2	 -3	 6	 2	 -3	 -1	 -1	 -3	 -1	 -4	 -3	 1	 -1	 0	 -2	 0	 -1	 -3	 -4	 -3	 -3	 -1	 4	 1	 -4	 1	 0	 2	 3	 -1	 -2	 0	 -4	 -4	 -2	 1	 -1	 -6	 -1	 -5	 23.00	 21.00	 24.00	 22.00	 45.00	 2.06	 2.72	 130	 98	 0.753846153846154	 0.797546012269939	 0.601226993865031	 1
-0.18	 -0.4	 8.6	 0.108	 -0.18	 45	 0	 -1	 -1	 -1	 -2	 -2	 -2	 -1	 -1	 -1	 -1	 0	 -1	 -1	 -1	 1	 5	 0	 -2	 -2	 -1	 -2	 1	 -1	 -1	 -1	 -1	 -2	 -2	 1	 -1	 -1	 1	 -2	 -2	 1	 5	 -3	 -2	 0	 25.00	 23.00	 19.00	 17.00	 42.00	 5.48	 5.24	 10	 8	 0.8	 0.0704225352112676	 0.0563380281690141	 -1
0.61	 -2.5	 5.2	 0.29	 0.82	 25.5	 -2	 -2	 -3	 -3	 6	 -3	 -1	 0	 -3	 0	 0	 -3	 -4	 -3	 -3	 -2	 -2	 -1	 1	 3	 -2	 -2	 -2	 1	 -3	 -1	 1	 -3	 -1	 -2	 -1	 -2	 -1	 5	 3	 -2	 -2	 0	 3	 -2	 25.00	 21.00	 13.00	 9.00	 34.00	 3.45	 2.00	 125	 105	 0.84	 0.634517766497462	 0.532994923857868	 1
0.54	 -1.5	 5.9	 0.14	 0.27	 23.7	 0	 -1	 -3	 -2	 -1	 -3	 -3	 3	 -2	 1	 1	 -3	 -2	 -2	 -3	 -2	 0	 4	 -3	 -1	 -1	 1	 0	 -1	 -3	 2	 -1	 -3	 -1	 1	 -2	 2	 0	 -3	 -2	 0	 1	 -4	 -2	 1	 13.00	 12.00	 36.00	 35.00	 48.00	 5.66	 5.41	 38	 36	 0.947368421052632	 0.267605633802817	 0.253521126760563	 1
-1.76	 3	 10.5	 0.291	 0.27	 94.7	 -1	 -3	 -2	 0	 -3	 -2	 0	 -3	 2	 -2	 -1	 0	 -2	 1	 5	 -1	 -1	 -3	 -3	 -2	 0	 1	 2	 1	 -3	 1	 1	 -2	 0	 -2	 0	 0	 0	 -2	 -1	 0	 0	 -3	 0	 -2	 26.00	 19.00	 31.00	 24.00	 50.00	 2.39	 2.20	 105	 44	 0.419047619047619	 0.423387096774194	 0.17741935483871	 -1
