-0.07	 0	 8	 0.131	 -0.25	 51.5	 -1	 -3	 -1	 -1	 -4	 -2	 -2	 -3	 -1	 -3	 -2	 -2	 7	 -1	 -2	 -1	 -1	 -2	 -4	 -3	 -1	 -1	 0	 -2	 -3	 0	 -1	 -2	 1	 1	 -2	 -1	 -1	 -1	 4	 -1	 1	 1	 -2	 1	 24.00	 21.00	 24.00	 21.00	 45.00	 5.24	 5.88	 34	 34	 1	 0.25	 0.25	 1
0.73	 -1.8	 5.2	 0.186	 0.44	 22.8	 -1	 -1	 -3	 -3	 0	 -4	 -3	 4	 -3	 2	 1	 -3	 -3	 -3	 -3	 -2	 -1	 3	 -3	 -1	 -1	 -3	 -3	 -3	 -1	 -3	 -3	 -4	 -3	 4	 2	 -3	 1	 0	 -3	 -2	 -1	 -3	 -1	 3	 23.00	 20.00	 22.00	 19.00	 42.00	 4.96	 5.07	 26	 26	 1	 0.153846153846154	 0.153846153846154	 1
-0.72	 3	 13	 0.105	 -0.38	 60.6	 -2	 -3	 6	 2	 -3	 -1	 -1	 -3	 -1	 -4	 -3	 1	 -1	 0	 -2	 0	 -1	 -3	 -4	 -3	 0	 -1	 2	 3	 -3	 1	 1	 1	 0	 -2	 -2	 -1	 -2	 -2	 -2	 2	 0	 -3	 -2	 -2	 19.00	 16.00	 22.00	 19.00	 38.00	 2.36	 2.00	 119	 78	 0.65546218487395	 0.730061349693252	 0.478527607361963	 1
0.02	 -2.3	 6.2	 0.298	 0.66	 55.2	 -2	 -2	 -3	 -2	 3	 -3	 2	 -1	 -2	 -1	 -1	 -2	 -3	 -1	 -2	 -2	 -2	 -1	 2	 7	 -3	 -3	 -3	 -4	 -3	 -3	 -3	 -4	 3	 -2	 -1	 -3	 -2	 3	 -4	 -3	 -1	 6	 7	 -1	 31.00	 29.00	 25.00	 23.00	 54.00	 5.21	 5.44	 0	 0	 0	 0	 0	 1
-0.62	 3	 12.3	 0.151	 -0.13	 68.2	 -1	 -4	 2	 5	 -3	 -2	 0	 -3	 1	 -3	 -2	 0	 -1	 2	 0	 0	 -1	 -2	 -3	 -2	 -1	 0	 0	 1	 -4	 2	 5	 -2	 0	 -3	 -3	 1	 -2	 -3	 -1	 0	 -1	 -3	 -2	 -2	 21.00	 28.00	 24.00	 31.00	 52.00	 5.16	 5.71	 70	 69	 0.985714285714286	 0.360824742268041	 0.355670103092784	 1
-1.1	 3	 11.3	 0.219	 -0.36	 103	 -1	 -3	 -1	 1	 -3	 -2	 -1	 -3	 5	 -2	 -1	 0	 -1	 1	 2	 0	 -1	 -2	 -3	 -2	 0	 4	 0	 -1	 -3	 0	 0	 1	 -1	 -3	 -3	 3	 -2	 -3	 -2	 1	 -1	 -3	 -2	 -2	 20.00	 17.00	 28.00	 25.00	 45.00	 3.53	 4.26	 53	 10	 0.188679245283019	 0.258536585365854	 0.0487804878048781	 -1
-0.26	 0.3	 9.2	 0.062	 -0.33	 42	 1	 -1	 0	 0	 -2	 0	 -1	 -2	 0	 -2	 -1	 1	 -1	 0	 -1	 4	 1	 -2	 -3	 -2	 0	 -1	 1	 3	 -2	 0	 0	 -1	 -1	 -3	 -3	 0	 -2	 -3	 -1	 3	 1	 -3	 -2	 -2	 13.00	 14.00	 16.00	 17.00	 30.00	 2.24	 2.00	 42	 7	 0.166666666666667	 0.323076923076923	 0.0538461538461538	 -1
-0.62	 3	 12.3	 0.151	 -0.13	 68.2	 -1	 -4	 2	 5	 -3	 -2	 0	 -3	 1	 -3	 -2	 0	 -1	 2	 0	 0	 -1	 -2	 -3	 -2	 0	 -2	 -1	 3	 -3	 1	 1	 -2	 0	 -1	 -2	 -1	 -2	 -3	 4	 -1	 -1	 -4	 -3	 -1	 12.00	 14.00	 23.00	 25.00	 37.00	 1.76	 2.00	 161	 70	 0.434782608695652	 0.829896907216495	 0.360824742268041	 1
-0.26	 0.3	 9.2	 0.062	 -0.33	 42	 1	 -1	 0	 0	 -2	 0	 -1	 -2	 0	 -2	 -1	 1	 -1	 0	 -1	 4	 1	 -2	 -3	 -2	 0	 2	 -1	 -1	 -2	 2	 0	 -1	 -1	 -3	 -2	 3	 -2	 -3	 -1	 2	 0	 -3	 -2	 -2	 30.00	 27.00	 22.00	 19.00	 49.00	 2.74	 2.00	 40	 40	 1	 0.307692307692308	 0.307692307692308	 -1
-0.62	 3	 12.3	 0.151	 -0.13	 68.2	 -1	 -4	 2	 5	 -3	 -2	 0	 -3	 1	 -3	 -2	 0	 -1	 2	 0	 0	 -1	 -2	 -3	 -2	 -2	 -1	 0	 -2	 0	 -1	 3	 -3	 4	 0	 0	 1	 -2	 0	 -3	 -1	 1	 1	 2	 -1	 14.00	 10.00	 29.00	 25.00	 39.00	 3.02	 3.59	 58	 30	 0.517241379310345	 0.298969072164948	 0.154639175257732	 -1
0.02	 -2.3	 6.2	 0.298	 0.66	 55.2	 -2	 -2	 -3	 -2	 3	 -3	 2	 -1	 -2	 -1	 -1	 -2	 -3	 -1	 -2	 -2	 -2	 -1	 2	 7	 -2	 -2	 -2	 -3	 -3	 -2	 -2	 -3	 2	 -2	 -1	 -2	 -1	 3	 -3	 -2	 -2	 2	 7	 -1	 17.00	 12.00	 18.00	 13.00	 30.00	 2.44	 2.00	 163	 100	 0.613496932515337	 0.734234234234234	 0.45045045045045	 1
-0.4	 -0.5	 10.4	 0.23	 0.41	 50.7	 -2	 -3	 -1	 0	 -1	 -2	 8	 -3	 -1	 -3	 -2	 1	 -2	 0	 0	 -1	 -2	 -3	 -2	 2	 -5	 -3	 0	 -1	 -6	 -2	 -3	 -5	 11	 -6	 -6	 -4	 -5	 -4	 -5	 -4	 -5	 -5	 -1	 -6	 22.00	 18.00	 32.00	 28.00	 50.00	 3.66	 3.83	 85	 62	 0.729411764705882	 0.46195652173913	 0.33695652173913	 -1
0.53	 -1.8	 4.9	 0.186	 0.4	 27.6	 -1	 -1	 -4	 -3	 0	 -4	 -3	 2	 -2	 4	 2	 -3	 -3	 -2	 -2	 -2	 -1	 1	 -2	 -1	 -1	 -1	 0	 -2	 -2	 -1	 -2	 -3	 -2	 2	 2	 0	 1	 2	 -2	 -1	 0	 -2	 -1	 2	 23.00	 22.00	 18.00	 17.00	 40.00	 5.12	 4.91	 65	 65	 1	 0.396341463414634	 0.396341463414634	 -1
0.02	 -2.3	 6.2	 0.298	 0.66	 55.2	 -2	 -2	 -3	 -2	 3	 -3	 2	 -1	 -2	 -1	 -1	 -2	 -3	 -1	 -2	 -2	 -2	 -1	 2	 7	 -2	 1	 1	 2	 -5	 2	 1	 0	 0	 -3	 -1	 1	 -2	 0	 0	 0	 -1	 -1	 2	 -3	 23.00	 24.00	 28.00	 29.00	 52.00	 2.48	 2.00	 183	 176	 0.961748633879781	 0.824324324324324	 0.792792792792793	 1
0.02	 -2.3	 6.2	 0.298	 0.66	 55.2	 -2	 -2	 -3	 -2	 3	 -3	 2	 -1	 -2	 -1	 -1	 -2	 -3	 -1	 -2	 -2	 -2	 -1	 2	 7	 -2	 -2	 -2	 -3	 -3	 -2	 -2	 -3	 2	 -2	 -1	 -2	 -1	 3	 -3	 -2	 -2	 2	 7	 -1	 16.00	 13.00	 23.00	 20.00	 36.00	 2.37	 2.00	 176	 102	 0.579545454545455	 0.792792792792793	 0.459459459459459	 1
-1.1	 3	 11.3	 0.219	 -0.36	 103	 -1	 -3	 -1	 1	 -3	 -2	 -1	 -3	 5	 -2	 -1	 0	 -1	 1	 2	 0	 -1	 -2	 -3	 -2	 -1	 2	 0	 -1	 -3	 1	 1	 -2	 -1	 -3	 -2	 4	 -1	 -3	 -1	 0	 -1	 -3	 -2	 -2	 23.00	 24.00	 27.00	 28.00	 51.00	 2.37	 2.64	 158	 152	 0.962025316455696	 0.770731707317073	 0.741463414634146	 -1
-0.64	 2	 11.6	 0.134	 0.12	 60.1	 -2	 -3	 1	 0	 -3	 0	 1	 -3	 0	 -3	 -2	 6	 -2	 0	 0	 1	 0	 -3	 -4	 -2	 -3	 -3	 3	 0	 -5	 -1	 -2	 0	 1	 -3	 -2	 -2	 -2	 -1	 2	 2	 1	 -4	 4	 -4	 20.00	 21.00	 26.00	 27.00	 47.00	 2.93	 2.58	 70	 54	 0.771428571428571	 0.445859872611465	 0.343949044585987	 1
-0.18	 -0.4	 8.6	 0.108	 -0.18	 45	 0	 -1	 -1	 -1	 -2	 -2	 -2	 -1	 -1	 -1	 -1	 0	 -1	 -1	 -1	 1	 5	 0	 -2	 -2	 -1	 -1	 0	 -2	 -4	 0	 0	 -1	 -1	 -3	 -1	 0	 0	 -2	 4	 1	 1	 -1	 0	 -2	 23.00	 27.00	 24.00	 28.00	 51.00	 2.83	 3.46	 103	 87	 0.844660194174757	 0.725352112676056	 0.612676056338028	 -1
-1.1	 3	 11.3	 0.219	 -0.36	 103	 -1	 -3	 -1	 1	 -3	 -2	 -1	 -3	 5	 -2	 -1	 0	 -1	 1	 2	 0	 -1	 -2	 -3	 -2	 -1	 2	 0	 -1	 -3	 1	 1	 -2	 -1	 -3	 -3	 5	 -2	 -3	 -1	 0	 -1	 -3	 -2	 -2	 16.00	 15.00	 26.00	 25.00	 41.00	 2.45	 2.00	 87	 45	 0.517241379310345	 0.424390243902439	 0.219512195121951	 -1
0.16	 0	 9	 0	 -0.07	 24.5	 0	 -3	 -1	 -2	 -3	 6	 -2	 -4	 -2	 -4	 -3	 0	 -2	 -2	 -2	 0	 -2	 -3	 -2	 -3	 -1	 0	 1	 1	 -3	 0	 0	 1	 -1	 0	 -1	 -1	 -2	 0	 -1	 1	 0	 2	 2	 -1	 10.00	 14.00	 28.00	 32.00	 42.00	 1.85	 2.00	 16	 0	 0	 0.19047619047619	 0	 1
0.02	 -2.3	 6.2	 0.298	 0.66	 55.2	 -2	 -2	 -3	 -2	 3	 -3	 2	 -1	 -2	 -1	 -1	 -2	 -3	 -1	 -2	 -2	 -2	 -1	 2	 7	 0	 1	 1	 0	 1	 0	 -1	 -1	 0	 -4	 -2	 -2	 -1	 -1	 -2	 3	 0	 3	 0	 -2	 21.00	 21.00	 24.00	 24.00	 45.00	 3.46	 4.35	 121	 117	 0.966942148760331	 0.545045045045045	 0.527027027027027	 1
-0.62	 3	 12.3	 0.151	 -0.13	 68.2	 -1	 -4	 2	 5	 -3	 -2	 0	 -3	 1	 -3	 -2	 0	 -1	 2	 0	 0	 -1	 -2	 -3	 -2	 -1	 0	 0	 2	 -4	 2	 5	 -2	 0	 -3	 -3	 1	 -2	 -3	 -1	 0	 -1	 -3	 -2	 -2	 15.00	 15.00	 11.00	 11.00	 26.00	 2.38	 2.00	 153	 77	 0.503267973856209	 0.788659793814433	 0.396907216494845	 -1
0.37	 -3.4	 5.4	 0.409	 0.83	 34.7	 -3	 -2	 -4	 -3	 1	 -2	 -2	 -3	 -3	 -2	 -1	 -4	 -4	 -2	 -3	 -3	 -2	 -3	 11	 2	 -1	 -1	 0	 0	 -2	 -1	 0	 -1	 1	 0	 -1	 0	 -1	 -1	 2	 1	 0	 2	 2	 -1	 22.00	 20.00	 31.00	 29.00	 51.00	 6.00	 6.62	 63	 26	 0.412698412698413	 0.277533039647577	 0.114537444933921	 1
0.02	 -2.3	 6.2	 0.298	 0.66	 55.2	 -2	 -2	 -3	 -2	 3	 -3	 2	 -1	 -2	 -1	 -1	 -2	 -3	 -1	 -2	 -2	 -2	 -1	 2	 7	 -1	 -2	 -1	 -2	 -2	 -2	 -2	 1	 0	 1	 -1	 -2	 -1	 2	 -2	 0	 -1	 0	 5	 -1	 26.00	 26.00	 29.00	 29.00	 55.00	 3.24	 4.83	 33	 26	 0.787878787878788	 0.148648648648649	 0.117117117117117	 1
-0.64	 2	 11.6	 0.134	 0.12	 60.1	 -2	 -3	 1	 0	 -3	 0	 1	 -3	 0	 -3	 -2	 6	 -2	 0	 0	 1	 0	 -3	 -4	 -2	 0	 1	 2	 1	 -3	 0	 1	 -1	 2	 -2	 -2	 1	 -2	 0	 -1	 1	 0	 -2	 0	 -2	 12.00	 19.00	 15.00	 22.00	 34.00	 1.92	 2.58	 68	 28	 0.411764705882353	 0.43312101910828	 0.178343949044586	 -1
-0.18	 -0.4	 8.6	 0.108	 -0.18	 45	 0	 -1	 -1	 -1	 -2	 -2	 -2	 -1	 -1	 -1	 -1	 0	 -1	 -1	 -1	 1	 5	 0	 -2	 -2	 -1	 -2	 -1	 1	 0	 -1	 1	 -2	 -2	 1	 0	 0	 -1	 1	 0	 0	 3	 -3	 -2	 0	 24.00	 27.00	 19.00	 22.00	 46.00	 4.63	 4.10	 15	 12	 0.8	 0.105633802816901	 0.0845070422535211	 -1
0.37	 -3.4	 5.4	 0.409	 0.83	 34.7	 -3	 -2	 -4	 -3	 1	 -2	 -2	 -3	 -3	 -2	 -1	 -4	 -4	 -2	 -3	 -3	 -2	 -3	 11	 2	 -4	 -5	 -5	 -6	 -4	 -4	 -5	 -4	 -4	 -4	 -4	 -5	 -3	 0	 -5	 -5	 -4	 12	 0	 -5	 25.00	 25.00	 22.00	 22.00	 47.00	 3.56	 5.17	 35	 21	 0.6	 0.154185022026432	 0.092511013215859	 -1
-1.76	 3	 10.5	 0.291	 0.27	 94.7	 -1	 -3	 -2	 0	 -3	 -2	 0	 -3	 2	 -2	 -1	 0	 -2	 1	 5	 -1	 -1	 -3	 -3	 -2	 -3	 4	 0	 -3	 -5	 1	 0	 -4	 -3	 -5	 -5	 6	 -3	 -5	 -4	 -1	 1	 -5	 -4	 -4	 23.00	 27.00	 24.00	 28.00	 51.00	 3.17	 4.21	 104	 64	 0.615384615384615	 0.419354838709677	 0.258064516129032	 1
-1.1	 3	 11.3	 0.219	 -0.36	 103	 -1	 -3	 -1	 1	 -3	 -2	 -1	 -3	 5	 -2	 -1	 0	 -1	 1	 2	 0	 -1	 -2	 -3	 -2	 -2	 4	 1	 -2	 -4	 0	 -1	 0	 0	 -4	 -1	 3	 1	 -1	 -4	 -1	 2	 -4	 0	 -3	 39.00	 33.00	 31.00	 25.00	 64.00	 6.94	 6.62	 184	 180	 0.978260869565217	 0.897560975609756	 0.878048780487805	 1
-0.26	 0.3	 9.2	 0.062	 -0.33	 42	 1	 -1	 0	 0	 -2	 0	 -1	 -2	 0	 -2	 -1	 1	 -1	 0	 -1	 4	 1	 -2	 -3	 -2	 1	 -1	 0	 0	 -1	 0	 2	 -1	 -1	 -2	 -2	 0	 -1	 -3	 -1	 2	 3	 -3	 -2	 -1	 4.00	 3.00	 23.00	 22.00	 26.00	 2.34	 2.00	 41	 8	 0.195121951219512	 0.315384615384615	 0.0615384615384615	 -1
0.53	 -1.8	 4.9	 0.186	 0.4	 27.6	 -1	 -1	 -4	 -3	 0	 -4	 -3	 2	 -2	 4	 2	 -3	 -3	 -2	 -2	 -2	 -1	 1	 -2	 -1	 -2	 -2	 -2	 1	 -2	 -2	 -2	 -3	 -1	 0	 3	 -2	 0	 0	 3	 -2	 -1	 -1	 2	 0	 16.00	 18.00	 17.00	 19.00	 35.00	 2.84	 2.97	 34	 13	 0.382352941176471	 0.207317073170732	 0.0792682926829268	 1
