0.670875	0.329125
0.807386	0.192614
0.251061	0.748939
0.687225	0.312775
0.310152	0.689848
0.604841	0.395159
0.559193	0.440807
0.461719	0.538281
0.285672	0.714328
0.249288	0.750712
0.777346	0.222654
0.419004	0.580996
0.204046	0.795954
0.304156	0.695844
0.150394	0.849606
0.346602	0.653398
0.225209	0.774791
0.203970	0.796030
0.187790	0.812210
0.347958	0.652042
0.712147	0.287853
0.146838	0.853162
0.686481	0.313519
0.456806	0.543194
0.530186	0.469814
0.173124	0.826876
0.667867	0.332133
0.565795	0.434205
0.910614	0.089386
0.630975	0.369025
0.755203	0.244797
