0.790879	0.209121
0.391543	0.608457
0.206411	0.793589
0.247058	0.752942
0.351667	0.648333
0.145094	0.854906
0.822180	0.177820
0.721913	0.278087
0.245795	0.754205
0.552466	0.447534
0.578243	0.421757
0.584057	0.415943
0.432919	0.567081
0.516153	0.483847
0.353489	0.646511
0.712795	0.287205
0.762549	0.237451
0.559914	0.440086
0.468707	0.531293
0.526210	0.473790
0.807461	0.192539
0.157610	0.842390
0.530229	0.469771
0.257108	0.742892
0.403165	0.596835
0.648438	0.351562
0.546981	0.453019
0.346134	0.653866
0.329373	0.670627
0.587149	0.412851
0.303877	0.696123
