0.685529	0.314471
0.540405	0.459595
0.780465	0.219535
0.438035	0.561965
0.659838	0.340162
0.367370	0.632630
0.536505	0.463495
0.835974	0.164026
0.838853	0.161147
0.457409	0.542591
0.620828	0.379172
0.771291	0.228709
0.739464	0.260536
0.453320	0.546680
0.400847	0.599153
0.261217	0.738783
0.390194	0.609806
0.158713	0.841287
0.244233	0.755767
0.878119	0.121881
0.500000	0.500000
0.685426	0.314574
0.288971	0.711029
0.294792	0.705208
0.187832	0.812168
0.179535	0.820465
0.686692	0.313308
0.217785	0.782215
0.170728	0.829272
0.865362	0.134638
0.849474	0.150526
