-1.76	 3	 10.5	 0.291	 0.27	 94.7	 -1	 -3	 -2	 0	 -3	 -2	 0	 -3	 2	 -2	 -1	 0	 -2	 1	 5	 -1	 -1	 -3	 -3	 -2	 0	 4	 0	 0	 -2	 1	 -1	 -2	 -2	 -2	 -2	 3	 -1	 -2	 -3	 1	 -1	 -4	 -3	 -1	 21.00	 18.00	 21.00	 18.00	 39.00	 2.03	 2.00	 180	 146	 0.811111111111111	 0.725806451612903	 0.588709677419355	 -1
0.02	 -2.3	 6.2	 0.298	 0.66	 55.2	 -2	 -2	 -3	 -2	 3	 -3	 2	 -1	 -2	 -1	 -1	 -2	 -3	 -1	 -2	 -2	 -2	 -1	 2	 7	 -1	 0	 -1	 0	 -3	 -1	 0	 1	 -1	 0	 -1	 -1	 -1	 1	 -1	 1	 -1	 2	 3	 -1	 11.00	 15.00	 27.00	 31.00	 42.00	 2.56	 3.37	 117	 57	 0.487179487179487	 0.527027027027027	 0.256756756756757	 -1
0.54	 -1.5	 5.9	 0.14	 0.27	 23.7	 0	 -1	 -3	 -2	 -1	 -3	 -3	 3	 -2	 1	 1	 -3	 -2	 -2	 -3	 -2	 0	 4	 -3	 -1	 0	 -1	 -1	 -1	 -2	 1	 1	 -2	 -1	 0	 0	 -1	 0	 -2	 4	 -1	 0	 -2	 -2	 1	 16.00	 16.00	 15.00	 15.00	 31.00	 1.84	 2.16	 90	 34	 0.377777777777778	 0.633802816901408	 0.23943661971831	 1
-0.18	 -0.4	 8.6	 0.108	 -0.18	 45	 0	 -1	 -1	 -1	 -2	 -2	 -2	 -1	 -1	 -1	 -1	 0	 -1	 -1	 -1	 1	 5	 0	 -2	 -2	 -1	 -1	 0	 -2	 -4	 0	 0	 -1	 -1	 -3	 -1	 0	 0	 -2	 4	 1	 1	 -1	 0	 -2	 23.00	 27.00	 24.00	 28.00	 51.00	 2.83	 3.46	 103	 87	 0.844660194174757	 0.725352112676056	 0.612676056338028	 -1
0.73	 -1.8	 5.2	 0.186	 0.44	 22.8	 -1	 -1	 -3	 -3	 0	 -4	 -3	 4	 -3	 2	 1	 -3	 -3	 -3	 -3	 -2	 -1	 3	 -3	 -1	 -1	 -3	 -4	 -3	 -1	 -3	 -3	 -4	 -4	 5	 2	 -3	 1	 0	 -3	 -3	 -1	 -3	 -1	 3	 16.00	 16.00	 34.00	 34.00	 50.00	 5.19	 5.84	 28	 24	 0.857142857142857	 0.165680473372781	 0.142011834319527	 -1
0.53	 -1.8	 4.9	 0.186	 0.4	 27.6	 -1	 -1	 -4	 -3	 0	 -4	 -3	 2	 -2	 4	 2	 -3	 -3	 -2	 -2	 -2	 -1	 1	 -2	 -1	 -2	 2	 -1	 -1	 -5	 2	 -1	 -3	 1	 -3	 0	 0	 -4	 -2	 5	 -1	 -2	 -1	 1	 -2	 10.00	 5.00	 27.00	 22.00	 32.00	 2.34	 2.18	 92	 1	 0.0108695652173913	 0.560975609756098	 0.00609756097560976	 -1
-0.18	 -0.4	 8.6	 0.108	 -0.18	 45	 0	 -1	 -1	 -1	 -2	 -2	 -2	 -1	 -1	 -1	 -1	 0	 -1	 -1	 -1	 1	 5	 0	 -2	 -2	 0	 -1	 0	 -1	 -1	 -1	 -1	 -2	 -2	 -1	 -1	 -1	 -1	 -2	 -1	 1	 5	 -3	 -2	 0	 28.00	 28.00	 23.00	 23.00	 51.00	 5.06	 5.22	 18	 16	 0.888888888888889	 0.126760563380282	 0.112676056338028	 1
-1.1	 3	 11.3	 0.219	 -0.36	 103	 -1	 -3	 -1	 1	 -3	 -2	 -1	 -3	 5	 -2	 -1	 0	 -1	 1	 2	 0	 -1	 -2	 -3	 -2	 -1	 -1	 -1	 -1	 -2	 1	 0	 -2	 1	 0	 1	 1	 -1	 -2	 2	 0	 1	 -3	 -2	 1	 27.00	 28.00	 21.00	 22.00	 49.00	 6.04	 5.98	 114	 88	 0.771929824561403	 0.55609756097561	 0.429268292682927	 -1
-0.07	 0	 8	 0.131	 -0.25	 51.5	 -1	 -3	 -1	 -1	 -4	 -2	 -2	 -3	 -1	 -3	 -2	 -2	 7	 -1	 -2	 -1	 -1	 -2	 -4	 -3	 1	 -2	 -2	 -1	 -2	 -1	 -1	 2	 -2	 -2	 -3	 -1	 -2	 -3	 6	 0	 -1	 -3	 -2	 -2	 10.00	 8.00	 16.00	 14.00	 24.00	 1.89	 2.00	 124	 36	 0.290322580645161	 0.911764705882353	 0.264705882352941	 1
-0.62	 3	 12.3	 0.151	 -0.13	 68.2	 -1	 -4	 2	 5	 -3	 -2	 0	 -3	 1	 -3	 -2	 0	 -1	 2	 0	 0	 -1	 -2	 -3	 -2	 0	 -2	 -1	 3	 -3	 1	 1	 -2	 0	 -1	 -2	 -1	 -2	 -3	 4	 -1	 -1	 -4	 -3	 -1	 12.00	 14.00	 23.00	 25.00	 37.00	 1.76	 2.00	 161	 70	 0.434782608695652	 0.829896907216495	 0.360824742268041	 1
-0.62	 3	 12.3	 0.151	 -0.13	 68.2	 -1	 -4	 2	 5	 -3	 -2	 0	 -3	 1	 -3	 -2	 0	 -1	 2	 0	 0	 -1	 -2	 -3	 -2	 -1	 0	 0	 2	 -4	 2	 5	 -2	 0	 -3	 -3	 1	 -2	 -3	 -1	 0	 -1	 -3	 -2	 -2	 22.00	 22.00	 25.00	 25.00	 47.00	 2.52	 2.00	 108	 108	 1	 0.556701030927835	 0.556701030927835	 1
0.02	 -2.3	 6.2	 0.298	 0.66	 55.2	 -2	 -2	 -3	 -2	 3	 -3	 2	 -1	 -2	 -1	 -1	 -2	 -3	 -1	 -2	 -2	 -2	 -1	 2	 7	 -2	 -2	 -2	 -3	 -3	 -2	 -2	 -3	 2	 -2	 -1	 -2	 -1	 3	 -3	 -2	 -2	 2	 7	 -1	 28.00	 28.00	 22.00	 22.00	 50.00	 5.35	 3.77	 98	 96	 0.979591836734694	 0.441441441441441	 0.432432432432432	 1
-0.69	 0.2	 10.5	 0.18	 -0.11	 68.7	 -1	 -3	 0	 2	 -3	 -2	 0	 -3	 1	 -2	 0	 0	 -1	 5	 1	 0	 -1	 -2	 -2	 -1	 -1	 3	 0	 -1	 -3	 3	 1	 -2	 -1	 -3	 -3	 2	 -1	 -3	 2	 1	 1	 -3	 -2	 -2	 29.00	 27.00	 22.00	 20.00	 49.00	 2.31	 2.37	 20	 12	 0.6	 0.101010101010101	 0.0606060606060606	 1
-0.64	 2	 11.6	 0.134	 0.12	 60.1	 -2	 -3	 1	 0	 -3	 0	 1	 -3	 0	 -3	 -2	 6	 -2	 0	 0	 1	 0	 -3	 -4	 -2	 -1	 -1	 5	 1	 -2	 0	 0	 0	 0	 -3	 -3	 0	 -2	 -3	 -2	 2	 0	 -4	 -2	 -3	 24.00	 27.00	 23.00	 26.00	 50.00	 5.25	 5.55	 25	 25	 1	 0.159235668789809	 0.159235668789809	 1
0.61	 -2.5	 5.2	 0.29	 0.82	 25.5	 -2	 -2	 -3	 -3	 6	 -3	 -1	 0	 -3	 0	 0	 -3	 -4	 -3	 -3	 -2	 -2	 -1	 1	 3	 -3	 -5	 -3	 -6	 -5	 -4	 -5	 -6	 0	 -3	 -1	 -3	 -3	 5	 -6	 -3	 -4	 -1	 8	 -4	 29.00	 24.00	 30.00	 25.00	 54.00	 6.44	 7.36	 6	 6	 1	 0.0304568527918782	 0.0304568527918782	 -1
0.53	 -1.8	 4.9	 0.186	 0.4	 27.6	 -1	 -1	 -4	 -3	 0	 -4	 -3	 2	 -2	 4	 2	 -3	 -3	 -2	 -2	 -2	 -1	 1	 -2	 -1	 -2	 -2	 -4	 -4	 -1	 -2	 -3	 -4	 -3	 2	 4	 -3	 2	 0	 -3	 -3	 -1	 -2	 -1	 1	 17.00	 17.00	 30.00	 30.00	 47.00	 3.54	 4.33	 47	 40	 0.851063829787234	 0.286585365853659	 0.24390243902439	 1
0.02	 -2.3	 6.2	 0.298	 0.66	 55.2	 -2	 -2	 -3	 -2	 3	 -3	 2	 -1	 -2	 -1	 -1	 -2	 -3	 -1	 -2	 -2	 -2	 -1	 2	 7	 -2	 -2	 -2	 -3	 -3	 -2	 -2	 -3	 2	 -2	 -1	 -2	 -1	 3	 -3	 -2	 -2	 2	 7	 -1	 16.00	 13.00	 23.00	 20.00	 36.00	 2.37	 2.00	 176	 102	 0.579545454545455	 0.792792792792793	 0.459459459459459	 1
-0.62	 3	 12.3	 0.151	 -0.13	 68.2	 -1	 -4	 2	 5	 -3	 -2	 0	 -3	 1	 -3	 -2	 0	 -1	 2	 0	 0	 -1	 -2	 -3	 -2	 -1	 0	 -1	 0	 -2	 1	 3	 -2	 -1	 1	 -1	 2	 -1	 -2	 -2	 -1	 -1	 -3	 -2	 1	 16.00	 16.00	 20.00	 20.00	 36.00	 2.58	 2.58	 58	 45	 0.775862068965517	 0.298969072164948	 0.231958762886598	 1
0.02	 -2.3	 6.2	 0.298	 0.66	 55.2	 -2	 -2	 -3	 -2	 3	 -3	 2	 -1	 -2	 -1	 -1	 -2	 -3	 -1	 -2	 -2	 -2	 -1	 2	 7	 -2	 -2	 -2	 -2	 -3	 -1	 0	 -3	 0	 -2	 -2	 -2	 -2	 1	 2	 -2	 -2	 1	 7	 -2	 21.00	 22.00	 18.00	 19.00	 40.00	 2.74	 2.65	 129	 123	 0.953488372093023	 0.581081081081081	 0.554054054054054	 1
-1.1	 3	 11.3	 0.219	 -0.36	 103	 -1	 -3	 -1	 1	 -3	 -2	 -1	 -3	 5	 -2	 -1	 0	 -1	 1	 2	 0	 -1	 -2	 -3	 -2	 -1	 2	 0	 -1	 -3	 1	 1	 -2	 -1	 -3	 -2	 4	 -1	 -3	 -1	 0	 -1	 -3	 -2	 -2	 26.00	 32.00	 21.00	 27.00	 53.00	 4.13	 4.86	 78	 75	 0.961538461538462	 0.380487804878049	 0.365853658536585	 1
-0.4	 -0.5	 10.4	 0.23	 0.41	 50.7	 -2	 -3	 -1	 0	 -1	 -2	 8	 -3	 -1	 -3	 -2	 1	 -2	 0	 0	 -1	 -2	 -3	 -2	 2	 -2	 1	 -2	 -1	 -3	 -1	 -2	 -3	 0	 1	 -3	 2	 -1	 -4	 -2	 1	 5	 -4	 -3	 0	 17.00	 17.00	 26.00	 26.00	 43.00	 2.16	 2.00	 101	 72	 0.712871287128713	 0.548913043478261	 0.391304347826087	 -1
-1.76	 3	 10.5	 0.291	 0.27	 94.7	 -1	 -3	 -2	 0	 -3	 -2	 0	 -3	 2	 -2	 -1	 0	 -2	 1	 5	 -1	 -1	 -3	 -3	 -2	 -1	 2	 3	 1	 -4	 0	 3	 2	 -1	 -4	 -4	 1	 -2	 -4	 -3	 1	 0	 -4	 -3	 -3	 10.00	 16.00	 16.00	 22.00	 32.00	 2.85	 4.69	 229	 96	 0.419213973799127	 0.923387096774194	 0.387096774193548	 1
-0.18	 -0.4	 8.6	 0.108	 -0.18	 45	 0	 -1	 -1	 -1	 -2	 -2	 -2	 -1	 -1	 -1	 -1	 0	 -1	 -1	 -1	 1	 5	 0	 -2	 -2	 -1	 -1	 0	 0	 -1	 0	 -1	 -2	 2	 1	 0	 -1	 -1	 0	 0	 1	 1	 -2	 1	 0	 33.00	 33.00	 26.00	 26.00	 59.00	 5.72	 4.96	 57	 24	 0.421052631578947	 0.401408450704225	 0.169014084507042	 -1
-0.26	 0.3	 9.2	 0.062	 -0.33	 42	 1	 -1	 0	 0	 -2	 0	 -1	 -2	 0	 -2	 -1	 1	 -1	 0	 -1	 4	 1	 -2	 -3	 -2	 1	 -1	 3	 0	 -1	 0	 0	 0	 0	 -3	 -3	 0	 -2	 -3	 -1	 4	 1	 -3	 -2	 -2	 7.00	 7.00	 27.00	 27.00	 34.00	 2.27	 2.00	 109	 33	 0.302752293577982	 0.838461538461538	 0.253846153846154	 -1
0.61	 -2.5	 5.2	 0.29	 0.82	 25.5	 -2	 -2	 -3	 -3	 6	 -3	 -1	 0	 -3	 0	 0	 -3	 -4	 -3	 -3	 -2	 -2	 -1	 1	 3	 -2	 2	 -2	 -2	 -3	 -1	 -1	 -3	 0	 -1	 -1	 1	 -1	 4	 -3	 -1	 -2	 1	 4	 -1	 32.00	 30.00	 30.00	 28.00	 60.00	 7.36	 7.50	 102	 101	 0.990196078431373	 0.517766497461929	 0.512690355329949	 1
-0.69	 0.2	 10.5	 0.18	 -0.11	 68.7	 -1	 -3	 0	 2	 -3	 -2	 0	 -3	 1	 -2	 0	 0	 -1	 5	 1	 0	 -1	 -2	 -2	 -1	 -1	 0	 1	 1	 -1	 2	 1	 0	 1	 -1	 -1	 0	 -1	 0	 1	 0	 0	 -2	 0	 -1	 32.00	 28.00	 25.00	 21.00	 53.00	 4.97	 5.33	 120	 101	 0.841666666666667	 0.606060606060606	 0.51010101010101	 -1
-0.64	 2	 11.6	 0.134	 0.12	 60.1	 -2	 -3	 1	 0	 -3	 0	 1	 -3	 0	 -3	 -2	 6	 -2	 0	 0	 1	 0	 -3	 -4	 -2	 3	 -1	 3	 -2	 -3	 -1	 -1	 1	 -2	 -3	 -3	 -2	 -3	 -4	 3	 1	 0	 -4	 -3	 -2	 24.00	 15.00	 26.00	 17.00	 41.00	 2.17	 2.00	 22	 0	 0	 0.140127388535032	 0	 -1
-0.64	 2	 11.6	 0.134	 0.12	 60.1	 -2	 -3	 1	 0	 -3	 0	 1	 -3	 0	 -3	 -2	 6	 -2	 0	 0	 1	 0	 -3	 -4	 -2	 0	 1	 2	 1	 -3	 0	 1	 -1	 2	 -2	 -2	 1	 -2	 0	 -1	 1	 0	 -2	 0	 -2	 12.00	 19.00	 15.00	 22.00	 34.00	 1.92	 2.58	 68	 28	 0.411764705882353	 0.43312101910828	 0.178343949044586	 -1
0.53	 -1.8	 4.9	 0.186	 0.4	 27.6	 -1	 -1	 -4	 -3	 0	 -4	 -3	 2	 -2	 4	 2	 -3	 -3	 -2	 -2	 -2	 -1	 1	 -2	 -1	 1	 0	 -2	 -1	 -2	 -1	 0	 0	 2	 1	 1	 -1	 0	 -1	 -2	 -1	 -1	 -3	 -1	 1	 25.00	 21.00	 22.00	 18.00	 43.00	 2.21	 2.00	 67	 61	 0.91044776119403	 0.408536585365854	 0.371951219512195	 -1
0.02	 -2.3	 6.2	 0.298	 0.66	 55.2	 -2	 -2	 -3	 -2	 3	 -3	 2	 -1	 -2	 -1	 -1	 -2	 -3	 -1	 -2	 -2	 -2	 -1	 2	 7	 -3	 -1	 -2	 -3	 -4	 -2	 -3	 -1	 -1	 -2	 -2	 -1	 -4	 2	 -4	 1	 -1	 2	 8	 -3	 17.00	 23.00	 24.00	 30.00	 47.00	 4.21	 6.30	 112	 89	 0.794642857142857	 0.504504504504504	 0.400900900900901	 -1
-1.1	 3	 11.3	 0.219	 -0.36	 103	 -1	 -3	 -1	 1	 -3	 -2	 -1	 -3	 5	 -2	 -1	 0	 -1	 1	 2	 0	 -1	 -2	 -3	 -2	 -1	 2	 -1	 -1	 -3	 1	 0	 -2	 -1	 0	 -1	 4	 -1	 -2	 -1	 -1	 -1	 -3	 -2	 -1	 24.00	 20.00	 26.00	 22.00	 46.00	 3.02	 2.93	 36	 25	 0.694444444444444	 0.175609756097561	 0.121951219512195	 -1
