0.308928	0.691072
0.653335	0.346665
0.637917	0.362083
0.628227	0.371773
0.379321	0.620679
0.718272	0.281728
0.268505	0.731495
0.626882	0.373118
0.470500	0.529500
0.761757	0.238243
0.844901	0.155099
0.312850	0.687150
0.809092	0.190908
0.354144	0.645856
0.584242	0.415758
0.829105	0.170895
0.500000	0.500000
0.685354	0.314646
0.307555	0.692445
0.381240	0.618760
0.333762	0.666238
0.377967	0.622033
0.811636	0.188364
0.835777	0.164223
0.513540	0.486460
0.174285	0.825715
0.339999	0.660001
0.380238	0.619762
0.756296	0.243704
0.877313	0.122687
0.748829	0.251171
