0.314731	0.685269
0.460156	0.539844
0.458961	0.541039
0.564876	0.435124
0.756005	0.243995
0.370558	0.629442
0.500000	0.500000
0.596991	0.403009
0.291975	0.708025
0.509326	0.490674
0.586584	0.413416
0.820279	0.179721
0.339465	0.660535
0.470071	0.529929
0.597380	0.402620
0.670626	0.329374
0.772665	0.227335
0.780697	0.219303
0.487952	0.512048
0.395833	0.604167
0.434515	0.565485
0.786563	0.213437
0.603804	0.396196
0.695361	0.304639
0.616971	0.383029
0.602774	0.397226
0.775422	0.224578
0.543365	0.456635
0.680415	0.319585
0.701348	0.298652
0.415754	0.584246
