0.842606	0.157394
0.687966	0.312034
0.589643	0.410357
0.293861	0.706139
0.539309	0.460691
0.391870	0.608130
0.706903	0.293097
0.693799	0.306201
0.326234	0.673766
0.189741	0.810259
0.913050	0.086950
0.154507	0.845493
0.463849	0.536151
0.663810	0.336190
0.854764	0.145236
0.750084	0.249916
0.268832	0.731168
0.171078	0.828922
0.418463	0.581537
0.655569	0.344431
0.638432	0.361568
0.799786	0.200214
0.458823	0.541177
0.636688	0.363312
0.399513	0.600487
0.868529	0.131471
0.711552	0.288448
0.203649	0.796351
0.517797	0.482203
0.298660	0.701340
0.196310	0.803690
0.590489	0.409511
