0.695190	0.304810
0.356879	0.643121
0.805811	0.194189
0.182021	0.817979
0.388117	0.611883
0.108849	0.891151
0.804759	0.195241
0.703933	0.296067
0.704092	0.295908
0.708976	0.291024
0.643778	0.356222
0.751175	0.248825
0.896788	0.103212
0.804634	0.195366
0.588599	0.411401
0.249180	0.750820
0.572657	0.427343
0.564352	0.435648
0.530742	0.469258
0.820437	0.179563
0.815710	0.184290
0.445486	0.554514
0.100542	0.899458
0.287247	0.712753
0.055449	0.944551
0.649543	0.350457
0.614857	0.385143
0.078947	0.921053
0.810142	0.189858
0.064023	0.935977
0.434579	0.565421
0.788344	0.211656
