0.54	 -1.5	 5.9	 0.14	 0.27	 23.7	 0	 -1	 -3	 -2	 -1	 -3	 -3	 3	 -2	 1	 1	 -3	 -2	 -2	 -3	 -2	 0	 4	 -3	 -1	 -1	 -2	 -2	 -3	 -2	 -1	 -2	 -3	 3	 1	 1	 -2	 0	 1	 -2	 -2	 -1	 0	 5	 1	 27.00	 26.00	 26.00	 25.00	 52.00	 2.23	 2.82	 87	 67	 0.770114942528736	 0.612676056338028	 0.471830985915493	 1
-0.62	 3	 12.3	 0.151	 -0.13	 68.2	 -1	 -4	 2	 5	 -3	 -2	 0	 -3	 1	 -3	 -2	 0	 -1	 2	 0	 0	 -1	 -2	 -3	 -2	 -1	 0	 0	 2	 -4	 2	 5	 -2	 0	 -3	 -3	 1	 -2	 -3	 -1	 0	 -1	 -3	 -2	 -3	 26.00	 16.00	 29.00	 19.00	 45.00	 3.03	 2.99	 17	 3	 0.176470588235294	 0.0876288659793814	 0.0154639175257732	 -1
-1.1	 3	 11.3	 0.219	 -0.36	 103	 -1	 -3	 -1	 1	 -3	 -2	 -1	 -3	 5	 -2	 -1	 0	 -1	 1	 2	 0	 -1	 -2	 -3	 -2	 -1	 1	 -1	 -1	 -3	 2	 1	 -2	 -1	 -2	 -1	 4	 -1	 1	 -2	 -1	 -1	 -2	 -1	 -2	 20.00	 15.00	 27.00	 22.00	 42.00	 3.53	 2.00	 37	 36	 0.972972972972973	 0.180487804878049	 0.175609756097561	 1
-0.4	 -0.5	 10.4	 0.23	 0.41	 50.7	 -2	 -3	 -1	 0	 -1	 -2	 8	 -3	 -1	 -3	 -2	 1	 -2	 0	 0	 -1	 -2	 -3	 -2	 2	 -1	 2	 0	 1	 -4	 -1	 -2	 -3	 2	 -4	 -4	 4	 -3	 -3	 -4	 -2	 -1	 8	 -2	 -4	 17.00	 10.00	 21.00	 14.00	 31.00	 2.23	 2.00	 109	 25	 0.229357798165138	 0.592391304347826	 0.135869565217391	 -1
-0.18	 -0.4	 8.6	 0.108	 -0.18	 45	 0	 -1	 -1	 -1	 -2	 -2	 -2	 -1	 -1	 -1	 -1	 0	 -1	 -1	 -1	 1	 5	 0	 -2	 -2	 0	 -1	 0	 -1	 -2	 0	 -1	 -1	 -2	 -2	 -2	 1	 -2	 -3	 -1	 4	 4	 -3	 -2	 -1	 29.00	 29.00	 27.00	 27.00	 56.00	 30.73	 30.70	 144	 144	 1	 1.01408450704225	 1.01408450704225	 1
0.61	 -2.5	 5.2	 0.29	 0.82	 25.5	 -2	 -2	 -3	 -3	 6	 -3	 -1	 0	 -3	 0	 0	 -3	 -4	 -3	 -3	 -2	 -2	 -1	 1	 3	 -2	 -3	 -4	 -4	 -2	 -3	 -3	 -4	 -3	 2	 3	 -3	 2	 2	 -3	 -3	 -1	 -1	 0	 1	 20.00	 14.00	 35.00	 29.00	 49.00	 5.54	 6.42	 63	 63	 1	 0.319796954314721	 0.319796954314721	 -1
0.54	 -1.5	 5.9	 0.14	 0.27	 23.7	 0	 -1	 -3	 -2	 -1	 -3	 -3	 3	 -2	 1	 1	 -3	 -2	 -2	 -3	 -2	 0	 4	 -3	 -1	 0	 -2	 -2	 -2	 -1	 -2	 -2	 -2	 -2	 2	 2	 -2	 1	 -1	 -2	 -1	 0	 -2	 -1	 3	 33.00	 31.00	 21.00	 19.00	 52.00	 5.65	 5.68	 13	 13	 1	 0.0915492957746479	 0.0915492957746479	 -1
-0.62	 3	 12.3	 0.151	 -0.13	 68.2	 -1	 -4	 2	 5	 -3	 -2	 0	 -3	 1	 -3	 -2	 0	 -1	 2	 0	 0	 -1	 -2	 -3	 -2	 -2	 0	 -1	 -3	 -3	 -2	 2	 -6	 4	 -1	 -4	 1	 -4	 -1	 -8	 2	 2	 0	 3	 1	 13.00	 16.00	 24.00	 27.00	 40.00	 2.50	 2.73	 50	 7	 0.14	 0.257731958762887	 0.0360824742268041	 -1
0.37	 -3.4	 5.4	 0.409	 0.83	 34.7	 -3	 -2	 -4	 -3	 1	 -2	 -2	 -3	 -3	 -2	 -1	 -4	 -4	 -2	 -3	 -3	 -2	 -3	 11	 2	 -3	 -3	 -4	 -4	 -2	 -2	 -3	 -2	 -2	 -3	 -2	 -3	 -1	 1	 -4	 -3	 -2	 10	 2	 -3	 3.00	 0.00	 16.00	 13.00	 16.00	 1.67	 2.00	 136	 99	 0.727941176470588	 0.599118942731278	 0.436123348017621	 1
-1.76	 3	 10.5	 0.291	 0.27	 94.7	 -1	 -3	 -2	 0	 -3	 -2	 0	 -3	 2	 -2	 -1	 0	 -2	 1	 5	 -1	 -1	 -3	 -3	 -2	 -2	 0	 -2	 -2	 -3	 0	 -2	 -1	 -2	 0	 3	 0	 0	 1	 -1	 -2	 -1	 2	 3	 -1	 27.00	 30.00	 24.00	 27.00	 54.00	 7.27	 5.84	 34	 31	 0.911764705882353	 0.137096774193548	 0.125	 1
0.02	 -2.3	 6.2	 0.298	 0.66	 55.2	 -2	 -2	 -3	 -2	 3	 -3	 2	 -1	 -2	 -1	 -1	 -2	 -3	 -1	 -2	 -2	 -2	 -1	 2	 7	 -3	 -1	 -2	 -3	 -4	 -2	 -3	 -1	 -1	 -2	 -2	 -1	 -4	 2	 -4	 1	 -1	 2	 8	 -3	 17.00	 23.00	 24.00	 30.00	 47.00	 4.21	 6.30	 112	 89	 0.794642857142857	 0.504504504504504	 0.400900900900901	 -1
0.02	 -2.3	 6.2	 0.298	 0.66	 55.2	 -2	 -2	 -3	 -2	 3	 -3	 2	 -1	 -2	 -1	 -1	 -2	 -3	 -1	 -2	 -2	 -2	 -1	 2	 7	 -1	 -2	 -1	 -2	 -2	 -2	 -2	 1	 0	 1	 -1	 -2	 -1	 2	 -2	 0	 -1	 0	 5	 -1	 26.00	 26.00	 29.00	 29.00	 55.00	 3.24	 4.83	 33	 26	 0.787878787878788	 0.148648648648649	 0.117117117117117	 1
-0.18	 -0.4	 8.6	 0.108	 -0.18	 45	 0	 -1	 -1	 -1	 -2	 -2	 -2	 -1	 -1	 -1	 -1	 0	 -1	 -1	 -1	 1	 5	 0	 -2	 -2	 0	 -1	 0	 -1	 -1	 -1	 -1	 -2	 -2	 -1	 -1	 -1	 -1	 -2	 -1	 1	 5	 -3	 -2	 0	 28.00	 28.00	 23.00	 23.00	 51.00	 5.06	 5.22	 18	 16	 0.888888888888889	 0.126760563380282	 0.112676056338028	 1
0.16	 0	 9	 0	 -0.07	 24.5	 0	 -3	 -1	 -2	 -3	 6	 -2	 -4	 -2	 -4	 -3	 0	 -2	 -2	 -2	 0	 -2	 -3	 -2	 -3	 0	 -2	 0	 -2	 -4	 -3	 -2	 1	 1	 -1	 -2	 -3	 1	 5	 3	 0	 -1	 2	 0	 -2	 29.00	 28.00	 20.00	 19.00	 48.00	 3.32	 5.12	 62	 58	 0.935483870967742	 0.329787234042553	 0.308510638297872	 -1
0.61	 -2.5	 5.2	 0.29	 0.82	 25.5	 -2	 -2	 -3	 -3	 6	 -3	 -1	 0	 -3	 0	 0	 -3	 -4	 -3	 -3	 -2	 -2	 -1	 1	 3	 -3	 -5	 -3	 -6	 -5	 -4	 -5	 -6	 0	 -3	 -1	 -3	 -3	 5	 -6	 -3	 -4	 -1	 8	 -4	 29.00	 24.00	 30.00	 25.00	 54.00	 6.44	 7.36	 6	 6	 1	 0.0304568527918782	 0.0304568527918782	 -1
-1.76	 3	 10.5	 0.291	 0.27	 94.7	 -1	 -3	 -2	 0	 -3	 -2	 0	 -3	 2	 -2	 -1	 0	 -2	 1	 5	 -1	 -1	 -3	 -3	 -2	 -1	 3	 0	 1	 -3	 0	 0	 -3	 0	 -2	 -2	 2	 -2	 -2	 2	 -1	 -1	 -3	 1	 1	 10.00	 9.00	 22.00	 21.00	 31.00	 2.01	 2.00	 155	 71	 0.458064516129032	 0.625	 0.286290322580645	 -1
-0.26	 0.3	 9.2	 0.062	 -0.33	 42	 1	 -1	 0	 0	 -2	 0	 -1	 -2	 0	 -2	 -1	 1	 -1	 0	 -1	 4	 1	 -2	 -3	 -2	 0	 1	 3	 5	 -1	 -1	 -2	 -2	 2	 -1	 -4	 -2	 -2	 0	 -7	 1	 -3	 -1	 1	 -2	 22.00	 25.00	 23.00	 26.00	 48.00	 6.18	 6.45	 3	 3	 1	 0.0230769230769231	 0.0230769230769231	 -1
-0.4	 -0.5	 10.4	 0.23	 0.41	 50.7	 -2	 -3	 -1	 0	 -1	 -2	 8	 -3	 -1	 -3	 -2	 1	 -2	 0	 0	 -1	 -2	 -3	 -2	 2	 1	 -1	 -1	 -1	 -2	 1	 0	 -1	 3	 -2	 -2	 -1	 -2	 -2	 5	 0	 -1	 -3	 -1	 -2	 17.00	 17.00	 25.00	 25.00	 42.00	 1.96	 2.75	 152	 69	 0.453947368421053	 0.826086956521739	 0.375	 1
-0.72	 3	 13	 0.105	 -0.38	 60.6	 -2	 -3	 6	 2	 -3	 -1	 -1	 -3	 -1	 -4	 -3	 1	 -1	 0	 -2	 0	 -1	 -3	 -4	 -3	 0	 -2	 1	 2	 -3	 -2	 0	 2	 -1	 -2	 -3	 -1	 -3	 -2	 -1	 2	 1	 -3	 2	 -3	 19.00	 21.00	 28.00	 30.00	 49.00	 6.37	 6.88	 112	 69	 0.616071428571429	 0.687116564417178	 0.423312883435583	 1
-0.72	 3	 13	 0.105	 -0.38	 60.6	 -2	 -3	 6	 2	 -3	 -1	 -1	 -3	 -1	 -4	 -3	 1	 -1	 0	 -2	 0	 -1	 -3	 -4	 -3	 1	 -2	 0	 3	 -3	 -1	 0	 4	 -3	 -3	 -2	 -2	 -3	 -3	 -3	 1	 -1	 -4	 -2	 -1	 13.00	 19.00	 14.00	 20.00	 33.00	 2.58	 2.99	 65	 0	 0	 0.398773006134969	 0	 1
-0.26	 0.3	 9.2	 0.062	 -0.33	 42	 1	 -1	 0	 0	 -2	 0	 -1	 -2	 0	 -2	 -1	 1	 -1	 0	 -1	 4	 1	 -2	 -3	 -2	 0	 -1	 1	 3	 -2	 0	 0	 -1	 -1	 -3	 -3	 0	 -2	 -3	 -1	 3	 1	 -3	 -2	 -2	 13.00	 14.00	 16.00	 17.00	 30.00	 2.24	 2.00	 42	 7	 0.166666666666667	 0.323076923076923	 0.0538461538461538	 -1
0.53	 -1.8	 4.9	 0.186	 0.4	 27.6	 -1	 -1	 -4	 -3	 0	 -4	 -3	 2	 -2	 4	 2	 -3	 -3	 -2	 -2	 -2	 -1	 1	 -2	 -1	 -2	 -2	 0	 -2	 -3	 -1	 -1	 -3	 -3	 0	 4	 -2	 2	 0	 2	 0	 -1	 -4	 -3	 -1	 27.00	 28.00	 20.00	 21.00	 48.00	 7.12	 6.91	 173	 160	 0.92485549132948	 1.05487804878049	 0.975609756097561	 1
-1.1	 3	 11.3	 0.219	 -0.36	 103	 -1	 -3	 -1	 1	 -3	 -2	 -1	 -3	 5	 -2	 -1	 0	 -1	 1	 2	 0	 -1	 -2	 -3	 -2	 -1	 1	 -1	 -1	 -3	 0	 0	 -2	 -1	 2	 -1	 4	 0	 -2	 -2	 -1	 -1	 -3	 -2	 0	 15.00	 11.00	 27.00	 23.00	 38.00	 2.78	 2.74	 110	 3	 0.0272727272727273	 0.536585365853659	 0.0146341463414634	 -1
-0.64	 2	 11.6	 0.134	 0.12	 60.1	 -2	 -3	 1	 0	 -3	 0	 1	 -3	 0	 -3	 -2	 6	 -2	 0	 0	 1	 0	 -3	 -4	 -2	 -2	 -2	 6	 1	 -4	 0	 0	 -1	 -1	 -4	 -3	 2	 -3	 -3	 -3	 -1	 -2	 -4	 1	 -4	 15.00	 14.00	 17.00	 16.00	 31.00	 1.89	 2.00	 105	 12	 0.114285714285714	 0.668789808917197	 0.0764331210191083	 -1
0.02	 -2.3	 6.2	 0.298	 0.66	 55.2	 -2	 -2	 -3	 -2	 3	 -3	 2	 -1	 -2	 -1	 -1	 -2	 -3	 -1	 -2	 -2	 -2	 -1	 2	 7	 0	 0	 -1	 0	 -1	 -3	 -3	 0	 0	 -3	 -3	 -2	 0	 1	 -1	 0	 0	 5	 6	 -2	 25.00	 22.00	 31.00	 28.00	 53.00	 6.46	 6.00	 78	 78	 1	 0.351351351351351	 0.351351351351351	 1
-0.64	 2	 11.6	 0.134	 0.12	 60.1	 -2	 -3	 1	 0	 -3	 0	 1	 -3	 0	 -3	 -2	 6	 -2	 0	 0	 1	 0	 -3	 -4	 -2	 -1	 -1	 5	 1	 -2	 0	 0	 0	 0	 -3	 -3	 0	 -2	 -3	 -2	 2	 0	 -4	 -2	 -3	 24.00	 27.00	 23.00	 26.00	 50.00	 5.25	 5.55	 25	 25	 1	 0.159235668789809	 0.159235668789809	 1
0.54	 -1.5	 5.9	 0.14	 0.27	 23.7	 0	 -1	 -3	 -2	 -1	 -3	 -3	 3	 -2	 1	 1	 -3	 -2	 -2	 -3	 -2	 0	 4	 -3	 -1	 0	 -1	 -1	 -1	 -2	 1	 1	 -2	 -1	 0	 0	 -1	 0	 -2	 4	 -1	 0	 -2	 -2	 1	 16.00	 16.00	 15.00	 15.00	 31.00	 1.84	 2.16	 90	 34	 0.377777777777778	 0.633802816901408	 0.23943661971831	 1
-0.64	 2	 11.6	 0.134	 0.12	 60.1	 -2	 -3	 1	 0	 -3	 0	 1	 -3	 0	 -3	 -2	 6	 -2	 0	 0	 1	 0	 -3	 -4	 -2	 -3	 -3	 4	 5	 -4	 -2	 0	 1	 -3	 -5	 -5	 -2	 -4	 -5	 -1	 2	 0	 -5	 -4	 -4	 12.00	 18.00	 20.00	 26.00	 38.00	 3.36	 4.53	 61	 39	 0.639344262295082	 0.388535031847134	 0.248407643312102	 -1
-0.18	 -0.4	 8.6	 0.108	 -0.18	 45	 0	 -1	 -1	 -1	 -2	 -2	 -2	 -1	 -1	 -1	 -1	 0	 -1	 -1	 -1	 1	 5	 0	 -2	 -2	 0	 -1	 0	 -1	 -1	 -1	 -1	 -2	 -2	 -1	 -1	 -1	 -1	 -2	 -1	 1	 5	 -3	 -2	 0	 25.00	 23.00	 25.00	 23.00	 48.00	 2.97	 2.41	 71	 42	 0.591549295774648	 0.5	 0.295774647887324	 -1
0.54	 -1.5	 5.9	 0.14	 0.27	 23.7	 0	 -1	 -3	 -2	 -1	 -3	 -3	 3	 -2	 1	 1	 -3	 -2	 -2	 -3	 -2	 0	 4	 -3	 -1	 -1	 1	 0	 -1	 -3	 2	 -1	 -3	 -1	 1	 -2	 2	 0	 -3	 -2	 0	 1	 -4	 -2	 1	 13.00	 12.00	 36.00	 35.00	 48.00	 5.66	 5.41	 38	 36	 0.947368421052632	 0.267605633802817	 0.253521126760563	 1
-0.4	 -0.5	 10.4	 0.23	 0.41	 50.7	 -2	 -3	 -1	 0	 -1	 -2	 8	 -3	 -1	 -3	 -2	 1	 -2	 0	 0	 -1	 -2	 -3	 -2	 2	 -5	 -3	 -3	 -2	 -6	 0	 -3	 -5	 11	 -6	 -6	 -4	 -5	 -4	 -5	 -4	 -5	 -5	 1	 -6	 29.00	 28.00	 24.00	 23.00	 52.00	 5.98	 5.50	 11	 5	 0.454545454545455	 0.0597826086956522	 0.0271739130434783	 -1
-1.76	 3	 10.5	 0.291	 0.27	 94.7	 -1	 -3	 -2	 0	 -3	 -2	 0	 -3	 2	 -2	 -1	 0	 -2	 1	 5	 -1	 -1	 -3	 -3	 -2	 -4	 7	 -1	 -3	 -6	 1	 -3	 -5	 0	 -5	 -2	 1	 -4	 -5	 -5	 -3	 -4	 -5	 -1	 -5	 17.00	 10.00	 24.00	 17.00	 34.00	 1.83	 2.00	 103	 2	 0.0194174757281553	 0.415322580645161	 0.00806451612903226	 -1
