0.477842	0.522158
0.292515	0.707485
0.480019	0.519981
0.542856	0.457144
0.381533	0.618467
0.237355	0.762645
0.289781	0.710219
0.400909	0.599091
0.280031	0.719969
0.886384	0.113616
0.312541	0.687459
0.361558	0.638442
0.483955	0.516045
0.572861	0.427139
0.832898	0.167102
0.488214	0.511786
0.354407	0.645593
0.828715	0.171285
0.519770	0.480230
0.270108	0.729892
0.613995	0.386005
0.580183	0.419817
0.243900	0.756100
0.493687	0.506313
0.437761	0.562239
0.847946	0.152054
0.709635	0.290365
0.312239	0.687761
0.768100	0.231900
0.678763	0.321237
0.201741	0.798259
0.188505	0.811495
