0.010897	0.989103
0.914703	0.085297
0.900140	0.099860
0.182552	0.817448
0.031558	0.968442
0.977615	0.022385
0.982872	0.017128
0.000742	0.999258
0.038308	0.961692
0.794166	0.205834
0.077208	0.922792
0.969114	0.030886
0.003780	0.996220
0.995782	0.004218
0.881844	0.118156
0.008975	0.991025
0.030525	0.969475
0.253834	0.746166
0.998893	0.001107
0.976247	0.023753
0.999430	0.000570
0.704669	0.295331
0.979029	0.020971
0.699326	0.300674
0.967213	0.032787
0.037606	0.962394
0.974246	0.025754
0.051083	0.948917
0.054698	0.945302
0.000567	0.999433
0.313325	0.686675
