0.016520	0.983480
0.019247	0.980753
0.478746	0.521254
0.004647	0.995353
0.876672	0.123328
0.971392	0.028608
0.719754	0.280246
0.698989	0.301011
0.003228	0.996772
0.011474	0.988526
0.976472	0.023528
0.998960	0.001040
0.999211	0.000789
0.971944	0.028056
0.251395	0.748605
0.583980	0.416020
0.994640	0.005360
0.017860	0.982140
0.002819	0.997181
0.105531	0.894469
0.023685	0.976315
0.925658	0.074342
0.988871	0.011129
0.715877	0.284123
0.061201	0.938799
0.594593	0.405407
0.473033	0.526967
0.999444	0.000556
0.096366	0.903634
0.079522	0.920478
0.017023	0.982977
