0.208984	0.791016
0.625801	0.374199
0.650841	0.349159
0.431687	0.568313
0.505186	0.494814
0.566504	0.433496
0.665710	0.334290
0.590215	0.409785
0.888276	0.111724
0.710200	0.289800
0.185329	0.814671
0.616293	0.383707
0.620666	0.379334
0.542989	0.457011
0.859047	0.140953
0.729045	0.270955
0.167578	0.832422
0.909183	0.090817
0.089469	0.910531
0.632271	0.367729
0.555045	0.444955
0.248162	0.751838
0.683292	0.316708
0.391055	0.608945
0.667185	0.332815
0.523960	0.476040
0.720162	0.279838
0.323014	0.676986
0.209640	0.790360
0.202698	0.797302
0.772878	0.227122
