0.482658	0.517342
0.012816	0.987184
0.999413	0.000587
0.072960	0.927040
0.999254	0.000746
0.146052	0.853948
0.798985	0.201015
0.997084	0.002916
0.990626	0.009374
0.996633	0.003367
0.001331	0.998669
0.998637	0.001363
0.014211	0.985789
0.999794	0.000206
0.002409	0.997591
0.359872	0.640128
0.998080	0.001920
0.685706	0.314294
0.755313	0.244687
0.986402	0.013598
0.965204	0.034796
0.990838	0.009162
0.705030	0.294970
0.653622	0.346378
0.043501	0.956499
0.946805	0.053195
0.001175	0.998825
0.000355	0.999645
0.999572	0.000428
0.999862	0.000138
0.895504	0.104496
0.999526	0.000474
