0.403933	0.596067
0.433824	0.566176
0.563055	0.436945
0.465397	0.534603
0.435294	0.564706
0.369306	0.630694
0.295406	0.704594
0.516168	0.483832
0.271487	0.728513
0.385141	0.614859
0.605223	0.394777
0.639895	0.360105
0.486483	0.513517
0.371345	0.628655
0.671221	0.328779
0.230122	0.769878
0.806671	0.193329
0.634727	0.365273
0.790120	0.209880
0.657245	0.342755
0.500000	0.500000
0.799403	0.200597
0.737407	0.262593
0.416538	0.583462
0.393382	0.606618
0.741447	0.258553
0.702695	0.297305
0.778877	0.221123
0.663797	0.336203
0.216347	0.783653
0.695162	0.304838
0.570559	0.429441
