0.626980	0.373020
0.681997	0.318003
0.472050	0.527950
0.697380	0.302620
0.208261	0.791739
0.791575	0.208425
0.500000	0.500000
0.601025	0.398975
0.558761	0.441239
0.760609	0.239391
0.259270	0.740730
0.267955	0.732045
0.788457	0.211543
0.767187	0.232813
0.751862	0.248138
0.125685	0.874315
0.585558	0.414442
0.726621	0.273379
0.195289	0.804711
0.435968	0.564032
0.584815	0.415185
0.258564	0.741436
0.489764	0.510236
0.512498	0.487502
0.277541	0.722459
0.386736	0.613264
0.202661	0.797339
0.410362	0.589638
0.713079	0.286921
0.546016	0.453984
0.703478	0.296522
0.568540	0.431460
