0.453011	0.546989
0.649117	0.350883
0.199034	0.800966
0.626921	0.373079
0.575141	0.424859
0.874114	0.125886
0.622557	0.377443
0.322046	0.677954
0.859953	0.140047
0.209440	0.790560
0.887669	0.112331
0.605882	0.394118
0.221586	0.778414
0.601216	0.398784
0.163841	0.836159
0.654230	0.345770
0.231671	0.768329
0.085768	0.914232
0.644403	0.355597
0.413700	0.586300
0.118969	0.881031
0.550202	0.449798
0.878354	0.121646
0.618147	0.381853
0.890708	0.109292
0.198449	0.801551
0.298000	0.702000
0.601896	0.398104
0.620832	0.379168
0.065160	0.934840
0.717800	0.282200
