0.704043	0.295957
0.751709	0.248291
0.374238	0.625762
0.407952	0.592048
0.484395	0.515605
0.557326	0.442674
0.446644	0.553356
0.240167	0.759833
0.568380	0.431620
0.607894	0.392106
0.435371	0.564629
0.214067	0.785933
0.228249	0.771751
0.452302	0.547698
0.187301	0.812699
0.651042	0.348958
0.663188	0.336812
0.593858	0.406142
0.704221	0.295779
0.369019	0.630981
0.595879	0.404121
0.707526	0.292474
0.617909	0.382091
0.669308	0.330692
0.652364	0.347636
0.823267	0.176733
0.553453	0.446547
0.534619	0.465381
0.568647	0.431353
0.569074	0.430926
0.229130	0.770870
0.451681	0.548319
