0.378402	0.621598
0.749144	0.250856
0.754188	0.245812
0.598487	0.401513
0.726228	0.273772
0.243265	0.756735
0.290378	0.709622
0.664618	0.335382
0.783980	0.216020
0.427628	0.572372
0.609481	0.390519
0.362695	0.637305
0.375093	0.624907
0.438499	0.561501
0.227046	0.772954
0.371793	0.628207
0.791048	0.208952
0.500000	0.500000
0.489174	0.510826
0.302361	0.697639
0.457780	0.542220
0.247940	0.752060
0.766893	0.233107
0.806182	0.193818
0.732418	0.267582
0.456613	0.543387
0.703791	0.296209
0.819323	0.180677
0.512173	0.487827
0.364654	0.635346
0.643415	0.356585
0.244925	0.755075
