-1.76	 3	 10.5	 0.291	 0.27	 94.7	 -1	 -3	 -2	 0	 -3	 -2	 0	 -3	 2	 -2	 -1	 0	 -2	 1	 5	 -1	 -1	 -3	 -3	 -2	 0	 4	 0	 0	 -2	 1	 -1	 -2	 -2	 -2	 -2	 3	 -1	 -2	 -3	 1	 -1	 -4	 -3	 -1	 21.00	 18.00	 21.00	 18.00	 39.00	 2.03	 2.00	 180	 146	 0.811111111111111	 0.725806451612903	 0.588709677419355	 -1
-0.72	 3	 13	 0.105	 -0.38	 60.6	 -2	 -3	 6	 2	 -3	 -1	 -1	 -3	 -1	 -4	 -3	 1	 -1	 0	 -2	 0	 -1	 -3	 -4	 -3	 1	 -2	 0	 3	 -3	 -1	 0	 4	 -3	 -3	 -2	 -2	 -3	 -3	 -3	 1	 -1	 -4	 -2	 -1	 13.00	 19.00	 14.00	 20.00	 33.00	 2.58	 2.99	 65	 0	 0	 0.398773006134969	 0	 1
0.73	 -1.8	 5.2	 0.186	 0.44	 22.8	 -1	 -1	 -3	 -3	 0	 -4	 -3	 4	 -3	 2	 1	 -3	 -3	 -3	 -3	 -2	 -1	 3	 -3	 -1	 -1	 -3	 -3	 -3	 -1	 -3	 -3	 -4	 -3	 4	 2	 -3	 1	 0	 -3	 -2	 -1	 -3	 -1	 3	 23.00	 20.00	 22.00	 19.00	 42.00	 4.96	 5.07	 26	 26	 1	 0.153846153846154	 0.153846153846154	 1
-0.72	 3	 13	 0.105	 -0.38	 60.6	 -2	 -3	 6	 2	 -3	 -1	 -1	 -3	 -1	 -4	 -3	 1	 -1	 0	 -2	 0	 -1	 -3	 -4	 -3	 -2	 -2	 1	 6	 -4	 0	 2	 -1	 -1	 -3	 -4	 -1	 -3	 -4	 -2	 0	 -1	 -5	 -3	 -3	 32.00	 27.00	 28.00	 23.00	 55.00	 7.83	 7.32	 92	 90	 0.978260869565217	 0.56441717791411	 0.552147239263804	 1
-1.76	 3	 10.5	 0.291	 0.27	 94.7	 -1	 -3	 -2	 0	 -3	 -2	 0	 -3	 2	 -2	 -1	 0	 -2	 1	 5	 -1	 -1	 -3	 -3	 -2	 -3	 5	 -2	 0	 -5	 -1	 -2	 -2	 1	 -5	 -2	 4	 -3	 -2	 -4	 -3	 -3	 -4	 1	 -3	 25.00	 22.00	 29.00	 26.00	 51.00	 5.39	 7.95	 61	 39	 0.639344262295082	 0.245967741935484	 0.157258064516129	 -1
-0.26	 0.3	 9.2	 0.062	 -0.33	 42	 1	 -1	 0	 0	 -2	 0	 -1	 -2	 0	 -2	 -1	 1	 -1	 0	 -1	 4	 1	 -2	 -3	 -2	 0	 -1	 3	 0	 -2	 0	 0	 -1	 0	 -3	 -3	 0	 -2	 -1	 -2	 3	 1	 -1	 2	 -2	 22.00	 24.00	 18.00	 20.00	 42.00	 4.27	 4.85	 45	 29	 0.644444444444444	 0.346153846153846	 0.223076923076923	 -1
-0.18	 -0.4	 8.6	 0.108	 -0.18	 45	 0	 -1	 -1	 -1	 -2	 -2	 -2	 -1	 -1	 -1	 -1	 0	 -1	 -1	 -1	 1	 5	 0	 -2	 -2	 0	 -2	 1	 -1	 5	 -1	 -1	 0	 -2	 0	 -1	 -1	 -1	 -2	 -2	 1	 2	 -2	 -2	 0	 27.00	 24.00	 25.00	 22.00	 49.00	 5.25	 5.25	 24	 0	 0	 0.169014084507042	 0	 -1
-0.18	 -0.4	 8.6	 0.108	 -0.18	 45	 0	 -1	 -1	 -1	 -2	 -2	 -2	 -1	 -1	 -1	 -1	 0	 -1	 -1	 -1	 1	 5	 0	 -2	 -2	 0	 -1	 0	 -1	 -1	 -1	 -1	 -2	 -2	 -1	 -1	 -1	 -1	 -2	 -1	 1	 5	 -3	 -2	 0	 18.00	 21.00	 30.00	 33.00	 51.00	 2.95	 3.38	 109	 74	 0.678899082568807	 0.767605633802817	 0.52112676056338	 -1
-0.64	 2	 11.6	 0.134	 0.12	 60.1	 -2	 -3	 1	 0	 -3	 0	 1	 -3	 0	 -3	 -2	 6	 -2	 0	 0	 1	 0	 -3	 -4	 -2	 -1	 -1	 3	 -1	 -2	 -1	 -3	 -1	 1	 -3	 -4	 -3	 -4	 1	 -2	 1	 0	 5	 6	 -3	 26.00	 24.00	 31.00	 29.00	 55.00	 5.88	 5.85	 35	 35	 1	 0.222929936305732	 0.222929936305732	 1
-0.62	 3	 12.3	 0.151	 -0.13	 68.2	 -1	 -4	 2	 5	 -3	 -2	 0	 -3	 1	 -3	 -2	 0	 -1	 2	 0	 0	 -1	 -2	 -3	 -2	 -1	 0	 1	 3	 -4	 -1	 2	 -2	 1	 -1	 -3	 0	 -3	 -3	 1	 0	 0	 1	 2	 -1	 17.00	 13.00	 32.00	 28.00	 45.00	 2.08	 2.62	 111	 75	 0.675675675675676	 0.572164948453608	 0.38659793814433	 -1
-0.26	 0.3	 9.2	 0.062	 -0.33	 42	 1	 -1	 0	 0	 -2	 0	 -1	 -2	 0	 -2	 -1	 1	 -1	 0	 -1	 4	 1	 -2	 -3	 -2	 0	 -2	 -1	 -2	 -1	 -1	 -1	 -2	 -2	 0	 2	 -1	 1	 -1	 -2	 2	 0	 -2	 -1	 0	 4.00	 8.00	 17.00	 21.00	 25.00	 1.85	 2.31	 113	 34	 0.300884955752212	 0.869230769230769	 0.261538461538462	 -1
0.53	 -1.8	 4.9	 0.186	 0.4	 27.6	 -1	 -1	 -4	 -3	 0	 -4	 -3	 2	 -2	 4	 2	 -3	 -3	 -2	 -2	 -2	 -1	 1	 -2	 -1	 -1	 -2	 -3	 -4	 -1	 -2	 -3	 -4	 -3	 2	 4	 -2	 2	 0	 -3	 -2	 -1	 -2	 -1	 1	 28.00	 23.00	 13.00	 8.00	 36.00	 3.62	 3.17	 121	 94	 0.776859504132231	 0.73780487804878	 0.573170731707317	 -1
0.16	 0	 9	 0	 -0.07	 24.5	 0	 -3	 -1	 -2	 -3	 6	 -2	 -4	 -2	 -4	 -3	 0	 -2	 -2	 -2	 0	 -2	 -3	 -2	 -3	 0	 -2	 0	 -2	 -4	 -3	 -2	 1	 1	 -1	 -2	 -3	 1	 5	 3	 0	 -1	 2	 0	 -2	 29.00	 28.00	 20.00	 19.00	 48.00	 3.32	 5.12	 62	 58	 0.935483870967742	 0.329787234042553	 0.308510638297872	 -1
-0.62	 3	 12.3	 0.151	 -0.13	 68.2	 -1	 -4	 2	 5	 -3	 -2	 0	 -3	 1	 -3	 -2	 0	 -1	 2	 0	 0	 -1	 -2	 -3	 -2	 -1	 1	 -1	 0	 -3	 2	 2	 -1	 0	 -2	 -2	 1	 0	 -1	 -3	 1	 2	 1	 0	 -1	 19.00	 17.00	 24.00	 22.00	 41.00	 3.62	 5.41	 86	 69	 0.802325581395349	 0.443298969072165	 0.355670103092784	 -1
-1.1	 3	 11.3	 0.219	 -0.36	 103	 -1	 -3	 -1	 1	 -3	 -2	 -1	 -3	 5	 -2	 -1	 0	 -1	 1	 2	 0	 -1	 -2	 -3	 -2	 0	 4	 0	 -1	 -3	 0	 0	 1	 -1	 -3	 -3	 3	 -2	 -3	 -2	 1	 -1	 -3	 -2	 -2	 20.00	 17.00	 28.00	 25.00	 45.00	 3.53	 4.26	 53	 10	 0.188679245283019	 0.258536585365854	 0.0487804878048781	 -1
-0.72	 3	 13	 0.105	 -0.38	 60.6	 -2	 -3	 6	 2	 -3	 -1	 -1	 -3	 -1	 -4	 -3	 1	 -1	 0	 -2	 0	 -1	 -3	 -4	 -3	 -2	 -2	 1	 6	 -4	 0	 1	 -1	 -1	 -3	 -4	 -1	 -3	 -4	 -2	 0	 -1	 -4	 -3	 -3	 13.00	 16.00	 26.00	 29.00	 42.00	 3.64	 4.71	 74	 44	 0.594594594594595	 0.45398773006135	 0.269938650306748	 1
0.16	 0	 9	 0	 -0.07	 24.5	 0	 -3	 -1	 -2	 -3	 6	 -2	 -4	 -2	 -4	 -3	 0	 -2	 -2	 -2	 0	 -2	 -3	 -2	 -3	 1	 -1	 0	 -1	 -1	 -1	 -1	 4	 -1	 -2	 -2	 -1	 -1	 -2	 2	 0	 -1	 -1	 -1	 -1	 30.00	 31.00	 22.00	 23.00	 53.00	 1.61	 2.00	 72	 56	 0.777777777777778	 0.857142857142857	 0.666666666666667	 1
0.61	 -2.5	 5.2	 0.29	 0.82	 25.5	 -2	 -2	 -3	 -3	 6	 -3	 -1	 0	 -3	 0	 0	 -3	 -4	 -3	 -3	 -2	 -2	 -1	 1	 3	 -2	 -2	 -2	 1	 -3	 -1	 1	 -3	 -1	 -2	 -1	 -2	 -1	 5	 3	 -2	 -2	 0	 3	 -2	 25.00	 21.00	 13.00	 9.00	 34.00	 3.45	 2.00	 125	 105	 0.84	 0.634517766497462	 0.532994923857868	 1
-0.64	 2	 11.6	 0.134	 0.12	 60.1	 -2	 -3	 1	 0	 -3	 0	 1	 -3	 0	 -3	 -2	 6	 -2	 0	 0	 1	 0	 -3	 -4	 -2	 -3	 -3	 4	 5	 -4	 -2	 0	 1	 -3	 -5	 -5	 -2	 -4	 -5	 -1	 2	 0	 -5	 -4	 -4	 12.00	 18.00	 20.00	 26.00	 38.00	 3.36	 4.53	 61	 39	 0.639344262295082	 0.388535031847134	 0.248407643312102	 -1
0.54	 -1.5	 5.9	 0.14	 0.27	 23.7	 0	 -1	 -3	 -2	 -1	 -3	 -3	 3	 -2	 1	 1	 -3	 -2	 -2	 -3	 -2	 0	 4	 -3	 -1	 -1	 -2	 -2	 -3	 -2	 -1	 -2	 -3	 3	 1	 1	 -2	 0	 1	 -2	 -2	 -1	 0	 5	 1	 27.00	 26.00	 26.00	 25.00	 52.00	 2.23	 2.82	 87	 67	 0.770114942528736	 0.612676056338028	 0.471830985915493	 1
-0.72	 3	 13	 0.105	 -0.38	 60.6	 -2	 -3	 6	 2	 -3	 -1	 -1	 -3	 -1	 -4	 -3	 1	 -1	 0	 -2	 0	 -1	 -3	 -4	 -3	 -2	 -1	 5	 4	 -3	 0	 0	 -1	 0	 -3	 -4	 0	 -3	 -3	 -2	 0	 0	 -4	 -3	 -3	 17.00	 19.00	 16.00	 18.00	 35.00	 1.77	 2.36	 152	 60	 0.394736842105263	 0.932515337423313	 0.368098159509202	 -1
-0.69	 0.2	 10.5	 0.18	 -0.11	 68.7	 -1	 -3	 0	 2	 -3	 -2	 0	 -3	 1	 -2	 0	 0	 -1	 5	 1	 0	 -1	 -2	 -2	 -1	 -1	 1	 1	 0	 -3	 1	 1	 -3	 3	 -2	 -2	 -1	 -2	 -1	 0	 2	 2	 -4	 -1	 -1	 14.00	 17.00	 30.00	 33.00	 47.00	 2.37	 2.60	 68	 27	 0.397058823529412	 0.343434343434343	 0.136363636363636	 -1
-0.62	 3	 12.3	 0.151	 -0.13	 68.2	 -1	 -4	 2	 5	 -3	 -2	 0	 -3	 1	 -3	 -2	 0	 -1	 2	 0	 0	 -1	 -2	 -3	 -2	 -1	 0	 -1	 0	 -3	 2	 3	 -3	 0	 -1	 -2	 0	 1	 1	 -2	 1	 -1	 0	 -2	 0	 17.00	 13.00	 28.00	 24.00	 41.00	 2.32	 2.26	 16	 4	 0.25	 0.0824742268041237	 0.0206185567010309	 -1
-1.1	 3	 11.3	 0.219	 -0.36	 103	 -1	 -3	 -1	 1	 -3	 -2	 -1	 -3	 5	 -2	 -1	 0	 -1	 1	 2	 0	 -1	 -2	 -3	 -2	 0	 0	 1	 1	 -1	 0	 0	 2	 1	 -2	 -2	 1	 -1	 -3	 0	 2	 0	 -3	 -1	 -2	 11.00	 9.00	 26.00	 24.00	 35.00	 2.07	 2.11	 159	 65	 0.408805031446541	 0.775609756097561	 0.317073170731707	 -1
-1.1	 3	 11.3	 0.219	 -0.36	 103	 -1	 -3	 -1	 1	 -3	 -2	 -1	 -3	 5	 -2	 -1	 0	 -1	 1	 2	 0	 -1	 -2	 -3	 -2	 -1	 0	 1	 0	 -2	 1	 2	 2	 0	 -2	 -2	 1	 -1	 -2	 -1	 0	 -1	 -2	 -1	 -2	 23.00	 24.00	 18.00	 19.00	 42.00	 3.83	 4.41	 45	 38	 0.844444444444444	 0.219512195121951	 0.185365853658537	 -1
-0.18	 -0.4	 8.6	 0.108	 -0.18	 45	 0	 -1	 -1	 -1	 -2	 -2	 -2	 -1	 -1	 -1	 -1	 0	 -1	 -1	 -1	 1	 5	 0	 -2	 -2	 0	 -1	 0	 -1	 -1	 -1	 -1	 -2	 -2	 -1	 -1	 -1	 -1	 -2	 -1	 1	 5	 -3	 -2	 0	 25.00	 23.00	 25.00	 23.00	 48.00	 2.97	 2.41	 71	 42	 0.591549295774648	 0.5	 0.295774647887324	 -1
0.02	 -2.3	 6.2	 0.298	 0.66	 55.2	 -2	 -2	 -3	 -2	 3	 -3	 2	 -1	 -2	 -1	 -1	 -2	 -3	 -1	 -2	 -2	 -2	 -1	 2	 7	 -1	 -2	 -1	 -2	 -2	 -2	 -2	 1	 0	 1	 -1	 -2	 -1	 2	 -2	 0	 -1	 0	 5	 -1	 26.00	 26.00	 29.00	 29.00	 55.00	 3.24	 4.83	 33	 26	 0.787878787878788	 0.148648648648649	 0.117117117117117	 1
-0.69	 0.2	 10.5	 0.18	 -0.11	 68.7	 -1	 -3	 0	 2	 -3	 -2	 0	 -3	 1	 -2	 0	 0	 -1	 5	 1	 0	 -1	 -2	 -2	 -1	 -2	 0	 -2	 -2	 9	 1	 0	 -2	 0	 -2	 -3	 -2	 -1	 -1	 -2	 -3	 -3	 -6	 -1	 -1	 19.00	 19.00	 12.00	 12.00	 31.00	 1.90	 2.23	 85	 37	 0.435294117647059	 0.429292929292929	 0.186868686868687	 -1
0.61	 -2.5	 5.2	 0.29	 0.82	 25.5	 -2	 -2	 -3	 -3	 6	 -3	 -1	 0	 -3	 0	 0	 -3	 -4	 -3	 -3	 -2	 -2	 -1	 1	 3	 2	 -1	 -1	 1	 -3	 1	 1	 -1	 -2	 0	 -2	 0	 0	 -1	 -2	 2	 2	 -4	 -2	 -1	 18.00	 17.00	 27.00	 26.00	 44.00	 2.98	 3.96	 76	 49	 0.644736842105263	 0.385786802030457	 0.248730964467005	 -1
-1.76	 3	 10.5	 0.291	 0.27	 94.7	 -1	 -3	 -2	 0	 -3	 -2	 0	 -3	 2	 -2	 -1	 0	 -2	 1	 5	 -1	 -1	 -3	 -3	 -2	 -2	 7	 -1	 -2	 -4	 0	 -1	 -3	 -1	 -4	 -3	 3	 -2	 -4	 -3	 -2	 -2	 -4	 -3	 -3	 14.00	 12.00	 34.00	 32.00	 46.00	 3.70	 5.24	 41	 24	 0.585365853658537	 0.165322580645161	 0.0967741935483871	 -1
0.61	 -2.5	 5.2	 0.29	 0.82	 25.5	 -2	 -2	 -3	 -3	 6	 -3	 -1	 0	 -3	 0	 0	 -3	 -4	 -3	 -3	 -2	 -2	 -1	 1	 3	 -2	 -3	 -3	 -4	 -2	 -3	 -3	 -3	 -1	 0	 0	 -3	 0	 6	 -4	 -2	 -2	 1	 3	 -1	 23.00	 27.00	 20.00	 24.00	 47.00	 3.96	 2.68	 161	 146	 0.906832298136646	 0.817258883248731	 0.741116751269036	 1
