0.16	 0	 9	 0	 -0.07	 24.5	 0	 -3	 -1	 -2	 -3	 6	 -2	 -4	 -2	 -4	 -3	 0	 -2	 -2	 -2	 0	 -2	 -3	 -2	 -3	 1	 -1	 0	 -1	 -1	 -1	 -1	 4	 -1	 -2	 -2	 -1	 -1	 -2	 2	 0	 -1	 -1	 -1	 -1	 30.00	 31.00	 22.00	 23.00	 53.00	 1.61	 2.00	 72	 56	 0.777777777777778	 0.857142857142857	 0.666666666666667	 1
-0.4	 -0.5	 10.4	 0.23	 0.41	 50.7	 -2	 -3	 -1	 0	 -1	 -2	 8	 -3	 -1	 -3	 -2	 1	 -2	 0	 0	 -1	 -2	 -3	 -2	 2	 1	 -1	 -1	 -1	 -2	 1	 0	 -1	 3	 -2	 -2	 -1	 -2	 -2	 5	 0	 -1	 -3	 -1	 -2	 17.00	 17.00	 25.00	 25.00	 42.00	 1.96	 2.75	 152	 69	 0.453947368421053	 0.826086956521739	 0.375	 1
-0.62	 3	 12.3	 0.151	 -0.13	 68.2	 -1	 -4	 2	 5	 -3	 -2	 0	 -3	 1	 -3	 -2	 0	 -1	 2	 0	 0	 -1	 -2	 -3	 -2	 -1	 0	 0	 2	 -4	 2	 5	 -2	 0	 -4	 -3	 1	 -2	 -4	 -1	 0	 -1	 -3	 -2	 -3	 10.00	 8.00	 21.00	 19.00	 29.00	 1.83	 2.00	 169	 48	 0.284023668639053	 0.871134020618557	 0.247422680412371	 -1
0.37	 -3.4	 5.4	 0.409	 0.83	 34.7	 -3	 -2	 -4	 -3	 1	 -2	 -2	 -3	 -3	 -2	 -1	 -4	 -4	 -2	 -3	 -3	 -2	 -3	 11	 2	 -1	 3	 -3	 -4	 -4	 -2	 -3	 -4	 2	 2	 -2	 -2	 -2	 0	 2	 -3	 0	 2	 6	 -2	 10.00	 12.00	 20.00	 22.00	 32.00	 2.00	 2.80	 181	 96	 0.530386740331492	 0.797356828193833	 0.422907488986784	 -1
-0.4	 -0.5	 10.4	 0.23	 0.41	 50.7	 -2	 -3	 -1	 0	 -1	 -2	 8	 -3	 -1	 -3	 -2	 1	 -2	 0	 0	 -1	 -2	 -3	 -2	 2	 -5	 -3	 -3	 -2	 -6	 0	 -3	 -5	 11	 -6	 -6	 -4	 -5	 -4	 -5	 -4	 -5	 -5	 1	 -6	 29.00	 28.00	 24.00	 23.00	 52.00	 5.98	 5.50	 11	 5	 0.454545454545455	 0.0597826086956522	 0.0271739130434783	 -1
-0.72	 3	 13	 0.105	 -0.38	 60.6	 -2	 -3	 6	 2	 -3	 -1	 -1	 -3	 -1	 -4	 -3	 1	 -1	 0	 -2	 0	 -1	 -3	 -4	 -3	 -4	 2	 -1	 0	 -6	 2	 -1	 -5	 9	 -6	 -5	 1	 -4	 -2	 -5	 -1	 -4	 -5	 0	 -6	 28.00	 28.00	 28.00	 28.00	 56.00	 8.25	 8.62	 77	 71	 0.922077922077922	 0.47239263803681	 0.43558282208589	 -1
-0.18	 -0.4	 8.6	 0.108	 -0.18	 45	 0	 -1	 -1	 -1	 -2	 -2	 -2	 -1	 -1	 -1	 -1	 0	 -1	 -1	 -1	 1	 5	 0	 -2	 -2	 0	 -1	 0	 -1	 -1	 -1	 -1	 -2	 -2	 -1	 -1	 -1	 -1	 -2	 -1	 1	 5	 -3	 -2	 0	 18.00	 21.00	 30.00	 33.00	 51.00	 2.95	 3.38	 109	 74	 0.678899082568807	 0.767605633802817	 0.52112676056338	 -1
-0.62	 3	 12.3	 0.151	 -0.13	 68.2	 -1	 -4	 2	 5	 -3	 -2	 0	 -3	 1	 -3	 -2	 0	 -1	 2	 0	 0	 -1	 -2	 -3	 -2	 -1	 1	 -1	 0	 -3	 2	 2	 -1	 0	 -2	 -2	 1	 0	 -1	 -3	 1	 2	 1	 0	 -1	 19.00	 17.00	 24.00	 22.00	 41.00	 3.62	 5.41	 86	 69	 0.802325581395349	 0.443298969072165	 0.355670103092784	 -1
0.54	 -1.5	 5.9	 0.14	 0.27	 23.7	 0	 -1	 -3	 -2	 -1	 -3	 -3	 3	 -2	 1	 1	 -3	 -2	 -2	 -3	 -2	 0	 4	 -3	 -1	 -1	 -1	 -1	 -1	 1	 -1	 -1	 -2	 -1	 2	 1	 0	 0	 -2	 0	 0	 2	 -3	 -2	 1	 20.00	 22.00	 27.00	 29.00	 49.00	 3.37	 3.74	 70	 40	 0.571428571428571	 0.492957746478873	 0.28169014084507	 -1
-1.1	 3	 11.3	 0.219	 -0.36	 103	 -1	 -3	 -1	 1	 -3	 -2	 -1	 -3	 5	 -2	 -1	 0	 -1	 1	 2	 0	 -1	 -2	 -3	 -2	 0	 0	 1	 1	 -1	 0	 0	 2	 1	 -2	 -2	 1	 -1	 -3	 0	 2	 0	 -3	 -1	 -2	 11.00	 9.00	 26.00	 24.00	 35.00	 2.07	 2.11	 159	 65	 0.408805031446541	 0.775609756097561	 0.317073170731707	 -1
-0.18	 -0.4	 8.6	 0.108	 -0.18	 45	 0	 -1	 -1	 -1	 -2	 -2	 -2	 -1	 -1	 -1	 -1	 0	 -1	 -1	 -1	 1	 5	 0	 -2	 -2	 0	 -1	 -1	 -1	 -2	 -1	 -1	 3	 -2	 -1	 -2	 1	 -1	 -2	 -2	 0	 2	 -3	 -2	 0	 22.00	 16.00	 11.00	 5.00	 27.00	 2.29	 2.00	 38	 16	 0.421052631578947	 0.267605633802817	 0.112676056338028	 -1
0.53	 -1.8	 4.9	 0.186	 0.4	 27.6	 -1	 -1	 -4	 -3	 0	 -4	 -3	 2	 -2	 4	 2	 -3	 -3	 -2	 -2	 -2	 -1	 1	 -2	 -1	 -1	 4	 -2	 -2	 -3	 1	 -2	 -1	 0	 -1	 1	 1	 3	 -3	 0	 -1	 -1	 -4	 -3	 -1	 39.00	 34.00	 28.00	 23.00	 62.00	 6.40	 6.60	 168	 167	 0.994047619047619	 1.02439024390244	 1.01829268292683	 1
0.61	 -2.5	 5.2	 0.29	 0.82	 25.5	 -2	 -2	 -3	 -3	 6	 -3	 -1	 0	 -3	 0	 0	 -3	 -4	 -3	 -3	 -2	 -2	 -1	 1	 3	 -3	 -5	 -3	 -6	 -5	 -4	 -5	 -6	 0	 -3	 -1	 -3	 -3	 5	 -6	 -3	 -4	 -1	 8	 -4	 29.00	 24.00	 30.00	 25.00	 54.00	 6.44	 7.36	 6	 6	 1	 0.0304568527918782	 0.0304568527918782	 -1
-0.18	 -0.4	 8.6	 0.108	 -0.18	 45	 0	 -1	 -1	 -1	 -2	 -2	 -2	 -1	 -1	 -1	 -1	 0	 -1	 -1	 -1	 1	 5	 0	 -2	 -2	 -1	 -2	 1	 -1	 -1	 -1	 -1	 -2	 -2	 1	 -1	 -1	 1	 -2	 -2	 1	 5	 -3	 -2	 0	 25.00	 23.00	 19.00	 17.00	 42.00	 5.48	 5.24	 10	 8	 0.8	 0.0704225352112676	 0.0563380281690141	 -1
-0.26	 0.3	 9.2	 0.062	 -0.33	 42	 1	 -1	 0	 0	 -2	 0	 -1	 -2	 0	 -2	 -1	 1	 -1	 0	 -1	 4	 1	 -2	 -3	 -2	 0	 1	 3	 5	 -1	 -1	 -2	 -2	 2	 -1	 -4	 -2	 -2	 0	 -7	 1	 -3	 -1	 1	 -2	 22.00	 25.00	 23.00	 26.00	 48.00	 6.18	 6.45	 3	 3	 1	 0.0230769230769231	 0.0230769230769231	 -1
-0.62	 3	 12.3	 0.151	 -0.13	 68.2	 -1	 -4	 2	 5	 -3	 -2	 0	 -3	 1	 -3	 -2	 0	 -1	 2	 0	 0	 -1	 -2	 -3	 -2	 -3	 1	 2	 4	 -5	 -1	 5	 -3	 -2	 -5	 -3	 -1	 -4	 -5	 -3	 -2	 -3	 0	 -4	 -3	 18.00	 17.00	 17.00	 16.00	 34.00	 1.79	 2.00	 84	 52	 0.619047619047619	 0.43298969072165	 0.268041237113402	 -1
0.61	 -2.5	 5.2	 0.29	 0.82	 25.5	 -2	 -2	 -3	 -3	 6	 -3	 -1	 0	 -3	 0	 0	 -3	 -4	 -3	 -3	 -2	 -2	 -1	 1	 3	 -2	 -3	 -3	 -4	 -3	 -4	 -4	 -3	 -1	 0	 0	 -3	 0	 7	 -4	 -3	 -2	 1	 3	 -1	 23.00	 22.00	 24.00	 23.00	 46.00	 4.91	 6.97	 62	 50	 0.806451612903226	 0.314720812182741	 0.253807106598985	 1
-0.69	 0.2	 10.5	 0.18	 -0.11	 68.7	 -1	 -3	 0	 2	 -3	 -2	 0	 -3	 1	 -2	 0	 0	 -1	 5	 1	 0	 -1	 -2	 -2	 -1	 -1	 1	 3	 1	 -3	 2	 0	 -2	 1	 0	 0	 0	 0	 -2	 -3	 1	 0	 -4	 -2	 -2	 13.00	 8.00	 31.00	 26.00	 39.00	 2.53	 3.02	 65	 16	 0.246153846153846	 0.328282828282828	 0.0808080808080808	 -1
-0.72	 3	 13	 0.105	 -0.38	 60.6	 -2	 -3	 6	 2	 -3	 -1	 -1	 -3	 -1	 -4	 -3	 1	 -1	 0	 -2	 0	 -1	 -3	 -4	 -3	 -2	 -2	 1	 6	 -4	 0	 2	 -1	 -1	 -3	 -4	 -1	 -3	 -4	 -2	 0	 -1	 -5	 -3	 -3	 32.00	 27.00	 28.00	 23.00	 55.00	 7.83	 7.32	 92	 90	 0.978260869565217	 0.56441717791411	 0.552147239263804	 1
0.54	 -1.5	 5.9	 0.14	 0.27	 23.7	 0	 -1	 -3	 -2	 -1	 -3	 -3	 3	 -2	 1	 1	 -3	 -2	 -2	 -3	 -2	 0	 4	 -3	 -1	 0	 -2	 -2	 -2	 -1	 -2	 -2	 -2	 -2	 2	 2	 -2	 1	 -1	 -2	 -1	 0	 -2	 -1	 3	 30.00	 29.00	 22.00	 21.00	 51.00	 5.66	 5.48	 18	 18	 1	 0.126760563380282	 0.126760563380282	 1
-0.26	 0.3	 9.2	 0.062	 -0.33	 42	 1	 -1	 0	 0	 -2	 0	 -1	 -2	 0	 -2	 -1	 1	 -1	 0	 -1	 4	 1	 -2	 -3	 -2	 2	 -1	 0	 -1	 -1	 -1	 0	 -1	 -2	 -3	 -3	 -1	 -2	 -3	 2	 4	 0	 -3	 -2	 -2	 24.00	 35.00	 19.00	 30.00	 54.00	 27.56	 28.10	 97	 87	 0.896907216494845	 0.746153846153846	 0.669230769230769	 1
-0.64	 2	 11.6	 0.134	 0.12	 60.1	 -2	 -3	 1	 0	 -3	 0	 1	 -3	 0	 -3	 -2	 6	 -2	 0	 0	 1	 0	 -3	 -4	 -2	 -3	 -3	 3	 0	 -5	 -1	 -2	 0	 1	 -3	 -2	 -2	 -2	 -1	 2	 2	 1	 -4	 4	 -4	 20.00	 21.00	 26.00	 27.00	 47.00	 2.93	 2.58	 70	 54	 0.771428571428571	 0.445859872611465	 0.343949044585987	 1
0.02	 -2.3	 6.2	 0.298	 0.66	 55.2	 -2	 -2	 -3	 -2	 3	 -3	 2	 -1	 -2	 -1	 -1	 -2	 -3	 -1	 -2	 -2	 -2	 -1	 2	 7	 -1	 -2	 -1	 -2	 -2	 -2	 -2	 1	 0	 1	 -1	 -2	 -1	 2	 -2	 0	 -1	 0	 5	 -1	 26.00	 26.00	 29.00	 29.00	 55.00	 3.24	 4.83	 33	 26	 0.787878787878788	 0.148648648648649	 0.117117117117117	 1
0.37	 -3.4	 5.4	 0.409	 0.83	 34.7	 -3	 -2	 -4	 -3	 1	 -2	 -2	 -3	 -3	 -2	 -1	 -4	 -4	 -2	 -3	 -3	 -2	 -3	 11	 2	 -1	 -1	 0	 -1	 2	 0	 -1	 1	 1	 -1	 0	 -1	 -1	 0	 -1	 0	 -1	 6	 2	 -1	 23.00	 23.00	 25.00	 25.00	 48.00	 5.88	 5.82	 90	 89	 0.988888888888889	 0.39647577092511	 0.392070484581498	 1
0.53	 -1.8	 4.9	 0.186	 0.4	 27.6	 -1	 -1	 -4	 -3	 0	 -4	 -3	 2	 -2	 4	 2	 -3	 -3	 -2	 -2	 -2	 -1	 1	 -2	 -1	 -1	 -1	 -2	 -1	 -2	 -2	 -1	 -2	 -2	 1	 2	 -1	 2	 0	 0	 -1	 -1	 5	 2	 0	 24.00	 22.00	 30.00	 28.00	 52.00	 3.17	 3.47	 33	 30	 0.909090909090909	 0.201219512195122	 0.182926829268293	 -1
-1.76	 3	 10.5	 0.291	 0.27	 94.7	 -1	 -3	 -2	 0	 -3	 -2	 0	 -3	 2	 -2	 -1	 0	 -2	 1	 5	 -1	 -1	 -3	 -3	 -2	 -1	 2	 3	 1	 -4	 0	 3	 2	 -1	 -4	 -4	 1	 -2	 -4	 -3	 1	 0	 -4	 -3	 -3	 10.00	 16.00	 16.00	 22.00	 32.00	 2.85	 4.69	 229	 96	 0.419213973799127	 0.923387096774194	 0.387096774193548	 1
0.16	 0	 9	 0	 -0.07	 24.5	 0	 -3	 -1	 -2	 -3	 6	 -2	 -4	 -2	 -4	 -3	 0	 -2	 -2	 -2	 0	 -2	 -3	 -2	 -3	 -1	 0	 1	 1	 -3	 0	 0	 1	 -1	 0	 -1	 -1	 -2	 0	 -1	 1	 0	 2	 2	 -1	 10.00	 14.00	 28.00	 32.00	 42.00	 1.85	 2.00	 16	 0	 0	 0.19047619047619	 0	 1
0.53	 -1.8	 4.9	 0.186	 0.4	 27.6	 -1	 -1	 -4	 -3	 0	 -4	 -3	 2	 -2	 4	 2	 -3	 -3	 -2	 -2	 -2	 -1	 1	 -2	 -1	 -2	 -2	 0	 -2	 -3	 -1	 -1	 -3	 -3	 0	 4	 -2	 2	 0	 2	 0	 -1	 -4	 -3	 -1	 27.00	 28.00	 20.00	 21.00	 48.00	 7.12	 6.91	 173	 160	 0.92485549132948	 1.05487804878049	 0.975609756097561	 1
-0.07	 0	 8	 0.131	 -0.25	 51.5	 -1	 -3	 -1	 -1	 -4	 -2	 -2	 -3	 -1	 -3	 -2	 -2	 7	 -1	 -2	 -1	 -1	 -2	 -4	 -3	 -1	 -1	 -2	 -2	 -3	 -2	 -2	 -3	 -3	 -3	 -3	 -1	 -3	 -4	 8	 -1	 -2	 -4	 -3	 -3	 7.00	 8.00	 17.00	 18.00	 25.00	 1.98	 2.00	 90	 37	 0.411111111111111	 0.661764705882353	 0.272058823529412	 1
0.02	 -2.3	 6.2	 0.298	 0.66	 55.2	 -2	 -2	 -3	 -2	 3	 -3	 2	 -1	 -2	 -1	 -1	 -2	 -3	 -1	 -2	 -2	 -2	 -1	 2	 7	 -1	 -1	 2	 0	 -2	 -1	 -1	 0	 0	 -2	 -2	 -1	 -2	 -1	 2	 2	 0	 1	 2	 -1	 20.00	 17.00	 23.00	 20.00	 40.00	 2.62	 3.18	 153	 112	 0.73202614379085	 0.689189189189189	 0.504504504504504	 1
-1.1	 3	 11.3	 0.219	 -0.36	 103	 -1	 -3	 -1	 1	 -3	 -2	 -1	 -3	 5	 -2	 -1	 0	 -1	 1	 2	 0	 -1	 -2	 -3	 -2	 -2	 1	 -2	 -2	 -5	 1	 -1	 -3	 -2	 -4	 -3	 7	 2	 -4	 -3	 -2	 -2	 -4	 -3	 -3	 27.00	 27.00	 27.00	 27.00	 54.00	 3.98	 3.79	 50	 50	 1	 0.24390243902439	 0.24390243902439	 1
