0.73	 -1.8	 5.2	 0.186	 0.44	 22.8	 -1	 -1	 -3	 -3	 0	 -4	 -3	 4	 -3	 2	 1	 -3	 -3	 -3	 -3	 -2	 -1	 3	 -3	 -1	 -1	 -3	 -4	 -3	 -1	 -3	 -3	 -4	 -4	 5	 2	 -3	 1	 0	 -3	 -3	 -1	 -3	 -1	 3	 16.00	 16.00	 34.00	 34.00	 50.00	 5.19	 5.84	 28	 24	 0.857142857142857	 0.165680473372781	 0.142011834319527	 -1
-0.69	 0.2	 10.5	 0.18	 -0.11	 68.7	 -1	 -3	 0	 2	 -3	 -2	 0	 -3	 1	 -2	 0	 0	 -1	 5	 1	 0	 -1	 -2	 -2	 -1	 -1	 1	 0	 0	 -3	 5	 2	 -2	 0	 -3	 -2	 1	 0	 -3	 -1	 0	 -1	 -2	 -1	 -2	 18.00	 15.00	 7.00	 4.00	 22.00	 1.92	 2.00	 137	 64	 0.467153284671533	 0.691919191919192	 0.323232323232323	 -1
-0.72	 3	 13	 0.105	 -0.38	 60.6	 -2	 -3	 6	 2	 -3	 -1	 -1	 -3	 -1	 -4	 -3	 1	 -1	 0	 -2	 0	 -1	 -3	 -4	 -3	 -1	 0	 2	 1	 -2	 2	 0	 -3	 -1	 -2	 0	 -1	 0	 0	 -3	 -2	 3	 -4	 -2	 0	 26.00	 29.00	 21.00	 24.00	 50.00	 5.84	 6.42	 30	 23	 0.766666666666667	 0.184049079754601	 0.141104294478528	 -1
0.61	 -2.5	 5.2	 0.29	 0.82	 25.5	 -2	 -2	 -3	 -3	 6	 -3	 -1	 0	 -3	 0	 0	 -3	 -4	 -3	 -3	 -2	 -2	 -1	 1	 3	 -2	 2	 -2	 -2	 -3	 -1	 -1	 -3	 0	 -1	 -1	 1	 -1	 4	 -3	 -1	 -2	 1	 4	 -1	 32.00	 30.00	 30.00	 28.00	 60.00	 7.36	 7.50	 102	 101	 0.990196078431373	 0.517766497461929	 0.512690355329949	 1
0.54	 -1.5	 5.9	 0.14	 0.27	 23.7	 0	 -1	 -3	 -2	 -1	 -3	 -3	 3	 -2	 1	 1	 -3	 -2	 -2	 -3	 -2	 0	 4	 -3	 -1	 0	 -3	 -3	 -3	 -1	 -2	 -3	 -3	 -3	 3	 1	 -3	 1	 -1	 -3	 -2	 0	 -3	 -1	 4	 24.00	 23.00	 13.00	 12.00	 36.00	 4.63	 5.15	 81	 81	 1	 0.570422535211268	 0.570422535211268	 1
-0.62	 3	 12.3	 0.151	 -0.13	 68.2	 -1	 -4	 2	 5	 -3	 -2	 0	 -3	 1	 -3	 -2	 0	 -1	 2	 0	 0	 -1	 -2	 -3	 -2	 -1	 3	 -2	 1	 -4	 2	 4	 0	 -2	 -4	 -4	 1	 -3	 -4	 0	 1	 0	 -4	 -3	 -2	 5.00	 8.00	 17.00	 20.00	 25.00	 1.91	 2.47	 128	 25	 0.1953125	 0.65979381443299	 0.128865979381443	 -1
-0.72	 3	 13	 0.105	 -0.38	 60.6	 -2	 -3	 6	 2	 -3	 -1	 -1	 -3	 -1	 -4	 -3	 1	 -1	 0	 -2	 0	 -1	 -3	 -4	 -3	 -2	 -2	 1	 6	 -4	 0	 1	 -1	 -1	 -3	 -4	 -1	 -3	 -4	 -2	 0	 -1	 -4	 -3	 -3	 13.00	 16.00	 26.00	 29.00	 42.00	 3.64	 4.71	 74	 44	 0.594594594594595	 0.45398773006135	 0.269938650306748	 1
-0.26	 0.3	 9.2	 0.062	 -0.33	 42	 1	 -1	 0	 0	 -2	 0	 -1	 -2	 0	 -2	 -1	 1	 -1	 0	 -1	 4	 1	 -2	 -3	 -2	 0	 -2	 -1	 -2	 -1	 -1	 -1	 -2	 -2	 0	 2	 -1	 1	 -1	 -2	 2	 0	 -2	 -1	 0	 4.00	 8.00	 17.00	 21.00	 25.00	 1.85	 2.31	 113	 34	 0.300884955752212	 0.869230769230769	 0.261538461538462	 -1
-0.62	 3	 12.3	 0.151	 -0.13	 68.2	 -1	 -4	 2	 5	 -3	 -2	 0	 -3	 1	 -3	 -2	 0	 -1	 2	 0	 0	 -1	 -2	 -3	 -2	 -1	 0	 0	 2	 -4	 2	 5	 -2	 0	 -4	 -3	 1	 -2	 -4	 -1	 0	 -1	 -3	 -2	 -3	 10.00	 8.00	 21.00	 19.00	 29.00	 1.83	 2.00	 169	 48	 0.284023668639053	 0.871134020618557	 0.247422680412371	 -1
-0.72	 3	 13	 0.105	 -0.38	 60.6	 -2	 -3	 6	 2	 -3	 -1	 -1	 -3	 -1	 -4	 -3	 1	 -1	 0	 -2	 0	 -1	 -3	 -4	 -3	 -1	 1	 0	 1	 -3	 0	 1	 -2	 3	 -1	 -1	 1	 -2	 -1	 1	 1	 -1	 -3	 2	 -1	 23.00	 27.00	 9.00	 13.00	 36.00	 2.27	 2.00	 75	 5	 0.0666666666666667	 0.460122699386503	 0.0306748466257669	 1
-0.18	 -0.4	 8.6	 0.108	 -0.18	 45	 0	 -1	 -1	 -1	 -2	 -2	 -2	 -1	 -1	 -1	 -1	 0	 -1	 -1	 -1	 1	 5	 0	 -2	 -2	 -1	 1	 -1	 0	 -2	 1	 3	 -2	 -1	 -1	 0	 0	 0	 -2	 -2	 0	 2	 -3	 -2	 -1	 13.00	 13.00	 26.00	 26.00	 39.00	 2.84	 3.45	 52	 23	 0.442307692307692	 0.366197183098592	 0.161971830985915	 -1
-0.72	 3	 13	 0.105	 -0.38	 60.6	 -2	 -3	 6	 2	 -3	 -1	 -1	 -3	 -1	 -4	 -3	 1	 -1	 0	 -2	 0	 -1	 -3	 -4	 -3	 -2	 2	 1	 4	 -4	 1	 2	 1	 -1	 -3	 -2	 -1	 -3	 -4	 -2	 0	 -2	 -4	 -3	 -3	 21.00	 19.00	 18.00	 16.00	 37.00	 3.09	 3.28	 100	 99	 0.99	 0.613496932515337	 0.607361963190184	 1
-1.1	 3	 11.3	 0.219	 -0.36	 103	 -1	 -3	 -1	 1	 -3	 -2	 -1	 -3	 5	 -2	 -1	 0	 -1	 1	 2	 0	 -1	 -2	 -3	 -2	 -1	 2	 -1	 -1	 -3	 1	 0	 -2	 -1	 0	 -1	 4	 -1	 -2	 -1	 -1	 -1	 -3	 -2	 -1	 24.00	 20.00	 26.00	 22.00	 46.00	 3.02	 2.93	 36	 25	 0.694444444444444	 0.175609756097561	 0.121951219512195	 -1
-0.26	 0.3	 9.2	 0.062	 -0.33	 42	 1	 -1	 0	 0	 -2	 0	 -1	 -2	 0	 -2	 -1	 1	 -1	 0	 -1	 4	 1	 -2	 -3	 -2	 1	 -1	 0	 0	 -1	 0	 0	 -1	 -1	 -2	 -2	 0	 -1	 -2	 -1	 4	 2	 -3	 -2	 -1	 25.00	 29.00	 19.00	 23.00	 48.00	 5.74	 5.77	 38	 38	 1	 0.292307692307692	 0.292307692307692	 1
-0.62	 3	 12.3	 0.151	 -0.13	 68.2	 -1	 -4	 2	 5	 -3	 -2	 0	 -3	 1	 -3	 -2	 0	 -1	 2	 0	 0	 -1	 -2	 -3	 -2	 0	 0	 2	 -1	 0	 1	 0	 -2	 2	 -2	 -1	 -1	 -1	 0	 -1	 2	 -1	 1	 -1	 0	 22.00	 21.00	 24.00	 23.00	 45.00	 2.90	 3.74	 51	 30	 0.588235294117647	 0.262886597938144	 0.154639175257732	 -1
0.02	 -2.3	 6.2	 0.298	 0.66	 55.2	 -2	 -2	 -3	 -2	 3	 -3	 2	 -1	 -2	 -1	 -1	 -2	 -3	 -1	 -2	 -2	 -2	 -1	 2	 7	 -2	 -2	 1	 0	 -4	 -2	 -1	 -3	 1	 -3	 -3	 -2	 -3	 1	 -4	 1	 0	 -1	 7	 -3	 6.00	 4.00	 22.00	 20.00	 26.00	 1.82	 2.00	 199	 76	 0.381909547738693	 0.896396396396396	 0.342342342342342	 -1
-0.18	 -0.4	 8.6	 0.108	 -0.18	 45	 0	 -1	 -1	 -1	 -2	 -2	 -2	 -1	 -1	 -1	 -1	 0	 -1	 -1	 -1	 1	 5	 0	 -2	 -2	 -1	 -2	 -1	 -2	 -2	 -2	 -2	 -3	 1	 -2	 -2	 -2	 -2	 -3	 2	 0	 6	 -3	 -2	 -1	 30.00	 31.00	 33.00	 34.00	 64.00	 6.77	 7.42	 82	 81	 0.98780487804878	 0.577464788732394	 0.570422535211268	 1
-0.62	 3	 12.3	 0.151	 -0.13	 68.2	 -1	 -4	 2	 5	 -3	 -2	 0	 -3	 1	 -3	 -2	 0	 -1	 2	 0	 0	 -1	 -2	 -3	 -2	 -2	 -1	 0	 -2	 0	 -1	 3	 -3	 4	 0	 0	 1	 -2	 0	 -3	 -1	 1	 1	 2	 -1	 14.00	 10.00	 29.00	 25.00	 39.00	 3.02	 3.59	 58	 30	 0.517241379310345	 0.298969072164948	 0.154639175257732	 -1
0.53	 -1.8	 4.9	 0.186	 0.4	 27.6	 -1	 -1	 -4	 -3	 0	 -4	 -3	 2	 -2	 4	 2	 -3	 -3	 -2	 -2	 -2	 -1	 1	 -2	 -1	 -2	 -2	 -4	 -4	 -1	 -2	 -3	 -4	 -3	 2	 4	 -3	 2	 0	 -3	 -3	 -1	 -2	 -1	 1	 17.00	 17.00	 30.00	 30.00	 47.00	 3.54	 4.33	 47	 40	 0.851063829787234	 0.286585365853659	 0.24390243902439	 1
0.73	 -1.8	 5.2	 0.186	 0.44	 22.8	 -1	 -1	 -3	 -3	 0	 -4	 -3	 4	 -3	 2	 1	 -3	 -3	 -3	 -3	 -2	 -1	 3	 -3	 -1	 -1	 -3	 -2	 -2	 -2	 -2	 -3	 -3	 0	 3	 2	 -2	 0	 2	 -1	 1	 -1	 -3	 -1	 2	 29.00	 31.00	 18.00	 20.00	 49.00	 4.19	 3.78	 21	 19	 0.904761904761905	 0.124260355029586	 0.112426035502959	 -1
-0.64	 2	 11.6	 0.134	 0.12	 60.1	 -2	 -3	 1	 0	 -3	 0	 1	 -3	 0	 -3	 -2	 6	 -2	 0	 0	 1	 0	 -3	 -4	 -2	 -3	 -3	 4	 5	 -4	 -2	 0	 1	 -3	 -5	 -5	 -2	 -4	 -5	 -1	 2	 0	 -5	 -4	 -4	 12.00	 18.00	 20.00	 26.00	 38.00	 3.36	 4.53	 61	 39	 0.639344262295082	 0.388535031847134	 0.248407643312102	 -1
-0.4	 -0.5	 10.4	 0.23	 0.41	 50.7	 -2	 -3	 -1	 0	 -1	 -2	 8	 -3	 -1	 -3	 -2	 1	 -2	 0	 0	 -1	 -2	 -3	 -2	 2	 0	 -1	 0	 -1	 -1	 -3	 -3	 0	 1	 -3	 -2	 -2	 -3	 1	 -4	 0	 0	 5	 6	 -2	 22.00	 20.00	 33.00	 31.00	 53.00	 7.09	 7.00	 62	 31	 0.5	 0.33695652173913	 0.168478260869565	 -1
0.02	 -2.3	 6.2	 0.298	 0.66	 55.2	 -2	 -2	 -3	 -2	 3	 -3	 2	 -1	 -2	 -1	 -1	 -2	 -3	 -1	 -2	 -2	 -2	 -1	 2	 7	 -2	 -2	 -2	 -3	 -2	 -1	 -2	 -3	 2	 -1	 -1	 -2	 -1	 3	 -3	 -2	 -2	 2	 7	 -1	 13.00	 14.00	 14.00	 15.00	 28.00	 2.54	 2.67	 180	 109	 0.605555555555556	 0.810810810810811	 0.490990990990991	 -1
-0.18	 -0.4	 8.6	 0.108	 -0.18	 45	 0	 -1	 -1	 -1	 -2	 -2	 -2	 -1	 -1	 -1	 -1	 0	 -1	 -1	 -1	 1	 5	 0	 -2	 -2	 0	 -2	 2	 -1	 -1	 -1	 -1	 -2	 -2	 0	 -1	 -1	 -1	 -2	 2	 1	 4	 -3	 -2	 0	 20.00	 22.00	 20.00	 22.00	 42.00	 3.16	 3.51	 32	 19	 0.59375	 0.225352112676056	 0.133802816901408	 -1
-1.76	 3	 10.5	 0.291	 0.27	 94.7	 -1	 -3	 -2	 0	 -3	 -2	 0	 -3	 2	 -2	 -1	 0	 -2	 1	 5	 -1	 -1	 -3	 -3	 -2	 -3	 4	 0	 -3	 -5	 1	 0	 -4	 -3	 -5	 -5	 6	 -3	 -5	 -4	 -1	 1	 -5	 -4	 -4	 23.00	 27.00	 24.00	 28.00	 51.00	 3.17	 4.21	 104	 64	 0.615384615384615	 0.419354838709677	 0.258064516129032	 1
0.73	 -1.8	 5.2	 0.186	 0.44	 22.8	 -1	 -1	 -3	 -3	 0	 -4	 -3	 4	 -3	 2	 1	 -3	 -3	 -3	 -3	 -2	 -1	 3	 -3	 -1	 -1	 -2	 -2	 -3	 -2	 -2	 -2	 -3	 -3	 4	 1	 0	 1	 -1	 -3	 0	 -1	 -3	 -2	 2	 19.00	 19.00	 19.00	 19.00	 38.00	 2.72	 2.64	 109	 72	 0.660550458715596	 0.644970414201183	 0.42603550295858	 -1
-1.1	 3	 11.3	 0.219	 -0.36	 103	 -1	 -3	 -1	 1	 -3	 -2	 -1	 -3	 5	 -2	 -1	 0	 -1	 1	 2	 0	 -1	 -2	 -3	 -2	 -2	 2	 -1	 -1	 -3	 0	 0	 -2	 0	 -2	 1	 3	 2	 0	 -3	 0	 0	 -2	 2	 -2	 21.00	 22.00	 29.00	 30.00	 51.00	 4.32	 5.27	 27	 27	 1	 0.131707317073171	 0.131707317073171	 -1
0.02	 -2.3	 6.2	 0.298	 0.66	 55.2	 -2	 -2	 -3	 -2	 3	 -3	 2	 -1	 -2	 -1	 -1	 -2	 -3	 -1	 -2	 -2	 -2	 -1	 2	 7	 2	 2	 0	 -3	 -2	 0	 -2	 -3	 4	 -4	 -4	 -1	 -1	 1	 -4	 3	 0	 -3	 4	 -3	 25.00	 24.00	 29.00	 28.00	 53.00	 5.81	 6.30	 32	 29	 0.90625	 0.144144144144144	 0.130630630630631	 -1
-1.76	 3	 10.5	 0.291	 0.27	 94.7	 -1	 -3	 -2	 0	 -3	 -2	 0	 -3	 2	 -2	 -1	 0	 -2	 1	 5	 -1	 -1	 -3	 -3	 -2	 0	 2	 -1	 -2	 3	 0	 -1	 4	 -2	 -3	 -3	 2	 -2	 -3	 -2	 -1	 -1	 -3	 -3	 -3	 28.00	 21.00	 27.00	 20.00	 48.00	 6.11	 6.25	 102	 96	 0.941176470588235	 0.411290322580645	 0.387096774193548	 -1
-0.62	 3	 12.3	 0.151	 -0.13	 68.2	 -1	 -4	 2	 5	 -3	 -2	 0	 -3	 1	 -3	 -2	 0	 -1	 2	 0	 0	 -1	 -2	 -3	 -2	 -1	 0	 1	 3	 -4	 -1	 2	 -2	 1	 -1	 -3	 0	 -3	 -3	 1	 0	 0	 1	 2	 -1	 17.00	 13.00	 32.00	 28.00	 45.00	 2.08	 2.62	 111	 75	 0.675675675675676	 0.572164948453608	 0.38659793814433	 -1
-0.07	 0	 8	 0.131	 -0.25	 51.5	 -1	 -3	 -1	 -1	 -4	 -2	 -2	 -3	 -1	 -3	 -2	 -2	 7	 -1	 -2	 -1	 -1	 -2	 -4	 -3	 0	 -2	 -1	 -1	 -2	 -1	 -1	 -1	 -2	 -2	 -2	 -1	 -2	 -2	 7	 -1	 -1	 -2	 -2	 -2	 34.00	 30.00	 23.00	 19.00	 53.00	 2.95	 2.72	 122	 122	 1	 0.897058823529412	 0.897058823529412	 1
0.02	 -2.3	 6.2	 0.298	 0.66	 55.2	 -2	 -2	 -3	 -2	 3	 -3	 2	 -1	 -2	 -1	 -1	 -2	 -3	 -1	 -2	 -2	 -2	 -1	 2	 7	 -2	 -2	 -2	 -2	 -3	 -1	 0	 -3	 0	 -2	 -2	 -2	 -2	 1	 2	 -2	 -2	 1	 7	 -2	 21.00	 22.00	 18.00	 19.00	 40.00	 2.74	 2.65	 129	 123	 0.953488372093023	 0.581081081081081	 0.554054054054054	 1
