0.02	 -2.3	 6.2	 0.298	 0.66	 55.2	 -2	 -2	 -3	 -2	 3	 -3	 2	 -1	 -2	 -1	 -1	 -2	 -3	 -1	 -2	 -2	 -2	 -1	 2	 7	 0	 0	 -1	 0	 -1	 -3	 -3	 0	 0	 -3	 -3	 -2	 0	 1	 -1	 0	 0	 5	 6	 -2	 25.00	 22.00	 31.00	 28.00	 53.00	 6.46	 6.00	 78	 78	 1	 0.351351351351351	 0.351351351351351	 1
-0.64	 2	 11.6	 0.134	 0.12	 60.1	 -2	 -3	 1	 0	 -3	 0	 1	 -3	 0	 -3	 -2	 6	 -2	 0	 0	 1	 0	 -3	 -4	 -2	 -2	 -1	 5	 4	 -3	 0	 0	 -1	 0	 -3	 -4	 0	 -3	 -3	 -2	 0	 0	 -4	 -3	 -3	 26.00	 28.00	 27.00	 29.00	 55.00	 5.71	 6.08	 155	 154	 0.993548387096774	 0.987261146496815	 0.980891719745223	 -1
-1.76	 3	 10.5	 0.291	 0.27	 94.7	 -1	 -3	 -2	 0	 -3	 -2	 0	 -3	 2	 -2	 -1	 0	 -2	 1	 5	 -1	 -1	 -3	 -3	 -2	 -1	 2	 3	 2	 -3	 0	 0	 -3	 -2	 -1	 -1	 1	 3	 1	 -3	 -1	 -1	 -3	 -1	 -1	 17.00	 12.00	 32.00	 27.00	 44.00	 2.29	 2.00	 190	 100	 0.526315789473684	 0.766129032258065	 0.403225806451613	 1
0.02	 -2.3	 6.2	 0.298	 0.66	 55.2	 -2	 -2	 -3	 -2	 3	 -3	 2	 -1	 -2	 -1	 -1	 -2	 -3	 -1	 -2	 -2	 -2	 -1	 2	 7	 0	 1	 1	 0	 1	 0	 -1	 -1	 0	 -4	 -2	 -2	 -1	 -1	 -2	 3	 0	 3	 0	 -2	 21.00	 21.00	 24.00	 24.00	 45.00	 3.46	 4.35	 121	 117	 0.966942148760331	 0.545045045045045	 0.527027027027027	 1
-1.1	 3	 11.3	 0.219	 -0.36	 103	 -1	 -3	 -1	 1	 -3	 -2	 -1	 -3	 5	 -2	 -1	 0	 -1	 1	 2	 0	 -1	 -2	 -3	 -2	 1	 5	 -1	 -2	 -3	 1	 0	 -2	 -1	 -3	 -2	 3	 -1	 -3	 -2	 0	 -1	 -3	 -2	 -2	 7.00	 11.00	 20.00	 24.00	 31.00	 1.99	 2.47	 157	 54	 0.343949044585987	 0.765853658536585	 0.263414634146341	 -1
0.16	 0	 9	 0	 -0.07	 24.5	 0	 -3	 -1	 -2	 -3	 6	 -2	 -4	 -2	 -4	 -3	 0	 -2	 -2	 -2	 0	 -2	 -3	 -2	 -3	 1	 -1	 0	 -1	 -1	 -1	 -1	 4	 -1	 -2	 -2	 -1	 -1	 -2	 2	 0	 -1	 -1	 -1	 -1	 30.00	 31.00	 22.00	 23.00	 53.00	 1.61	 2.00	 72	 56	 0.777777777777778	 0.857142857142857	 0.666666666666667	 1
-0.62	 3	 12.3	 0.151	 -0.13	 68.2	 -1	 -4	 2	 5	 -3	 -2	 0	 -3	 1	 -3	 -2	 0	 -1	 2	 0	 0	 -1	 -2	 -3	 -2	 -1	 0	 0	 2	 -4	 2	 5	 -2	 0	 -3	 -3	 1	 -2	 -3	 -1	 0	 -1	 -3	 -2	 -3	 7.00	 13.00	 28.00	 34.00	 41.00	 2.41	 2.71	 74	 16	 0.216216216216216	 0.381443298969072	 0.0824742268041237	 -1
0.73	 -1.8	 5.2	 0.186	 0.44	 22.8	 -1	 -1	 -3	 -3	 0	 -4	 -3	 4	 -3	 2	 1	 -3	 -3	 -3	 -3	 -2	 -1	 3	 -3	 -1	 -1	 0	 -2	 0	 -3	 2	 0	 -2	 -2	 2	 -1	 0	 -1	 -1	 -1	 0	 2	 -3	 -1	 2	 22.00	 21.00	 26.00	 25.00	 47.00	 2.99	 2.69	 34	 13	 0.382352941176471	 0.201183431952663	 0.0769230769230769	 -1
-0.69	 0.2	 10.5	 0.18	 -0.11	 68.7	 -1	 -3	 0	 2	 -3	 -2	 0	 -3	 1	 -2	 0	 0	 -1	 5	 1	 0	 -1	 -2	 -2	 -1	 -1	 1	 3	 1	 -3	 2	 0	 -2	 1	 0	 0	 0	 0	 -2	 -3	 1	 0	 -4	 -2	 -2	 13.00	 8.00	 31.00	 26.00	 39.00	 2.53	 3.02	 65	 16	 0.246153846153846	 0.328282828282828	 0.0808080808080808	 -1
-1.1	 3	 11.3	 0.219	 -0.36	 103	 -1	 -3	 -1	 1	 -3	 -2	 -1	 -3	 5	 -2	 -1	 0	 -1	 1	 2	 0	 -1	 -2	 -3	 -2	 -2	 4	 1	 -2	 -4	 0	 -1	 0	 0	 -4	 -1	 3	 1	 -1	 -4	 -1	 2	 -4	 0	 -3	 39.00	 33.00	 31.00	 25.00	 64.00	 6.94	 6.62	 184	 180	 0.978260869565217	 0.897560975609756	 0.878048780487805	 1
-0.62	 3	 12.3	 0.151	 -0.13	 68.2	 -1	 -4	 2	 5	 -3	 -2	 0	 -3	 1	 -3	 -2	 0	 -1	 2	 0	 0	 -1	 -2	 -3	 -2	 -3	 1	 2	 4	 -5	 -1	 5	 -3	 -2	 -5	 -3	 -1	 -4	 -5	 -3	 -2	 -3	 0	 -4	 -3	 18.00	 17.00	 17.00	 16.00	 34.00	 1.79	 2.00	 84	 52	 0.619047619047619	 0.43298969072165	 0.268041237113402	 -1
0.02	 -2.3	 6.2	 0.298	 0.66	 55.2	 -2	 -2	 -3	 -2	 3	 -3	 2	 -1	 -2	 -1	 -1	 -2	 -3	 -1	 -2	 -2	 -2	 -1	 2	 7	 -1	 -1	 1	 -1	 -3	 -2	 -1	 0	 3	 -2	 -1	 -2	 -3	 3	 0	 2	 0	 -3	 1	 -1	 15.00	 9.00	 31.00	 25.00	 40.00	 2.18	 2.00	 130	 79	 0.607692307692308	 0.585585585585586	 0.355855855855856	 -1
0.53	 -1.8	 4.9	 0.186	 0.4	 27.6	 -1	 -1	 -4	 -3	 0	 -4	 -3	 2	 -2	 4	 2	 -3	 -3	 -2	 -2	 -2	 -1	 1	 -2	 -1	 -1	 -1	 -2	 -1	 -2	 0	 2	 -3	 -2	 1	 3	 -1	 3	 0	 -2	 -1	 -1	 -2	 -1	 0	 10.00	 8.00	 28.00	 26.00	 36.00	 3.36	 3.94	 80	 53	 0.6625	 0.48780487804878	 0.323170731707317	 -1
-0.69	 0.2	 10.5	 0.18	 -0.11	 68.7	 -1	 -3	 0	 2	 -3	 -2	 0	 -3	 1	 -2	 0	 0	 -1	 5	 1	 0	 -1	 -2	 -2	 -1	 -1	 1	 1	 0	 -3	 1	 1	 -3	 3	 -2	 -2	 -1	 -2	 -1	 0	 2	 2	 -4	 -1	 -1	 14.00	 17.00	 30.00	 33.00	 47.00	 2.37	 2.60	 68	 27	 0.397058823529412	 0.343434343434343	 0.136363636363636	 -1
0.54	 -1.5	 5.9	 0.14	 0.27	 23.7	 0	 -1	 -3	 -2	 -1	 -3	 -3	 3	 -2	 1	 1	 -3	 -2	 -2	 -3	 -2	 0	 4	 -3	 -1	 -2	 -2	 -2	 -2	 -4	 -1	 -3	 -5	 -1	 4	 0	 -1	 4	 0	 -3	 -2	 1	 3	 -2	 2	 24.00	 25.00	 24.00	 25.00	 49.00	 2.38	 3.17	 60	 26	 0.433333333333333	 0.422535211267606	 0.183098591549296	 -1
0.02	 -2.3	 6.2	 0.298	 0.66	 55.2	 -2	 -2	 -3	 -2	 3	 -3	 2	 -1	 -2	 -1	 -1	 -2	 -3	 -1	 -2	 -2	 -2	 -1	 2	 7	 0	 -2	 -1	 -2	 -2	 -1	 -1	 1	 0	 -1	 0	 -1	 -1	 1	 -2	 2	 0	 0	 4	 -1	 7.00	 12.00	 18.00	 23.00	 30.00	 1.96	 2.69	 160	 46	 0.2875	 0.720720720720721	 0.207207207207207	 -1
0.02	 -2.3	 6.2	 0.298	 0.66	 55.2	 -2	 -2	 -3	 -2	 3	 -3	 2	 -1	 -2	 -1	 -1	 -2	 -3	 -1	 -2	 -2	 -2	 -1	 2	 7	 -2	 -4	 0	 -2	 -2	 -2	 -1	 -2	 1	 -3	 0	 -3	 -2	 1	 4	 0	 0	 2	 5	 -3	 22.00	 22.00	 25.00	 25.00	 47.00	 4.71	 5.11	 143	 67	 0.468531468531469	 0.644144144144144	 0.301801801801802	 1
-1.1	 3	 11.3	 0.219	 -0.36	 103	 -1	 -3	 -1	 1	 -3	 -2	 -1	 -3	 5	 -2	 -1	 0	 -1	 1	 2	 0	 -1	 -2	 -3	 -2	 -1	 4	 0	 -1	 -3	 1	 0	 -2	 -1	 -3	 -2	 4	 -1	 -3	 -1	 0	 -1	 -3	 -2	 -2	 14.00	 18.00	 19.00	 23.00	 37.00	 2.16	 2.00	 121	 58	 0.479338842975207	 0.590243902439024	 0.282926829268293	 -1
0.37	 -3.4	 5.4	 0.409	 0.83	 34.7	 -3	 -2	 -4	 -3	 1	 -2	 -2	 -3	 -3	 -2	 -1	 -4	 -4	 -2	 -3	 -3	 -2	 -3	 11	 2	 0	 1	 3	 1	 -3	 -1	 -2	 1	 -1	 -2	 -2	 -2	 -2	 -1	 -2	 0	 1	 1	 3	 -1	 24.00	 26.00	 25.00	 27.00	 51.00	 4.32	 5.69	 116	 115	 0.991379310344828	 0.511013215859031	 0.506607929515419	 1
-0.69	 0.2	 10.5	 0.18	 -0.11	 68.7	 -1	 -3	 0	 2	 -3	 -2	 0	 -3	 1	 -2	 0	 0	 -1	 5	 1	 0	 -1	 -2	 -2	 -1	 -1	 4	 -1	 -1	 -3	 3	 1	 -2	 0	 -3	 -3	 3	 -1	 -3	 1	 -1	 -1	 -3	 -2	 -3	 16.00	 14.00	 27.00	 25.00	 41.00	 1.97	 2.00	 71	 19	 0.267605633802817	 0.358585858585859	 0.095959595959596	 -1
-0.62	 3	 12.3	 0.151	 -0.13	 68.2	 -1	 -4	 2	 5	 -3	 -2	 0	 -3	 1	 -3	 -2	 0	 -1	 2	 0	 0	 -1	 -2	 -3	 -2	 0	 -2	 -1	 3	 -3	 1	 1	 -2	 0	 -1	 -2	 -1	 -2	 -3	 4	 -1	 -1	 -4	 -3	 -1	 12.00	 14.00	 23.00	 25.00	 37.00	 1.76	 2.00	 161	 70	 0.434782608695652	 0.829896907216495	 0.360824742268041	 1
0.02	 -2.3	 6.2	 0.298	 0.66	 55.2	 -2	 -2	 -3	 -2	 3	 -3	 2	 -1	 -2	 -1	 -1	 -2	 -3	 -1	 -2	 -2	 -2	 -1	 2	 7	 -2	 -2	 -2	 -3	 -3	 -2	 -2	 -3	 2	 -2	 -1	 -2	 -1	 3	 -3	 -2	 -2	 2	 7	 -1	 17.00	 12.00	 18.00	 13.00	 30.00	 2.44	 2.00	 163	 100	 0.613496932515337	 0.734234234234234	 0.45045045045045	 1
0.61	 -2.5	 5.2	 0.29	 0.82	 25.5	 -2	 -2	 -3	 -3	 6	 -3	 -1	 0	 -3	 0	 0	 -3	 -4	 -3	 -3	 -2	 -2	 -1	 1	 3	 -3	 -5	 -3	 -6	 -5	 -4	 -5	 -6	 0	 -3	 -1	 -3	 -3	 5	 -6	 -3	 -4	 -1	 8	 -4	 29.00	 24.00	 30.00	 25.00	 54.00	 6.44	 7.36	 6	 6	 1	 0.0304568527918782	 0.0304568527918782	 -1
-0.72	 3	 13	 0.105	 -0.38	 60.6	 -2	 -3	 6	 2	 -3	 -1	 -1	 -3	 -1	 -4	 -3	 1	 -1	 0	 -2	 0	 -1	 -3	 -4	 -3	 -4	 2	 -1	 0	 -6	 2	 -1	 -5	 9	 -6	 -5	 1	 -4	 -2	 -5	 -1	 -4	 -5	 0	 -6	 28.00	 28.00	 28.00	 28.00	 56.00	 8.25	 8.62	 77	 71	 0.922077922077922	 0.47239263803681	 0.43558282208589	 -1
0.61	 -2.5	 5.2	 0.29	 0.82	 25.5	 -2	 -2	 -3	 -3	 6	 -3	 -1	 0	 -3	 0	 0	 -3	 -4	 -3	 -3	 -2	 -2	 -1	 1	 3	 -2	 -3	 -3	 -4	 -2	 -3	 -3	 -3	 -1	 0	 0	 -3	 0	 6	 -4	 -2	 -2	 1	 3	 -1	 24.00	 20.00	 12.00	 8.00	 32.00	 2.45	 2.72	 110	 93	 0.845454545454545	 0.558375634517767	 0.472081218274112	 1
-0.26	 0.3	 9.2	 0.062	 -0.33	 42	 1	 -1	 0	 0	 -2	 0	 -1	 -2	 0	 -2	 -1	 1	 -1	 0	 -1	 4	 1	 -2	 -3	 -2	 1	 -1	 0	 0	 -1	 0	 0	 -1	 -1	 -2	 -2	 0	 -1	 -2	 -1	 4	 2	 -3	 -2	 -1	 26.00	 29.00	 20.00	 23.00	 49.00	 5.70	 5.78	 36	 36	 1	 0.276923076923077	 0.276923076923077	 1
-0.72	 3	 13	 0.105	 -0.38	 60.6	 -2	 -3	 6	 2	 -3	 -1	 -1	 -3	 -1	 -4	 -3	 1	 -1	 0	 -2	 0	 -1	 -3	 -4	 -3	 1	 -2	 1	 2	 -3	 0	 0	 1	 -1	 -3	 -3	 -1	 -3	 -3	 1	 2	 0	 -4	 -1	 -2	 6.00	 3.00	 23.00	 20.00	 26.00	 1.86	 2.00	 77	 18	 0.233766233766234	 0.47239263803681	 0.110429447852761	 -1
-0.69	 0.2	 10.5	 0.18	 -0.11	 68.7	 -1	 -3	 0	 2	 -3	 -2	 0	 -3	 1	 -2	 0	 0	 -1	 5	 1	 0	 -1	 -2	 -2	 -1	 -2	 1	 0	 -1	 -3	 1	 0	 -1	 3	 -2	 1	 2	 -1	 1	 -1	 -1	 -1	 -2	 3	 -2	 1.00	 12.00	 13.00	 24.00	 25.00	 1.79	 2.00	 193	 29	 0.150259067357513	 0.974747474747475	 0.146464646464646	 -1
-0.26	 0.3	 9.2	 0.062	 -0.33	 42	 1	 -1	 0	 0	 -2	 0	 -1	 -2	 0	 -2	 -1	 1	 -1	 0	 -1	 4	 1	 -2	 -3	 -2	 3	 -1	 0	 -1	 -1	 0	 0	 0	 -1	 -2	 -2	 0	 -1	 -3	 -1	 3	 1	 -3	 -2	 -1	 27.00	 25.00	 21.00	 19.00	 46.00	 6.33	 6.64	 31	 31	 1	 0.238461538461538	 0.238461538461538	 -1
0.02	 -2.3	 6.2	 0.298	 0.66	 55.2	 -2	 -2	 -3	 -2	 3	 -3	 2	 -1	 -2	 -1	 -1	 -2	 -3	 -1	 -2	 -2	 -2	 -1	 2	 7	 -2	 -2	 0	 1	 -3	 -2	 -2	 -3	 1	 -2	 -2	 -2	 -2	 5	 -3	 -1	 -1	 0	 6	 -2	 28.00	 30.00	 15.00	 17.00	 45.00	 3.67	 2.00	 75	 75	 1	 0.337837837837838	 0.337837837837838	 1
-0.72	 3	 13	 0.105	 -0.38	 60.6	 -2	 -3	 6	 2	 -3	 -1	 -1	 -3	 -1	 -4	 -3	 1	 -1	 0	 -2	 0	 -1	 -3	 -4	 -3	 -3	 -1	 4	 1	 -4	 1	 0	 2	 3	 -1	 -2	 0	 -4	 -4	 -2	 1	 -1	 -6	 -1	 -5	 23.00	 21.00	 24.00	 22.00	 45.00	 2.06	 2.72	 130	 98	 0.753846153846154	 0.797546012269939	 0.601226993865031	 1
