0.014568	0.985432
0.049526	0.950474
0.974663	0.025337
0.010819	0.989181
0.986160	0.013840
0.999323	0.000677
0.273141	0.726859
0.272793	0.727207
0.999413	0.000587
0.007724	0.992276
0.227376	0.772624
0.333922	0.666078
0.067056	0.932944
0.999325	0.000675
0.002011	0.997989
0.999428	0.000572
0.007052	0.992948
0.719116	0.280884
0.245535	0.754465
0.998576	0.001424
0.880126	0.119874
0.994484	0.005516
0.000141	0.999859
0.982346	0.017654
0.999780	0.000220
0.680064	0.319936
0.060060	0.939940
0.944005	0.055995
0.065296	0.934704
0.000037	0.999963
0.666479	0.333521
