0.854328	0.145672
0.991999	0.008001
0.001092	0.998908
0.083704	0.916296
0.594411	0.405589
0.656919	0.343081
0.829601	0.170399
0.784627	0.215373
0.478288	0.521712
0.036145	0.963855
0.701070	0.298930
0.706189	0.293811
0.101763	0.898237
0.049663	0.950337
0.997889	0.002111
0.832094	0.167906
0.282640	0.717360
0.740332	0.259668
0.999381	0.000619
0.062991	0.937009
0.980577	0.019423
0.017010	0.982990
0.946913	0.053087
0.006843	0.993157
0.945485	0.054515
0.035157	0.964843
0.983168	0.016832
0.665930	0.334070
0.147401	0.852599
0.999342	0.000658
0.957295	0.042705
