0.349287	0.650713
0.404847	0.595153
0.441324	0.558676
0.658240	0.341760
0.271193	0.728807
0.529715	0.470285
0.167441	0.832559
0.667754	0.332246
0.354717	0.645283
0.500000	0.500000
0.613367	0.386633
0.258768	0.741232
0.422531	0.577469
0.818806	0.181194
0.209026	0.790974
0.097975	0.902025
0.698720	0.301280
0.421644	0.578356
0.202291	0.797709
0.449525	0.550475
0.301195	0.698805
0.577234	0.422766
0.840677	0.159323
0.500000	0.500000
0.631978	0.368022
0.485872	0.514128
0.500000	0.500000
0.448999	0.551001
0.312670	0.687330
0.342707	0.657293
0.785732	0.214268
