0.956863	0.043137
0.879993	0.120007
0.990408	0.009592
0.647757	0.352243
0.000575	0.999425
0.911229	0.088771
0.891781	0.108219
0.001495	0.998505
0.379721	0.620279
0.987032	0.012968
0.997219	0.002781
0.743314	0.256686
0.848392	0.151608
0.564784	0.435216
0.004285	0.995715
0.982122	0.017878
0.994886	0.005114
0.144055	0.855945
0.923348	0.076652
0.006904	0.993096
0.006390	0.993610
0.919510	0.080490
0.025970	0.974030
0.989463	0.010537
0.554867	0.445133
0.127354	0.872646
0.781789	0.218211
0.980042	0.019958
0.951334	0.048666
0.368253	0.631747
0.006405	0.993595
