0.092005	0.907995
0.999733	0.000267
0.000122	0.999878
0.023997	0.976003
0.029422	0.970578
0.954397	0.045603
0.999577	0.000423
0.998004	0.001996
0.997174	0.002826
0.999479	0.000521
0.126326	0.873674
0.000193	0.999807
0.427128	0.572872
0.681232	0.318768
0.992936	0.007064
0.561236	0.438764
0.028891	0.971109
0.208015	0.791985
0.705298	0.294702
0.998461	0.001539
0.000567	0.999433
0.663823	0.336177
0.002279	0.997721
0.849731	0.150269
0.010220	0.989780
0.102000	0.898000
0.399235	0.600765
0.641630	0.358370
0.990917	0.009083
0.000810	0.999190
0.897463	0.102537
