0.000251	0.999749
0.851720	0.148280
0.000082	0.999918
0.968593	0.031407
0.028242	0.971758
0.082927	0.917073
0.020702	0.979298
0.085713	0.914287
0.047745	0.952255
0.968524	0.031476
0.894168	0.105832
0.001796	0.998204
0.967800	0.032200
0.300731	0.699269
0.098139	0.901861
0.967534	0.032466
0.999870	0.000130
0.997909	0.002091
0.981691	0.018309
0.002056	0.997944
0.998903	0.001097
0.958584	0.041416
0.673010	0.326990
0.997965	0.002035
0.051536	0.948464
0.363820	0.636180
0.003008	0.996992
0.997729	0.002271
0.999964	0.000036
0.430054	0.569946
0.006367	0.993633
0.295068	0.704932
