0.777672	0.222328
0.586377	0.413623
0.013203	0.986797
0.430006	0.569994
0.806286	0.193714
0.415915	0.584085
0.791398	0.208602
0.995602	0.004398
0.994519	0.005481
0.984761	0.015239
0.562165	0.437835
0.999729	0.000271
0.999254	0.000746
0.989409	0.010591
0.026619	0.973381
0.008433	0.991567
0.999866	0.000134
0.126255	0.873745
0.037144	0.962856
0.498103	0.501897
0.083117	0.916883
0.077356	0.922644
0.062843	0.937157
0.674609	0.325391
0.996347	0.003653
0.015747	0.984253
0.000169	0.999831
0.909873	0.090127
0.999552	0.000448
0.600425	0.399575
0.055574	0.944426
0.211993	0.788007
