0.793006	0.206994
0.789423	0.210577
0.627097	0.372903
0.711287	0.288713
0.554469	0.445531
0.327026	0.672974
0.192962	0.807038
0.697257	0.302743
0.469167	0.530833
0.683130	0.316870
0.140646	0.859354
0.371729	0.628271
0.288503	0.711497
0.572179	0.427821
0.437928	0.562072
0.839460	0.160540
0.258642	0.741358
0.260471	0.739529
0.677253	0.322747
0.911868	0.088132
0.807736	0.192264
0.632524	0.367476
0.832517	0.167483
0.431801	0.568199
0.507503	0.492497
0.766066	0.233934
0.459688	0.540312
0.529381	0.470619
0.657328	0.342672
0.151057	0.848943
0.694864	0.305136
0.290361	0.709639
