0.796777	0.203223
0.315062	0.684938
0.040911	0.959089
0.785318	0.214682
0.823888	0.176112
0.025881	0.974119
0.534393	0.465607
0.047752	0.952248
0.991911	0.008089
0.994969	0.005031
0.996438	0.003562
0.000605	0.999395
0.973775	0.026225
0.900785	0.099215
0.999063	0.000937
0.998329	0.001671
0.999442	0.000558
0.036202	0.963798
0.981841	0.018159
0.999715	0.000285
0.019508	0.980492
0.115287	0.884713
0.002872	0.997128
0.137885	0.862115
0.991133	0.008867
0.961856	0.038144
0.378819	0.621181
0.002777	0.997223
0.017923	0.982077
0.999691	0.000309
0.026034	0.973966
