0.808967	0.191033
0.647299	0.352701
0.518284	0.481716
0.871521	0.128479
0.448168	0.551832
0.573591	0.426409
0.095238	0.904762
0.264693	0.735307
0.465880	0.534120
0.331778	0.668222
0.138721	0.861279
0.370077	0.629923
0.628633	0.371367
0.768876	0.231124
0.548229	0.451771
0.482338	0.517662
0.179727	0.820273
0.361733	0.638267
0.453845	0.546155
0.533211	0.466789
0.672088	0.327912
0.913239	0.086761
0.631221	0.368779
0.220375	0.779625
0.309222	0.690778
0.296674	0.703326
0.605169	0.394831
0.587799	0.412201
0.292026	0.707974
0.215654	0.784346
0.540834	0.459166
0.805296	0.194704
