0.998639	0.001361
0.071307	0.928693
0.401455	0.598545
0.695444	0.304556
0.000957	0.999043
0.998527	0.001473
0.968963	0.031037
0.981474	0.018526
0.004194	0.995806
0.997884	0.002116
0.557329	0.442671
0.066529	0.933471
0.993783	0.006217
0.863914	0.136086
0.997938	0.002062
0.324356	0.675644
0.231294	0.768706
0.651422	0.348578
0.044412	0.955588
0.427760	0.572240
0.000355	0.999645
0.049736	0.950264
0.003007	0.996993
0.002271	0.997729
0.880803	0.119197
0.999907	0.000093
0.765558	0.234442
0.987138	0.012862
0.001130	0.998870
0.999778	0.000222
0.899126	0.100874
0.964866	0.035134
