0.994217	0.005783
0.019011	0.980989
0.004949	0.995051
0.000255	0.999745
0.001936	0.998064
0.691565	0.308435
0.001293	0.998707
0.000610	0.999390
0.986995	0.013005
0.030582	0.969418
0.986332	0.013668
0.993777	0.006223
0.997912	0.002088
0.018656	0.981344
0.007739	0.992261
0.002010	0.997990
0.772434	0.227566
0.015491	0.984509
0.984512	0.015488
0.137727	0.862273
0.986936	0.013064
0.995041	0.004959
0.832675	0.167325
0.999453	0.000547
0.997894	0.002106
0.999112	0.000888
0.850808	0.149192
0.627962	0.372038
0.965100	0.034900
0.983286	0.016714
0.011206	0.988794
