0.998012	0.001988
0.774518	0.225482
0.180811	0.819189
0.981024	0.018976
0.001503	0.998497
0.002695	0.997305
0.002814	0.997186
0.209016	0.790984
0.008927	0.991073
0.122123	0.877877
0.019993	0.980007
0.961003	0.038997
0.999785	0.000215
0.036600	0.963400
0.393897	0.606103
0.998863	0.001137
0.921159	0.078841
0.000349	0.999651
0.996762	0.003238
0.993903	0.006097
0.123063	0.876937
0.001616	0.998384
0.509925	0.490075
0.031334	0.968666
0.997988	0.002012
0.007540	0.992460
0.857329	0.142671
0.030150	0.969850
0.906741	0.093259
0.913247	0.086753
0.911876	0.088124
