-0.72	 3	 13	 0.105	 -0.38	 60.6	 -2	 -3	 6	 2	 -3	 -1	 -1	 -3	 -1	 -4	 -3	 1	 -1	 0	 -2	 0	 -1	 -3	 -4	 -3	 -2	 -2	 1	 6	 -4	 0	 2	 -1	 -1	 -3	 -4	 -1	 -3	 -4	 -2	 0	 -1	 -5	 -3	 -3	 32.00	 27.00	 28.00	 23.00	 55.00	 7.83	 7.32	 92	 90	 0.978260869565217	 0.56441717791411	 0.552147239263804	 1
-0.72	 3	 13	 0.105	 -0.38	 60.6	 -2	 -3	 6	 2	 -3	 -1	 -1	 -3	 -1	 -4	 -3	 1	 -1	 0	 -2	 0	 -1	 -3	 -4	 -3	 -1	 0	 2	 1	 -2	 2	 0	 -3	 -1	 -2	 0	 -1	 0	 0	 -3	 -2	 3	 -4	 -2	 0	 26.00	 29.00	 21.00	 24.00	 50.00	 5.84	 6.42	 30	 23	 0.766666666666667	 0.184049079754601	 0.141104294478528	 -1
-0.62	 3	 12.3	 0.151	 -0.13	 68.2	 -1	 -4	 2	 5	 -3	 -2	 0	 -3	 1	 -3	 -2	 0	 -1	 2	 0	 0	 -1	 -2	 -3	 -2	 -1	 3	 -2	 1	 -4	 2	 4	 0	 -2	 -4	 -4	 1	 -3	 -4	 0	 1	 0	 -4	 -3	 -2	 5.00	 8.00	 17.00	 20.00	 25.00	 1.91	 2.47	 128	 25	 0.1953125	 0.65979381443299	 0.128865979381443	 -1
-0.62	 3	 12.3	 0.151	 -0.13	 68.2	 -1	 -4	 2	 5	 -3	 -2	 0	 -3	 1	 -3	 -2	 0	 -1	 2	 0	 0	 -1	 -2	 -3	 -2	 -1	 0	 0	 2	 -4	 2	 5	 -2	 0	 -3	 -3	 1	 -2	 -3	 -1	 0	 -1	 -3	 -2	 -3	 7.00	 13.00	 28.00	 34.00	 41.00	 2.41	 2.71	 74	 16	 0.216216216216216	 0.381443298969072	 0.0824742268041237	 -1
-0.26	 0.3	 9.2	 0.062	 -0.33	 42	 1	 -1	 0	 0	 -2	 0	 -1	 -2	 0	 -2	 -1	 1	 -1	 0	 -1	 4	 1	 -2	 -3	 -2	 0	 0	 3	 0	 -2	 -1	 1	 -1	 -1	 -2	 -3	 0	 -1	 -2	 2	 2	 0	 -3	 0	 -2	 11.00	 14.00	 22.00	 25.00	 36.00	 2.42	 2.00	 92	 53	 0.576086956521739	 0.707692307692308	 0.407692307692308	 -1
-0.72	 3	 13	 0.105	 -0.38	 60.6	 -2	 -3	 6	 2	 -3	 -1	 -1	 -3	 -1	 -4	 -3	 1	 -1	 0	 -2	 0	 -1	 -3	 -4	 -3	 -2	 -2	 1	 6	 -3	 0	 2	 -1	 -1	 -3	 -4	 -1	 -3	 -3	 -1	 0	 -1	 -4	 -3	 -3	 21.00	 14.00	 21.00	 14.00	 35.00	 3.83	 3.73	 37	 0	 0	 0.226993865030675	 0	 -1
0.73	 -1.8	 5.2	 0.186	 0.44	 22.8	 -1	 -1	 -3	 -3	 0	 -4	 -3	 4	 -3	 2	 1	 -3	 -3	 -3	 -3	 -2	 -1	 3	 -3	 -1	 -2	 -4	 -5	 -5	 -3	 -4	 -3	 -5	 -1	 3	 3	 -4	 2	 1	 -5	 -4	 -1	 -4	 -1	 4	 25.00	 19.00	 30.00	 24.00	 49.00	 3.16	 3.15	 21	 21	 1	 0.124260355029586	 0.124260355029586	 -1
-0.4	 -0.5	 10.4	 0.23	 0.41	 50.7	 -2	 -3	 -1	 0	 -1	 -2	 8	 -3	 -1	 -3	 -2	 1	 -2	 0	 0	 -1	 -2	 -3	 -2	 2	 -5	 -3	 0	 -1	 -6	 -2	 -3	 -5	 11	 -6	 -6	 -4	 -5	 -4	 -5	 -4	 -5	 -5	 -1	 -6	 22.00	 18.00	 32.00	 28.00	 50.00	 3.66	 3.83	 85	 62	 0.729411764705882	 0.46195652173913	 0.33695652173913	 -1
-0.64	 2	 11.6	 0.134	 0.12	 60.1	 -2	 -3	 1	 0	 -3	 0	 1	 -3	 0	 -3	 -2	 6	 -2	 0	 0	 1	 0	 -3	 -4	 -2	 3	 -1	 3	 -2	 -3	 -1	 -1	 1	 -2	 -3	 -3	 -2	 -3	 -4	 3	 1	 0	 -4	 -3	 -2	 24.00	 15.00	 26.00	 17.00	 41.00	 2.17	 2.00	 22	 0	 0	 0.140127388535032	 0	 -1
-0.72	 3	 13	 0.105	 -0.38	 60.6	 -2	 -3	 6	 2	 -3	 -1	 -1	 -3	 -1	 -4	 -3	 1	 -1	 0	 -2	 0	 -1	 -3	 -4	 -3	 1	 -2	 0	 3	 -3	 -1	 0	 4	 -3	 -3	 -2	 -2	 -3	 -3	 -3	 1	 -1	 -4	 -2	 -1	 13.00	 19.00	 14.00	 20.00	 33.00	 2.58	 2.99	 65	 0	 0	 0.398773006134969	 0	 1
-0.64	 2	 11.6	 0.134	 0.12	 60.1	 -2	 -3	 1	 0	 -3	 0	 1	 -3	 0	 -3	 -2	 6	 -2	 0	 0	 1	 0	 -3	 -4	 -2	 -2	 0	 6	 1	 -3	 0	 0	 0	 1	 -3	 -3	 0	 -2	 -3	 -2	 1	 0	 -4	 -2	 -3	 19.00	 24.00	 14.00	 19.00	 38.00	 3.53	 4.28	 29	 2	 0.0689655172413793	 0.184713375796178	 0.0127388535031847	 1
-0.62	 3	 12.3	 0.151	 -0.13	 68.2	 -1	 -4	 2	 5	 -3	 -2	 0	 -3	 1	 -3	 -2	 0	 -1	 2	 0	 0	 -1	 -2	 -3	 -2	 -1	 0	 0	 2	 -4	 2	 5	 -2	 0	 -3	 -3	 1	 -2	 -3	 -1	 0	 -1	 -3	 -2	 -3	 26.00	 16.00	 29.00	 19.00	 45.00	 3.03	 2.99	 17	 3	 0.176470588235294	 0.0876288659793814	 0.0154639175257732	 -1
-1.76	 3	 10.5	 0.291	 0.27	 94.7	 -1	 -3	 -2	 0	 -3	 -2	 0	 -3	 2	 -2	 -1	 0	 -2	 1	 5	 -1	 -1	 -3	 -3	 -2	 -1	 6	 -1	 -2	 -4	 1	 0	 -3	 -1	 -3	 -3	 2	 -2	 -3	 -2	 0	 -1	 -3	 -2	 -3	 20.00	 15.00	 32.00	 27.00	 47.00	 4.82	 7.32	 160	 133	 0.83125	 0.645161290322581	 0.536290322580645	 1
-1.1	 3	 11.3	 0.219	 -0.36	 103	 -1	 -3	 -1	 1	 -3	 -2	 -1	 -3	 5	 -2	 -1	 0	 -1	 1	 2	 0	 -1	 -2	 -3	 -2	 -2	 2	 -1	 -1	 -3	 0	 0	 -2	 0	 -2	 1	 3	 2	 0	 -3	 0	 0	 -2	 2	 -2	 21.00	 22.00	 29.00	 30.00	 51.00	 4.32	 5.27	 27	 27	 1	 0.131707317073171	 0.131707317073171	 -1
0.37	 -3.4	 5.4	 0.409	 0.83	 34.7	 -3	 -2	 -4	 -3	 1	 -2	 -2	 -3	 -3	 -2	 -1	 -4	 -4	 -2	 -3	 -3	 -2	 -3	 11	 2	 0	 3	 -1	 0	 0	 1	 -1	 -2	 3	 -3	 -2	 -3	 -2	 -2	 -1	 3	 -2	 3	 0	 -2	 23.00	 22.00	 27.00	 26.00	 49.00	 3.52	 4.28	 42	 36	 0.857142857142857	 0.185022026431718	 0.158590308370044	 1
0.61	 -2.5	 5.2	 0.29	 0.82	 25.5	 -2	 -2	 -3	 -3	 6	 -3	 -1	 0	 -3	 0	 0	 -3	 -4	 -3	 -3	 -2	 -2	 -1	 1	 3	 -2	 -3	 -3	 -4	 -2	 -3	 -3	 -3	 -1	 0	 0	 -3	 0	 6	 -4	 -2	 -2	 1	 3	 -1	 23.00	 27.00	 20.00	 24.00	 47.00	 3.96	 2.68	 161	 146	 0.906832298136646	 0.817258883248731	 0.741116751269036	 1
-1.76	 3	 10.5	 0.291	 0.27	 94.7	 -1	 -3	 -2	 0	 -3	 -2	 0	 -3	 2	 -2	 -1	 0	 -2	 1	 5	 -1	 -1	 -3	 -3	 -2	 -1	 2	 3	 2	 -3	 0	 0	 -3	 -2	 -1	 -1	 1	 3	 1	 -3	 -1	 -1	 -3	 -1	 -1	 17.00	 12.00	 32.00	 27.00	 44.00	 2.29	 2.00	 190	 100	 0.526315789473684	 0.766129032258065	 0.403225806451613	 1
0.02	 -2.3	 6.2	 0.298	 0.66	 55.2	 -2	 -2	 -3	 -2	 3	 -3	 2	 -1	 -2	 -1	 -1	 -2	 -3	 -1	 -2	 -2	 -2	 -1	 2	 7	 -1	 -1	 1	 -1	 -3	 -2	 -1	 0	 3	 -2	 -1	 -2	 -3	 3	 0	 2	 0	 -3	 1	 -1	 15.00	 9.00	 31.00	 25.00	 40.00	 2.18	 2.00	 130	 79	 0.607692307692308	 0.585585585585586	 0.355855855855856	 -1
-0.62	 3	 12.3	 0.151	 -0.13	 68.2	 -1	 -4	 2	 5	 -3	 -2	 0	 -3	 1	 -3	 -2	 0	 -1	 2	 0	 0	 -1	 -2	 -3	 -2	 -1	 0	 0	 2	 -4	 2	 5	 -2	 0	 -4	 -3	 1	 -2	 -4	 -1	 0	 -1	 -3	 -2	 -3	 10.00	 8.00	 21.00	 19.00	 29.00	 1.83	 2.00	 169	 48	 0.284023668639053	 0.871134020618557	 0.247422680412371	 -1
-0.64	 2	 11.6	 0.134	 0.12	 60.1	 -2	 -3	 1	 0	 -3	 0	 1	 -3	 0	 -3	 -2	 6	 -2	 0	 0	 1	 0	 -3	 -4	 -2	 -1	 -1	 3	 -1	 -2	 -1	 -3	 -1	 1	 -3	 -4	 -3	 -4	 1	 -2	 1	 0	 5	 6	 -3	 26.00	 24.00	 31.00	 29.00	 55.00	 5.88	 5.85	 35	 35	 1	 0.222929936305732	 0.222929936305732	 1
0.02	 -2.3	 6.2	 0.298	 0.66	 55.2	 -2	 -2	 -3	 -2	 3	 -3	 2	 -1	 -2	 -1	 -1	 -2	 -3	 -1	 -2	 -2	 -2	 -1	 2	 7	 -2	 -2	 -2	 -2	 -3	 -1	 0	 -3	 0	 -2	 -2	 -2	 -2	 1	 2	 -2	 -2	 1	 7	 -2	 21.00	 22.00	 18.00	 19.00	 40.00	 2.74	 2.65	 129	 123	 0.953488372093023	 0.581081081081081	 0.554054054054054	 1
-0.72	 3	 13	 0.105	 -0.38	 60.6	 -2	 -3	 6	 2	 -3	 -1	 -1	 -3	 -1	 -4	 -3	 1	 -1	 0	 -2	 0	 -1	 -3	 -4	 -3	 -2	 -2	 1	 6	 -3	 0	 1	 -1	 -1	 -3	 -4	 -1	 -3	 -3	 -1	 0	 -1	 -4	 -3	 -3	 8.00	 12.00	 22.00	 26.00	 34.00	 1.87	 2.72	 124	 42	 0.338709677419355	 0.760736196319018	 0.257668711656442	 -1
-0.72	 3	 13	 0.105	 -0.38	 60.6	 -2	 -3	 6	 2	 -3	 -1	 -1	 -3	 -1	 -4	 -3	 1	 -1	 0	 -2	 0	 -1	 -3	 -4	 -3	 -2	 -2	 1	 6	 -4	 0	 2	 -1	 -1	 -3	 -4	 -1	 -3	 -4	 -2	 0	 -1	 -4	 -3	 -3	 33.00	 33.00	 24.00	 24.00	 57.00	 4.99	 4.95	 167	 157	 0.940119760479042	 1.02453987730061	 0.96319018404908	 1
0.16	 0	 9	 0	 -0.07	 24.5	 0	 -3	 -1	 -2	 -3	 6	 -2	 -4	 -2	 -4	 -3	 0	 -2	 -2	 -2	 0	 -2	 -3	 -2	 -3	 -2	 -6	 0	 -5	 -6	 -5	 -5	 7	 -5	 -6	 -6	 -5	 -6	 -6	 -6	 -4	 -5	 -5	 1	 -6	 5.00	 10.00	 17.00	 22.00	 27.00	 1.81	 2.00	 6	 4	 0.666666666666667	 0.0714285714285714	 0.0476190476190476	 -1
0.53	 -1.8	 4.9	 0.186	 0.4	 27.6	 -1	 -1	 -4	 -3	 0	 -4	 -3	 2	 -2	 4	 2	 -3	 -3	 -2	 -2	 -2	 -1	 1	 -2	 -1	 1	 0	 -2	 -1	 -2	 -1	 0	 0	 2	 1	 1	 -1	 0	 -1	 -2	 -1	 -1	 -3	 -1	 1	 25.00	 21.00	 22.00	 18.00	 43.00	 2.21	 2.00	 67	 61	 0.91044776119403	 0.408536585365854	 0.371951219512195	 -1
-1.1	 3	 11.3	 0.219	 -0.36	 103	 -1	 -3	 -1	 1	 -3	 -2	 -1	 -3	 5	 -2	 -1	 0	 -1	 1	 2	 0	 -1	 -2	 -3	 -2	 -1	 -1	 -1	 -1	 -2	 1	 0	 -2	 1	 0	 1	 1	 -1	 -2	 2	 0	 1	 -3	 -2	 1	 27.00	 28.00	 21.00	 22.00	 49.00	 6.04	 5.98	 114	 88	 0.771929824561403	 0.55609756097561	 0.429268292682927	 -1
-0.26	 0.3	 9.2	 0.062	 -0.33	 42	 1	 -1	 0	 0	 -2	 0	 -1	 -2	 0	 -2	 -1	 1	 -1	 0	 -1	 4	 1	 -2	 -3	 -2	 -1	 0	 -1	 1	 -2	 -1	 0	 2	 2	 -2	 -2	 -1	 -2	 -1	 -2	 1	 -1	 7	 0	 -2	 19.00	 20.00	 25.00	 26.00	 45.00	 2.40	 2.00	 45	 22	 0.488888888888889	 0.346153846153846	 0.169230769230769	 -1
-1.76	 3	 10.5	 0.291	 0.27	 94.7	 -1	 -3	 -2	 0	 -3	 -2	 0	 -3	 2	 -2	 -1	 0	 -2	 1	 5	 -1	 -1	 -3	 -3	 -2	 -1	 5	 0	 -2	 -3	 1	 0	 -2	 0	 -3	 -2	 2	 -1	 -3	 -2	 -1	 -1	 -3	 -2	 -3	 28.00	 28.00	 22.00	 22.00	 50.00	 8.51	 8.92	 3	 3	 1	 0.0120967741935484	 0.0120967741935484	 1
-0.64	 2	 11.6	 0.134	 0.12	 60.1	 -2	 -3	 1	 0	 -3	 0	 1	 -3	 0	 -3	 -2	 6	 -2	 0	 0	 1	 0	 -3	 -4	 -2	 -2	 0	 6	 1	 -3	 0	 0	 0	 1	 -3	 -3	 0	 -2	 -3	 -2	 1	 0	 -4	 -2	 -3	 22.00	 20.00	 30.00	 28.00	 50.00	 3.24	 3.91	 91	 89	 0.978021978021978	 0.579617834394904	 0.56687898089172	 1
-0.26	 0.3	 9.2	 0.062	 -0.33	 42	 1	 -1	 0	 0	 -2	 0	 -1	 -2	 0	 -2	 -1	 1	 -1	 0	 -1	 4	 1	 -2	 -3	 -2	 0	 1	 3	 5	 -1	 -1	 -2	 -2	 2	 -1	 -4	 -2	 -2	 0	 -7	 1	 -3	 -1	 1	 -2	 22.00	 25.00	 23.00	 26.00	 48.00	 6.18	 6.45	 3	 3	 1	 0.0230769230769231	 0.0230769230769231	 -1
-0.26	 0.3	 9.2	 0.062	 -0.33	 42	 1	 -1	 0	 0	 -2	 0	 -1	 -2	 0	 -2	 -1	 1	 -1	 0	 -1	 4	 1	 -2	 -3	 -2	 1	 -1	 0	 0	 -1	 0	 0	 -1	 -1	 -2	 -2	 0	 -1	 -2	 -1	 4	 2	 -3	 -2	 -1	 25.00	 29.00	 19.00	 23.00	 48.00	 5.74	 5.77	 38	 38	 1	 0.292307692307692	 0.292307692307692	 1
