0.127508	0.872492
0.292483	0.707517
0.789159	0.210841
0.611313	0.388687
0.569032	0.430968
0.191834	0.808166
0.354643	0.645357
0.368887	0.631113
0.897907	0.102093
0.678653	0.321347
0.244629	0.755371
0.463587	0.536413
0.765017	0.234983
0.671442	0.328558
0.210247	0.789753
0.428645	0.571355
0.485745	0.514255
0.162312	0.837688
0.313448	0.686552
0.663531	0.336469
0.508485	0.491515
0.582276	0.417724
0.570690	0.429310
0.533473	0.466527
0.202291	0.797709
0.689425	0.310575
0.523257	0.476743
0.472002	0.527998
0.855413	0.144587
0.246865	0.753135
0.658730	0.341270
