0.042615	0.957385
0.001891	0.998109
0.006249	0.993751
0.998652	0.001348
0.966952	0.033048
0.241638	0.758362
0.708097	0.291903
0.374891	0.625109
0.000980	0.999020
0.898956	0.101044
0.693516	0.306484
0.491207	0.508793
0.251408	0.748592
0.092149	0.907851
0.997827	0.002173
0.999668	0.000332
0.165912	0.834088
0.999937	0.000063
0.862224	0.137776
0.810482	0.189518
0.946785	0.053215
0.894720	0.105280
0.983551	0.016449
0.146434	0.853566
0.194956	0.805044
0.038738	0.961262
0.070331	0.929669
0.555754	0.444246
0.000343	0.999657
0.987041	0.012959
0.364647	0.635353
0.143508	0.856492
