0.562404	0.437596
0.520480	0.479520
0.567775	0.432225
0.650358	0.349642
0.370598	0.629402
0.723291	0.276709
0.711824	0.288176
0.349004	0.650996
0.580689	0.419311
0.851506	0.148494
0.236728	0.763272
0.336746	0.663254
0.549266	0.450734
0.531833	0.468167
0.320630	0.679370
0.651981	0.348019
0.801804	0.198196
0.260146	0.739854
0.804081	0.195919
0.557003	0.442997
0.343781	0.656219
0.354476	0.645524
0.462961	0.537039
0.720870	0.279130
0.455381	0.544619
0.692993	0.307007
0.339844	0.660156
0.514149	0.485851
0.718858	0.281142
0.240437	0.759563
0.584576	0.415424
