0.619428	0.380572
0.609172	0.390828
0.470565	0.529435
0.386086	0.613914
0.704169	0.295831
0.662878	0.337122
0.836416	0.163584
0.634518	0.365482
0.539229	0.460771
0.816298	0.183702
0.534703	0.465297
0.733812	0.266188
0.779334	0.220666
0.263929	0.736071
0.239671	0.760329
0.651139	0.348861
0.413972	0.586028
0.459530	0.540470
0.682799	0.317201
0.743096	0.256904
0.414829	0.585171
0.734784	0.265216
0.296891	0.703109
0.258447	0.741553
0.140421	0.859579
0.652428	0.347572
0.432345	0.567655
0.171050	0.828950
0.226584	0.773416
0.402940	0.597060
0.595281	0.404719
0.531859	0.468141
