-0.18	 -0.4	 8.6	 0.108	 -0.18	 45	 0	 -1	 -1	 -1	 -2	 -2	 -2	 -1	 -1	 -1	 -1	 0	 -1	 -1	 -1	 1	 5	 0	 -2	 -2	 -1	 -2	 -1	 -2	 -2	 -2	 -2	 -3	 1	 -2	 -2	 -2	 -2	 -3	 2	 0	 6	 -3	 -2	 -1	 30.00	 31.00	 33.00	 34.00	 64.00	 6.77	 7.42	 82	 81	 0.98780487804878	 0.577464788732394	 0.570422535211268	 1
-0.62	 3	 12.3	 0.151	 -0.13	 68.2	 -1	 -4	 2	 5	 -3	 -2	 0	 -3	 1	 -3	 -2	 0	 -1	 2	 0	 0	 -1	 -2	 -3	 -2	 -1	 0	 0	 2	 -4	 2	 5	 -2	 0	 -3	 -3	 1	 -2	 -3	 -1	 0	 -1	 -3	 -2	 -2	 15.00	 15.00	 11.00	 11.00	 26.00	 2.38	 2.00	 153	 77	 0.503267973856209	 0.788659793814433	 0.396907216494845	 -1
0.54	 -1.5	 5.9	 0.14	 0.27	 23.7	 0	 -1	 -3	 -2	 -1	 -3	 -3	 3	 -2	 1	 1	 -3	 -2	 -2	 -3	 -2	 0	 4	 -3	 -1	 -1	 -2	 -2	 -3	 -2	 -1	 -2	 -3	 3	 1	 1	 -2	 0	 1	 -2	 -2	 -1	 0	 5	 1	 27.00	 26.00	 26.00	 25.00	 52.00	 2.23	 2.82	 87	 67	 0.770114942528736	 0.612676056338028	 0.471830985915493	 1
0.61	 -2.5	 5.2	 0.29	 0.82	 25.5	 -2	 -2	 -3	 -3	 6	 -3	 -1	 0	 -3	 0	 0	 -3	 -4	 -3	 -3	 -2	 -2	 -1	 1	 3	 -2	 -2	 -2	 1	 -3	 -1	 1	 -3	 -1	 -2	 -1	 -2	 -1	 5	 3	 -2	 -2	 0	 3	 -2	 25.00	 21.00	 13.00	 9.00	 34.00	 3.45	 2.00	 125	 105	 0.84	 0.634517766497462	 0.532994923857868	 1
0.53	 -1.8	 4.9	 0.186	 0.4	 27.6	 -1	 -1	 -4	 -3	 0	 -4	 -3	 2	 -2	 4	 2	 -3	 -3	 -2	 -2	 -2	 -1	 1	 -2	 -1	 -1	 -1	 -2	 -1	 -2	 0	 2	 -3	 -2	 1	 3	 -1	 3	 0	 -2	 -1	 -1	 -2	 -1	 0	 10.00	 8.00	 28.00	 26.00	 36.00	 3.36	 3.94	 80	 53	 0.6625	 0.48780487804878	 0.323170731707317	 -1
0.73	 -1.8	 5.2	 0.186	 0.44	 22.8	 -1	 -1	 -3	 -3	 0	 -4	 -3	 4	 -3	 2	 1	 -3	 -3	 -3	 -3	 -2	 -1	 3	 -3	 -1	 -1	 -3	 -3	 -3	 -1	 -3	 -3	 -4	 -3	 4	 2	 -3	 1	 0	 -3	 -3	 -1	 -3	 -1	 2	 30.00	 35.00	 21.00	 26.00	 56.00	 6.88	 6.74	 11	 11	 1	 0.0650887573964497	 0.0650887573964497	 -1
0.37	 -3.4	 5.4	 0.409	 0.83	 34.7	 -3	 -2	 -4	 -3	 1	 -2	 -2	 -3	 -3	 -2	 -1	 -4	 -4	 -2	 -3	 -3	 -2	 -3	 11	 2	 -2	 0	 2	 3	 -1	 -1	 0	 0	 1	 -2	 -3	 1	 -2	 -1	 -2	 1	 -1	 4	 0	 -3	 23.00	 24.00	 25.00	 26.00	 49.00	 3.78	 5.46	 71	 54	 0.76056338028169	 0.312775330396476	 0.237885462555066	 -1
0.73	 -1.8	 5.2	 0.186	 0.44	 22.8	 -1	 -1	 -3	 -3	 0	 -4	 -3	 4	 -3	 2	 1	 -3	 -3	 -3	 -3	 -2	 -1	 3	 -3	 -1	 -1	 1	 1	 0	 2	 0	 1	 -1	 0	 0	 -1	 0	 0	 -1	 0	 0	 0	 0	 0	 0	 15.00	 7.00	 21.00	 13.00	 28.00	 1.96	 2.00	 83	 8	 0.0963855421686747	 0.49112426035503	 0.0473372781065089	 -1
0.53	 -1.8	 4.9	 0.186	 0.4	 27.6	 -1	 -1	 -4	 -3	 0	 -4	 -3	 2	 -2	 4	 2	 -3	 -3	 -2	 -2	 -2	 -1	 1	 -2	 -1	 -1	 -2	 -3	 -4	 -1	 -2	 -3	 -4	 -3	 2	 4	 -2	 2	 0	 -3	 -2	 -1	 -2	 -1	 1	 16.00	 18.00	 14.00	 16.00	 32.00	 2.77	 3.09	 82	 65	 0.792682926829268	 0.5	 0.396341463414634	 1
0.16	 0	 9	 0	 -0.07	 24.5	 0	 -3	 -1	 -2	 -3	 6	 -2	 -4	 -2	 -4	 -3	 0	 -2	 -2	 -2	 0	 -2	 -3	 -2	 -3	 0	 -2	 0	 -2	 -4	 -3	 -2	 1	 1	 -1	 -2	 -3	 1	 5	 3	 0	 -1	 2	 0	 -2	 29.00	 28.00	 20.00	 19.00	 48.00	 3.32	 5.12	 62	 58	 0.935483870967742	 0.329787234042553	 0.308510638297872	 -1
-1.76	 3	 10.5	 0.291	 0.27	 94.7	 -1	 -3	 -2	 0	 -3	 -2	 0	 -3	 2	 -2	 -1	 0	 -2	 1	 5	 -1	 -1	 -3	 -3	 -2	 -1	 4	 -1	 -1	 -3	 3	 1	 0	 1	 -3	 -1	 2	 -2	 -3	 -2	 -1	 -2	 1	 -1	 -2	 19.00	 19.00	 18.00	 18.00	 37.00	 2.01	 2.00	 161	 126	 0.782608695652174	 0.649193548387097	 0.508064516129032	 -1
-1.76	 3	 10.5	 0.291	 0.27	 94.7	 -1	 -3	 -2	 0	 -3	 -2	 0	 -3	 2	 -2	 -1	 0	 -2	 1	 5	 -1	 -1	 -3	 -3	 -2	 -1	 4	 0	 -1	 0	 1	 -1	 -1	 -1	 0	 -2	 2	 0	 -3	 -1	 0	 -1	 -4	 -3	 0	 19.00	 14.00	 22.00	 17.00	 36.00	 2.01	 2.29	 192	 75	 0.390625	 0.774193548387097	 0.30241935483871	 -1
0.37	 -3.4	 5.4	 0.409	 0.83	 34.7	 -3	 -2	 -4	 -3	 1	 -2	 -2	 -3	 -3	 -2	 -1	 -4	 -4	 -2	 -3	 -3	 -2	 -3	 11	 2	 -1	 -1	 0	 -1	 2	 0	 -1	 1	 1	 -1	 0	 -1	 -1	 0	 -1	 0	 -1	 6	 2	 -1	 23.00	 23.00	 25.00	 25.00	 48.00	 5.88	 5.82	 90	 89	 0.988888888888889	 0.39647577092511	 0.392070484581498	 1
-1.1	 3	 11.3	 0.219	 -0.36	 103	 -1	 -3	 -1	 1	 -3	 -2	 -1	 -3	 5	 -2	 -1	 0	 -1	 1	 2	 0	 -1	 -2	 -3	 -2	 -2	 2	 -1	 -1	 -3	 0	 0	 -2	 0	 -2	 1	 3	 2	 0	 -3	 0	 0	 -2	 2	 -2	 21.00	 22.00	 29.00	 30.00	 51.00	 4.32	 5.27	 27	 27	 1	 0.131707317073171	 0.131707317073171	 -1
-0.69	 0.2	 10.5	 0.18	 -0.11	 68.7	 -1	 -3	 0	 2	 -3	 -2	 0	 -3	 1	 -2	 0	 0	 -1	 5	 1	 0	 -1	 -2	 -2	 -1	 0	 1	 1	 0	 -2	 3	 0	 -1	 1	 -2	 -2	 1	 -2	 -2	 1	 1	 -1	 -2	 2	 -1	 14.00	 5.00	 23.00	 14.00	 28.00	 2.19	 2.00	 126	 34	 0.26984126984127	 0.636363636363636	 0.171717171717172	 -1
-0.72	 3	 13	 0.105	 -0.38	 60.6	 -2	 -3	 6	 2	 -3	 -1	 -1	 -3	 -1	 -4	 -3	 1	 -1	 0	 -2	 0	 -1	 -3	 -4	 -3	 -2	 -2	 1	 6	 -4	 0	 2	 -1	 -1	 -3	 -4	 -1	 -3	 -4	 -2	 0	 -1	 -5	 -3	 -3	 19.00	 22.00	 27.00	 30.00	 49.00	 5.66	 5.28	 53	 45	 0.849056603773585	 0.325153374233129	 0.276073619631902	 1
-1.76	 3	 10.5	 0.291	 0.27	 94.7	 -1	 -3	 -2	 0	 -3	 -2	 0	 -3	 2	 -2	 -1	 0	 -2	 1	 5	 -1	 -1	 -3	 -3	 -2	 0	 2	 -1	 -2	 3	 0	 -1	 4	 -2	 -3	 -3	 2	 -2	 -3	 -2	 -1	 -1	 -3	 -3	 -3	 28.00	 21.00	 27.00	 20.00	 48.00	 6.11	 6.25	 102	 96	 0.941176470588235	 0.411290322580645	 0.387096774193548	 -1
-0.4	 -0.5	 10.4	 0.23	 0.41	 50.7	 -2	 -3	 -1	 0	 -1	 -2	 8	 -3	 -1	 -3	 -2	 1	 -2	 0	 0	 -1	 -2	 -3	 -2	 2	 -1	 2	 0	 1	 -4	 -1	 -2	 -3	 2	 -4	 -4	 4	 -3	 -3	 -4	 -2	 -1	 8	 -2	 -4	 17.00	 10.00	 21.00	 14.00	 31.00	 2.23	 2.00	 109	 25	 0.229357798165138	 0.592391304347826	 0.135869565217391	 -1
-1.1	 3	 11.3	 0.219	 -0.36	 103	 -1	 -3	 -1	 1	 -3	 -2	 -1	 -3	 5	 -2	 -1	 0	 -1	 1	 2	 0	 -1	 -2	 -3	 -2	 -1	 2	 0	 -1	 -3	 1	 1	 -2	 -1	 -3	 -2	 5	 -1	 -3	 -1	 0	 -1	 -3	 -2	 -2	 12.00	 5.00	 12.00	 5.00	 17.00	 1.89	 2.00	 147	 0	 0	 0.717073170731707	 0	 -1
-0.72	 3	 13	 0.105	 -0.38	 60.6	 -2	 -3	 6	 2	 -3	 -1	 -1	 -3	 -1	 -4	 -3	 1	 -1	 0	 -2	 0	 -1	 -3	 -4	 -3	 -2	 -1	 5	 4	 -3	 0	 0	 -1	 0	 -3	 -4	 0	 -3	 -3	 -2	 0	 0	 -4	 -3	 -3	 17.00	 19.00	 16.00	 18.00	 35.00	 1.77	 2.36	 152	 60	 0.394736842105263	 0.932515337423313	 0.368098159509202	 -1
0.02	 -2.3	 6.2	 0.298	 0.66	 55.2	 -2	 -2	 -3	 -2	 3	 -3	 2	 -1	 -2	 -1	 -1	 -2	 -3	 -1	 -2	 -2	 -2	 -1	 2	 7	 -1	 0	 -1	 0	 -3	 -1	 0	 1	 -1	 0	 -1	 -1	 -1	 1	 -1	 1	 -1	 2	 3	 -1	 11.00	 15.00	 27.00	 31.00	 42.00	 2.56	 3.37	 117	 57	 0.487179487179487	 0.527027027027027	 0.256756756756757	 -1
-0.62	 3	 12.3	 0.151	 -0.13	 68.2	 -1	 -4	 2	 5	 -3	 -2	 0	 -3	 1	 -3	 -2	 0	 -1	 2	 0	 0	 -1	 -2	 -3	 -2	 -3	 1	 2	 4	 -5	 -1	 5	 -3	 -2	 -5	 -3	 -1	 -4	 -5	 -3	 -2	 -3	 0	 -4	 -3	 18.00	 17.00	 17.00	 16.00	 34.00	 1.79	 2.00	 84	 52	 0.619047619047619	 0.43298969072165	 0.268041237113402	 -1
0.37	 -3.4	 5.4	 0.409	 0.83	 34.7	 -3	 -2	 -4	 -3	 1	 -2	 -2	 -3	 -3	 -2	 -1	 -4	 -4	 -2	 -3	 -3	 -2	 -3	 11	 2	 0	 3	 -1	 0	 0	 1	 -1	 -2	 3	 -3	 -2	 -3	 -2	 -2	 -1	 3	 -2	 3	 0	 -2	 23.00	 22.00	 27.00	 26.00	 49.00	 3.52	 4.28	 42	 36	 0.857142857142857	 0.185022026431718	 0.158590308370044	 1
-0.72	 3	 13	 0.105	 -0.38	 60.6	 -2	 -3	 6	 2	 -3	 -1	 -1	 -3	 -1	 -4	 -3	 1	 -1	 0	 -2	 0	 -1	 -3	 -4	 -3	 -2	 -2	 1	 6	 -3	 0	 2	 -1	 -1	 -3	 -4	 -1	 -3	 -3	 -1	 0	 -1	 -4	 -3	 -3	 21.00	 14.00	 21.00	 14.00	 35.00	 3.83	 3.73	 37	 0	 0	 0.226993865030675	 0	 -1
0.37	 -3.4	 5.4	 0.409	 0.83	 34.7	 -3	 -2	 -4	 -3	 1	 -2	 -2	 -3	 -3	 -2	 -1	 -4	 -4	 -2	 -3	 -3	 -2	 -3	 11	 2	 0	 1	 2	 -1	 -1	 -1	 -1	 -1	 0	 -1	 -1	 -1	 -1	 1	 -1	 1	 -1	 2	 4	 -1	 24.00	 28.00	 26.00	 30.00	 54.00	 6.67	 6.33	 19	 19	 1	 0.0837004405286344	 0.0837004405286344	 1
-0.72	 3	 13	 0.105	 -0.38	 60.6	 -2	 -3	 6	 2	 -3	 -1	 -1	 -3	 -1	 -4	 -3	 1	 -1	 0	 -2	 0	 -1	 -3	 -4	 -3	 -1	 0	 0	 3	 -2	 0	 1	 0	 3	 -2	 -2	 0	 -2	 0	 -2	 0	 1	 -2	 -2	 -2	 13.00	 11.00	 24.00	 22.00	 35.00	 1.97	 2.00	 100	 46	 0.46	 0.613496932515337	 0.282208588957055	 -1
0.37	 -3.4	 5.4	 0.409	 0.83	 34.7	 -3	 -2	 -4	 -3	 1	 -2	 -2	 -3	 -3	 -2	 -1	 -4	 -4	 -2	 -3	 -3	 -2	 -3	 11	 2	 -3	 -3	 -4	 -5	 -3	 -2	 -3	 -3	 -3	 -3	 -2	 -3	 -2	 1	 -4	 -3	 -3	 11	 2	 -3	 24.00	 21.00	 20.00	 17.00	 41.00	 4.28	 2.66	 97	 67	 0.690721649484536	 0.427312775330396	 0.295154185022026	 -1
0.73	 -1.8	 5.2	 0.186	 0.44	 22.8	 -1	 -1	 -3	 -3	 0	 -4	 -3	 4	 -3	 2	 1	 -3	 -3	 -3	 -3	 -2	 -1	 3	 -3	 -1	 0	 -2	 0	 1	 -3	 -1	 1	 2	 -1	 -2	 -2	 -2	 -2	 -1	 1	 2	 0	 -3	 2	 -1	 25.00	 24.00	 31.00	 30.00	 55.00	 6.28	 5.56	 85	 49	 0.576470588235294	 0.502958579881657	 0.289940828402367	 1
0.02	 -2.3	 6.2	 0.298	 0.66	 55.2	 -2	 -2	 -3	 -2	 3	 -3	 2	 -1	 -2	 -1	 -1	 -2	 -3	 -1	 -2	 -2	 -2	 -1	 2	 7	 -2	 -2	 -3	 -4	 -3	 -2	 -3	 -4	 1	 -1	 -1	 -3	 -1	 5	 -4	 -2	 -2	 2	 7	 -2	 33.00	 33.00	 15.00	 15.00	 48.00	 4.88	 4.13	 16	 0	 0	 0.0720720720720721	 0	 1
0.02	 -2.3	 6.2	 0.298	 0.66	 55.2	 -2	 -2	 -3	 -2	 3	 -3	 2	 -1	 -2	 -1	 -1	 -2	 -3	 -1	 -2	 -2	 -2	 -1	 2	 7	 -1	 -1	 2	 -2	 -3	 -1	 -1	 0	 -1	 -1	 -1	 -2	 -2	 1	 1	 1	 0	 3	 4	 -2	 29.00	 29.00	 23.00	 23.00	 52.00	 5.72	 6.60	 208	 198	 0.951923076923077	 0.936936936936937	 0.891891891891892	 1
-0.69	 0.2	 10.5	 0.18	 -0.11	 68.7	 -1	 -3	 0	 2	 -3	 -2	 0	 -3	 1	 -2	 0	 0	 -1	 5	 1	 0	 -1	 -2	 -2	 -1	 -1	 1	 0	 -2	 -3	 2	 -1	 -3	 2	 1	 0	 1	 1	 -3	 -1	 0	 1	 -3	 -2	 0	 15.00	 16.00	 20.00	 21.00	 36.00	 1.95	 2.44	 161	 84	 0.521739130434783	 0.813131313131313	 0.424242424242424	 -1
