-0.4	 -0.5	 10.4	 0.23	 0.41	 50.7	 -2	 -3	 -1	 0	 -1	 -2	 8	 -3	 -1	 -3	 -2	 1	 -2	 0	 0	 -1	 -2	 -3	 -2	 2	 -5	 -3	 -3	 -2	 -6	 0	 -3	 -5	 11	 -6	 -6	 -4	 -5	 -4	 -5	 -4	 -5	 -5	 1	 -6	 29.00	 28.00	 24.00	 23.00	 52.00	 5.98	 5.50	 11	 5	 0.454545454545455	 0.0597826086956522	 0.0271739130434783	 -1
-0.18	 -0.4	 8.6	 0.108	 -0.18	 45	 0	 -1	 -1	 -1	 -2	 -2	 -2	 -1	 -1	 -1	 -1	 0	 -1	 -1	 -1	 1	 5	 0	 -2	 -2	 -1	 0	 -3	 -3	 -4	 -3	 -3	 -4	 -1	 -3	 -3	 -1	 0	 -4	 5	 1	 5	 -5	 -4	 -1	 29.00	 27.00	 31.00	 29.00	 58.00	 3.27	 2.88	 97	 73	 0.752577319587629	 0.683098591549296	 0.514084507042254	 1
-0.26	 0.3	 9.2	 0.062	 -0.33	 42	 1	 -1	 0	 0	 -2	 0	 -1	 -2	 0	 -2	 -1	 1	 -1	 0	 -1	 4	 1	 -2	 -3	 -2	 0	 2	 -1	 -1	 -2	 2	 0	 -1	 -1	 -3	 -2	 3	 -2	 -3	 -1	 2	 0	 -3	 -2	 -2	 30.00	 27.00	 22.00	 19.00	 49.00	 2.74	 2.00	 40	 40	 1	 0.307692307692308	 0.307692307692308	 -1
0.02	 -2.3	 6.2	 0.298	 0.66	 55.2	 -2	 -2	 -3	 -2	 3	 -3	 2	 -1	 -2	 -1	 -1	 -2	 -3	 -1	 -2	 -2	 -2	 -1	 2	 7	 -2	 -2	 -2	 -3	 -3	 -2	 -2	 -3	 2	 -2	 -1	 -2	 -1	 3	 -3	 -2	 -2	 2	 7	 -1	 17.00	 12.00	 18.00	 13.00	 30.00	 2.44	 2.00	 163	 100	 0.613496932515337	 0.734234234234234	 0.45045045045045	 1
-0.18	 -0.4	 8.6	 0.108	 -0.18	 45	 0	 -1	 -1	 -1	 -2	 -2	 -2	 -1	 -1	 -1	 -1	 0	 -1	 -1	 -1	 1	 5	 0	 -2	 -2	 0	 -1	 0	 -1	 -1	 -1	 -1	 -2	 -2	 -1	 -1	 -1	 -1	 -2	 -1	 1	 5	 -3	 -2	 0	 18.00	 21.00	 30.00	 33.00	 51.00	 2.95	 3.38	 109	 74	 0.678899082568807	 0.767605633802817	 0.52112676056338	 -1
0.54	 -1.5	 5.9	 0.14	 0.27	 23.7	 0	 -1	 -3	 -2	 -1	 -3	 -3	 3	 -2	 1	 1	 -3	 -2	 -2	 -3	 -2	 0	 4	 -3	 -1	 0	 -1	 -1	 -1	 -2	 1	 1	 -2	 -1	 0	 0	 -1	 0	 -2	 4	 -1	 0	 -2	 -2	 1	 16.00	 16.00	 15.00	 15.00	 31.00	 1.84	 2.16	 90	 34	 0.377777777777778	 0.633802816901408	 0.23943661971831	 1
-0.26	 0.3	 9.2	 0.062	 -0.33	 42	 1	 -1	 0	 0	 -2	 0	 -1	 -2	 0	 -2	 -1	 1	 -1	 0	 -1	 4	 1	 -2	 -3	 -2	 0	 -1	 1	 3	 -2	 0	 0	 -1	 -1	 -3	 -3	 0	 -2	 -3	 -1	 3	 1	 -3	 -2	 -2	 13.00	 14.00	 16.00	 17.00	 30.00	 2.24	 2.00	 42	 7	 0.166666666666667	 0.323076923076923	 0.0538461538461538	 -1
-0.62	 3	 12.3	 0.151	 -0.13	 68.2	 -1	 -4	 2	 5	 -3	 -2	 0	 -3	 1	 -3	 -2	 0	 -1	 2	 0	 0	 -1	 -2	 -3	 -2	 -1	 -1	 -1	 1	 -4	 1	 -1	 1	 -2	 -2	 -1	 -2	 -1	 1	 -3	 1	 -1	 4	 4	 0	 24.00	 27.00	 22.00	 25.00	 49.00	 8.63	 7.91	 28	 28	 1	 0.144329896907216	 0.144329896907216	 1
-1.1	 3	 11.3	 0.219	 -0.36	 103	 -1	 -3	 -1	 1	 -3	 -2	 -1	 -3	 5	 -2	 -1	 0	 -1	 1	 2	 0	 -1	 -2	 -3	 -2	 -1	 4	 0	 -1	 -3	 1	 0	 -2	 -1	 -3	 -2	 4	 -1	 -3	 -1	 0	 -1	 -3	 -2	 -2	 14.00	 18.00	 19.00	 23.00	 37.00	 2.16	 2.00	 121	 58	 0.479338842975207	 0.590243902439024	 0.282926829268293	 -1
-0.07	 0	 8	 0.131	 -0.25	 51.5	 -1	 -3	 -1	 -1	 -4	 -2	 -2	 -3	 -1	 -3	 -2	 -2	 7	 -1	 -2	 -1	 -1	 -2	 -4	 -3	 -1	 -2	 -2	 -2	 -3	 -1	 -1	 -2	 -2	 -3	 -3	 -1	 -3	 -4	 8	 -1	 -1	 -4	 -3	 -3	 23.00	 23.00	 13.00	 13.00	 36.00	 2.22	 2.76	 30	 1	 0.0333333333333333	 0.220588235294118	 0.00735294117647059	 1
-0.72	 3	 13	 0.105	 -0.38	 60.6	 -2	 -3	 6	 2	 -3	 -1	 -1	 -3	 -1	 -4	 -3	 1	 -1	 0	 -2	 0	 -1	 -3	 -4	 -3	 -2	 -2	 1	 6	 -4	 0	 2	 -1	 -1	 -3	 -4	 -1	 -3	 -4	 -2	 0	 -1	 -4	 -3	 -3	 33.00	 33.00	 24.00	 24.00	 57.00	 4.99	 4.95	 167	 157	 0.940119760479042	 1.02453987730061	 0.96319018404908	 1
0.54	 -1.5	 5.9	 0.14	 0.27	 23.7	 0	 -1	 -3	 -2	 -1	 -3	 -3	 3	 -2	 1	 1	 -3	 -2	 -2	 -3	 -2	 0	 4	 -3	 -1	 -1	 -2	 1	 2	 -2	 -1	 -1	 -2	 -2	 2	 1	 -2	 0	 -1	 -2	 -1	 -1	 -3	 -2	 2	 18.00	 22.00	 23.00	 27.00	 45.00	 2.50	 3.01	 80	 58	 0.725	 0.563380281690141	 0.408450704225352	 1
-1.76	 3	 10.5	 0.291	 0.27	 94.7	 -1	 -3	 -2	 0	 -3	 -2	 0	 -3	 2	 -2	 -1	 0	 -2	 1	 5	 -1	 -1	 -3	 -3	 -2	 -1	 0	 1	 -3	 -4	 -1	 -1	 -2	 2	 -1	 -1	 -1	 1	 2	 -1	 2	 -2	 3	 4	 -1	 32.00	 26.00	 33.00	 27.00	 59.00	 3.12	 3.95	 210	 199	 0.947619047619048	 0.846774193548387	 0.80241935483871	 -1
-0.18	 -0.4	 8.6	 0.108	 -0.18	 45	 0	 -1	 -1	 -1	 -2	 -2	 -2	 -1	 -1	 -1	 -1	 0	 -1	 -1	 -1	 1	 5	 0	 -2	 -2	 -1	 1	 -1	 0	 -2	 1	 3	 -2	 -1	 -1	 0	 0	 0	 -2	 -2	 0	 2	 -3	 -2	 -1	 13.00	 13.00	 26.00	 26.00	 39.00	 2.84	 3.45	 52	 23	 0.442307692307692	 0.366197183098592	 0.161971830985915	 -1
0.61	 -2.5	 5.2	 0.29	 0.82	 25.5	 -2	 -2	 -3	 -3	 6	 -3	 -1	 0	 -3	 0	 0	 -3	 -4	 -3	 -3	 -2	 -2	 -1	 1	 3	 -2	 -3	 -3	 -4	 -3	 -4	 -4	 -3	 -1	 0	 0	 -3	 0	 7	 -4	 -3	 -2	 1	 3	 -1	 23.00	 22.00	 24.00	 23.00	 46.00	 4.91	 6.97	 62	 50	 0.806451612903226	 0.314720812182741	 0.253807106598985	 1
-0.26	 0.3	 9.2	 0.062	 -0.33	 42	 1	 -1	 0	 0	 -2	 0	 -1	 -2	 0	 -2	 -1	 1	 -1	 0	 -1	 4	 1	 -2	 -3	 -2	 0	 -1	 3	 0	 -2	 0	 0	 -1	 0	 -3	 -3	 0	 -2	 -1	 -2	 3	 1	 -1	 2	 -2	 22.00	 24.00	 18.00	 20.00	 42.00	 4.27	 4.85	 45	 29	 0.644444444444444	 0.346153846153846	 0.223076923076923	 -1
-1.76	 3	 10.5	 0.291	 0.27	 94.7	 -1	 -3	 -2	 0	 -3	 -2	 0	 -3	 2	 -2	 -1	 0	 -2	 1	 5	 -1	 -1	 -3	 -3	 -2	 -1	 5	 0	 -2	 -3	 1	 0	 -2	 0	 -3	 -2	 2	 -1	 -3	 -2	 -1	 -1	 -3	 -2	 -3	 20.00	 13.00	 19.00	 12.00	 32.00	 3.05	 2.54	 214	 170	 0.794392523364486	 0.862903225806452	 0.685483870967742	 1
-0.26	 0.3	 9.2	 0.062	 -0.33	 42	 1	 -1	 0	 0	 -2	 0	 -1	 -2	 0	 -2	 -1	 1	 -1	 0	 -1	 4	 1	 -2	 -3	 -2	 -1	 1	 0	 0	 -2	 0	 0	 0	 -1	 -2	 -1	 1	 -1	 0	 -1	 1	 0	 0	 2	 -1	 16.00	 22.00	 23.00	 29.00	 45.00	 4.34	 5.11	 90	 80	 0.888888888888889	 0.692307692307692	 0.615384615384615	 -1
-0.18	 -0.4	 8.6	 0.108	 -0.18	 45	 0	 -1	 -1	 -1	 -2	 -2	 -2	 -1	 -1	 -1	 -1	 0	 -1	 -1	 -1	 1	 5	 0	 -2	 -2	 -1	 -1	 0	 -2	 -4	 0	 0	 -1	 -1	 -3	 -1	 0	 0	 -2	 4	 1	 1	 -1	 0	 -2	 23.00	 27.00	 24.00	 28.00	 51.00	 2.83	 3.46	 103	 87	 0.844660194174757	 0.725352112676056	 0.612676056338028	 -1
-1.1	 3	 11.3	 0.219	 -0.36	 103	 -1	 -3	 -1	 1	 -3	 -2	 -1	 -3	 5	 -2	 -1	 0	 -1	 1	 2	 0	 -1	 -2	 -3	 -2	 -2	 4	 1	 -2	 -4	 0	 -1	 0	 0	 -4	 -1	 3	 1	 -1	 -4	 -1	 2	 -4	 0	 -3	 39.00	 33.00	 31.00	 25.00	 64.00	 6.94	 6.62	 184	 180	 0.978260869565217	 0.897560975609756	 0.878048780487805	 1
-0.64	 2	 11.6	 0.134	 0.12	 60.1	 -2	 -3	 1	 0	 -3	 0	 1	 -3	 0	 -3	 -2	 6	 -2	 0	 0	 1	 0	 -3	 -4	 -2	 -2	 -1	 5	 4	 -3	 0	 0	 -1	 0	 -3	 -4	 0	 -3	 -3	 -2	 0	 0	 -4	 -3	 -3	 26.00	 28.00	 27.00	 29.00	 55.00	 5.71	 6.08	 155	 154	 0.993548387096774	 0.987261146496815	 0.980891719745223	 -1
-0.72	 3	 13	 0.105	 -0.38	 60.6	 -2	 -3	 6	 2	 -3	 -1	 -1	 -3	 -1	 -4	 -3	 1	 -1	 0	 -2	 0	 -1	 -3	 -4	 -3	 -2	 2	 1	 4	 -4	 1	 2	 1	 -1	 -3	 -2	 -1	 -3	 -4	 -2	 0	 -2	 -4	 -3	 -3	 21.00	 19.00	 18.00	 16.00	 37.00	 3.09	 3.28	 100	 99	 0.99	 0.613496932515337	 0.607361963190184	 1
0.37	 -3.4	 5.4	 0.409	 0.83	 34.7	 -3	 -2	 -4	 -3	 1	 -2	 -2	 -3	 -3	 -2	 -1	 -4	 -4	 -2	 -3	 -3	 -2	 -3	 11	 2	 -3	 -3	 -4	 -4	 -2	 -2	 -3	 -2	 -2	 -3	 -2	 -3	 -1	 1	 -4	 -3	 -2	 10	 2	 -3	 3.00	 0.00	 16.00	 13.00	 16.00	 1.67	 2.00	 136	 99	 0.727941176470588	 0.599118942731278	 0.436123348017621	 1
0.02	 -2.3	 6.2	 0.298	 0.66	 55.2	 -2	 -2	 -3	 -2	 3	 -3	 2	 -1	 -2	 -1	 -1	 -2	 -3	 -1	 -2	 -2	 -2	 -1	 2	 7	 -3	 -4	 -4	 -4	 -4	 -4	 -2	 -4	 2	 1	 -2	 -4	 -1	 0	 -3	 -2	 3	 -3	 5	 4	 22.00	 20.00	 21.00	 19.00	 41.00	 5.88	 4.81	 90	 0	 0	 0.405405405405405	 0	 1
-0.69	 0.2	 10.5	 0.18	 -0.11	 68.7	 -1	 -3	 0	 2	 -3	 -2	 0	 -3	 1	 -2	 0	 0	 -1	 5	 1	 0	 -1	 -2	 -2	 -1	 -1	 1	 0	 0	 -3	 5	 2	 -2	 0	 -3	 -2	 1	 0	 -3	 -1	 0	 -1	 -2	 -1	 -2	 9.00	 13.00	 12.00	 16.00	 25.00	 2.06	 2.62	 72	 23	 0.319444444444444	 0.363636363636364	 0.116161616161616	 1
-0.62	 3	 12.3	 0.151	 -0.13	 68.2	 -1	 -4	 2	 5	 -3	 -2	 0	 -3	 1	 -3	 -2	 0	 -1	 2	 0	 0	 -1	 -2	 -3	 -2	 -3	 0	 0	 -2	 -4	 0	 3	 -4	 2	 0	 -2	 0	 -2	 1	 -6	 0	 2	 -1	 1	 2	 14.00	 17.00	 23.00	 26.00	 40.00	 2.69	 2.91	 54	 32	 0.592592592592593	 0.278350515463918	 0.164948453608247	 -1
0.02	 -2.3	 6.2	 0.298	 0.66	 55.2	 -2	 -2	 -3	 -2	 3	 -3	 2	 -1	 -2	 -1	 -1	 -2	 -3	 -1	 -2	 -2	 -2	 -1	 2	 7	 -2	 -4	 0	 -2	 -2	 -2	 -1	 -2	 1	 -3	 0	 -3	 -2	 1	 4	 0	 0	 2	 5	 -3	 22.00	 22.00	 25.00	 25.00	 47.00	 4.71	 5.11	 143	 67	 0.468531468531469	 0.644144144144144	 0.301801801801802	 1
0.54	 -1.5	 5.9	 0.14	 0.27	 23.7	 0	 -1	 -3	 -2	 -1	 -3	 -3	 3	 -2	 1	 1	 -3	 -2	 -2	 -3	 -2	 0	 4	 -3	 -1	 -1	 -1	 -1	 -1	 1	 -1	 -1	 -2	 -1	 2	 1	 0	 0	 -2	 0	 0	 2	 -3	 -2	 1	 20.00	 22.00	 27.00	 29.00	 49.00	 3.37	 3.74	 70	 40	 0.571428571428571	 0.492957746478873	 0.28169014084507	 -1
-0.62	 3	 12.3	 0.151	 -0.13	 68.2	 -1	 -4	 2	 5	 -3	 -2	 0	 -3	 1	 -3	 -2	 0	 -1	 2	 0	 0	 -1	 -2	 -3	 -2	 -1	 0	 0	 2	 -4	 2	 5	 -2	 0	 -3	 -3	 1	 -2	 -3	 -1	 0	 -1	 -3	 -2	 -3	 26.00	 16.00	 29.00	 19.00	 45.00	 3.03	 2.99	 17	 3	 0.176470588235294	 0.0876288659793814	 0.0154639175257732	 -1
-0.72	 3	 13	 0.105	 -0.38	 60.6	 -2	 -3	 6	 2	 -3	 -1	 -1	 -3	 -1	 -4	 -3	 1	 -1	 0	 -2	 0	 -1	 -3	 -4	 -3	 -2	 -2	 1	 6	 -3	 0	 2	 -1	 -1	 -3	 -4	 -1	 -3	 -4	 -1	 0	 -1	 -4	 -3	 -3	 5.00	 3.00	 28.00	 26.00	 31.00	 2.26	 2.00	 76	 19	 0.25	 0.466257668711656	 0.116564417177914	 -1
0.02	 -2.3	 6.2	 0.298	 0.66	 55.2	 -2	 -2	 -3	 -2	 3	 -3	 2	 -1	 -2	 -1	 -1	 -2	 -3	 -1	 -2	 -2	 -2	 -1	 2	 7	 -2	 -2	 1	 -1	 -2	 -2	 -1	 0	 0	 -1	 -1	 -2	 -3	 2	 -3	 1	 0	 6	 4	 0	 30.00	 29.00	 28.00	 27.00	 57.00	 4.65	 5.80	 71	 69	 0.971830985915493	 0.31981981981982	 0.310810810810811	 -1
