0.73	 -1.8	 5.2	 0.186	 0.44	 22.8	 -1	 -1	 -3	 -3	 0	 -4	 -3	 4	 -3	 2	 1	 -3	 -3	 -3	 -3	 -2	 -1	 3	 -3	 -1	 -1	 1	 1	 0	 2	 0	 1	 -1	 0	 0	 -1	 0	 0	 -1	 0	 0	 0	 0	 0	 0	 15.00	 7.00	 21.00	 13.00	 28.00	 1.96	 2.00	 83	 8	 0.0963855421686747	 0.49112426035503	 0.0473372781065089	 -1
0.16	 0	 9	 0	 -0.07	 24.5	 0	 -3	 -1	 -2	 -3	 6	 -2	 -4	 -2	 -4	 -3	 0	 -2	 -2	 -2	 0	 -2	 -3	 -2	 -3	 -2	 -6	 0	 -5	 -6	 -5	 -5	 7	 -5	 -6	 -6	 -5	 -6	 -6	 -6	 -4	 -5	 -5	 1	 -6	 5.00	 10.00	 17.00	 22.00	 27.00	 1.81	 2.00	 6	 4	 0.666666666666667	 0.0714285714285714	 0.0476190476190476	 -1
0.02	 -2.3	 6.2	 0.298	 0.66	 55.2	 -2	 -2	 -3	 -2	 3	 -3	 2	 -1	 -2	 -1	 -1	 -2	 -3	 -1	 -2	 -2	 -2	 -1	 2	 7	 -2	 -2	 0	 1	 -3	 -2	 -2	 -3	 1	 -2	 -2	 -2	 -2	 5	 -3	 -1	 -1	 0	 6	 -2	 28.00	 30.00	 15.00	 17.00	 45.00	 3.67	 2.00	 75	 75	 1	 0.337837837837838	 0.337837837837838	 1
-1.76	 3	 10.5	 0.291	 0.27	 94.7	 -1	 -3	 -2	 0	 -3	 -2	 0	 -3	 2	 -2	 -1	 0	 -2	 1	 5	 -1	 -1	 -3	 -3	 -2	 -2	 2	 1	 0	 0	 0	 1	 -3	 0	 -1	 -2	 0	 -2	 -4	 -3	 1	 3	 -4	 -3	 1	 10.00	 5.00	 27.00	 22.00	 32.00	 2.10	 2.31	 168	 36	 0.214285714285714	 0.67741935483871	 0.145161290322581	 -1
-0.4	 -0.5	 10.4	 0.23	 0.41	 50.7	 -2	 -3	 -1	 0	 -1	 -2	 8	 -3	 -1	 -3	 -2	 1	 -2	 0	 0	 -1	 -2	 -3	 -2	 2	 -2	 1	 -2	 -1	 -3	 -1	 -2	 -3	 0	 1	 -3	 2	 -1	 -4	 -2	 1	 5	 -4	 -3	 0	 17.00	 17.00	 26.00	 26.00	 43.00	 2.16	 2.00	 101	 72	 0.712871287128713	 0.548913043478261	 0.391304347826087	 -1
0.02	 -2.3	 6.2	 0.298	 0.66	 55.2	 -2	 -2	 -3	 -2	 3	 -3	 2	 -1	 -2	 -1	 -1	 -2	 -3	 -1	 -2	 -2	 -2	 -1	 2	 7	 -2	 -2	 -3	 -4	 -3	 -2	 -3	 -4	 1	 -1	 -1	 -3	 -1	 5	 -4	 -2	 -2	 2	 7	 -2	 33.00	 33.00	 15.00	 15.00	 48.00	 4.88	 4.13	 16	 0	 0	 0.0720720720720721	 0	 1
0.54	 -1.5	 5.9	 0.14	 0.27	 23.7	 0	 -1	 -3	 -2	 -1	 -3	 -3	 3	 -2	 1	 1	 -3	 -2	 -2	 -3	 -2	 0	 4	 -3	 -1	 -2	 -1	 -1	 -1	 2	 0	 0	 -2	 2	 -1	 -1	 -2	 0	 -1	 3	 0	 1	 2	 1	 -1	 12.00	 22.00	 20.00	 30.00	 42.00	 4.26	 4.32	 130	 109	 0.838461538461538	 0.915492957746479	 0.767605633802817	 -1
-0.26	 0.3	 9.2	 0.062	 -0.33	 42	 1	 -1	 0	 0	 -2	 0	 -1	 -2	 0	 -2	 -1	 1	 -1	 0	 -1	 4	 1	 -2	 -3	 -2	 0	 -1	 1	 3	 -2	 0	 0	 -1	 -1	 -3	 -3	 0	 -2	 -3	 -1	 3	 1	 -3	 -2	 -2	 13.00	 14.00	 16.00	 17.00	 30.00	 2.24	 2.00	 42	 7	 0.166666666666667	 0.323076923076923	 0.0538461538461538	 -1
-1.1	 3	 11.3	 0.219	 -0.36	 103	 -1	 -3	 -1	 1	 -3	 -2	 -1	 -3	 5	 -2	 -1	 0	 -1	 1	 2	 0	 -1	 -2	 -3	 -2	 -1	 2	 0	 -1	 -3	 1	 1	 -2	 -1	 -3	 -2	 4	 -1	 -3	 -1	 0	 -1	 -3	 -2	 -2	 23.00	 24.00	 27.00	 28.00	 51.00	 2.37	 2.64	 158	 152	 0.962025316455696	 0.770731707317073	 0.741463414634146	 -1
-0.62	 3	 12.3	 0.151	 -0.13	 68.2	 -1	 -4	 2	 5	 -3	 -2	 0	 -3	 1	 -3	 -2	 0	 -1	 2	 0	 0	 -1	 -2	 -3	 -2	 -1	 0	 0	 2	 -4	 2	 5	 -2	 0	 -3	 -3	 1	 -2	 -3	 -1	 0	 -1	 -3	 -2	 -2	 23.00	 27.00	 24.00	 28.00	 51.00	 8.16	 8.94	 16	 10	 0.625	 0.0824742268041237	 0.0515463917525773	 1
-1.1	 3	 11.3	 0.219	 -0.36	 103	 -1	 -3	 -1	 1	 -3	 -2	 -1	 -3	 5	 -2	 -1	 0	 -1	 1	 2	 0	 -1	 -2	 -3	 -2	 -2	 1	 -2	 -2	 -5	 1	 -1	 -3	 -2	 -4	 -3	 7	 2	 -4	 -3	 -2	 -2	 -4	 -3	 -3	 27.00	 27.00	 27.00	 27.00	 54.00	 3.98	 3.79	 50	 50	 1	 0.24390243902439	 0.24390243902439	 1
0.37	 -3.4	 5.4	 0.409	 0.83	 34.7	 -3	 -2	 -4	 -3	 1	 -2	 -2	 -3	 -3	 -2	 -1	 -4	 -4	 -2	 -3	 -3	 -2	 -3	 11	 2	 0	 1	 2	 -1	 -1	 -1	 -1	 -1	 0	 -1	 -1	 -1	 -1	 1	 -1	 1	 -1	 2	 4	 -1	 24.00	 28.00	 26.00	 30.00	 54.00	 6.67	 6.33	 19	 19	 1	 0.0837004405286344	 0.0837004405286344	 1
-0.4	 -0.5	 10.4	 0.23	 0.41	 50.7	 -2	 -3	 -1	 0	 -1	 -2	 8	 -3	 -1	 -3	 -2	 1	 -2	 0	 0	 -1	 -2	 -3	 -2	 2	 -5	 -3	 -3	 -2	 -6	 0	 -3	 -5	 11	 -6	 -6	 -4	 -5	 -4	 -5	 -4	 -5	 -5	 1	 -6	 29.00	 28.00	 24.00	 23.00	 52.00	 5.98	 5.50	 11	 5	 0.454545454545455	 0.0597826086956522	 0.0271739130434783	 -1
-1.76	 3	 10.5	 0.291	 0.27	 94.7	 -1	 -3	 -2	 0	 -3	 -2	 0	 -3	 2	 -2	 -1	 0	 -2	 1	 5	 -1	 -1	 -3	 -3	 -2	 -2	 6	 -2	 -3	 -4	 0	 -1	 -3	 -1	 -1	 -2	 1	 -2	 2	 -3	 -2	 -2	 5	 -1	 -2	 24.00	 22.00	 27.00	 25.00	 49.00	 6.44	 6.97	 25	 7	 0.28	 0.100806451612903	 0.0282258064516129	 1
-1.76	 3	 10.5	 0.291	 0.27	 94.7	 -1	 -3	 -2	 0	 -3	 -2	 0	 -3	 2	 -2	 -1	 0	 -2	 1	 5	 -1	 -1	 -3	 -3	 -2	 0	 2	 -1	 -2	 3	 0	 -1	 4	 -2	 -3	 -3	 2	 -2	 -3	 -2	 -1	 -1	 -3	 -3	 -3	 28.00	 21.00	 27.00	 20.00	 48.00	 6.11	 6.25	 102	 96	 0.941176470588235	 0.411290322580645	 0.387096774193548	 -1
0.02	 -2.3	 6.2	 0.298	 0.66	 55.2	 -2	 -2	 -3	 -2	 3	 -3	 2	 -1	 -2	 -1	 -1	 -2	 -3	 -1	 -2	 -2	 -2	 -1	 2	 7	 -1	 -1	 4	 0	 -3	 0	 0	 -2	 2	 -2	 -2	 0	 -2	 -1	 -2	 0	 0	 -1	 4	 -1	 15.00	 10.00	 20.00	 15.00	 30.00	 2.07	 2.00	 116	 89	 0.767241379310345	 0.522522522522523	 0.400900900900901	 -1
-0.18	 -0.4	 8.6	 0.108	 -0.18	 45	 0	 -1	 -1	 -1	 -2	 -2	 -2	 -1	 -1	 -1	 -1	 0	 -1	 -1	 -1	 1	 5	 0	 -2	 -2	 0	 -1	 0	 -1	 -1	 -1	 -1	 -2	 -2	 -1	 -1	 -1	 -1	 -2	 -1	 1	 5	 -3	 -2	 0	 28.00	 28.00	 23.00	 23.00	 51.00	 5.06	 5.22	 18	 16	 0.888888888888889	 0.126760563380282	 0.112676056338028	 1
-1.76	 3	 10.5	 0.291	 0.27	 94.7	 -1	 -3	 -2	 0	 -3	 -2	 0	 -3	 2	 -2	 -1	 0	 -2	 1	 5	 -1	 -1	 -3	 -3	 -2	 -1	 3	 0	 1	 -3	 0	 0	 -3	 0	 -2	 -2	 2	 -2	 -2	 2	 -1	 -1	 -3	 1	 1	 10.00	 9.00	 22.00	 21.00	 31.00	 2.01	 2.00	 155	 71	 0.458064516129032	 0.625	 0.286290322580645	 -1
-0.72	 3	 13	 0.105	 -0.38	 60.6	 -2	 -3	 6	 2	 -3	 -1	 -1	 -3	 -1	 -4	 -3	 1	 -1	 0	 -2	 0	 -1	 -3	 -4	 -3	 -2	 -2	 1	 6	 -4	 0	 2	 -1	 -1	 -3	 -4	 -1	 -3	 -4	 -2	 0	 -1	 -4	 -3	 -3	 33.00	 33.00	 24.00	 24.00	 57.00	 4.99	 4.95	 167	 157	 0.940119760479042	 1.02453987730061	 0.96319018404908	 1
-1.76	 3	 10.5	 0.291	 0.27	 94.7	 -1	 -3	 -2	 0	 -3	 -2	 0	 -3	 2	 -2	 -1	 0	 -2	 1	 5	 -1	 -1	 -3	 -3	 -2	 -1	 4	 0	 -1	 0	 1	 -1	 -1	 -1	 0	 -2	 2	 0	 -3	 -1	 0	 -1	 -4	 -3	 0	 19.00	 14.00	 22.00	 17.00	 36.00	 2.01	 2.29	 192	 75	 0.390625	 0.774193548387097	 0.30241935483871	 -1
-0.62	 3	 12.3	 0.151	 -0.13	 68.2	 -1	 -4	 2	 5	 -3	 -2	 0	 -3	 1	 -3	 -2	 0	 -1	 2	 0	 0	 -1	 -2	 -3	 -2	 -2	 -1	 0	 3	 -5	 0	 5	 -1	 4	 -5	 -4	 -1	 -4	 -5	 -3	 1	 0	 -5	 -3	 -4	 7.00	 3.00	 24.00	 20.00	 27.00	 1.83	 2.00	 144	 32	 0.222222222222222	 0.742268041237113	 0.164948453608247	 -1
0.54	 -1.5	 5.9	 0.14	 0.27	 23.7	 0	 -1	 -3	 -2	 -1	 -3	 -3	 3	 -2	 1	 1	 -3	 -2	 -2	 -3	 -2	 0	 4	 -3	 -1	 0	 -3	 -3	 -3	 -1	 -2	 -3	 -3	 -3	 3	 1	 -3	 1	 -1	 -3	 -2	 0	 -3	 -1	 4	 24.00	 23.00	 13.00	 12.00	 36.00	 4.63	 5.15	 81	 81	 1	 0.570422535211268	 0.570422535211268	 1
0.61	 -2.5	 5.2	 0.29	 0.82	 25.5	 -2	 -2	 -3	 -3	 6	 -3	 -1	 0	 -3	 0	 0	 -3	 -4	 -3	 -3	 -2	 -2	 -1	 1	 3	 -2	 -3	 -3	 -4	 -2	 -3	 -3	 -3	 -1	 0	 0	 -3	 0	 6	 -4	 -2	 -2	 1	 3	 -1	 24.00	 20.00	 12.00	 8.00	 32.00	 2.45	 2.72	 110	 93	 0.845454545454545	 0.558375634517767	 0.472081218274112	 1
-0.64	 2	 11.6	 0.134	 0.12	 60.1	 -2	 -3	 1	 0	 -3	 0	 1	 -3	 0	 -3	 -2	 6	 -2	 0	 0	 1	 0	 -3	 -4	 -2	 -2	 0	 6	 1	 -3	 0	 0	 0	 1	 -3	 -3	 0	 -2	 -3	 -2	 1	 0	 -4	 -2	 -3	 14.00	 14.00	 16.00	 16.00	 30.00	 1.92	 2.00	 112	 82	 0.732142857142857	 0.713375796178344	 0.522292993630573	 1
-1.1	 3	 11.3	 0.219	 -0.36	 103	 -1	 -3	 -1	 1	 -3	 -2	 -1	 -3	 5	 -2	 -1	 0	 -1	 1	 2	 0	 -1	 -2	 -3	 -2	 0	 1	 2	 0	 -3	 2	 0	 -1	 0	 -4	 -2	 -1	 0	 -2	 -3	 3	 -2	 1	 -1	 -1	 24.00	 23.00	 24.00	 23.00	 47.00	 2.61	 3.49	 96	 52	 0.541666666666667	 0.468292682926829	 0.253658536585366	 -1
0.02	 -2.3	 6.2	 0.298	 0.66	 55.2	 -2	 -2	 -3	 -2	 3	 -3	 2	 -1	 -2	 -1	 -1	 -2	 -3	 -1	 -2	 -2	 -2	 -1	 2	 7	 -1	 -1	 2	 0	 -2	 -1	 -1	 0	 0	 -2	 -2	 -1	 -2	 -1	 2	 2	 0	 1	 2	 -1	 20.00	 17.00	 23.00	 20.00	 40.00	 2.62	 3.18	 153	 112	 0.73202614379085	 0.689189189189189	 0.504504504504504	 1
-0.07	 0	 8	 0.131	 -0.25	 51.5	 -1	 -3	 -1	 -1	 -4	 -2	 -2	 -3	 -1	 -3	 -2	 -2	 7	 -1	 -2	 -1	 -1	 -2	 -4	 -3	 -1	 -1	 0	 -2	 -3	 0	 -1	 -2	 1	 1	 -2	 -1	 -1	 -1	 4	 -1	 1	 1	 -2	 1	 24.00	 21.00	 24.00	 21.00	 45.00	 5.24	 5.88	 34	 34	 1	 0.25	 0.25	 1
-0.26	 0.3	 9.2	 0.062	 -0.33	 42	 1	 -1	 0	 0	 -2	 0	 -1	 -2	 0	 -2	 -1	 1	 -1	 0	 -1	 4	 1	 -2	 -3	 -2	 -1	 0	 -1	 1	 -2	 -1	 0	 2	 2	 -2	 -2	 -1	 -2	 -1	 -2	 1	 -1	 7	 0	 -2	 19.00	 20.00	 25.00	 26.00	 45.00	 2.40	 2.00	 45	 22	 0.488888888888889	 0.346153846153846	 0.169230769230769	 -1
0.37	 -3.4	 5.4	 0.409	 0.83	 34.7	 -3	 -2	 -4	 -3	 1	 -2	 -2	 -3	 -3	 -2	 -1	 -4	 -4	 -2	 -3	 -3	 -2	 -3	 11	 2	 -3	 -3	 -4	 -4	 -2	 -2	 -3	 -2	 -2	 -3	 -2	 -3	 -1	 1	 -4	 -3	 -2	 10	 2	 -3	 3.00	 0.00	 16.00	 13.00	 16.00	 1.67	 2.00	 136	 99	 0.727941176470588	 0.599118942731278	 0.436123348017621	 1
0.73	 -1.8	 5.2	 0.186	 0.44	 22.8	 -1	 -1	 -3	 -3	 0	 -4	 -3	 4	 -3	 2	 1	 -3	 -3	 -3	 -3	 -2	 -1	 3	 -3	 -1	 -1	 -3	 -3	 -3	 -1	 -3	 -3	 -4	 -3	 4	 2	 -3	 1	 0	 -3	 -3	 -1	 -3	 -1	 2	 30.00	 35.00	 21.00	 26.00	 56.00	 6.88	 6.74	 11	 11	 1	 0.0650887573964497	 0.0650887573964497	 -1
0.73	 -1.8	 5.2	 0.186	 0.44	 22.8	 -1	 -1	 -3	 -3	 0	 -4	 -3	 4	 -3	 2	 1	 -3	 -3	 -3	 -3	 -2	 -1	 3	 -3	 -1	 -1	 -3	 -4	 -3	 -1	 -3	 -3	 -4	 -4	 5	 2	 -3	 1	 0	 -3	 -3	 -1	 -3	 -1	 3	 16.00	 16.00	 34.00	 34.00	 50.00	 5.19	 5.84	 28	 24	 0.857142857142857	 0.165680473372781	 0.142011834319527	 -1
