0.978250	0.021750
0.033555	0.966445
0.000019	0.999981
0.000018	0.999982
0.997121	0.002879
0.895153	0.104847
0.999059	0.000941
0.000843	0.999157
0.430490	0.569510
0.937433	0.062567
0.999050	0.000950
0.033151	0.966849
0.933226	0.066774
0.452416	0.547584
0.998661	0.001339
0.923634	0.076366
0.998915	0.001085
0.987336	0.012664
0.377496	0.622504
0.943847	0.056153
0.000290	0.999710
0.239208	0.760792
0.009563	0.990437
0.181027	0.818973
0.999723	0.000277
0.999900	0.000100
0.877090	0.122910
0.998977	0.001023
0.020713	0.979287
0.004853	0.995147
0.001688	0.998312
