0.160080	0.839920
0.138653	0.861347
0.964331	0.035669
0.135780	0.864220
0.019637	0.980363
0.000913	0.999087
0.781659	0.218341
0.359442	0.640558
0.457129	0.542871
0.016129	0.983871
0.001106	0.998894
0.000057	0.999943
0.282211	0.717789
0.000673	0.999327
0.005126	0.994874
0.856365	0.143635
0.999954	0.000046
0.000129	0.999871
0.007627	0.992373
0.526400	0.473600
0.996272	0.003728
0.950478	0.049522
0.002784	0.997216
0.015342	0.984658
0.999879	0.000121
0.996499	0.003501
0.016695	0.983305
0.999872	0.000128
0.992961	0.007039
0.020762	0.979238
0.000954	0.999046
0.463161	0.536839
