0.581667	0.418333
0.000181	0.999819
0.010329	0.989671
0.132201	0.867799
0.071874	0.928126
0.153032	0.846968
0.008169	0.991831
0.722058	0.277942
0.035242	0.964758
0.962542	0.037458
0.004425	0.995575
0.991725	0.008275
0.754148	0.245852
0.936080	0.063920
0.994212	0.005788
0.110003	0.889997
0.882206	0.117794
0.021548	0.978452
0.007032	0.992968
0.020220	0.979780
0.985797	0.014203
0.917049	0.082951
0.993013	0.006987
0.726166	0.273834
0.991454	0.008546
0.972419	0.027581
0.996301	0.003699
0.772840	0.227160
0.023402	0.976598
0.240200	0.759800
0.104675	0.895325
