0.001073	0.998927
0.980353	0.019647
0.130804	0.869196
0.000090	0.999910
0.994770	0.005230
0.997685	0.002315
0.543064	0.456936
0.993063	0.006937
0.977046	0.022954
0.003533	0.996467
0.999867	0.000133
0.999488	0.000512
0.003541	0.996459
0.999670	0.000330
0.989045	0.010955
0.998984	0.001016
0.000077	0.999923
0.010545	0.989455
0.001568	0.998432
0.975005	0.024995
0.998475	0.001525
0.017610	0.982390
0.266519	0.733481
0.319802	0.680198
0.001960	0.998040
0.000496	0.999504
0.652046	0.347954
0.629799	0.370201
0.010602	0.989398
0.596874	0.403126
0.937825	0.062175
