-0.4	 -0.5	 10.4	 0.23	 0.41	 50.7	 -2	 -3	 -1	 0	 -1	 -2	 8	 -3	 -1	 -3	 -2	 1	 -2	 0	 0	 -1	 -2	 -3	 -2	 2	 -1	 2	 0	 1	 -4	 -1	 -2	 -3	 2	 -4	 -4	 4	 -3	 -3	 -4	 -2	 -1	 8	 -2	 -4	 17.00	 10.00	 21.00	 14.00	 31.00	 2.23	 2.00	 109	 25	 0.229357798165138	 0.592391304347826	 0.135869565217391	 -1
-0.72	 3	 13	 0.105	 -0.38	 60.6	 -2	 -3	 6	 2	 -3	 -1	 -1	 -3	 -1	 -4	 -3	 1	 -1	 0	 -2	 0	 -1	 -3	 -4	 -3	 -1	 -1	 0	 4	 -4	 1	 4	 -2	 -1	 -3	 -3	 0	 -3	 -4	 -1	 0	 -1	 -4	 -3	 -3	 11.00	 14.00	 24.00	 27.00	 38.00	 2.10	 2.69	 89	 20	 0.224719101123595	 0.54601226993865	 0.122699386503067	 -1
0.16	 0	 9	 0	 -0.07	 24.5	 0	 -3	 -1	 -2	 -3	 6	 -2	 -4	 -2	 -4	 -3	 0	 -2	 -2	 -2	 0	 -2	 -3	 -2	 -3	 -1	 0	 1	 1	 -3	 0	 0	 1	 -1	 0	 -1	 -1	 -2	 0	 -1	 1	 0	 2	 2	 -1	 10.00	 14.00	 28.00	 32.00	 42.00	 1.85	 2.00	 16	 0	 0	 0.19047619047619	 0	 1
-0.69	 0.2	 10.5	 0.18	 -0.11	 68.7	 -1	 -3	 0	 2	 -3	 -2	 0	 -3	 1	 -2	 0	 0	 -1	 5	 1	 0	 -1	 -2	 -2	 -1	 -1	 1	 0	 0	 -3	 6	 2	 -2	 0	 -3	 -2	 1	 -1	 -3	 -1	 0	 -1	 -2	 -2	 -2	 24.00	 22.00	 29.00	 27.00	 51.00	 6.65	 7.01	 32	 29	 0.90625	 0.161616161616162	 0.146464646464646	 -1
-1.76	 3	 10.5	 0.291	 0.27	 94.7	 -1	 -3	 -2	 0	 -3	 -2	 0	 -3	 2	 -2	 -1	 0	 -2	 1	 5	 -1	 -1	 -3	 -3	 -2	 1	 5	 -2	 -2	 -3	 0	 0	 -3	 -2	 -4	 -3	 1	 1	 -4	 2	 2	 -2	 3	 -3	 -3	 21.00	 19.00	 16.00	 14.00	 35.00	 2.14	 2.00	 142	 102	 0.71830985915493	 0.57258064516129	 0.411290322580645	 1
-1.1	 3	 11.3	 0.219	 -0.36	 103	 -1	 -3	 -1	 1	 -3	 -2	 -1	 -3	 5	 -2	 -1	 0	 -1	 1	 2	 0	 -1	 -2	 -3	 -2	 -1	 2	 0	 -1	 -3	 1	 1	 -2	 -1	 -3	 -3	 5	 -2	 -3	 -1	 0	 -1	 -3	 -2	 -2	 16.00	 15.00	 26.00	 25.00	 41.00	 2.45	 2.00	 87	 45	 0.517241379310345	 0.424390243902439	 0.219512195121951	 -1
-0.62	 3	 12.3	 0.151	 -0.13	 68.2	 -1	 -4	 2	 5	 -3	 -2	 0	 -3	 1	 -3	 -2	 0	 -1	 2	 0	 0	 -1	 -2	 -3	 -2	 -1	 0	 0	 2	 -4	 2	 5	 -2	 0	 -3	 -3	 1	 -2	 -3	 -1	 0	 -1	 -3	 -2	 -2	 22.00	 22.00	 25.00	 25.00	 47.00	 2.52	 2.00	 108	 108	 1	 0.556701030927835	 0.556701030927835	 1
-0.64	 2	 11.6	 0.134	 0.12	 60.1	 -2	 -3	 1	 0	 -3	 0	 1	 -3	 0	 -3	 -2	 6	 -2	 0	 0	 1	 0	 -3	 -4	 -2	 -1	 -1	 3	 -1	 -2	 -1	 -3	 -1	 1	 -3	 -4	 -3	 -4	 1	 -2	 1	 0	 5	 6	 -3	 26.00	 24.00	 31.00	 29.00	 55.00	 5.88	 5.85	 35	 35	 1	 0.222929936305732	 0.222929936305732	 1
-1.1	 3	 11.3	 0.219	 -0.36	 103	 -1	 -3	 -1	 1	 -3	 -2	 -1	 -3	 5	 -2	 -1	 0	 -1	 1	 2	 0	 -1	 -2	 -3	 -2	 -1	 -1	 0	 -1	 -3	 -2	 -2	 2	 0	 0	 -4	 -1	 -3	 -4	 -2	 4	 3	 -4	 -3	 -2	 5.00	 12.00	 22.00	 29.00	 34.00	 2.27	 2.79	 101	 5	 0.0495049504950495	 0.492682926829268	 0.024390243902439	 -1
-0.26	 0.3	 9.2	 0.062	 -0.33	 42	 1	 -1	 0	 0	 -2	 0	 -1	 -2	 0	 -2	 -1	 1	 -1	 0	 -1	 4	 1	 -2	 -3	 -2	 1	 -1	 0	 0	 -1	 0	 0	 -1	 -1	 -2	 -2	 0	 -1	 -2	 -1	 4	 2	 -3	 -2	 -1	 25.00	 29.00	 19.00	 23.00	 48.00	 5.74	 5.77	 38	 38	 1	 0.292307692307692	 0.292307692307692	 1
-0.26	 0.3	 9.2	 0.062	 -0.33	 42	 1	 -1	 0	 0	 -2	 0	 -1	 -2	 0	 -2	 -1	 1	 -1	 0	 -1	 4	 1	 -2	 -3	 -2	 -1	 1	 -1	 0	 -2	 -1	 1	 -1	 -1	 -1	 -1	 1	 0	 -2	 0	 1	 1	 -2	 1	 0	 7.00	 15.00	 10.00	 18.00	 25.00	 1.89	 2.48	 72	 26	 0.361111111111111	 0.553846153846154	 0.2	 -1
-0.4	 -0.5	 10.4	 0.23	 0.41	 50.7	 -2	 -3	 -1	 0	 -1	 -2	 8	 -3	 -1	 -3	 -2	 1	 -2	 0	 0	 -1	 -2	 -3	 -2	 2	 1	 -1	 -1	 -1	 -2	 1	 0	 -1	 3	 -2	 -2	 -1	 -2	 -2	 5	 0	 -1	 -3	 -1	 -2	 17.00	 17.00	 25.00	 25.00	 42.00	 1.96	 2.75	 152	 69	 0.453947368421053	 0.826086956521739	 0.375	 1
-0.72	 3	 13	 0.105	 -0.38	 60.6	 -2	 -3	 6	 2	 -3	 -1	 -1	 -3	 -1	 -4	 -3	 1	 -1	 0	 -2	 0	 -1	 -3	 -4	 -3	 -2	 -2	 1	 6	 -4	 0	 2	 -1	 -1	 -3	 -4	 -1	 -3	 -4	 -2	 0	 -1	 -5	 -3	 -3	 32.00	 27.00	 28.00	 23.00	 55.00	 7.83	 7.32	 92	 90	 0.978260869565217	 0.56441717791411	 0.552147239263804	 1
0.02	 -2.3	 6.2	 0.298	 0.66	 55.2	 -2	 -2	 -3	 -2	 3	 -3	 2	 -1	 -2	 -1	 -1	 -2	 -3	 -1	 -2	 -2	 -2	 -1	 2	 7	 -2	 -4	 0	 -2	 -2	 -2	 -1	 -2	 1	 -3	 0	 -3	 -2	 1	 4	 0	 0	 2	 5	 -3	 22.00	 22.00	 25.00	 25.00	 47.00	 4.71	 5.11	 143	 67	 0.468531468531469	 0.644144144144144	 0.301801801801802	 1
-0.18	 -0.4	 8.6	 0.108	 -0.18	 45	 0	 -1	 -1	 -1	 -2	 -2	 -2	 -1	 -1	 -1	 -1	 0	 -1	 -1	 -1	 1	 5	 0	 -2	 -2	 -1	 0	 -3	 -2	 -3	 1	 0	 -3	 0	 -1	 -3	 0	 -3	 -1	 3	 1	 3	 -4	 -2	 1	 17.00	 21.00	 18.00	 22.00	 39.00	 2.87	 2.50	 70	 42	 0.6	 0.492957746478873	 0.295774647887324	 -1
-0.69	 0.2	 10.5	 0.18	 -0.11	 68.7	 -1	 -3	 0	 2	 -3	 -2	 0	 -3	 1	 -2	 0	 0	 -1	 5	 1	 0	 -1	 -2	 -2	 -1	 -3	 -1	 -2	 -3	 -5	 7	 0	 -4	 0	 -5	 -2	 3	 -3	 -5	 -4	 0	 -2	 -5	 -4	 -4	 23.00	 21.00	 23.00	 21.00	 44.00	 4.61	 5.28	 45	 29	 0.644444444444444	 0.227272727272727	 0.146464646464646	 -1
0.53	 -1.8	 4.9	 0.186	 0.4	 27.6	 -1	 -1	 -4	 -3	 0	 -4	 -3	 2	 -2	 4	 2	 -3	 -3	 -2	 -2	 -2	 -1	 1	 -2	 -1	 -1	 4	 -2	 -2	 -3	 1	 -2	 -1	 0	 -1	 1	 1	 3	 -3	 0	 -1	 -1	 -4	 -3	 -1	 39.00	 34.00	 28.00	 23.00	 62.00	 6.40	 6.60	 168	 167	 0.994047619047619	 1.02439024390244	 1.01829268292683	 1
0.02	 -2.3	 6.2	 0.298	 0.66	 55.2	 -2	 -2	 -3	 -2	 3	 -3	 2	 -1	 -2	 -1	 -1	 -2	 -3	 -1	 -2	 -2	 -2	 -1	 2	 7	 -2	 -2	 0	 1	 -3	 -2	 -2	 -3	 1	 -2	 -2	 -2	 -2	 5	 -3	 -1	 -1	 0	 6	 -2	 28.00	 30.00	 15.00	 17.00	 45.00	 3.67	 2.00	 75	 75	 1	 0.337837837837838	 0.337837837837838	 1
-1.76	 3	 10.5	 0.291	 0.27	 94.7	 -1	 -3	 -2	 0	 -3	 -2	 0	 -3	 2	 -2	 -1	 0	 -2	 1	 5	 -1	 -1	 -3	 -3	 -2	 -1	 3	 0	 1	 -3	 0	 0	 -3	 0	 -2	 -2	 2	 -2	 -2	 2	 -1	 -1	 -3	 1	 1	 10.00	 9.00	 22.00	 21.00	 31.00	 2.01	 2.00	 155	 71	 0.458064516129032	 0.625	 0.286290322580645	 -1
-0.26	 0.3	 9.2	 0.062	 -0.33	 42	 1	 -1	 0	 0	 -2	 0	 -1	 -2	 0	 -2	 -1	 1	 -1	 0	 -1	 4	 1	 -2	 -3	 -2	 1	 -1	 0	 0	 -1	 0	 2	 -1	 -1	 -2	 -2	 0	 -1	 -3	 -1	 2	 3	 -3	 -2	 -1	 4.00	 3.00	 23.00	 22.00	 26.00	 2.34	 2.00	 41	 8	 0.195121951219512	 0.315384615384615	 0.0615384615384615	 -1
-0.07	 0	 8	 0.131	 -0.25	 51.5	 -1	 -3	 -1	 -1	 -4	 -2	 -2	 -3	 -1	 -3	 -2	 -2	 7	 -1	 -2	 -1	 -1	 -2	 -4	 -3	 -1	 -1	 0	 -2	 -3	 0	 -1	 -2	 1	 1	 -2	 -1	 -1	 -1	 4	 -1	 1	 1	 -2	 1	 24.00	 21.00	 24.00	 21.00	 45.00	 5.24	 5.88	 34	 34	 1	 0.25	 0.25	 1
-0.69	 0.2	 10.5	 0.18	 -0.11	 68.7	 -1	 -3	 0	 2	 -3	 -2	 0	 -3	 1	 -2	 0	 0	 -1	 5	 1	 0	 -1	 -2	 -2	 -1	 -1	 1	 1	 0	 -3	 1	 1	 -3	 3	 -2	 -2	 -1	 -2	 -1	 0	 2	 2	 -4	 -1	 -1	 14.00	 17.00	 30.00	 33.00	 47.00	 2.37	 2.60	 68	 27	 0.397058823529412	 0.343434343434343	 0.136363636363636	 -1
0.54	 -1.5	 5.9	 0.14	 0.27	 23.7	 0	 -1	 -3	 -2	 -1	 -3	 -3	 3	 -2	 1	 1	 -3	 -2	 -2	 -3	 -2	 0	 4	 -3	 -1	 0	 -3	 -3	 -3	 -1	 -2	 -3	 -3	 -3	 3	 1	 -3	 1	 -1	 -3	 -2	 0	 -3	 -1	 4	 24.00	 23.00	 13.00	 12.00	 36.00	 4.63	 5.15	 81	 81	 1	 0.570422535211268	 0.570422535211268	 1
0.02	 -2.3	 6.2	 0.298	 0.66	 55.2	 -2	 -2	 -3	 -2	 3	 -3	 2	 -1	 -2	 -1	 -1	 -2	 -3	 -1	 -2	 -2	 -2	 -1	 2	 7	 -1	 3	 -1	 -2	 -3	 3	 0	 -2	 3	 -2	 0	 0	 0	 0	 -2	 0	 0	 -2	 2	 -1	 11.00	 15.00	 19.00	 23.00	 34.00	 2.35	 2.80	 124	 87	 0.701612903225806	 0.558558558558559	 0.391891891891892	 -1
-0.62	 3	 12.3	 0.151	 -0.13	 68.2	 -1	 -4	 2	 5	 -3	 -2	 0	 -3	 1	 -3	 -2	 0	 -1	 2	 0	 0	 -1	 -2	 -3	 -2	 -2	 -1	 0	 3	 -5	 0	 5	 -1	 4	 -5	 -4	 -1	 -4	 -5	 -3	 1	 0	 -5	 -3	 -4	 7.00	 3.00	 24.00	 20.00	 27.00	 1.83	 2.00	 144	 32	 0.222222222222222	 0.742268041237113	 0.164948453608247	 -1
-1.76	 3	 10.5	 0.291	 0.27	 94.7	 -1	 -3	 -2	 0	 -3	 -2	 0	 -3	 2	 -2	 -1	 0	 -2	 1	 5	 -1	 -1	 -3	 -3	 -2	 0	 1	 2	 1	 -3	 1	 1	 -2	 0	 -2	 0	 0	 0	 -2	 -1	 0	 0	 -3	 0	 -2	 26.00	 19.00	 31.00	 24.00	 50.00	 2.39	 2.20	 105	 44	 0.419047619047619	 0.423387096774194	 0.17741935483871	 -1
-0.72	 3	 13	 0.105	 -0.38	 60.6	 -2	 -3	 6	 2	 -3	 -1	 -1	 -3	 -1	 -4	 -3	 1	 -1	 0	 -2	 0	 -1	 -3	 -4	 -3	 0	 -1	 3	 2	 -2	 0	 0	 1	 0	 -3	 -2	 0	 -2	 -1	 -1	 1	 0	 0	 -1	 -2	 14.00	 16.00	 24.00	 26.00	 40.00	 5.12	 5.96	 89	 12	 0.134831460674157	 0.54601226993865	 0.0736196319018405	 1
-0.69	 0.2	 10.5	 0.18	 -0.11	 68.7	 -1	 -3	 0	 2	 -3	 -2	 0	 -3	 1	 -2	 0	 0	 -1	 5	 1	 0	 -1	 -2	 -2	 -1	 -1	 4	 -1	 -1	 -3	 3	 1	 -2	 0	 -3	 -3	 3	 -1	 -3	 1	 -1	 -1	 -3	 -2	 -3	 16.00	 14.00	 27.00	 25.00	 41.00	 1.97	 2.00	 71	 19	 0.267605633802817	 0.358585858585859	 0.095959595959596	 -1
-0.69	 0.2	 10.5	 0.18	 -0.11	 68.7	 -1	 -3	 0	 2	 -3	 -2	 0	 -3	 1	 -2	 0	 0	 -1	 5	 1	 0	 -1	 -2	 -2	 -1	 -1	 1	 0	 -2	 -3	 2	 -1	 -3	 2	 1	 0	 1	 1	 -3	 -1	 0	 1	 -3	 -2	 0	 15.00	 16.00	 20.00	 21.00	 36.00	 1.95	 2.44	 161	 84	 0.521739130434783	 0.813131313131313	 0.424242424242424	 -1
0.37	 -3.4	 5.4	 0.409	 0.83	 34.7	 -3	 -2	 -4	 -3	 1	 -2	 -2	 -3	 -3	 -2	 -1	 -4	 -4	 -2	 -3	 -3	 -2	 -3	 11	 2	 -4	 1	 2	 3	 -1	 1	 0	 -3	 2	 0	 -2	 -1	 -1	 -2	 -4	 1	 -3	 4	 1	 -1	 20.00	 23.00	 23.00	 26.00	 46.00	 2.94	 4.56	 39	 33	 0.846153846153846	 0.171806167400881	 0.145374449339207	 -1
0.61	 -2.5	 5.2	 0.29	 0.82	 25.5	 -2	 -2	 -3	 -3	 6	 -3	 -1	 0	 -3	 0	 0	 -3	 -4	 -3	 -3	 -2	 -2	 -1	 1	 3	 -2	 -3	 -3	 -4	 -3	 -4	 -4	 -3	 -1	 0	 0	 -3	 0	 7	 -4	 -3	 -2	 1	 3	 -1	 23.00	 22.00	 24.00	 23.00	 46.00	 4.91	 6.97	 62	 50	 0.806451612903226	 0.314720812182741	 0.253807106598985	 1
