0.603608	0.396392
0.694908	0.305092
0.546860	0.453140
0.479499	0.520501
0.107288	0.892712
0.183571	0.816429
0.181353	0.818647
0.258113	0.741887
0.607137	0.392863
0.720565	0.279435
0.268117	0.731883
0.435221	0.564779
0.646135	0.353865
0.522493	0.477507
0.651851	0.348149
0.694151	0.305849
0.289098	0.710902
0.431885	0.568115
0.547762	0.452238
0.643514	0.356486
0.124301	0.875699
0.481567	0.518433
0.688971	0.311029
0.378126	0.621874
0.450299	0.549701
0.819430	0.180570
0.714610	0.285390
0.578765	0.421235
0.086321	0.913679
0.701687	0.298313
0.285821	0.714179
0.246314	0.753686
