0.757057	0.242943
0.817295	0.182705
0.738267	0.261733
0.584795	0.415205
0.320404	0.679596
0.546182	0.453818
0.596650	0.403350
0.365197	0.634803
0.769837	0.230163
0.440053	0.559947
0.355324	0.644676
0.664817	0.335183
0.676637	0.323363
0.605120	0.394880
0.535410	0.464590
0.428309	0.571691
0.500000	0.500000
0.168398	0.831602
0.406454	0.593546
0.467828	0.532172
0.661975	0.338025
0.628973	0.371027
0.541866	0.458134
0.244635	0.755365
0.761528	0.238472
0.650131	0.349869
0.508864	0.491136
0.707540	0.292460
0.717013	0.282987
0.626970	0.373030
0.474197	0.525803
