0.999606	0.000394
0.955290	0.044710
0.014871	0.985129
0.001001	0.998999
0.302551	0.697449
0.984740	0.015260
0.001903	0.998097
0.040055	0.959945
0.996177	0.003823
0.947108	0.052892
0.537331	0.462669
0.992318	0.007682
0.917724	0.082276
0.592544	0.407456
0.999915	0.000085
0.992248	0.007752
0.934557	0.065443
0.999652	0.000348
0.267694	0.732306
0.003588	0.996412
0.992031	0.007969
0.000366	0.999634
0.060849	0.939151
0.611237	0.388763
0.999559	0.000441
0.004424	0.995576
0.928384	0.071616
0.642242	0.357758
0.997284	0.002716
0.998682	0.001318
0.926583	0.073417
0.992393	0.007607
