0.000082	0.999918
0.908030	0.091970
0.106446	0.893554
0.001405	0.998595
0.001874	0.998126
0.953487	0.046513
0.073630	0.926370
0.993554	0.006446
0.974809	0.025191
0.822322	0.177678
0.037047	0.962953
0.000642	0.999358
0.109460	0.890540
0.001851	0.998149
0.003585	0.996415
0.992299	0.007701
0.881232	0.118768
0.770666	0.229334
0.029977	0.970023
0.001772	0.998228
0.910167	0.089833
0.994973	0.005027
0.815481	0.184519
0.204468	0.795532
0.006440	0.993560
0.584646	0.415354
0.860603	0.139397
0.053680	0.946320
0.149605	0.850395
0.012111	0.987889
0.006870	0.993130
0.995039	0.004961
