0.779154	0.220846
0.000361	0.999639
0.998894	0.001106
0.392225	0.607775
0.992220	0.007780
0.985480	0.014520
0.021076	0.978924
0.997188	0.002812
0.999189	0.000811
0.109554	0.890446
0.000658	0.999342
0.981630	0.018370
0.604320	0.395680
0.577790	0.422210
0.744454	0.255546
0.973391	0.026609
0.430230	0.569770
0.994634	0.005366
0.993306	0.006694
0.021503	0.978497
0.944437	0.055563
0.122924	0.877076
0.003238	0.996762
0.863693	0.136307
0.756337	0.243663
0.001580	0.998420
0.921201	0.078799
0.208461	0.791539
0.001333	0.998667
0.818403	0.181597
0.118168	0.881832
0.782514	0.217486
