0.547016	0.452984
0.998723	0.001277
0.999315	0.000685
0.008320	0.991680
0.850392	0.149608
0.744089	0.255911
0.513870	0.486130
0.396922	0.603078
0.809445	0.190555
0.988701	0.011299
0.945276	0.054724
0.992861	0.007139
0.966516	0.033484
0.999736	0.000264
0.052433	0.947567
0.011053	0.988947
0.002608	0.997392
0.002300	0.997700
0.931706	0.068294
0.002495	0.997505
0.000751	0.999249
0.998041	0.001959
0.999434	0.000566
0.001037	0.998963
0.392287	0.607713
0.999816	0.000184
0.004188	0.995812
0.994237	0.005763
0.819502	0.180498
0.003092	0.996908
0.006512	0.993488
