0.987322	0.012678
0.998649	0.001351
0.005262	0.994738
0.999878	0.000122
0.655801	0.344199
0.038645	0.961355
0.986736	0.013264
0.466735	0.533265
0.003656	0.996344
0.000677	0.999323
0.568307	0.431693
0.001165	0.998835
0.823765	0.176235
0.947153	0.052847
0.757674	0.242326
0.002814	0.997186
0.886671	0.113329
0.650983	0.349017
0.009714	0.990286
0.998667	0.001333
0.004711	0.995289
0.967442	0.032558
0.998607	0.001393
0.001876	0.998124
0.035231	0.964769
0.974929	0.025071
0.856115	0.143885
0.998125	0.001875
0.999801	0.000199
0.889180	0.110820
0.999259	0.000741
