0.258093	0.741907
0.804385	0.195615
0.739193	0.260807
0.435003	0.564997
0.368016	0.631984
0.535181	0.464819
0.347462	0.652538
0.254043	0.745957
0.512943	0.487057
0.600946	0.399054
0.473529	0.526471
0.401597	0.598403
0.361761	0.638239
0.371180	0.628820
0.375520	0.624480
0.472383	0.527617
0.387126	0.612874
0.581319	0.418681
0.762902	0.237098
0.653895	0.346105
0.641087	0.358913
0.253540	0.746460
0.805968	0.194032
0.179061	0.820939
0.617624	0.382376
0.214759	0.785241
0.584647	0.415353
0.694092	0.305908
0.750122	0.249878
0.663957	0.336043
0.654354	0.345646
0.190295	0.809705
