0.075223	0.924777
0.707981	0.292019
0.334099	0.665901
0.698992	0.301008
0.815915	0.184085
0.314767	0.685233
0.555658	0.444342
0.623020	0.376980
0.500000	0.500000
0.522966	0.477034
0.324534	0.675466
0.169375	0.830625
0.829004	0.170996
0.583909	0.416091
0.052969	0.947031
0.254563	0.745437
0.730635	0.269365
0.106463	0.893537
0.385919	0.614081
0.725702	0.274298
0.528693	0.471307
0.370516	0.629484
0.427689	0.572311
0.702501	0.297499
0.164809	0.835191
0.731319	0.268681
0.649210	0.350790
0.440314	0.559686
0.886240	0.113760
0.574874	0.425126
0.337166	0.662834
