0.246808	0.753192
0.331008	0.668992
0.599209	0.400791
0.202325	0.797675
0.837757	0.162243
0.553664	0.446336
0.421178	0.578822
0.989960	0.010040
0.030312	0.969688
0.524903	0.475097
0.038997	0.961003
0.989655	0.010345
0.976291	0.023709
0.997562	0.002438
0.998119	0.001881
0.401236	0.598764
0.111709	0.888291
0.991297	0.008703
0.435740	0.564260
0.981539	0.018461
0.941688	0.058312
0.994128	0.005872
0.722838	0.277162
0.037561	0.962439
0.016504	0.983496
0.818731	0.181269
0.000350	0.999650
0.990684	0.009316
0.009135	0.990865
0.306160	0.693840
0.892318	0.107682
