0.941967	0.058033
0.002458	0.997542
0.641293	0.358707
0.001062	0.998938
0.893866	0.106134
0.211253	0.788747
0.013318	0.986682
0.796622	0.203378
0.000633	0.999367
0.340714	0.659286
0.269517	0.730483
0.790620	0.209380
0.008066	0.991934
0.062305	0.937695
0.032859	0.967141
0.990305	0.009695
0.983616	0.016384
0.760528	0.239472
0.065967	0.934033
0.015424	0.984576
0.006353	0.993647
0.000565	0.999435
0.001376	0.998624
0.980026	0.019974
0.004637	0.995363
0.000391	0.999609
0.995920	0.004080
0.996678	0.003322
0.928255	0.071745
0.421054	0.578946
0.778695	0.221305
