0.830053	0.169947
0.324171	0.675829
0.637148	0.362852
0.231675	0.768325
0.878860	0.121140
0.790903	0.209097
0.183343	0.816657
0.245399	0.754601
0.579471	0.420529
0.115712	0.884288
0.077507	0.922493
0.288215	0.711785
0.164540	0.835460
0.262766	0.737234
0.222969	0.777031
0.470300	0.529700
0.462035	0.537965
0.132081	0.867919
0.445288	0.554712
0.164377	0.835623
0.800836	0.199164
0.317632	0.682368
0.139253	0.860747
0.829744	0.170256
0.583504	0.416496
0.123265	0.876735
0.115512	0.884488
0.350044	0.649956
0.696712	0.303288
0.178992	0.821008
0.290112	0.709888
