-1.1	 3	 11.3	 0.219	 -0.36	 103	 -1	 -3	 -1	 1	 -3	 -2	 -1	 -3	 5	 -2	 -1	 0	 -1	 1	 2	 0	 -1	 -2	 -3	 -2	 -1	 2	 0	 -1	 -3	 1	 1	 -2	 -1	 -3	 -2	 5	 -1	 -3	 -1	 0	 -1	 -3	 -2	 -2	 22.00	 25.00	 17.00	 20.00	 42.00	 3.97	 3.57	 73	 56	 0.767123287671233	 0.35609756097561	 0.273170731707317	 1
-0.62	 3	 12.3	 0.151	 -0.13	 68.2	 -1	 -4	 2	 5	 -3	 -2	 0	 -3	 1	 -3	 -2	 0	 -1	 2	 0	 0	 -1	 -2	 -3	 -2	 -2	 0	 -1	 -3	 -3	 -2	 2	 -6	 4	 -1	 -4	 1	 -4	 -1	 -8	 2	 2	 0	 3	 1	 13.00	 16.00	 24.00	 27.00	 40.00	 2.50	 2.73	 50	 7	 0.14	 0.257731958762887	 0.0360824742268041	 -1
0.02	 -2.3	 6.2	 0.298	 0.66	 55.2	 -2	 -2	 -3	 -2	 3	 -3	 2	 -1	 -2	 -1	 -1	 -2	 -3	 -1	 -2	 -2	 -2	 -1	 2	 7	 -2	 -2	 1	 0	 -4	 -2	 -1	 -3	 1	 -3	 -3	 -2	 -3	 1	 -4	 1	 0	 -1	 7	 -3	 6.00	 4.00	 22.00	 20.00	 26.00	 1.82	 2.00	 199	 76	 0.381909547738693	 0.896396396396396	 0.342342342342342	 -1
-0.26	 0.3	 9.2	 0.062	 -0.33	 42	 1	 -1	 0	 0	 -2	 0	 -1	 -2	 0	 -2	 -1	 1	 -1	 0	 -1	 4	 1	 -2	 -3	 -2	 0	 -2	 2	 0	 -1	 0	 1	 -2	 -1	 -1	 -2	 0	 -2	 -4	 5	 0	 -2	 -4	 0	 1	 22.00	 26.00	 15.00	 19.00	 41.00	 2.25	 2.67	 46	 3	 0.0652173913043478	 0.353846153846154	 0.0230769230769231	 -1
0.02	 -2.3	 6.2	 0.298	 0.66	 55.2	 -2	 -2	 -3	 -2	 3	 -3	 2	 -1	 -2	 -1	 -1	 -2	 -3	 -1	 -2	 -2	 -2	 -1	 2	 7	 2	 2	 0	 -3	 -2	 0	 -2	 -3	 4	 -4	 -4	 -1	 -1	 1	 -4	 3	 0	 -3	 4	 -3	 25.00	 24.00	 29.00	 28.00	 53.00	 5.81	 6.30	 32	 29	 0.90625	 0.144144144144144	 0.130630630630631	 -1
0.54	 -1.5	 5.9	 0.14	 0.27	 23.7	 0	 -1	 -3	 -2	 -1	 -3	 -3	 3	 -2	 1	 1	 -3	 -2	 -2	 -3	 -2	 0	 4	 -3	 -1	 -1	 -2	 -2	 -3	 -2	 -1	 -2	 -3	 3	 1	 1	 -2	 0	 1	 -2	 -2	 -1	 0	 5	 1	 27.00	 26.00	 26.00	 25.00	 52.00	 2.23	 2.82	 87	 67	 0.770114942528736	 0.612676056338028	 0.471830985915493	 1
0.61	 -2.5	 5.2	 0.29	 0.82	 25.5	 -2	 -2	 -3	 -3	 6	 -3	 -1	 0	 -3	 0	 0	 -3	 -4	 -3	 -3	 -2	 -2	 -1	 1	 3	 -2	 2	 -2	 -2	 -3	 -1	 -1	 -3	 0	 -1	 -1	 1	 -1	 4	 -3	 -1	 -2	 1	 4	 -1	 32.00	 30.00	 30.00	 28.00	 60.00	 7.36	 7.50	 102	 101	 0.990196078431373	 0.517766497461929	 0.512690355329949	 1
-0.18	 -0.4	 8.6	 0.108	 -0.18	 45	 0	 -1	 -1	 -1	 -2	 -2	 -2	 -1	 -1	 -1	 -1	 0	 -1	 -1	 -1	 1	 5	 0	 -2	 -2	 0	 -1	 0	 -1	 -1	 -1	 -1	 -2	 -2	 -1	 -1	 -1	 -1	 -2	 -1	 1	 5	 -3	 -2	 0	 25.00	 23.00	 25.00	 23.00	 48.00	 2.97	 2.41	 71	 42	 0.591549295774648	 0.5	 0.295774647887324	 -1
0.54	 -1.5	 5.9	 0.14	 0.27	 23.7	 0	 -1	 -3	 -2	 -1	 -3	 -3	 3	 -2	 1	 1	 -3	 -2	 -2	 -3	 -2	 0	 4	 -3	 -1	 1	 -2	 -3	 -3	 -1	 -2	 -2	 -2	 -3	 2	 2	 -2	 3	 -1	 -2	 -1	 -1	 -3	 -1	 3	 25.00	 27.00	 26.00	 28.00	 53.00	 7.49	 8.42	 50	 50	 1	 0.352112676056338	 0.352112676056338	 1
0.02	 -2.3	 6.2	 0.298	 0.66	 55.2	 -2	 -2	 -3	 -2	 3	 -3	 2	 -1	 -2	 -1	 -1	 -2	 -3	 -1	 -2	 -2	 -2	 -1	 2	 7	 -2	 -2	 -3	 -4	 -3	 -2	 -3	 -4	 1	 -1	 -1	 -3	 -1	 5	 -4	 -2	 -2	 2	 7	 -2	 33.00	 33.00	 15.00	 15.00	 48.00	 4.88	 4.13	 16	 0	 0	 0.0720720720720721	 0	 1
0.53	 -1.8	 4.9	 0.186	 0.4	 27.6	 -1	 -1	 -4	 -3	 0	 -4	 -3	 2	 -2	 4	 2	 -3	 -3	 -2	 -2	 -2	 -1	 1	 -2	 -1	 -2	 -2	 -2	 1	 -2	 -2	 -2	 -3	 -1	 0	 3	 -2	 0	 0	 3	 -2	 -1	 -1	 2	 0	 16.00	 18.00	 17.00	 19.00	 35.00	 2.84	 2.97	 34	 13	 0.382352941176471	 0.207317073170732	 0.0792682926829268	 1
-0.26	 0.3	 9.2	 0.062	 -0.33	 42	 1	 -1	 0	 0	 -2	 0	 -1	 -2	 0	 -2	 -1	 1	 -1	 0	 -1	 4	 1	 -2	 -3	 -2	 0	 -1	 3	 0	 -2	 0	 0	 -1	 0	 -3	 -3	 0	 -2	 -1	 -2	 3	 1	 -1	 2	 -2	 22.00	 24.00	 18.00	 20.00	 42.00	 4.27	 4.85	 45	 29	 0.644444444444444	 0.346153846153846	 0.223076923076923	 -1
-0.18	 -0.4	 8.6	 0.108	 -0.18	 45	 0	 -1	 -1	 -1	 -2	 -2	 -2	 -1	 -1	 -1	 -1	 0	 -1	 -1	 -1	 1	 5	 0	 -2	 -2	 -1	 0	 -3	 -2	 -3	 1	 0	 -3	 0	 -1	 -3	 0	 -3	 -1	 3	 1	 3	 -4	 -2	 1	 17.00	 21.00	 18.00	 22.00	 39.00	 2.87	 2.50	 70	 42	 0.6	 0.492957746478873	 0.295774647887324	 -1
0.02	 -2.3	 6.2	 0.298	 0.66	 55.2	 -2	 -2	 -3	 -2	 3	 -3	 2	 -1	 -2	 -1	 -1	 -2	 -3	 -1	 -2	 -2	 -2	 -1	 2	 7	 -2	 1	 1	 2	 -5	 2	 1	 0	 0	 -3	 -1	 1	 -2	 0	 0	 0	 -1	 -1	 2	 -3	 23.00	 24.00	 28.00	 29.00	 52.00	 2.48	 2.00	 183	 176	 0.961748633879781	 0.824324324324324	 0.792792792792793	 1
-0.64	 2	 11.6	 0.134	 0.12	 60.1	 -2	 -3	 1	 0	 -3	 0	 1	 -3	 0	 -3	 -2	 6	 -2	 0	 0	 1	 0	 -3	 -4	 -2	 -1	 -1	 3	 -1	 -2	 -1	 -3	 -1	 1	 -3	 -4	 -3	 -4	 1	 -2	 1	 0	 5	 6	 -3	 26.00	 24.00	 31.00	 29.00	 55.00	 5.88	 5.85	 35	 35	 1	 0.222929936305732	 0.222929936305732	 1
-1.76	 3	 10.5	 0.291	 0.27	 94.7	 -1	 -3	 -2	 0	 -3	 -2	 0	 -3	 2	 -2	 -1	 0	 -2	 1	 5	 -1	 -1	 -3	 -3	 -2	 -1	 2	 3	 2	 -3	 0	 0	 -3	 -2	 -1	 -1	 1	 3	 1	 -3	 -1	 -1	 -3	 -1	 -1	 17.00	 12.00	 32.00	 27.00	 44.00	 2.29	 2.00	 190	 100	 0.526315789473684	 0.766129032258065	 0.403225806451613	 1
-0.62	 3	 12.3	 0.151	 -0.13	 68.2	 -1	 -4	 2	 5	 -3	 -2	 0	 -3	 1	 -3	 -2	 0	 -1	 2	 0	 0	 -1	 -2	 -3	 -2	 -1	 0	 -1	 0	 -2	 1	 3	 -2	 -1	 1	 -1	 2	 -1	 -2	 -2	 -1	 -1	 -3	 -2	 1	 16.00	 17.00	 21.00	 22.00	 38.00	 2.26	 2.67	 65	 41	 0.630769230769231	 0.335051546391753	 0.211340206185567	 1
-0.69	 0.2	 10.5	 0.18	 -0.11	 68.7	 -1	 -3	 0	 2	 -3	 -2	 0	 -3	 1	 -2	 0	 0	 -1	 5	 1	 0	 -1	 -2	 -2	 -1	 -1	 3	 0	 -1	 -3	 3	 1	 -2	 -1	 -3	 -3	 2	 -1	 -3	 2	 1	 1	 -3	 -2	 -2	 29.00	 27.00	 22.00	 20.00	 49.00	 2.31	 2.37	 20	 12	 0.6	 0.101010101010101	 0.0606060606060606	 1
-0.72	 3	 13	 0.105	 -0.38	 60.6	 -2	 -3	 6	 2	 -3	 -1	 -1	 -3	 -1	 -4	 -3	 1	 -1	 0	 -2	 0	 -1	 -3	 -4	 -3	 -2	 -1	 5	 4	 -3	 0	 0	 -1	 0	 -3	 -4	 0	 -3	 -3	 -2	 0	 0	 -4	 -3	 -3	 17.00	 19.00	 16.00	 18.00	 35.00	 1.77	 2.36	 152	 60	 0.394736842105263	 0.932515337423313	 0.368098159509202	 -1
0.02	 -2.3	 6.2	 0.298	 0.66	 55.2	 -2	 -2	 -3	 -2	 3	 -3	 2	 -1	 -2	 -1	 -1	 -2	 -3	 -1	 -2	 -2	 -2	 -1	 2	 7	 0	 1	 1	 0	 1	 0	 -1	 -1	 0	 -4	 -2	 -2	 -1	 -1	 -2	 3	 0	 3	 0	 -2	 21.00	 21.00	 24.00	 24.00	 45.00	 3.46	 4.35	 121	 117	 0.966942148760331	 0.545045045045045	 0.527027027027027	 1
0.53	 -1.8	 4.9	 0.186	 0.4	 27.6	 -1	 -1	 -4	 -3	 0	 -4	 -3	 2	 -2	 4	 2	 -3	 -3	 -2	 -2	 -2	 -1	 1	 -2	 -1	 -1	 -1	 -2	 -1	 -2	 0	 2	 -3	 -2	 1	 3	 -1	 3	 0	 -2	 -1	 -1	 -2	 -1	 0	 10.00	 8.00	 28.00	 26.00	 36.00	 3.36	 3.94	 80	 53	 0.6625	 0.48780487804878	 0.323170731707317	 -1
-0.72	 3	 13	 0.105	 -0.38	 60.6	 -2	 -3	 6	 2	 -3	 -1	 -1	 -3	 -1	 -4	 -3	 1	 -1	 0	 -2	 0	 -1	 -3	 -4	 -3	 -2	 2	 1	 4	 -4	 1	 2	 1	 -1	 -3	 -2	 -1	 -3	 -4	 -2	 0	 -2	 -4	 -3	 -3	 21.00	 19.00	 18.00	 16.00	 37.00	 3.09	 3.28	 100	 99	 0.99	 0.613496932515337	 0.607361963190184	 1
-0.69	 0.2	 10.5	 0.18	 -0.11	 68.7	 -1	 -3	 0	 2	 -3	 -2	 0	 -3	 1	 -2	 0	 0	 -1	 5	 1	 0	 -1	 -2	 -2	 -1	 -1	 0	 1	 1	 -1	 2	 1	 0	 1	 -1	 -1	 0	 -1	 0	 1	 0	 0	 -2	 0	 -1	 32.00	 28.00	 25.00	 21.00	 53.00	 4.97	 5.33	 120	 101	 0.841666666666667	 0.606060606060606	 0.51010101010101	 -1
-1.1	 3	 11.3	 0.219	 -0.36	 103	 -1	 -3	 -1	 1	 -3	 -2	 -1	 -3	 5	 -2	 -1	 0	 -1	 1	 2	 0	 -1	 -2	 -3	 -2	 -1	 2	 0	 -1	 -3	 1	 1	 -2	 -1	 -3	 -3	 5	 -2	 -3	 -1	 0	 -1	 -3	 -2	 -2	 16.00	 15.00	 26.00	 25.00	 41.00	 2.45	 2.00	 87	 45	 0.517241379310345	 0.424390243902439	 0.219512195121951	 -1
-0.72	 3	 13	 0.105	 -0.38	 60.6	 -2	 -3	 6	 2	 -3	 -1	 -1	 -3	 -1	 -4	 -3	 1	 -1	 0	 -2	 0	 -1	 -3	 -4	 -3	 1	 -2	 0	 3	 -3	 -1	 0	 4	 -3	 -3	 -2	 -2	 -3	 -3	 -3	 1	 -1	 -4	 -2	 -1	 13.00	 19.00	 14.00	 20.00	 33.00	 2.58	 2.99	 65	 0	 0	 0.398773006134969	 0	 1
-0.07	 0	 8	 0.131	 -0.25	 51.5	 -1	 -3	 -1	 -1	 -4	 -2	 -2	 -3	 -1	 -3	 -2	 -2	 7	 -1	 -2	 -1	 -1	 -2	 -4	 -3	 0	 -2	 -1	 -1	 -2	 -1	 -1	 -1	 -2	 -2	 -2	 -1	 -2	 -2	 7	 -1	 -1	 -2	 -2	 -2	 34.00	 30.00	 23.00	 19.00	 53.00	 2.95	 2.72	 122	 122	 1	 0.897058823529412	 0.897058823529412	 1
-0.26	 0.3	 9.2	 0.062	 -0.33	 42	 1	 -1	 0	 0	 -2	 0	 -1	 -2	 0	 -2	 -1	 1	 -1	 0	 -1	 4	 1	 -2	 -3	 -2	 3	 -1	 0	 -1	 -1	 0	 0	 0	 -1	 -2	 -2	 0	 -1	 -3	 -1	 3	 1	 -3	 -2	 -1	 27.00	 25.00	 21.00	 19.00	 46.00	 6.33	 6.64	 31	 31	 1	 0.238461538461538	 0.238461538461538	 -1
-0.64	 2	 11.6	 0.134	 0.12	 60.1	 -2	 -3	 1	 0	 -3	 0	 1	 -3	 0	 -3	 -2	 6	 -2	 0	 0	 1	 0	 -3	 -4	 -2	 -2	 -2	 6	 1	 -4	 0	 0	 -1	 -1	 -4	 -3	 2	 -3	 -3	 -3	 -1	 -2	 -4	 1	 -4	 15.00	 14.00	 17.00	 16.00	 31.00	 1.89	 2.00	 105	 12	 0.114285714285714	 0.668789808917197	 0.0764331210191083	 -1
-1.1	 3	 11.3	 0.219	 -0.36	 103	 -1	 -3	 -1	 1	 -3	 -2	 -1	 -3	 5	 -2	 -1	 0	 -1	 1	 2	 0	 -1	 -2	 -3	 -2	 -1	 0	 1	 0	 -2	 1	 2	 2	 0	 -2	 -2	 1	 -1	 -2	 -1	 0	 -1	 -2	 -1	 -2	 23.00	 24.00	 18.00	 19.00	 42.00	 3.83	 4.41	 45	 38	 0.844444444444444	 0.219512195121951	 0.185365853658537	 -1
-1.1	 3	 11.3	 0.219	 -0.36	 103	 -1	 -3	 -1	 1	 -3	 -2	 -1	 -3	 5	 -2	 -1	 0	 -1	 1	 2	 0	 -1	 -2	 -3	 -2	 -2	 1	 -2	 -2	 -5	 1	 -1	 -3	 -2	 -4	 -3	 7	 2	 -4	 -3	 -2	 -2	 -4	 -3	 -3	 27.00	 27.00	 27.00	 27.00	 54.00	 3.98	 3.79	 50	 50	 1	 0.24390243902439	 0.24390243902439	 1
-0.26	 0.3	 9.2	 0.062	 -0.33	 42	 1	 -1	 0	 0	 -2	 0	 -1	 -2	 0	 -2	 -1	 1	 -1	 0	 -1	 4	 1	 -2	 -3	 -2	 -1	 -1	 2	 0	 -3	 0	 0	 1	 -1	 -2	 -2	 0	 -3	 -1	 1	 3	 0	 -3	 1	 -2	 19.00	 17.00	 30.00	 28.00	 47.00	 2.31	 2.87	 66	 55	 0.833333333333333	 0.507692307692308	 0.423076923076923	 -1
