0.697834	0.302166
0.988418	0.011582
0.991525	0.008475
0.238580	0.761420
0.124144	0.875856
0.495044	0.504956
0.953589	0.046411
0.342101	0.657899
0.886528	0.113472
0.000488	0.999512
0.842619	0.157381
0.996403	0.003597
0.912805	0.087195
0.017885	0.982115
0.994731	0.005269
0.000291	0.999709
0.884308	0.115692
0.547705	0.452295
0.977264	0.022736
0.851878	0.148122
0.001283	0.998717
0.004612	0.995388
0.696960	0.303040
0.829584	0.170416
0.299743	0.700257
0.982543	0.017457
0.078644	0.921356
0.837661	0.162339
0.978147	0.021853
0.640535	0.359465
0.187593	0.812407
0.969106	0.030894
