0.000174	0.999826
0.962431	0.037569
0.092476	0.907524
0.996063	0.003937
0.431307	0.568693
0.997655	0.002345
0.000725	0.999275
0.716693	0.283307
0.865393	0.134607
0.072554	0.927446
0.082698	0.917302
0.199641	0.800359
0.013018	0.986982
0.000441	0.999559
0.120109	0.879891
0.693941	0.306059
0.957098	0.042902
0.095859	0.904141
0.998901	0.001099
0.468310	0.531690
0.979530	0.020470
0.993849	0.006151
0.995059	0.004941
0.010838	0.989162
0.472993	0.527007
0.002862	0.997138
0.000357	0.999643
0.836186	0.163814
0.999367	0.000633
0.013930	0.986070
0.002289	0.997711
