0.591500	0.408500
0.042983	0.957017
0.105614	0.894386
0.086948	0.913052
0.998440	0.001560
0.997100	0.002900
0.352379	0.647621
0.000854	0.999146
0.998360	0.001640
0.216532	0.783468
0.967557	0.032443
0.712491	0.287509
0.702202	0.297798
0.999791	0.000209
0.018266	0.981734
0.999918	0.000082
0.737044	0.262956
0.014475	0.985525
0.000290	0.999710
0.999903	0.000097
0.987281	0.012719
0.003483	0.996517
0.140117	0.859883
0.174322	0.825678
0.999618	0.000382
0.983416	0.016584
0.312162	0.687838
0.994962	0.005038
0.862159	0.137841
0.000451	0.999549
0.497939	0.502061
