0.973626	0.026374
0.151524	0.848476
0.001492	0.998508
0.119527	0.880473
0.000071	0.999929
0.996745	0.003255
0.841935	0.158065
0.979074	0.020926
0.989359	0.010641
0.000677	0.999323
0.326123	0.673877
0.000801	0.999199
0.008367	0.991633
0.001892	0.998108
0.978447	0.021553
0.999450	0.000550
0.999912	0.000088
0.999863	0.000137
0.002652	0.997348
0.995938	0.004062
0.999957	0.000043
0.994787	0.005213
0.000077	0.999923
0.953296	0.046704
0.999686	0.000314
0.000443	0.999557
0.732194	0.267806
0.364915	0.635085
0.982482	0.017518
0.003295	0.996705
0.923433	0.076567
