0.560745	0.439255
0.629657	0.370343
0.646600	0.353400
0.396262	0.603738
0.739989	0.260011
0.269296	0.730704
0.767728	0.232272
0.515575	0.484425
0.356124	0.643876
0.637355	0.362645
0.494525	0.505475
0.450329	0.549671
0.186754	0.813246
0.688205	0.311795
0.798020	0.201980
0.635466	0.364534
0.230846	0.769154
0.195185	0.804815
0.744426	0.255574
0.302078	0.697922
0.760393	0.239607
0.164783	0.835217
0.568369	0.431631
0.642734	0.357266
0.539160	0.460840
0.366340	0.633660
0.360608	0.639392
0.723652	0.276348
0.469329	0.530671
0.375574	0.624426
0.623926	0.376074
0.282163	0.717837
