0.767723	0.232277
0.643637	0.356363
0.268854	0.731146
0.379429	0.620571
0.525986	0.474014
0.782258	0.217742
0.823551	0.176449
0.098128	0.901872
0.314793	0.685207
0.422728	0.577272
0.153602	0.846398
0.652173	0.347827
0.509507	0.490493
0.655267	0.344733
0.757827	0.242173
0.677132	0.322868
0.462375	0.537625
0.396394	0.603606
0.490443	0.509557
0.791283	0.208717
0.322980	0.677020
0.544917	0.455083
0.119021	0.880979
0.740971	0.259029
0.352614	0.647386
0.296938	0.703062
0.804724	0.195276
0.500000	0.500000
0.293678	0.706322
0.302496	0.697504
0.164896	0.835104
