0.214953	0.785047
0.613770	0.386230
0.853799	0.146201
0.431257	0.568743
0.717693	0.282307
0.351919	0.648081
0.500000	0.500000
0.416651	0.583349
0.660986	0.339014
0.645645	0.354355
0.818794	0.181206
0.229812	0.770188
0.770744	0.229256
0.688599	0.311401
0.130472	0.869528
0.749263	0.250737
0.384200	0.615800
0.679785	0.320215
0.192352	0.807648
0.292139	0.707861
0.621592	0.378408
0.214123	0.785877
0.254896	0.745104
0.672334	0.327666
0.577473	0.422527
0.716767	0.283233
0.270673	0.729327
0.414904	0.585096
0.850231	0.149769
0.500000	0.500000
0.276778	0.723222
