0.992589	0.007411
0.005929	0.994071
0.278281	0.721719
0.942500	0.057500
0.731209	0.268791
0.610298	0.389702
0.019033	0.980967
0.723852	0.276148
0.350612	0.649388
0.160711	0.839289
0.019276	0.980724
0.391929	0.608071
0.074636	0.925364
0.152959	0.847041
0.011150	0.988850
0.380947	0.619053
0.888296	0.111704
0.088937	0.911063
0.943716	0.056284
0.874323	0.125677
0.775932	0.224068
0.107730	0.892270
0.936548	0.063452
0.002221	0.997779
0.001800	0.998200
0.994694	0.005306
0.993971	0.006029
0.354605	0.645395
0.000385	0.999615
0.716233	0.283767
0.005896	0.994104
