0.999911	0.000089
0.830482	0.169518
0.069577	0.930423
0.999480	0.000520
0.121265	0.878735
0.689657	0.310343
0.872974	0.127026
0.000119	0.999881
0.001135	0.998865
0.053761	0.946239
0.984397	0.015603
0.481227	0.518773
0.008044	0.991956
0.936947	0.063053
0.997727	0.002273
0.881292	0.118708
0.998151	0.001849
0.157534	0.842466
0.998056	0.001944
0.041294	0.958706
0.998090	0.001910
0.990124	0.009876
0.002404	0.997596
0.025456	0.974544
0.414587	0.585413
0.064821	0.935179
0.000763	0.999237
0.554309	0.445691
0.001535	0.998465
0.001854	0.998146
0.397608	0.602392
