0.297099	0.702901
0.710846	0.289154
0.463161	0.536839
0.467844	0.532156
0.402010	0.597990
0.602060	0.397940
0.567166	0.432834
0.599864	0.400136
0.839071	0.160929
0.744765	0.255235
0.262232	0.737768
0.714491	0.285509
0.254970	0.745030
0.590076	0.409924
0.328484	0.671516
0.383898	0.616102
0.578887	0.421113
0.655745	0.344255
0.516260	0.483740
0.740706	0.259294
0.914673	0.085327
0.426527	0.573473
0.839698	0.160302
0.628018	0.371982
0.719034	0.280966
0.235247	0.764753
0.292321	0.707679
0.108688	0.891312
0.481727	0.518273
0.827721	0.172279
0.279263	0.720737
0.575980	0.424020
