0.000561	0.999439
0.230087	0.769913
0.696394	0.303606
0.741173	0.258827
0.010580	0.989420
0.010005	0.989995
0.005223	0.994777
0.852589	0.147411
0.995913	0.004087
0.000329	0.999671
0.000337	0.999663
0.000438	0.999562
0.794891	0.205109
0.974763	0.025237
0.026315	0.973685
0.064763	0.935237
0.891212	0.108788
0.750868	0.249132
0.990737	0.009263
0.996765	0.003235
0.001894	0.998106
0.999948	0.000052
0.675254	0.324746
0.994495	0.005505
0.861757	0.138243
0.992003	0.007997
0.993259	0.006741
0.997963	0.002037
0.955911	0.044089
0.067408	0.932592
0.769928	0.230072
