0.096372	0.903628
0.214381	0.785619
0.999117	0.000883
0.848970	0.151030
0.000214	0.999786
0.977793	0.022207
0.445056	0.554944
0.329467	0.670533
0.503212	0.496788
0.372150	0.627850
0.374007	0.625993
0.074736	0.925264
0.000324	0.999676
0.817628	0.182372
0.999188	0.000812
0.003725	0.996275
0.982346	0.017654
0.016147	0.983853
0.354095	0.645905
0.998799	0.001201
0.037072	0.962928
0.998398	0.001602
0.999031	0.000969
0.998923	0.001077
0.630023	0.369977
0.221442	0.778558
0.332335	0.667665
0.031659	0.968341
0.931100	0.068900
0.999240	0.000760
0.002798	0.997202
0.025249	0.974751
