0.37	 -3.4	 5.4	 0.409	 0.83	 34.7	 -3	 -2	 -4	 -3	 1	 -2	 -2	 -3	 -3	 -2	 -1	 -4	 -4	 -2	 -3	 -3	 -2	 -3	 11	 2	 -2	 0	 2	 3	 -1	 -1	 0	 0	 1	 -2	 -3	 1	 -2	 -1	 -2	 1	 -1	 4	 0	 -3	 23.00	 24.00	 25.00	 26.00	 49.00	 3.78	 5.46	 71	 54	 0.76056338028169	 0.312775330396476	 0.237885462555066	 -1
0.02	 -2.3	 6.2	 0.298	 0.66	 55.2	 -2	 -2	 -3	 -2	 3	 -3	 2	 -1	 -2	 -1	 -1	 -2	 -3	 -1	 -2	 -2	 -2	 -1	 2	 7	 2	 2	 0	 -3	 -2	 0	 -2	 -3	 4	 -4	 -4	 -1	 -1	 1	 -4	 3	 0	 -3	 4	 -3	 25.00	 24.00	 29.00	 28.00	 53.00	 5.81	 6.30	 32	 29	 0.90625	 0.144144144144144	 0.130630630630631	 -1
-1.1	 3	 11.3	 0.219	 -0.36	 103	 -1	 -3	 -1	 1	 -3	 -2	 -1	 -3	 5	 -2	 -1	 0	 -1	 1	 2	 0	 -1	 -2	 -3	 -2	 1	 5	 -1	 -2	 -3	 1	 0	 -2	 -1	 -3	 -2	 3	 -1	 -3	 -2	 0	 -1	 -3	 -2	 -2	 7.00	 11.00	 20.00	 24.00	 31.00	 1.99	 2.47	 157	 54	 0.343949044585987	 0.765853658536585	 0.263414634146341	 -1
0.37	 -3.4	 5.4	 0.409	 0.83	 34.7	 -3	 -2	 -4	 -3	 1	 -2	 -2	 -3	 -3	 -2	 -1	 -4	 -4	 -2	 -3	 -3	 -2	 -3	 11	 2	 -3	 -3	 -4	 -5	 -3	 -2	 -3	 -3	 -3	 -3	 -2	 -3	 -2	 1	 -4	 -3	 -3	 12	 2	 -3	 18.00	 20.00	 12.00	 14.00	 32.00	 2.21	 2.00	 192	 138	 0.71875	 0.845814977973568	 0.607929515418502	 1
-0.62	 3	 12.3	 0.151	 -0.13	 68.2	 -1	 -4	 2	 5	 -3	 -2	 0	 -3	 1	 -3	 -2	 0	 -1	 2	 0	 0	 -1	 -2	 -3	 -2	 0	 -1	 -1	 -2	 2	 2	 0	 0	 1	 -4	 -2	 -2	 -1	 -2	 4	 2	 0	 -5	 -4	 -4	 14.00	 19.00	 19.00	 24.00	 38.00	 1.86	 2.31	 103	 49	 0.475728155339806	 0.530927835051546	 0.252577319587629	 -1
0.61	 -2.5	 5.2	 0.29	 0.82	 25.5	 -2	 -2	 -3	 -3	 6	 -3	 -1	 0	 -3	 0	 0	 -3	 -4	 -3	 -3	 -2	 -2	 -1	 1	 3	 -2	 -3	 -4	 -4	 -2	 -3	 -3	 -4	 -3	 2	 3	 -3	 2	 2	 -3	 -3	 -1	 -1	 0	 1	 20.00	 14.00	 35.00	 29.00	 49.00	 5.54	 6.42	 63	 63	 1	 0.319796954314721	 0.319796954314721	 -1
-1.76	 3	 10.5	 0.291	 0.27	 94.7	 -1	 -3	 -2	 0	 -3	 -2	 0	 -3	 2	 -2	 -1	 0	 -2	 1	 5	 -1	 -1	 -3	 -3	 -2	 -2	 2	 1	 0	 0	 0	 1	 -3	 0	 -1	 -2	 0	 -2	 -4	 -3	 1	 3	 -4	 -3	 1	 10.00	 5.00	 27.00	 22.00	 32.00	 2.10	 2.31	 168	 36	 0.214285714285714	 0.67741935483871	 0.145161290322581	 -1
-0.64	 2	 11.6	 0.134	 0.12	 60.1	 -2	 -3	 1	 0	 -3	 0	 1	 -3	 0	 -3	 -2	 6	 -2	 0	 0	 1	 0	 -3	 -4	 -2	 1	 -1	 6	 1	 -3	 0	 -1	 -1	 0	 -3	 -3	 -1	 -2	 -3	 -2	 0	 0	 -4	 -2	 -3	 29.00	 28.00	 28.00	 27.00	 56.00	 2.17	 2.00	 69	 58	 0.840579710144927	 0.439490445859873	 0.369426751592357	 1
-0.72	 3	 13	 0.105	 -0.38	 60.6	 -2	 -3	 6	 2	 -3	 -1	 -1	 -3	 -1	 -4	 -3	 1	 -1	 0	 -2	 0	 -1	 -3	 -4	 -3	 -1	 0	 3	 1	 -3	 1	 1	 -1	 2	 -1	 -2	 1	 -1	 -2	 0	 0	 0	 -3	 3	 -2	 19.00	 12.00	 27.00	 20.00	 39.00	 2.43	 2.29	 72	 51	 0.708333333333333	 0.441717791411043	 0.312883435582822	 -1
-1.76	 3	 10.5	 0.291	 0.27	 94.7	 -1	 -3	 -2	 0	 -3	 -2	 0	 -3	 2	 -2	 -1	 0	 -2	 1	 5	 -1	 -1	 -3	 -3	 -2	 -3	 4	 0	 -3	 -5	 1	 0	 -4	 -3	 -5	 -5	 6	 -3	 -5	 -4	 -1	 1	 -5	 -4	 -4	 23.00	 27.00	 24.00	 28.00	 51.00	 3.17	 4.21	 104	 64	 0.615384615384615	 0.419354838709677	 0.258064516129032	 1
-0.72	 3	 13	 0.105	 -0.38	 60.6	 -2	 -3	 6	 2	 -3	 -1	 -1	 -3	 -1	 -4	 -3	 1	 -1	 0	 -2	 0	 -1	 -3	 -4	 -3	 1	 -2	 0	 3	 -3	 -1	 0	 4	 -3	 -3	 -2	 -2	 -3	 -3	 -3	 1	 -1	 -4	 -2	 -1	 13.00	 19.00	 14.00	 20.00	 33.00	 2.58	 2.99	 65	 0	 0	 0.398773006134969	 0	 1
-0.64	 2	 11.6	 0.134	 0.12	 60.1	 -2	 -3	 1	 0	 -3	 0	 1	 -3	 0	 -3	 -2	 6	 -2	 0	 0	 1	 0	 -3	 -4	 -2	 -2	 0	 6	 1	 -3	 0	 0	 0	 1	 -3	 -3	 0	 -2	 -3	 -2	 1	 0	 -4	 -2	 -3	 22.00	 20.00	 30.00	 28.00	 50.00	 3.24	 3.91	 91	 89	 0.978021978021978	 0.579617834394904	 0.56687898089172	 1
-1.1	 3	 11.3	 0.219	 -0.36	 103	 -1	 -3	 -1	 1	 -3	 -2	 -1	 -3	 5	 -2	 -1	 0	 -1	 1	 2	 0	 -1	 -2	 -3	 -2	 -1	 0	 -1	 2	 -1	 2	 1	 -3	 2	 -3	 -2	 0	 -1	 0	 -4	 1	 2	 1	 2	 -1	 7.00	 0.00	 32.00	 25.00	 32.00	 2.15	 2.00	 161	 0	 0	 0.785365853658537	 0	 1
0.54	 -1.5	 5.9	 0.14	 0.27	 23.7	 0	 -1	 -3	 -2	 -1	 -3	 -3	 3	 -2	 1	 1	 -3	 -2	 -2	 -3	 -2	 0	 4	 -3	 -1	 -2	 -2	 -2	 -2	 -4	 -1	 -3	 -5	 -1	 4	 0	 -1	 4	 0	 -3	 -2	 1	 3	 -2	 2	 24.00	 25.00	 24.00	 25.00	 49.00	 2.38	 3.17	 60	 26	 0.433333333333333	 0.422535211267606	 0.183098591549296	 -1
0.16	 0	 9	 0	 -0.07	 24.5	 0	 -3	 -1	 -2	 -3	 6	 -2	 -4	 -2	 -4	 -3	 0	 -2	 -2	 -2	 0	 -2	 -3	 -2	 -3	 1	 -1	 0	 -1	 -1	 -1	 -1	 4	 -1	 -2	 -2	 -1	 -1	 -2	 2	 0	 -1	 -1	 -1	 -1	 30.00	 31.00	 22.00	 23.00	 53.00	 1.61	 2.00	 72	 56	 0.777777777777778	 0.857142857142857	 0.666666666666667	 1
-0.07	 0	 8	 0.131	 -0.25	 51.5	 -1	 -3	 -1	 -1	 -4	 -2	 -2	 -3	 -1	 -3	 -2	 -2	 7	 -1	 -2	 -1	 -1	 -2	 -4	 -3	 0	 -2	 -1	 -1	 -2	 -1	 -1	 -1	 -2	 -2	 -2	 -1	 -2	 -2	 7	 -1	 -1	 -2	 -2	 -2	 34.00	 30.00	 23.00	 19.00	 53.00	 2.95	 2.72	 122	 122	 1	 0.897058823529412	 0.897058823529412	 1
-0.18	 -0.4	 8.6	 0.108	 -0.18	 45	 0	 -1	 -1	 -1	 -2	 -2	 -2	 -1	 -1	 -1	 -1	 0	 -1	 -1	 -1	 1	 5	 0	 -2	 -2	 0	 -2	 1	 -1	 5	 -1	 -1	 0	 -2	 0	 -1	 -1	 -1	 -2	 -2	 1	 2	 -2	 -2	 0	 27.00	 24.00	 25.00	 22.00	 49.00	 5.25	 5.25	 24	 0	 0	 0.169014084507042	 0	 -1
-1.1	 3	 11.3	 0.219	 -0.36	 103	 -1	 -3	 -1	 1	 -3	 -2	 -1	 -3	 5	 -2	 -1	 0	 -1	 1	 2	 0	 -1	 -2	 -3	 -2	 0	 0	 1	 1	 -1	 0	 0	 2	 1	 -2	 -2	 1	 -1	 -3	 0	 2	 0	 -3	 -1	 -2	 11.00	 9.00	 26.00	 24.00	 35.00	 2.07	 2.11	 159	 65	 0.408805031446541	 0.775609756097561	 0.317073170731707	 -1
-0.72	 3	 13	 0.105	 -0.38	 60.6	 -2	 -3	 6	 2	 -3	 -1	 -1	 -3	 -1	 -4	 -3	 1	 -1	 0	 -2	 0	 -1	 -3	 -4	 -3	 1	 0	 2	 1	 -3	 0	 0	 -1	 0	 -2	 -2	 -1	 -1	 0	 -1	 1	 0	 1	 3	 -1	 11.00	 13.00	 25.00	 27.00	 38.00	 3.75	 4.62	 19	 0	 0	 0.139705882352941	 0	 -1
-1.1	 3	 11.3	 0.219	 -0.36	 103	 -1	 -3	 -1	 1	 -3	 -2	 -1	 -3	 5	 -2	 -1	 0	 -1	 1	 2	 0	 -1	 -2	 -3	 -2	 -2	 2	 -1	 -1	 -3	 0	 0	 -2	 0	 -2	 1	 3	 2	 0	 -3	 0	 0	 -2	 2	 -2	 21.00	 22.00	 29.00	 30.00	 51.00	 4.32	 5.27	 27	 27	 1	 0.131707317073171	 0.131707317073171	 -1
-0.69	 0.2	 10.5	 0.18	 -0.11	 68.7	 -1	 -3	 0	 2	 -3	 -2	 0	 -3	 1	 -2	 0	 0	 -1	 5	 1	 0	 -1	 -2	 -2	 -1	 -2	 1	 0	 -1	 -3	 1	 0	 -1	 3	 -2	 1	 2	 -1	 1	 -1	 -1	 -1	 -2	 3	 -2	 1.00	 12.00	 13.00	 24.00	 25.00	 1.79	 2.00	 193	 29	 0.150259067357513	 0.974747474747475	 0.146464646464646	 -1
-1.76	 3	 10.5	 0.291	 0.27	 94.7	 -1	 -3	 -2	 0	 -3	 -2	 0	 -3	 2	 -2	 -1	 0	 -2	 1	 5	 -1	 -1	 -3	 -3	 -2	 -1	 1	 0	 1	 1	 0	 1	 -1	 1	 0	 -1	 1	 -1	 0	 -1	 1	 0	 -2	 0	 -1	 20.00	 26.00	 21.00	 27.00	 47.00	 2.23	 2.71	 120	 62	 0.516666666666667	 0.483870967741935	 0.25	 -1
0.02	 -2.3	 6.2	 0.298	 0.66	 55.2	 -2	 -2	 -3	 -2	 3	 -3	 2	 -1	 -2	 -1	 -1	 -2	 -3	 -1	 -2	 -2	 -2	 -1	 2	 7	 -3	 -3	 -3	 -4	 -3	 -3	 -3	 -4	 3	 -2	 -1	 -3	 -2	 3	 -4	 -3	 -1	 6	 7	 -1	 31.00	 29.00	 25.00	 23.00	 54.00	 5.21	 5.44	 0	 0	 0	 0	 0	 1
0.73	 -1.8	 5.2	 0.186	 0.44	 22.8	 -1	 -1	 -3	 -3	 0	 -4	 -3	 4	 -3	 2	 1	 -3	 -3	 -3	 -3	 -2	 -1	 3	 -3	 -1	 -1	 -3	 -3	 -3	 -1	 -3	 -3	 -4	 -3	 4	 2	 -3	 1	 0	 -3	 -3	 -1	 -3	 -1	 2	 30.00	 35.00	 21.00	 26.00	 56.00	 6.88	 6.74	 11	 11	 1	 0.0650887573964497	 0.0650887573964497	 -1
-0.62	 3	 12.3	 0.151	 -0.13	 68.2	 -1	 -4	 2	 5	 -3	 -2	 0	 -3	 1	 -3	 -2	 0	 -1	 2	 0	 0	 -1	 -2	 -3	 -2	 -3	 1	 2	 4	 -5	 -1	 5	 -3	 -2	 -5	 -3	 -1	 -4	 -5	 -3	 -2	 -3	 0	 -4	 -3	 18.00	 17.00	 17.00	 16.00	 34.00	 1.79	 2.00	 84	 52	 0.619047619047619	 0.43298969072165	 0.268041237113402	 -1
-1.1	 3	 11.3	 0.219	 -0.36	 103	 -1	 -3	 -1	 1	 -3	 -2	 -1	 -3	 5	 -2	 -1	 0	 -1	 1	 2	 0	 -1	 -2	 -3	 -2	 -1	 2	 0	 -1	 -3	 1	 1	 -2	 -1	 -3	 -2	 5	 -1	 -3	 -1	 0	 -1	 -3	 -2	 -2	 22.00	 25.00	 17.00	 20.00	 42.00	 3.97	 3.57	 73	 56	 0.767123287671233	 0.35609756097561	 0.273170731707317	 1
-0.18	 -0.4	 8.6	 0.108	 -0.18	 45	 0	 -1	 -1	 -1	 -2	 -2	 -2	 -1	 -1	 -1	 -1	 0	 -1	 -1	 -1	 1	 5	 0	 -2	 -2	 0	 -1	 0	 -1	 -1	 -1	 -1	 -2	 -2	 -1	 -1	 -1	 -1	 -2	 -1	 1	 5	 -3	 -2	 0	 18.00	 21.00	 30.00	 33.00	 51.00	 2.95	 3.38	 109	 74	 0.678899082568807	 0.767605633802817	 0.52112676056338	 -1
0.53	 -1.8	 4.9	 0.186	 0.4	 27.6	 -1	 -1	 -4	 -3	 0	 -4	 -3	 2	 -2	 4	 2	 -3	 -3	 -2	 -2	 -2	 -1	 1	 -2	 -1	 -2	 2	 -1	 -1	 -5	 2	 -1	 -3	 1	 -3	 0	 0	 -4	 -2	 5	 -1	 -2	 -1	 1	 -2	 10.00	 5.00	 27.00	 22.00	 32.00	 2.34	 2.18	 92	 1	 0.0108695652173913	 0.560975609756098	 0.00609756097560976	 -1
0.02	 -2.3	 6.2	 0.298	 0.66	 55.2	 -2	 -2	 -3	 -2	 3	 -3	 2	 -1	 -2	 -1	 -1	 -2	 -3	 -1	 -2	 -2	 -2	 -1	 2	 7	 -1	 -2	 -1	 -2	 -2	 -2	 -2	 1	 0	 1	 -1	 -2	 -1	 2	 -2	 0	 -1	 0	 5	 -1	 26.00	 26.00	 29.00	 29.00	 55.00	 3.24	 4.83	 33	 26	 0.787878787878788	 0.148648648648649	 0.117117117117117	 1
0.02	 -2.3	 6.2	 0.298	 0.66	 55.2	 -2	 -2	 -3	 -2	 3	 -3	 2	 -1	 -2	 -1	 -1	 -2	 -3	 -1	 -2	 -2	 -2	 -1	 2	 7	 -2	 -2	 1	 0	 -4	 -2	 -1	 -3	 1	 -3	 -3	 -2	 -3	 1	 -4	 1	 0	 -1	 7	 -3	 6.00	 4.00	 22.00	 20.00	 26.00	 1.82	 2.00	 199	 76	 0.381909547738693	 0.896396396396396	 0.342342342342342	 -1
-0.69	 0.2	 10.5	 0.18	 -0.11	 68.7	 -1	 -3	 0	 2	 -3	 -2	 0	 -3	 1	 -2	 0	 0	 -1	 5	 1	 0	 -1	 -2	 -2	 -1	 -1	 1	 1	 0	 -3	 1	 1	 -3	 3	 -2	 -2	 -1	 -2	 -1	 0	 2	 2	 -4	 -1	 -1	 14.00	 17.00	 30.00	 33.00	 47.00	 2.37	 2.60	 68	 27	 0.397058823529412	 0.343434343434343	 0.136363636363636	 -1
