0.287970	0.712030
0.803473	0.196527
0.251561	0.748439
0.556673	0.443327
0.888385	0.111615
0.543004	0.456996
0.468450	0.531550
0.413716	0.586284
0.440351	0.559649
0.645123	0.354877
0.324696	0.675304
0.372874	0.627126
0.231914	0.768086
0.338630	0.661370
0.549969	0.450031
0.578016	0.421984
0.765749	0.234251
0.357894	0.642106
0.621680	0.378320
0.757079	0.242921
0.406550	0.593450
0.861168	0.138832
0.671642	0.328358
0.241056	0.758944
0.596696	0.403304
0.693539	0.306461
0.396988	0.603012
0.698942	0.301058
0.430507	0.569493
0.564700	0.435300
0.654554	0.345446
