0.434152	0.565848
0.859149	0.140851
0.797535	0.202465
0.812415	0.187585
0.779286	0.220714
0.273758	0.726242
0.874395	0.125605
0.528137	0.471863
0.356476	0.643524
0.633637	0.366363
0.722867	0.277133
0.528446	0.471554
0.776114	0.223886
0.636002	0.363998
0.821558	0.178442
0.692781	0.307219
0.310549	0.689451
0.429524	0.570476
0.224448	0.775552
0.762641	0.237359
0.861857	0.138143
0.263228	0.736772
0.419567	0.580433
0.200060	0.799940
0.154149	0.845851
0.640767	0.359233
0.195060	0.804940
0.733855	0.266145
0.647533	0.352467
0.630692	0.369308
0.300298	0.699702
