0.207523	0.792477
0.572633	0.427367
0.445179	0.554821
0.427163	0.572837
0.657419	0.342581
0.416318	0.583682
0.215721	0.784279
0.267254	0.732746
0.704478	0.295522
0.624806	0.375194
0.524155	0.475845
0.651720	0.348280
0.421166	0.578834
0.218063	0.781937
0.647299	0.352701
0.705422	0.294578
0.741370	0.258630
0.642054	0.357946
0.643374	0.356626
0.573331	0.426669
0.709035	0.290965
0.629500	0.370500
0.215605	0.784395
0.725557	0.274443
0.265225	0.734775
0.546567	0.453433
0.715029	0.284971
0.638481	0.361519
0.500000	0.500000
0.229713	0.770287
0.467910	0.532090
0.646413	0.353587
