0.02	 -2.3	 6.2	 0.298	 0.66	 55.2	 -2	 -2	 -3	 -2	 3	 -3	 2	 -1	 -2	 -1	 -1	 -2	 -3	 -1	 -2	 -2	 -2	 -1	 2	 7	 -3	 -2	 -1	 -2	 -4	 0	 -2	 -4	 1	 -3	 -1	 -2	 1	 2	 -2	 -1	 -3	 3	 7	 -1	 30.00	 28.00	 30.00	 28.00	 58.00	 3.48	 4.77	 141	 122	 0.865248226950355	 0.635135135135135	 0.54954954954955	 1
0.53	 -1.8	 4.9	 0.186	 0.4	 27.6	 -1	 -1	 -4	 -3	 0	 -4	 -3	 2	 -2	 4	 2	 -3	 -3	 -2	 -2	 -2	 -1	 1	 -2	 -1	 0	 0	 0	 -1	 2	 1	 2	 0	 1	 -2	 0	 0	 -1	 -2	 0	 0	 0	 -3	 0	 -1	 21.00	 14.00	 21.00	 14.00	 35.00	 2.43	 2.00	 128	 115	 0.8984375	 0.780487804878049	 0.701219512195122	 -1
-0.62	 3	 12.3	 0.151	 -0.13	 68.2	 -1	 -4	 2	 5	 -3	 -2	 0	 -3	 1	 -3	 -2	 0	 -1	 2	 0	 0	 -1	 -2	 -3	 -2	 -1	 0	 -1	 0	 -3	 2	 3	 -3	 0	 -1	 -2	 0	 1	 1	 -2	 1	 -1	 0	 -2	 0	 17.00	 13.00	 28.00	 24.00	 41.00	 2.32	 2.26	 16	 4	 0.25	 0.0824742268041237	 0.0206185567010309	 -1
-0.07	 0	 8	 0.131	 -0.25	 51.5	 -1	 -3	 -1	 -1	 -4	 -2	 -2	 -3	 -1	 -3	 -2	 -2	 7	 -1	 -2	 -1	 -1	 -2	 -4	 -3	 1	 -2	 -2	 -1	 -2	 -1	 -1	 2	 -2	 -2	 -3	 -1	 -2	 -3	 6	 0	 -1	 -3	 -2	 -2	 10.00	 8.00	 16.00	 14.00	 24.00	 1.89	 2.00	 124	 36	 0.290322580645161	 0.911764705882353	 0.264705882352941	 1
-1.76	 3	 10.5	 0.291	 0.27	 94.7	 -1	 -3	 -2	 0	 -3	 -2	 0	 -3	 2	 -2	 -1	 0	 -2	 1	 5	 -1	 -1	 -3	 -3	 -2	 0	 1	 2	 1	 -3	 1	 1	 -2	 0	 -2	 0	 0	 0	 -2	 -1	 0	 0	 -3	 0	 -2	 26.00	 19.00	 31.00	 24.00	 50.00	 2.39	 2.20	 105	 44	 0.419047619047619	 0.423387096774194	 0.17741935483871	 -1
0.02	 -2.3	 6.2	 0.298	 0.66	 55.2	 -2	 -2	 -3	 -2	 3	 -3	 2	 -1	 -2	 -1	 -1	 -2	 -3	 -1	 -2	 -2	 -2	 -1	 2	 7	 -1	 -2	 -3	 -3	 -2	 -2	 -2	 -3	 1	 1	 0	 -2	 0	 2	 -3	 -2	 -1	 1	 6	 2	 11.00	 11.00	 18.00	 18.00	 29.00	 2.57	 2.86	 94	 30	 0.319148936170213	 0.423423423423423	 0.135135135135135	 -1
-1.1	 3	 11.3	 0.219	 -0.36	 103	 -1	 -3	 -1	 1	 -3	 -2	 -1	 -3	 5	 -2	 -1	 0	 -1	 1	 2	 0	 -1	 -2	 -3	 -2	 -2	 4	 1	 -2	 -4	 0	 -1	 0	 0	 -4	 -1	 3	 1	 -1	 -4	 -1	 2	 -4	 0	 -3	 39.00	 33.00	 31.00	 25.00	 64.00	 6.94	 6.62	 184	 180	 0.978260869565217	 0.897560975609756	 0.878048780487805	 1
-0.62	 3	 12.3	 0.151	 -0.13	 68.2	 -1	 -4	 2	 5	 -3	 -2	 0	 -3	 1	 -3	 -2	 0	 -1	 2	 0	 0	 -1	 -2	 -3	 -2	 -1	 0	 0	 2	 -4	 2	 5	 -2	 0	 -3	 -3	 1	 -2	 -3	 -1	 0	 -1	 -3	 -2	 -3	 7.00	 13.00	 28.00	 34.00	 41.00	 2.41	 2.71	 74	 16	 0.216216216216216	 0.381443298969072	 0.0824742268041237	 -1
0.02	 -2.3	 6.2	 0.298	 0.66	 55.2	 -2	 -2	 -3	 -2	 3	 -3	 2	 -1	 -2	 -1	 -1	 -2	 -3	 -1	 -2	 -2	 -2	 -1	 2	 7	 -1	 -2	 -2	 -3	 -2	 -1	 -2	 -3	 2	 1	 1	 -2	 4	 2	 -3	 -2	 -1	 0	 4	 1	 29.00	 23.00	 24.00	 18.00	 47.00	 5.05	 3.91	 133	 122	 0.917293233082707	 0.599099099099099	 0.54954954954955	 1
-1.76	 3	 10.5	 0.291	 0.27	 94.7	 -1	 -3	 -2	 0	 -3	 -2	 0	 -3	 2	 -2	 -1	 0	 -2	 1	 5	 -1	 -1	 -3	 -3	 -2	 1	 5	 -2	 -2	 -3	 0	 0	 -3	 -2	 -4	 -3	 1	 1	 -4	 2	 2	 -2	 3	 -3	 -3	 21.00	 19.00	 16.00	 14.00	 35.00	 2.14	 2.00	 142	 102	 0.71830985915493	 0.57258064516129	 0.411290322580645	 1
-0.64	 2	 11.6	 0.134	 0.12	 60.1	 -2	 -3	 1	 0	 -3	 0	 1	 -3	 0	 -3	 -2	 6	 -2	 0	 0	 1	 0	 -3	 -4	 -2	 1	 -1	 6	 1	 -3	 0	 -1	 -1	 0	 -3	 -3	 -1	 -2	 -3	 -2	 0	 0	 -4	 -2	 -3	 29.00	 28.00	 28.00	 27.00	 56.00	 2.17	 2.00	 69	 58	 0.840579710144927	 0.439490445859873	 0.369426751592357	 1
-0.4	 -0.5	 10.4	 0.23	 0.41	 50.7	 -2	 -3	 -1	 0	 -1	 -2	 8	 -3	 -1	 -3	 -2	 1	 -2	 0	 0	 -1	 -2	 -3	 -2	 2	 0	 2	 0	 -2	 -3	 2	 1	 -3	 1	 0	 -1	 0	 -2	 1	 -3	 1	 2	 0	 2	 -2	 24.00	 25.00	 31.00	 32.00	 56.00	 4.33	 6.15	 66	 39	 0.590909090909091	 0.358695652173913	 0.21195652173913	 -1
-1.76	 3	 10.5	 0.291	 0.27	 94.7	 -1	 -3	 -2	 0	 -3	 -2	 0	 -3	 2	 -2	 -1	 0	 -2	 1	 5	 -1	 -1	 -3	 -3	 -2	 -1	 5	 0	 -2	 -3	 1	 0	 -2	 0	 -3	 -2	 2	 -1	 -3	 -2	 -1	 -1	 -3	 -2	 -3	 28.00	 28.00	 22.00	 22.00	 50.00	 8.51	 8.92	 3	 3	 1	 0.0120967741935484	 0.0120967741935484	 1
0.37	 -3.4	 5.4	 0.409	 0.83	 34.7	 -3	 -2	 -4	 -3	 1	 -2	 -2	 -3	 -3	 -2	 -1	 -4	 -4	 -2	 -3	 -3	 -2	 -3	 11	 2	 -3	 -3	 -4	 -5	 -3	 -2	 -3	 -3	 -3	 -3	 -2	 -3	 -2	 1	 -4	 -3	 -3	 11	 2	 -3	 24.00	 21.00	 20.00	 17.00	 41.00	 4.28	 2.66	 97	 67	 0.690721649484536	 0.427312775330396	 0.295154185022026	 -1
-1.1	 3	 11.3	 0.219	 -0.36	 103	 -1	 -3	 -1	 1	 -3	 -2	 -1	 -3	 5	 -2	 -1	 0	 -1	 1	 2	 0	 -1	 -2	 -3	 -2	 0	 0	 1	 1	 -1	 0	 0	 2	 1	 -2	 -2	 1	 -1	 -3	 0	 2	 0	 -3	 -1	 -2	 11.00	 9.00	 26.00	 24.00	 35.00	 2.07	 2.11	 159	 65	 0.408805031446541	 0.775609756097561	 0.317073170731707	 -1
-0.62	 3	 12.3	 0.151	 -0.13	 68.2	 -1	 -4	 2	 5	 -3	 -2	 0	 -3	 1	 -3	 -2	 0	 -1	 2	 0	 0	 -1	 -2	 -3	 -2	 -1	 0	 0	 1	 -4	 2	 5	 -2	 0	 -3	 -3	 1	 -2	 -3	 -1	 0	 -1	 -3	 -2	 -2	 21.00	 28.00	 24.00	 31.00	 52.00	 5.16	 5.71	 70	 69	 0.985714285714286	 0.360824742268041	 0.355670103092784	 1
-1.1	 3	 11.3	 0.219	 -0.36	 103	 -1	 -3	 -1	 1	 -3	 -2	 -1	 -3	 5	 -2	 -1	 0	 -1	 1	 2	 0	 -1	 -2	 -3	 -2	 -1	 2	 0	 -1	 -3	 1	 1	 -2	 -1	 -3	 -2	 4	 -1	 -3	 -1	 0	 -1	 -3	 -2	 -2	 26.00	 32.00	 21.00	 27.00	 53.00	 4.13	 4.86	 78	 75	 0.961538461538462	 0.380487804878049	 0.365853658536585	 1
0.61	 -2.5	 5.2	 0.29	 0.82	 25.5	 -2	 -2	 -3	 -3	 6	 -3	 -1	 0	 -3	 0	 0	 -3	 -4	 -3	 -3	 -2	 -2	 -1	 1	 3	 -2	 -3	 -3	 -4	 -3	 -4	 -4	 -3	 -1	 0	 0	 -3	 0	 7	 -4	 -3	 -2	 1	 3	 -1	 26.00	 25.00	 20.00	 19.00	 45.00	 5.04	 4.50	 179	 155	 0.865921787709497	 0.908629441624365	 0.786802030456853	 1
-0.62	 3	 12.3	 0.151	 -0.13	 68.2	 -1	 -4	 2	 5	 -3	 -2	 0	 -3	 1	 -3	 -2	 0	 -1	 2	 0	 0	 -1	 -2	 -3	 -2	 -3	 -2	 2	 6	 -4	 -1	 2	 -2	 -2	 -4	 -4	 -1	 -4	 -4	 -2	 -1	 -2	 -5	 -4	 -4	 25.00	 29.00	 33.00	 37.00	 62.00	 6.38	 7.83	 74	 70	 0.945945945945946	 0.381443298969072	 0.360824742268041	 1
-0.62	 3	 12.3	 0.151	 -0.13	 68.2	 -1	 -4	 2	 5	 -3	 -2	 0	 -3	 1	 -3	 -2	 0	 -1	 2	 0	 0	 -1	 -2	 -3	 -2	 -1	 0	 1	 3	 -4	 -1	 2	 -2	 1	 -1	 -3	 0	 -3	 -3	 1	 0	 0	 1	 2	 -1	 17.00	 13.00	 32.00	 28.00	 45.00	 2.08	 2.62	 111	 75	 0.675675675675676	 0.572164948453608	 0.38659793814433	 -1
-1.1	 3	 11.3	 0.219	 -0.36	 103	 -1	 -3	 -1	 1	 -3	 -2	 -1	 -3	 5	 -2	 -1	 0	 -1	 1	 2	 0	 -1	 -2	 -3	 -2	 -1	 0	 1	 0	 -2	 1	 2	 2	 0	 -2	 -2	 1	 -1	 -2	 -1	 0	 -1	 -2	 -1	 -2	 23.00	 24.00	 18.00	 19.00	 42.00	 3.83	 4.41	 45	 38	 0.844444444444444	 0.219512195121951	 0.185365853658537	 -1
-0.4	 -0.5	 10.4	 0.23	 0.41	 50.7	 -2	 -3	 -1	 0	 -1	 -2	 8	 -3	 -1	 -3	 -2	 1	 -2	 0	 0	 -1	 -2	 -3	 -2	 2	 -5	 -3	 -3	 -2	 -6	 0	 -3	 -5	 11	 -6	 -6	 -4	 -5	 -4	 -5	 -4	 -5	 -5	 1	 -6	 29.00	 28.00	 24.00	 23.00	 52.00	 5.98	 5.50	 11	 5	 0.454545454545455	 0.0597826086956522	 0.0271739130434783	 -1
-0.69	 0.2	 10.5	 0.18	 -0.11	 68.7	 -1	 -3	 0	 2	 -3	 -2	 0	 -3	 1	 -2	 0	 0	 -1	 5	 1	 0	 -1	 -2	 -2	 -1	 -1	 1	 3	 1	 -3	 2	 0	 -2	 1	 0	 0	 0	 0	 -2	 -3	 1	 0	 -4	 -2	 -2	 13.00	 8.00	 31.00	 26.00	 39.00	 2.53	 3.02	 65	 16	 0.246153846153846	 0.328282828282828	 0.0808080808080808	 -1
-1.76	 3	 10.5	 0.291	 0.27	 94.7	 -1	 -3	 -2	 0	 -3	 -2	 0	 -3	 2	 -2	 -1	 0	 -2	 1	 5	 -1	 -1	 -3	 -3	 -2	 -1	 4	 0	 -1	 0	 1	 -1	 -1	 -1	 0	 -2	 2	 0	 -3	 -1	 0	 -1	 -4	 -3	 0	 19.00	 14.00	 22.00	 17.00	 36.00	 2.01	 2.29	 192	 75	 0.390625	 0.774193548387097	 0.30241935483871	 -1
0.54	 -1.5	 5.9	 0.14	 0.27	 23.7	 0	 -1	 -3	 -2	 -1	 -3	 -3	 3	 -2	 1	 1	 -3	 -2	 -2	 -3	 -2	 0	 4	 -3	 -1	 0	 -2	 -2	 -2	 -1	 -2	 -2	 -2	 -2	 2	 2	 -2	 1	 -1	 -2	 -1	 0	 -2	 -1	 3	 33.00	 31.00	 21.00	 19.00	 52.00	 5.65	 5.68	 13	 13	 1	 0.0915492957746479	 0.0915492957746479	 -1
0.37	 -3.4	 5.4	 0.409	 0.83	 34.7	 -3	 -2	 -4	 -3	 1	 -2	 -2	 -3	 -3	 -2	 -1	 -4	 -4	 -2	 -3	 -3	 -2	 -3	 11	 2	 -4	 1	 2	 3	 -1	 1	 0	 -3	 2	 0	 -2	 -1	 -1	 -2	 -4	 1	 -3	 4	 1	 -1	 20.00	 23.00	 23.00	 26.00	 46.00	 2.94	 4.56	 39	 33	 0.846153846153846	 0.171806167400881	 0.145374449339207	 -1
-0.72	 3	 13	 0.105	 -0.38	 60.6	 -2	 -3	 6	 2	 -3	 -1	 -1	 -3	 -1	 -4	 -3	 1	 -1	 0	 -2	 0	 -1	 -3	 -4	 -3	 -3	 -1	 4	 1	 -4	 1	 0	 2	 3	 -1	 -2	 0	 -4	 -4	 -2	 1	 -1	 -6	 -1	 -5	 23.00	 21.00	 24.00	 22.00	 45.00	 2.06	 2.72	 130	 98	 0.753846153846154	 0.797546012269939	 0.601226993865031	 1
-0.64	 2	 11.6	 0.134	 0.12	 60.1	 -2	 -3	 1	 0	 -3	 0	 1	 -3	 0	 -3	 -2	 6	 -2	 0	 0	 1	 0	 -3	 -4	 -2	 1	 -1	 2	 2	 -3	 1	 1	 1	 -2	 -2	 -3	 -1	 -2	 -1	 -1	 2	 1	 -3	 -1	 -1	 14.00	 11.00	 25.00	 22.00	 36.00	 2.29	 2.00	 97	 56	 0.577319587628866	 0.617834394904459	 0.356687898089172	 -1
0.02	 -2.3	 6.2	 0.298	 0.66	 55.2	 -2	 -2	 -3	 -2	 3	 -3	 2	 -1	 -2	 -1	 -1	 -2	 -3	 -1	 -2	 -2	 -2	 -1	 2	 7	 -2	 -2	 1	 0	 -4	 -2	 -1	 -3	 1	 -3	 -3	 -2	 -3	 1	 -4	 1	 0	 -1	 7	 -3	 6.00	 4.00	 22.00	 20.00	 26.00	 1.82	 2.00	 199	 76	 0.381909547738693	 0.896396396396396	 0.342342342342342	 -1
0.02	 -2.3	 6.2	 0.298	 0.66	 55.2	 -2	 -2	 -3	 -2	 3	 -3	 2	 -1	 -2	 -1	 -1	 -2	 -3	 -1	 -2	 -2	 -2	 -1	 2	 7	 -1	 -2	 -1	 -2	 -2	 -2	 -2	 1	 0	 1	 -1	 -2	 -1	 2	 -2	 0	 -1	 0	 5	 -1	 26.00	 26.00	 29.00	 29.00	 55.00	 3.24	 4.83	 33	 26	 0.787878787878788	 0.148648648648649	 0.117117117117117	 1
0.61	 -2.5	 5.2	 0.29	 0.82	 25.5	 -2	 -2	 -3	 -3	 6	 -3	 -1	 0	 -3	 0	 0	 -3	 -4	 -3	 -3	 -2	 -2	 -1	 1	 3	 -3	 -5	 -3	 -6	 -5	 -4	 -5	 -6	 0	 -3	 -1	 -3	 -3	 5	 -6	 -3	 -4	 -1	 8	 -4	 29.00	 24.00	 30.00	 25.00	 54.00	 6.44	 7.36	 6	 6	 1	 0.0304568527918782	 0.0304568527918782	 -1
