0.400378	0.599622
0.199946	0.800054
0.520797	0.479203
0.367729	0.632271
0.349885	0.650115
0.709723	0.290277
0.589374	0.410626
0.324931	0.675069
0.295391	0.704609
0.412710	0.587290
0.796516	0.203484
0.451672	0.548328
0.113863	0.886137
0.582535	0.417465
0.697465	0.302535
0.747888	0.252112
0.516227	0.483773
0.500000	0.500000
0.639669	0.360331
0.271604	0.728396
0.275972	0.724028
0.267077	0.732923
0.287059	0.712941
0.895993	0.104007
0.414320	0.585680
0.393944	0.606056
0.240519	0.759481
0.604379	0.395621
0.612555	0.387445
0.845400	0.154600
0.581240	0.418760
0.245102	0.754898
