0.383995	0.616005
0.500000	0.500000
0.327744	0.672256
0.462544	0.537456
0.510998	0.489002
0.579403	0.420597
0.464135	0.535865
0.769867	0.230133
0.440700	0.559300
0.352047	0.647953
0.583884	0.416116
0.404760	0.595240
0.564507	0.435493
0.573622	0.426378
0.301185	0.698815
0.388459	0.611541
0.238028	0.761972
0.466906	0.533094
0.413194	0.586806
0.522416	0.477584
0.414003	0.585997
0.521770	0.478230
0.615026	0.384974
0.354876	0.645124
0.640027	0.359973
0.352731	0.647269
0.805850	0.194150
0.343713	0.656287
0.321984	0.678016
0.353335	0.646665
0.654938	0.345062
