0.974940	0.025060
0.068985	0.931015
0.014140	0.985860
0.327390	0.672610
0.078536	0.921464
0.060121	0.939879
0.883574	0.116426
0.924765	0.075235
0.000233	0.999767
0.028688	0.971312
0.274194	0.725806
0.032684	0.967316
0.974500	0.025500
0.041469	0.958531
0.988099	0.011901
0.952923	0.047077
0.003328	0.996672
0.008618	0.991382
0.777926	0.222074
0.999645	0.000355
0.910425	0.089575
0.626823	0.373177
0.002141	0.997859
0.505431	0.494569
0.965721	0.034279
0.001507	0.998493
0.001476	0.998524
0.997980	0.002020
0.970868	0.029132
0.877159	0.122841
0.991153	0.008847
