0.988551	0.011449
0.864598	0.135402
0.000820	0.999180
0.998686	0.001314
0.002117	0.997883
0.298532	0.701468
0.020041	0.979959
0.995753	0.004247
0.983538	0.016462
0.971002	0.028998
0.000858	0.999142
0.601243	0.398757
0.992349	0.007651
0.015984	0.984016
0.901515	0.098485
0.004364	0.995636
0.998640	0.001360
0.999801	0.000199
0.999561	0.000439
0.993344	0.006656
0.999887	0.000113
0.969845	0.030155
0.003575	0.996425
0.814504	0.185496
0.276457	0.723543
0.075002	0.924998
0.000577	0.999423
0.975660	0.024340
0.739704	0.260296
0.999810	0.000190
0.998743	0.001257
