0.687528	0.312472
0.967153	0.032847
0.000899	0.999101
0.062033	0.937967
0.525565	0.474435
0.994234	0.005766
0.609399	0.390601
0.102835	0.897165
0.329891	0.670109
0.007322	0.992678
0.953565	0.046435
0.835645	0.164355
0.005718	0.994282
0.822807	0.177193
0.999580	0.000420
0.082126	0.917874
0.079130	0.920870
0.999921	0.000079
0.021777	0.978223
0.002548	0.997452
0.192622	0.807378
0.301655	0.698345
0.713360	0.286640
0.297702	0.702298
0.413475	0.586525
0.000627	0.999373
0.096267	0.903733
0.031106	0.968894
0.990797	0.009203
0.006114	0.993886
0.997313	0.002687
0.518079	0.481921
