0.156077	0.843923
0.524129	0.475871
0.759635	0.240365
0.793774	0.206226
0.831505	0.168495
0.648243	0.351757
0.517448	0.482552
0.613358	0.386642
0.611227	0.388773
0.466017	0.533983
0.354536	0.645464
0.597336	0.402664
0.224322	0.775678
0.743413	0.256587
0.173582	0.826418
0.268020	0.731980
0.589988	0.410012
0.640961	0.359039
0.738679	0.261321
0.348241	0.651759
0.702053	0.297947
0.481866	0.518134
0.566627	0.433373
0.209792	0.790208
0.765628	0.234372
0.843292	0.156708
0.525833	0.474167
0.795460	0.204540
0.561967	0.438033
0.652234	0.347766
0.722818	0.277182
