0.532023	0.467977
0.336098	0.663902
0.365589	0.634411
0.605663	0.394337
0.537383	0.462617
0.572416	0.427584
0.247372	0.752628
0.473763	0.526237
0.334316	0.665684
0.342472	0.657528
0.500000	0.500000
0.457022	0.542978
0.789968	0.210032
0.787232	0.212768
0.287948	0.712052
0.514274	0.485726
0.384073	0.615927
0.222196	0.777804
0.657940	0.342060
0.437922	0.562078
0.636520	0.363480
0.427536	0.572464
0.485513	0.514487
0.844463	0.155537
0.490806	0.509194
0.275243	0.724757
0.620561	0.379439
0.308363	0.691637
0.844723	0.155277
0.533976	0.466024
0.616533	0.383467
