0.847975	0.152025
0.116004	0.883996
0.285484	0.714516
0.531677	0.468323
0.726032	0.273968
0.265012	0.734988
0.493269	0.506731
0.505732	0.494268
0.545542	0.454458
0.460593	0.539407
0.807744	0.192256
0.570873	0.429127
0.830849	0.169151
0.601586	0.398414
0.846029	0.153971
0.174016	0.825984
0.823302	0.176698
0.275815	0.724185
0.364435	0.635565
0.434538	0.565462
0.372594	0.627406
0.436321	0.563679
0.480223	0.519777
0.797089	0.202911
0.767231	0.232769
0.754473	0.245527
0.532615	0.467385
0.762813	0.237187
0.719607	0.280393
0.167203	0.832797
0.655503	0.344497
