0.837740	0.162260
0.137278	0.862722
0.186215	0.813785
0.822926	0.177074
0.265275	0.734725
0.743899	0.256101
0.555346	0.444654
0.171665	0.828335
0.201812	0.798188
0.829483	0.170517
0.552701	0.447299
0.170315	0.829685
0.128639	0.871361
0.154378	0.845622
0.459751	0.540249
0.708205	0.291795
0.689498	0.310502
0.547925	0.452075
0.330758	0.669242
0.694547	0.305453
0.500000	0.500000
0.599341	0.400659
0.798926	0.201074
0.172332	0.827668
0.369726	0.630274
0.463204	0.536796
0.259975	0.740025
0.203030	0.796970
0.466427	0.533573
0.234386	0.765614
0.467418	0.532582
0.285826	0.714174
