0.461698	0.538302
0.727662	0.272338
0.445639	0.554361
0.214215	0.785785
0.820442	0.179558
0.663324	0.336676
0.438595	0.561405
0.399690	0.600310
0.763705	0.236295
0.406016	0.593984
0.678794	0.321206
0.280979	0.719021
0.245907	0.754093
0.783087	0.216913
0.272118	0.727882
0.330594	0.669406
0.867518	0.132482
0.622946	0.377054
0.613825	0.386175
0.645467	0.354533
0.639311	0.360689
0.204920	0.795080
0.289150	0.710850
0.160054	0.839946
0.281775	0.718225
0.181744	0.818256
0.720130	0.279870
0.485683	0.514317
0.471792	0.528208
0.538550	0.461450
0.494306	0.505694
