0.02	 -2.3	 6.2	 0.298	 0.66	 55.2	 -2	 -2	 -3	 -2	 3	 -3	 2	 -1	 -2	 -1	 -1	 -2	 -3	 -1	 -2	 -2	 -2	 -1	 2	 7	 -2	 -2	 1	 0	 -4	 -2	 -1	 -3	 1	 -3	 -3	 -2	 -3	 1	 -4	 1	 0	 -1	 7	 -3	 6.00	 4.00	 22.00	 20.00	 26.00	 1.82	 2.00	 199	 76	 0.381909547738693	 0.896396396396396	 0.342342342342342	 -1
-1.1	 3	 11.3	 0.219	 -0.36	 103	 -1	 -3	 -1	 1	 -3	 -2	 -1	 -3	 5	 -2	 -1	 0	 -1	 1	 2	 0	 -1	 -2	 -3	 -2	 -2	 4	 1	 -2	 -4	 0	 -1	 0	 0	 -4	 -1	 3	 1	 -1	 -4	 -1	 2	 -4	 0	 -3	 39.00	 33.00	 31.00	 25.00	 64.00	 6.94	 6.62	 184	 180	 0.978260869565217	 0.897560975609756	 0.878048780487805	 1
0.16	 0	 9	 0	 -0.07	 24.5	 0	 -3	 -1	 -2	 -3	 6	 -2	 -4	 -2	 -4	 -3	 0	 -2	 -2	 -2	 0	 -2	 -3	 -2	 -3	 0	 -2	 0	 -2	 -4	 -3	 -2	 1	 1	 -1	 -2	 -3	 1	 5	 3	 0	 -1	 2	 0	 -2	 29.00	 28.00	 20.00	 19.00	 48.00	 3.32	 5.12	 62	 58	 0.935483870967742	 0.329787234042553	 0.308510638297872	 -1
-0.26	 0.3	 9.2	 0.062	 -0.33	 42	 1	 -1	 0	 0	 -2	 0	 -1	 -2	 0	 -2	 -1	 1	 -1	 0	 -1	 4	 1	 -2	 -3	 -2	 1	 -1	 2	 2	 -3	 1	 -1	 -3	 3	 -3	 -2	 -1	 -3	 0	 -1	 2	 2	 -4	 -1	 -2	 21.00	 21.00	 28.00	 28.00	 49.00	 4.83	 5.21	 12	 12	 1	 0.0923076923076923	 0.0923076923076923	 -1
0.37	 -3.4	 5.4	 0.409	 0.83	 34.7	 -3	 -2	 -4	 -3	 1	 -2	 -2	 -3	 -3	 -2	 -1	 -4	 -4	 -2	 -3	 -3	 -2	 -3	 11	 2	 -4	 1	 2	 3	 -1	 1	 0	 -3	 2	 0	 -2	 -1	 -1	 -2	 -4	 1	 -3	 4	 1	 -1	 20.00	 23.00	 23.00	 26.00	 46.00	 2.94	 4.56	 39	 33	 0.846153846153846	 0.171806167400881	 0.145374449339207	 -1
-0.18	 -0.4	 8.6	 0.108	 -0.18	 45	 0	 -1	 -1	 -1	 -2	 -2	 -2	 -1	 -1	 -1	 -1	 0	 -1	 -1	 -1	 1	 5	 0	 -2	 -2	 -2	 -3	 2	 0	 -1	 -3	 -3	 -3	 1	 0	 -1	 -3	 2	 1	 -3	 2	 5	 -4	 -3	 -2	 27.00	 27.00	 33.00	 33.00	 60.00	 7.10	 6.59	 56	 49	 0.875	 0.394366197183099	 0.345070422535211	 1
0.02	 -2.3	 6.2	 0.298	 0.66	 55.2	 -2	 -2	 -3	 -2	 3	 -3	 2	 -1	 -2	 -1	 -1	 -2	 -3	 -1	 -2	 -2	 -2	 -1	 2	 7	 -3	 -3	 -3	 -4	 -3	 -3	 -3	 -4	 3	 -2	 -1	 -3	 -2	 3	 -4	 -3	 -1	 6	 7	 -1	 31.00	 29.00	 25.00	 23.00	 54.00	 5.21	 5.44	 0	 0	 0	 0	 0	 1
-1.1	 3	 11.3	 0.219	 -0.36	 103	 -1	 -3	 -1	 1	 -3	 -2	 -1	 -3	 5	 -2	 -1	 0	 -1	 1	 2	 0	 -1	 -2	 -3	 -2	 -1	 0	 -1	 2	 -1	 2	 1	 -3	 2	 -3	 -2	 0	 -1	 0	 -4	 1	 2	 1	 2	 -1	 7.00	 0.00	 32.00	 25.00	 32.00	 2.15	 2.00	 161	 0	 0	 0.785365853658537	 0	 1
-0.18	 -0.4	 8.6	 0.108	 -0.18	 45	 0	 -1	 -1	 -1	 -2	 -2	 -2	 -1	 -1	 -1	 -1	 0	 -1	 -1	 -1	 1	 5	 0	 -2	 -2	 0	 -1	 -1	 -1	 -2	 -1	 -1	 3	 -2	 -1	 -2	 1	 -1	 -2	 -2	 0	 2	 -3	 -2	 0	 22.00	 16.00	 11.00	 5.00	 27.00	 2.29	 2.00	 38	 16	 0.421052631578947	 0.267605633802817	 0.112676056338028	 -1
0.37	 -3.4	 5.4	 0.409	 0.83	 34.7	 -3	 -2	 -4	 -3	 1	 -2	 -2	 -3	 -3	 -2	 -1	 -4	 -4	 -2	 -3	 -3	 -2	 -3	 11	 2	 -3	 -3	 -4	 -4	 -2	 -2	 -3	 -2	 -2	 -3	 -2	 -3	 -1	 1	 -4	 -3	 -2	 10	 2	 -3	 3.00	 0.00	 16.00	 13.00	 16.00	 1.67	 2.00	 136	 99	 0.727941176470588	 0.599118942731278	 0.436123348017621	 1
-0.69	 0.2	 10.5	 0.18	 -0.11	 68.7	 -1	 -3	 0	 2	 -3	 -2	 0	 -3	 1	 -2	 0	 0	 -1	 5	 1	 0	 -1	 -2	 -2	 -1	 -1	 1	 0	 0	 -3	 6	 2	 -2	 0	 -3	 -2	 1	 -1	 -3	 -1	 0	 -1	 -2	 -2	 -2	 24.00	 22.00	 29.00	 27.00	 51.00	 6.65	 7.01	 32	 29	 0.90625	 0.161616161616162	 0.146464646464646	 -1
-0.07	 0	 8	 0.131	 -0.25	 51.5	 -1	 -3	 -1	 -1	 -4	 -2	 -2	 -3	 -1	 -3	 -2	 -2	 7	 -1	 -2	 -1	 -1	 -2	 -4	 -3	 -1	 -2	 -2	 -2	 -3	 -1	 -1	 -2	 -2	 -3	 -3	 -1	 -3	 -4	 8	 -1	 -1	 -4	 -3	 -3	 23.00	 23.00	 13.00	 13.00	 36.00	 2.22	 2.76	 30	 1	 0.0333333333333333	 0.220588235294118	 0.00735294117647059	 1
-0.4	 -0.5	 10.4	 0.23	 0.41	 50.7	 -2	 -3	 -1	 0	 -1	 -2	 8	 -3	 -1	 -3	 -2	 1	 -2	 0	 0	 -1	 -2	 -3	 -2	 2	 -2	 0	 1	 -1	 -3	 0	 0	 -2	 8	 -3	 -3	 -1	 -2	 -1	 -2	 -1	 -2	 -2	 2	 -3	 19.00	 25.00	 17.00	 23.00	 42.00	 5.41	 5.20	 108	 108	 1	 0.58695652173913	 0.58695652173913	 1
-0.4	 -0.5	 10.4	 0.23	 0.41	 50.7	 -2	 -3	 -1	 0	 -1	 -2	 8	 -3	 -1	 -3	 -2	 1	 -2	 0	 0	 -1	 -2	 -3	 -2	 2	 1	 -1	 -1	 -1	 -2	 1	 0	 -1	 3	 -2	 -2	 -1	 -2	 -2	 5	 0	 -1	 -3	 -1	 -2	 17.00	 17.00	 25.00	 25.00	 42.00	 1.96	 2.75	 152	 69	 0.453947368421053	 0.826086956521739	 0.375	 1
-1.1	 3	 11.3	 0.219	 -0.36	 103	 -1	 -3	 -1	 1	 -3	 -2	 -1	 -3	 5	 -2	 -1	 0	 -1	 1	 2	 0	 -1	 -2	 -3	 -2	 -2	 1	 -2	 -2	 -5	 1	 -1	 -3	 -2	 -4	 -3	 7	 2	 -4	 -3	 -2	 -2	 -4	 -3	 -3	 27.00	 27.00	 27.00	 27.00	 54.00	 3.98	 3.79	 50	 50	 1	 0.24390243902439	 0.24390243902439	 1
-0.64	 2	 11.6	 0.134	 0.12	 60.1	 -2	 -3	 1	 0	 -3	 0	 1	 -3	 0	 -3	 -2	 6	 -2	 0	 0	 1	 0	 -3	 -4	 -2	 -1	 -1	 5	 1	 -2	 0	 0	 0	 0	 -3	 -3	 0	 -2	 -3	 -2	 2	 0	 -4	 -2	 -3	 24.00	 27.00	 23.00	 26.00	 50.00	 5.25	 5.55	 25	 25	 1	 0.159235668789809	 0.159235668789809	 1
0.54	 -1.5	 5.9	 0.14	 0.27	 23.7	 0	 -1	 -3	 -2	 -1	 -3	 -3	 3	 -2	 1	 1	 -3	 -2	 -2	 -3	 -2	 0	 4	 -3	 -1	 1	 -2	 -3	 -3	 -1	 -2	 -2	 -2	 -3	 2	 2	 -2	 3	 -1	 -2	 -1	 -1	 -3	 -1	 3	 25.00	 27.00	 26.00	 28.00	 53.00	 7.49	 8.42	 50	 50	 1	 0.352112676056338	 0.352112676056338	 1
-0.62	 3	 12.3	 0.151	 -0.13	 68.2	 -1	 -4	 2	 5	 -3	 -2	 0	 -3	 1	 -3	 -2	 0	 -1	 2	 0	 0	 -1	 -2	 -3	 -2	 -1	 0	 0	 2	 -4	 2	 5	 -2	 0	 -3	 -3	 1	 -2	 -3	 -1	 0	 -1	 -3	 -2	 -2	 23.00	 27.00	 24.00	 28.00	 51.00	 8.16	 8.94	 16	 10	 0.625	 0.0824742268041237	 0.0515463917525773	 1
0.02	 -2.3	 6.2	 0.298	 0.66	 55.2	 -2	 -2	 -3	 -2	 3	 -3	 2	 -1	 -2	 -1	 -1	 -2	 -3	 -1	 -2	 -2	 -2	 -1	 2	 7	 -2	 -2	 -3	 -4	 -3	 -2	 -3	 -4	 1	 -1	 0	 -3	 -1	 4	 -4	 -2	 -2	 1	 7	 -1	 32.00	 27.00	 12.00	 7.00	 39.00	 4.00	 2.79	 61	 49	 0.80327868852459	 0.274774774774775	 0.220720720720721	 1
-0.62	 3	 12.3	 0.151	 -0.13	 68.2	 -1	 -4	 2	 5	 -3	 -2	 0	 -3	 1	 -3	 -2	 0	 -1	 2	 0	 0	 -1	 -2	 -3	 -2	 3	 -2	 -2	 0	 -3	 0	 5	 -2	 -2	 -4	 -4	 -1	 -3	 -4	 -2	 -1	 -2	 -4	 -3	 -3	 21.00	 23.00	 19.00	 21.00	 42.00	 5.11	 5.09	 40	 40	 1	 0.206185567010309	 0.206185567010309	 1
-0.26	 0.3	 9.2	 0.062	 -0.33	 42	 1	 -1	 0	 0	 -2	 0	 -1	 -2	 0	 -2	 -1	 1	 -1	 0	 -1	 4	 1	 -2	 -3	 -2	 -1	 1	 -1	 0	 -2	 -1	 1	 -1	 -1	 -1	 -1	 1	 0	 -2	 0	 1	 1	 -2	 1	 0	 7.00	 15.00	 10.00	 18.00	 25.00	 1.89	 2.48	 72	 26	 0.361111111111111	 0.553846153846154	 0.2	 -1
-0.62	 3	 12.3	 0.151	 -0.13	 68.2	 -1	 -4	 2	 5	 -3	 -2	 0	 -3	 1	 -3	 -2	 0	 -1	 2	 0	 0	 -1	 -2	 -3	 -2	 -3	 0	 0	 -2	 -4	 0	 3	 -4	 2	 0	 -2	 0	 -2	 1	 -6	 0	 2	 -1	 1	 2	 14.00	 17.00	 23.00	 26.00	 40.00	 2.69	 2.91	 54	 32	 0.592592592592593	 0.278350515463918	 0.164948453608247	 -1
0.02	 -2.3	 6.2	 0.298	 0.66	 55.2	 -2	 -2	 -3	 -2	 3	 -3	 2	 -1	 -2	 -1	 -1	 -2	 -3	 -1	 -2	 -2	 -2	 -1	 2	 7	 -1	 -1	 1	 -2	 -4	 -2	 -2	 1	 -1	 -2	 -1	 -3	 -1	 1	 1	 1	 0	 2	 4	 -2	 25.00	 22.00	 28.00	 25.00	 50.00	 8.72	 8.77	 182	 155	 0.851648351648352	 0.81981981981982	 0.698198198198198	 1
-0.18	 -0.4	 8.6	 0.108	 -0.18	 45	 0	 -1	 -1	 -1	 -2	 -2	 -2	 -1	 -1	 -1	 -1	 0	 -1	 -1	 -1	 1	 5	 0	 -2	 -2	 -1	 1	 -1	 0	 -2	 1	 3	 -2	 -1	 -1	 0	 0	 0	 -2	 -2	 0	 2	 -3	 -2	 -1	 13.00	 13.00	 26.00	 26.00	 39.00	 2.84	 3.45	 52	 23	 0.442307692307692	 0.366197183098592	 0.161971830985915	 -1
-1.76	 3	 10.5	 0.291	 0.27	 94.7	 -1	 -3	 -2	 0	 -3	 -2	 0	 -3	 2	 -2	 -1	 0	 -2	 1	 5	 -1	 -1	 -3	 -3	 -2	 -4	 7	 -1	 -3	 -6	 1	 -3	 -5	 0	 -5	 -2	 1	 -4	 -5	 -5	 -3	 -4	 -5	 -1	 -5	 17.00	 10.00	 24.00	 17.00	 34.00	 1.83	 2.00	 103	 2	 0.0194174757281553	 0.415322580645161	 0.00806451612903226	 -1
-0.62	 3	 12.3	 0.151	 -0.13	 68.2	 -1	 -4	 2	 5	 -3	 -2	 0	 -3	 1	 -3	 -2	 0	 -1	 2	 0	 0	 -1	 -2	 -3	 -2	 -1	 1	 -1	 0	 -3	 2	 2	 -1	 0	 -2	 -2	 1	 0	 -1	 -3	 1	 2	 1	 0	 -1	 19.00	 17.00	 24.00	 22.00	 41.00	 3.62	 5.41	 86	 69	 0.802325581395349	 0.443298969072165	 0.355670103092784	 -1
-0.62	 3	 12.3	 0.151	 -0.13	 68.2	 -1	 -4	 2	 5	 -3	 -2	 0	 -3	 1	 -3	 -2	 0	 -1	 2	 0	 0	 -1	 -2	 -3	 -2	 -1	 0	 0	 2	 -4	 2	 5	 -2	 0	 -3	 -3	 1	 -2	 -3	 -1	 0	 -1	 -3	 -2	 -3	 7.00	 13.00	 28.00	 34.00	 41.00	 2.41	 2.71	 74	 16	 0.216216216216216	 0.381443298969072	 0.0824742268041237	 -1
0.02	 -2.3	 6.2	 0.298	 0.66	 55.2	 -2	 -2	 -3	 -2	 3	 -3	 2	 -1	 -2	 -1	 -1	 -2	 -3	 -1	 -2	 -2	 -2	 -1	 2	 7	 -3	 -4	 -4	 -4	 -4	 -4	 -2	 -4	 2	 1	 -2	 -4	 -1	 0	 -3	 -2	 3	 -3	 5	 4	 22.00	 20.00	 21.00	 19.00	 41.00	 5.88	 4.81	 90	 0	 0	 0.405405405405405	 0	 1
-1.1	 3	 11.3	 0.219	 -0.36	 103	 -1	 -3	 -1	 1	 -3	 -2	 -1	 -3	 5	 -2	 -1	 0	 -1	 1	 2	 0	 -1	 -2	 -3	 -2	 -2	 4	 -1	 -2	 -4	 1	 -1	 -3	 0	 -4	 -3	 6	 -3	 -4	 -3	 0	 0	 -4	 -3	 -3	 26.00	 23.00	 27.00	 24.00	 50.00	 2.75	 2.70	 100	 82	 0.82	 0.48780487804878	 0.4	 1
-0.72	 3	 13	 0.105	 -0.38	 60.6	 -2	 -3	 6	 2	 -3	 -1	 -1	 -3	 -1	 -4	 -3	 1	 -1	 0	 -2	 0	 -1	 -3	 -4	 -3	 -3	 -1	 4	 1	 -4	 1	 0	 2	 3	 -1	 -2	 0	 -4	 -4	 -2	 1	 -1	 -6	 -1	 -5	 23.00	 21.00	 24.00	 22.00	 45.00	 2.06	 2.72	 130	 98	 0.753846153846154	 0.797546012269939	 0.601226993865031	 1
0.53	 -1.8	 4.9	 0.186	 0.4	 27.6	 -1	 -1	 -4	 -3	 0	 -4	 -3	 2	 -2	 4	 2	 -3	 -3	 -2	 -2	 -2	 -1	 1	 -2	 -1	 -2	 -2	 -2	 1	 -2	 -2	 -2	 -3	 -1	 0	 3	 -2	 0	 0	 3	 -2	 -1	 -1	 2	 0	 16.00	 18.00	 17.00	 19.00	 35.00	 2.84	 2.97	 34	 13	 0.382352941176471	 0.207317073170732	 0.0792682926829268	 1
