0.231171	0.768829
0.246268	0.753732
0.119590	0.880410
0.999947	0.000053
0.930375	0.069625
0.417734	0.582266
0.998660	0.001340
0.999452	0.000548
0.948305	0.051695
0.184119	0.815881
0.975801	0.024199
0.993332	0.006668
0.994773	0.005227
0.754734	0.245266
0.067104	0.932896
0.999655	0.000345
0.002633	0.997367
0.012572	0.987428
0.034947	0.965053
0.561490	0.438510
0.990100	0.009900
0.839337	0.160663
0.039225	0.960775
0.248631	0.751369
0.083619	0.916381
0.477598	0.522402
0.002266	0.997734
0.613805	0.386195
0.093325	0.906675
0.996146	0.003854
0.000197	0.999803
0.816040	0.183960
