-0.62	 3	 12.3	 0.151	 -0.13	 68.2	 -1	 -4	 2	 5	 -3	 -2	 0	 -3	 1	 -3	 -2	 0	 -1	 2	 0	 0	 -1	 -2	 -3	 -2	 -1	 0	 -1	 0	 -2	 1	 3	 -2	 -1	 1	 -1	 2	 -1	 -2	 -2	 -1	 -1	 -3	 -2	 1	 16.00	 17.00	 21.00	 22.00	 38.00	 2.26	 2.67	 65	 41	 0.630769230769231	 0.335051546391753	 0.211340206185567	 1
0.02	 -2.3	 6.2	 0.298	 0.66	 55.2	 -2	 -2	 -3	 -2	 3	 -3	 2	 -1	 -2	 -1	 -1	 -2	 -3	 -1	 -2	 -2	 -2	 -1	 2	 7	 -2	 -1	 -2	 1	 -2	 0	 -2	 -3	 -1	 0	 1	 -1	 2	 2	 -2	 -2	 -1	 3	 3	 1	 25.00	 23.00	 19.00	 17.00	 42.00	 6.71	 6.43	 125	 121	 0.968	 0.563063063063063	 0.545045045045045	 1
0.02	 -2.3	 6.2	 0.298	 0.66	 55.2	 -2	 -2	 -3	 -2	 3	 -3	 2	 -1	 -2	 -1	 -1	 -2	 -3	 -1	 -2	 -2	 -2	 -1	 2	 7	 -2	 -4	 0	 -2	 -2	 -2	 -1	 -2	 1	 -3	 0	 -3	 -2	 1	 4	 0	 0	 2	 5	 -3	 22.00	 22.00	 25.00	 25.00	 47.00	 4.71	 5.11	 143	 67	 0.468531468531469	 0.644144144144144	 0.301801801801802	 1
0.73	 -1.8	 5.2	 0.186	 0.44	 22.8	 -1	 -1	 -3	 -3	 0	 -4	 -3	 4	 -3	 2	 1	 -3	 -3	 -3	 -3	 -2	 -1	 3	 -3	 -1	 -1	 -3	 -4	 -3	 -1	 -3	 -3	 -4	 -4	 5	 2	 -3	 1	 0	 -3	 -3	 -1	 -3	 -1	 3	 16.00	 16.00	 34.00	 34.00	 50.00	 5.19	 5.84	 28	 24	 0.857142857142857	 0.165680473372781	 0.142011834319527	 -1
-0.72	 3	 13	 0.105	 -0.38	 60.6	 -2	 -3	 6	 2	 -3	 -1	 -1	 -3	 -1	 -4	 -3	 1	 -1	 0	 -2	 0	 -1	 -3	 -4	 -3	 1	 -2	 0	 3	 -3	 -1	 0	 4	 -3	 -3	 -2	 -2	 -3	 -3	 -3	 1	 -1	 -4	 -2	 -1	 13.00	 19.00	 14.00	 20.00	 33.00	 2.58	 2.99	 65	 0	 0	 0.398773006134969	 0	 1
-1.1	 3	 11.3	 0.219	 -0.36	 103	 -1	 -3	 -1	 1	 -3	 -2	 -1	 -3	 5	 -2	 -1	 0	 -1	 1	 2	 0	 -1	 -2	 -3	 -2	 -1	 2	 -1	 -1	 -3	 1	 0	 -2	 -1	 0	 -1	 4	 -1	 -2	 -1	 -1	 -1	 -3	 -2	 -1	 24.00	 20.00	 26.00	 22.00	 46.00	 3.02	 2.93	 36	 25	 0.694444444444444	 0.175609756097561	 0.121951219512195	 -1
0.37	 -3.4	 5.4	 0.409	 0.83	 34.7	 -3	 -2	 -4	 -3	 1	 -2	 -2	 -3	 -3	 -2	 -1	 -4	 -4	 -2	 -3	 -3	 -2	 -3	 11	 2	 -3	 -3	 -4	 -4	 -2	 -2	 -3	 -2	 -2	 -3	 -2	 -3	 -1	 1	 -4	 -3	 -2	 10	 2	 -3	 27.00	 30.00	 13.00	 16.00	 43.00	 3.31	 2.33	 64	 56	 0.875	 0.281938325991189	 0.246696035242291	 1
-0.69	 0.2	 10.5	 0.18	 -0.11	 68.7	 -1	 -3	 0	 2	 -3	 -2	 0	 -3	 1	 -2	 0	 0	 -1	 5	 1	 0	 -1	 -2	 -2	 -1	 -1	 1	 0	 0	 -3	 6	 2	 -2	 0	 -3	 -2	 1	 -1	 -3	 -1	 0	 -1	 -2	 -2	 -2	 24.00	 22.00	 29.00	 27.00	 51.00	 6.65	 7.01	 32	 29	 0.90625	 0.161616161616162	 0.146464646464646	 -1
-0.62	 3	 12.3	 0.151	 -0.13	 68.2	 -1	 -4	 2	 5	 -3	 -2	 0	 -3	 1	 -3	 -2	 0	 -1	 2	 0	 0	 -1	 -2	 -3	 -2	 -1	 1	 -1	 0	 -3	 2	 2	 -1	 0	 -2	 -2	 1	 0	 -1	 -3	 1	 2	 1	 0	 -1	 19.00	 17.00	 24.00	 22.00	 41.00	 3.62	 5.41	 86	 69	 0.802325581395349	 0.443298969072165	 0.355670103092784	 -1
-0.62	 3	 12.3	 0.151	 -0.13	 68.2	 -1	 -4	 2	 5	 -3	 -2	 0	 -3	 1	 -3	 -2	 0	 -1	 2	 0	 0	 -1	 -2	 -3	 -2	 -2	 1	 -1	 0	 -4	 1	 5	 -1	 -1	 -4	 -4	 3	 -3	 -4	 0	 -1	 -1	 -4	 -3	 -3	 31.00	 27.00	 29.00	 25.00	 56.00	 2.66	 3.22	 116	 102	 0.879310344827586	 0.597938144329897	 0.525773195876289	 1
-1.76	 3	 10.5	 0.291	 0.27	 94.7	 -1	 -3	 -2	 0	 -3	 -2	 0	 -3	 2	 -2	 -1	 0	 -2	 1	 5	 -1	 -1	 -3	 -3	 -2	 -2	 7	 -1	 -2	 -4	 0	 -1	 -3	 -1	 -4	 -3	 3	 -2	 -4	 -3	 -2	 -2	 -4	 -3	 -3	 14.00	 12.00	 34.00	 32.00	 46.00	 3.70	 5.24	 41	 24	 0.585365853658537	 0.165322580645161	 0.0967741935483871	 -1
-1.1	 3	 11.3	 0.219	 -0.36	 103	 -1	 -3	 -1	 1	 -3	 -2	 -1	 -3	 5	 -2	 -1	 0	 -1	 1	 2	 0	 -1	 -2	 -3	 -2	 0	 0	 1	 1	 -1	 0	 0	 2	 1	 -2	 -2	 1	 -1	 -3	 0	 2	 0	 -3	 -1	 -2	 11.00	 9.00	 26.00	 24.00	 35.00	 2.07	 2.11	 159	 65	 0.408805031446541	 0.775609756097561	 0.317073170731707	 -1
-0.62	 3	 12.3	 0.151	 -0.13	 68.2	 -1	 -4	 2	 5	 -3	 -2	 0	 -3	 1	 -3	 -2	 0	 -1	 2	 0	 0	 -1	 -2	 -3	 -2	 -1	 0	 0	 1	 -4	 2	 5	 -2	 0	 -3	 -3	 1	 -2	 -3	 -1	 0	 -1	 -3	 -2	 -2	 21.00	 28.00	 24.00	 31.00	 52.00	 5.16	 5.71	 70	 69	 0.985714285714286	 0.360824742268041	 0.355670103092784	 1
-0.07	 0	 8	 0.131	 -0.25	 51.5	 -1	 -3	 -1	 -1	 -4	 -2	 -2	 -3	 -1	 -3	 -2	 -2	 7	 -1	 -2	 -1	 -1	 -2	 -4	 -3	 -1	 -2	 -2	 -2	 -3	 -1	 -1	 -2	 -2	 -3	 -3	 -1	 -3	 -4	 8	 -1	 -1	 -4	 -3	 -3	 23.00	 23.00	 13.00	 13.00	 36.00	 2.22	 2.76	 30	 1	 0.0333333333333333	 0.220588235294118	 0.00735294117647059	 1
-0.64	 2	 11.6	 0.134	 0.12	 60.1	 -2	 -3	 1	 0	 -3	 0	 1	 -3	 0	 -3	 -2	 6	 -2	 0	 0	 1	 0	 -3	 -4	 -2	 -2	 0	 6	 1	 -3	 0	 0	 0	 1	 -3	 -3	 0	 -2	 -3	 -2	 1	 0	 -4	 -2	 -3	 19.00	 24.00	 14.00	 19.00	 38.00	 3.53	 4.28	 29	 2	 0.0689655172413793	 0.184713375796178	 0.0127388535031847	 1
0.53	 -1.8	 4.9	 0.186	 0.4	 27.6	 -1	 -1	 -4	 -3	 0	 -4	 -3	 2	 -2	 4	 2	 -3	 -3	 -2	 -2	 -2	 -1	 1	 -2	 -1	 -1	 4	 -2	 -2	 -3	 1	 -2	 -1	 0	 -1	 1	 1	 3	 -3	 0	 -1	 -1	 -4	 -3	 -1	 39.00	 34.00	 28.00	 23.00	 62.00	 6.40	 6.60	 168	 167	 0.994047619047619	 1.02439024390244	 1.01829268292683	 1
0.53	 -1.8	 4.9	 0.186	 0.4	 27.6	 -1	 -1	 -4	 -3	 0	 -4	 -3	 2	 -2	 4	 2	 -3	 -3	 -2	 -2	 -2	 -1	 1	 -2	 -1	 0	 0	 0	 -1	 2	 1	 2	 0	 1	 -2	 0	 0	 -1	 -2	 0	 0	 0	 -3	 0	 -1	 21.00	 14.00	 21.00	 14.00	 35.00	 2.43	 2.00	 128	 115	 0.8984375	 0.780487804878049	 0.701219512195122	 -1
-0.26	 0.3	 9.2	 0.062	 -0.33	 42	 1	 -1	 0	 0	 -2	 0	 -1	 -2	 0	 -2	 -1	 1	 -1	 0	 -1	 4	 1	 -2	 -3	 -2	 0	 -1	 1	 3	 -2	 0	 0	 -1	 -1	 -3	 -3	 0	 -2	 -3	 -1	 3	 1	 -3	 -2	 -2	 13.00	 14.00	 16.00	 17.00	 30.00	 2.24	 2.00	 42	 7	 0.166666666666667	 0.323076923076923	 0.0538461538461538	 -1
-0.62	 3	 12.3	 0.151	 -0.13	 68.2	 -1	 -4	 2	 5	 -3	 -2	 0	 -3	 1	 -3	 -2	 0	 -1	 2	 0	 0	 -1	 -2	 -3	 -2	 -1	 0	 -1	 0	 -3	 2	 3	 -3	 0	 -1	 -2	 0	 1	 1	 -2	 1	 -1	 0	 -2	 0	 17.00	 13.00	 28.00	 24.00	 41.00	 2.32	 2.26	 16	 4	 0.25	 0.0824742268041237	 0.0206185567010309	 -1
-0.69	 0.2	 10.5	 0.18	 -0.11	 68.7	 -1	 -3	 0	 2	 -3	 -2	 0	 -3	 1	 -2	 0	 0	 -1	 5	 1	 0	 -1	 -2	 -2	 -1	 0	 1	 0	 1	 -3	 4	 1	 0	 -1	 -2	 0	 -1	 0	 -2	 -1	 0	 0	 0	 -2	 -2	 12.00	 16.00	 19.00	 23.00	 35.00	 2.46	 2.61	 107	 32	 0.299065420560748	 0.54040404040404	 0.161616161616162	 -1
0.37	 -3.4	 5.4	 0.409	 0.83	 34.7	 -3	 -2	 -4	 -3	 1	 -2	 -2	 -3	 -3	 -2	 -1	 -4	 -4	 -2	 -3	 -3	 -2	 -3	 11	 2	 -3	 -3	 -3	 0	 -4	 -1	 1	 -2	 -2	 -3	 -2	 -2	 -1	 4	 -2	 -2	 0	 8	 4	 -3	 22.00	 22.00	 25.00	 25.00	 47.00	 3.11	 2.70	 161	 154	 0.956521739130435	 0.709251101321586	 0.6784140969163	 1
-0.72	 3	 13	 0.105	 -0.38	 60.6	 -2	 -3	 6	 2	 -3	 -1	 -1	 -3	 -1	 -4	 -3	 1	 -1	 0	 -2	 0	 -1	 -3	 -4	 -3	 -1	 0	 0	 3	 -2	 0	 1	 0	 3	 -2	 -2	 0	 -2	 0	 -2	 0	 1	 -2	 -2	 -2	 13.00	 11.00	 24.00	 22.00	 35.00	 1.97	 2.00	 100	 46	 0.46	 0.613496932515337	 0.282208588957055	 -1
-0.72	 3	 13	 0.105	 -0.38	 60.6	 -2	 -3	 6	 2	 -3	 -1	 -1	 -3	 -1	 -4	 -3	 1	 -1	 0	 -2	 0	 -1	 -3	 -4	 -3	 -2	 -2	 1	 6	 -4	 0	 1	 -1	 -1	 -3	 -4	 -1	 -3	 -4	 -2	 0	 -1	 -4	 -3	 -3	 13.00	 16.00	 26.00	 29.00	 42.00	 3.64	 4.71	 74	 44	 0.594594594594595	 0.45398773006135	 0.269938650306748	 1
-1.1	 3	 11.3	 0.219	 -0.36	 103	 -1	 -3	 -1	 1	 -3	 -2	 -1	 -3	 5	 -2	 -1	 0	 -1	 1	 2	 0	 -1	 -2	 -3	 -2	 -1	 2	 0	 -1	 -3	 1	 1	 -2	 -1	 -3	 -3	 5	 -1	 -3	 -1	 0	 -1	 -3	 -2	 -2	 27.00	 24.00	 27.00	 24.00	 51.00	 5.30	 4.89	 26	 24	 0.923076923076923	 0.126829268292683	 0.117073170731707	 1
0.02	 -2.3	 6.2	 0.298	 0.66	 55.2	 -2	 -2	 -3	 -2	 3	 -3	 2	 -1	 -2	 -1	 -1	 -2	 -3	 -1	 -2	 -2	 -2	 -1	 2	 7	 -3	 -4	 -4	 -4	 -4	 -4	 -2	 -4	 2	 1	 -2	 -4	 -1	 0	 -3	 -2	 3	 -3	 5	 4	 22.00	 20.00	 21.00	 19.00	 41.00	 5.88	 4.81	 90	 0	 0	 0.405405405405405	 0	 1
-0.26	 0.3	 9.2	 0.062	 -0.33	 42	 1	 -1	 0	 0	 -2	 0	 -1	 -2	 0	 -2	 -1	 1	 -1	 0	 -1	 4	 1	 -2	 -3	 -2	 2	 -1	 0	 -1	 -1	 -1	 0	 -1	 -2	 -3	 -3	 -1	 -2	 -3	 2	 4	 0	 -3	 -2	 -2	 24.00	 35.00	 19.00	 30.00	 54.00	 27.56	 28.10	 97	 87	 0.896907216494845	 0.746153846153846	 0.669230769230769	 1
0.73	 -1.8	 5.2	 0.186	 0.44	 22.8	 -1	 -1	 -3	 -3	 0	 -4	 -3	 4	 -3	 2	 1	 -3	 -3	 -3	 -3	 -2	 -1	 3	 -3	 -1	 -1	 -3	 -3	 -3	 -1	 -3	 -3	 -4	 -3	 4	 2	 -3	 1	 0	 -3	 -3	 -1	 -3	 -1	 2	 30.00	 35.00	 21.00	 26.00	 56.00	 6.88	 6.74	 11	 11	 1	 0.0650887573964497	 0.0650887573964497	 -1
-0.18	 -0.4	 8.6	 0.108	 -0.18	 45	 0	 -1	 -1	 -1	 -2	 -2	 -2	 -1	 -1	 -1	 -1	 0	 -1	 -1	 -1	 1	 5	 0	 -2	 -2	 -1	 -2	 1	 -1	 -1	 -1	 -1	 -2	 -2	 1	 -1	 -1	 1	 -2	 -2	 1	 5	 -3	 -2	 0	 25.00	 23.00	 19.00	 17.00	 42.00	 5.48	 5.24	 10	 8	 0.8	 0.0704225352112676	 0.0563380281690141	 -1
0.02	 -2.3	 6.2	 0.298	 0.66	 55.2	 -2	 -2	 -3	 -2	 3	 -3	 2	 -1	 -2	 -1	 -1	 -2	 -3	 -1	 -2	 -2	 -2	 -1	 2	 7	 -1	 3	 -1	 -2	 -3	 3	 0	 -2	 3	 -2	 0	 0	 0	 0	 -2	 0	 0	 -2	 2	 -1	 11.00	 15.00	 19.00	 23.00	 34.00	 2.35	 2.80	 124	 87	 0.701612903225806	 0.558558558558559	 0.391891891891892	 -1
0.02	 -2.3	 6.2	 0.298	 0.66	 55.2	 -2	 -2	 -3	 -2	 3	 -3	 2	 -1	 -2	 -1	 -1	 -2	 -3	 -1	 -2	 -2	 -2	 -1	 2	 7	 -2	 -2	 -3	 -4	 -3	 -2	 -3	 -4	 1	 -1	 -1	 -3	 -1	 5	 -4	 -2	 -2	 2	 7	 -2	 33.00	 33.00	 15.00	 15.00	 48.00	 4.88	 4.13	 16	 0	 0	 0.0720720720720721	 0	 1
-0.18	 -0.4	 8.6	 0.108	 -0.18	 45	 0	 -1	 -1	 -1	 -2	 -2	 -2	 -1	 -1	 -1	 -1	 0	 -1	 -1	 -1	 1	 5	 0	 -2	 -2	 -1	 0	 -3	 -3	 -4	 -3	 -3	 -4	 -1	 -3	 -3	 -1	 0	 -4	 5	 1	 5	 -5	 -4	 -1	 29.00	 27.00	 31.00	 29.00	 58.00	 3.27	 2.88	 97	 73	 0.752577319587629	 0.683098591549296	 0.514084507042254	 1
