-0.18	 -0.4	 8.6	 0.108	 -0.18	 45	 0	 -1	 -1	 -1	 -2	 -2	 -2	 -1	 -1	 -1	 -1	 0	 -1	 -1	 -1	 1	 5	 0	 -2	 -2	 0	 -2	 2	 -1	 -1	 -1	 -1	 -2	 -2	 0	 -1	 -1	 -1	 -2	 2	 1	 4	 -3	 -2	 0	 20.00	 22.00	 20.00	 22.00	 42.00	 3.16	 3.51	 32	 19	 0.59375	 0.225352112676056	 0.133802816901408	 -1
0.02	 -2.3	 6.2	 0.298	 0.66	 55.2	 -2	 -2	 -3	 -2	 3	 -3	 2	 -1	 -2	 -1	 -1	 -2	 -3	 -1	 -2	 -2	 -2	 -1	 2	 7	 -2	 -2	 -2	 -3	 -3	 -2	 -3	 2	 1	 -2	 -2	 -2	 -2	 2	 -3	 -2	 -2	 1	 7	 -2	 29.00	 26.00	 24.00	 21.00	 50.00	 7.32	 6.53	 2	 0	 0	 0.00900900900900901	 0	 1
-0.64	 2	 11.6	 0.134	 0.12	 60.1	 -2	 -3	 1	 0	 -3	 0	 1	 -3	 0	 -3	 -2	 6	 -2	 0	 0	 1	 0	 -3	 -4	 -2	 -2	 0	 6	 1	 -3	 0	 0	 0	 1	 -3	 -3	 0	 -2	 -3	 -2	 1	 0	 -4	 -2	 -3	 14.00	 14.00	 16.00	 16.00	 30.00	 1.92	 2.00	 112	 82	 0.732142857142857	 0.713375796178344	 0.522292993630573	 1
0.53	 -1.8	 4.9	 0.186	 0.4	 27.6	 -1	 -1	 -4	 -3	 0	 -4	 -3	 2	 -2	 4	 2	 -3	 -3	 -2	 -2	 -2	 -1	 1	 -2	 -1	 -1	 -1	 -2	 -1	 -2	 -2	 -1	 -2	 -2	 1	 2	 -1	 2	 0	 0	 -1	 -1	 5	 2	 0	 24.00	 22.00	 30.00	 28.00	 52.00	 3.17	 3.47	 33	 30	 0.909090909090909	 0.201219512195122	 0.182926829268293	 -1
-0.72	 3	 13	 0.105	 -0.38	 60.6	 -2	 -3	 6	 2	 -3	 -1	 -1	 -3	 -1	 -4	 -3	 1	 -1	 0	 -2	 0	 -1	 -3	 -4	 -3	 -2	 -2	 1	 6	 -4	 0	 2	 -1	 -1	 -3	 -4	 -1	 -3	 -4	 -2	 0	 -1	 -5	 -3	 -3	 24.00	 21.00	 24.00	 21.00	 45.00	 7.15	 7.48	 135	 132	 0.977777777777778	 0.828220858895706	 0.809815950920245	 1
-0.62	 3	 12.3	 0.151	 -0.13	 68.2	 -1	 -4	 2	 5	 -3	 -2	 0	 -3	 1	 -3	 -2	 0	 -1	 2	 0	 0	 -1	 -2	 -3	 -2	 -1	 0	 2	 1	 -2	 1	 1	 -2	 -1	 0	 -2	 2	 -1	 -3	 -2	 1	 0	 -3	 -2	 -1	 12.00	 15.00	 20.00	 23.00	 35.00	 1.77	 2.31	 172	 76	 0.441860465116279	 0.88659793814433	 0.391752577319588	 -1
-1.1	 3	 11.3	 0.219	 -0.36	 103	 -1	 -3	 -1	 1	 -3	 -2	 -1	 -3	 5	 -2	 -1	 0	 -1	 1	 2	 0	 -1	 -2	 -3	 -2	 1	 5	 -1	 -2	 -3	 1	 0	 -2	 -1	 -3	 -2	 3	 -1	 -3	 -2	 0	 -1	 -3	 -2	 -2	 7.00	 11.00	 20.00	 24.00	 31.00	 1.99	 2.47	 157	 54	 0.343949044585987	 0.765853658536585	 0.263414634146341	 -1
0.37	 -3.4	 5.4	 0.409	 0.83	 34.7	 -3	 -2	 -4	 -3	 1	 -2	 -2	 -3	 -3	 -2	 -1	 -4	 -4	 -2	 -3	 -3	 -2	 -3	 11	 2	 -1	 1	 1	 0	 -3	 -1	 -1	 -2	 0	 -1	 -2	 -1	 -1	 1	 1	 1	 -1	 2	 5	 -2	 18.00	 21.00	 22.00	 25.00	 43.00	 5.67	 5.68	 80	 71	 0.8875	 0.352422907488987	 0.312775330396476	 1
-0.62	 3	 12.3	 0.151	 -0.13	 68.2	 -1	 -4	 2	 5	 -3	 -2	 0	 -3	 1	 -3	 -2	 0	 -1	 2	 0	 0	 -1	 -2	 -3	 -2	 0	 -1	 2	 3	 -3	 -1	 2	 -2	 -2	 -3	 -3	 1	 -3	 -2	 -3	 3	 0	 -4	 1	 -2	 23.00	 27.00	 21.00	 25.00	 48.00	 2.03	 2.36	 67	 25	 0.373134328358209	 0.345360824742268	 0.128865979381443	 -1
0.02	 -2.3	 6.2	 0.298	 0.66	 55.2	 -2	 -2	 -3	 -2	 3	 -3	 2	 -1	 -2	 -1	 -1	 -2	 -3	 -1	 -2	 -2	 -2	 -1	 2	 7	 -1	 0	 -1	 0	 -3	 -1	 0	 1	 -1	 0	 -1	 -1	 -1	 1	 -1	 1	 -1	 2	 3	 -1	 11.00	 15.00	 27.00	 31.00	 42.00	 2.56	 3.37	 117	 57	 0.487179487179487	 0.527027027027027	 0.256756756756757	 -1
0.37	 -3.4	 5.4	 0.409	 0.83	 34.7	 -3	 -2	 -4	 -3	 1	 -2	 -2	 -3	 -3	 -2	 -1	 -4	 -4	 -2	 -3	 -3	 -2	 -3	 11	 2	 -4	 1	 2	 3	 -1	 1	 0	 -3	 2	 0	 -2	 -1	 -1	 -2	 -4	 1	 -3	 4	 1	 -1	 20.00	 23.00	 23.00	 26.00	 46.00	 2.94	 4.56	 39	 33	 0.846153846153846	 0.171806167400881	 0.145374449339207	 -1
-0.07	 0	 8	 0.131	 -0.25	 51.5	 -1	 -3	 -1	 -1	 -4	 -2	 -2	 -3	 -1	 -3	 -2	 -2	 7	 -1	 -2	 -1	 -1	 -2	 -4	 -3	 -1	 -1	 -2	 -2	 -3	 -2	 -2	 -3	 -3	 -3	 -3	 -1	 -3	 -4	 8	 -1	 -2	 -4	 -3	 -3	 7.00	 8.00	 17.00	 18.00	 25.00	 1.98	 2.00	 90	 37	 0.411111111111111	 0.661764705882353	 0.272058823529412	 1
-0.26	 0.3	 9.2	 0.062	 -0.33	 42	 1	 -1	 0	 0	 -2	 0	 -1	 -2	 0	 -2	 -1	 1	 -1	 0	 -1	 4	 1	 -2	 -3	 -2	 -1	 -1	 1	 0	 1	 1	 -2	 -1	 -2	 -2	 0	 -1	 0	 0	 -1	 4	 0	 -3	 -2	 -1	 15.00	 16.00	 26.00	 27.00	 42.00	 3.83	 3.87	 36	 31	 0.861111111111111	 0.276923076923077	 0.238461538461538	 -1
0.16	 0	 9	 0	 -0.07	 24.5	 0	 -3	 -1	 -2	 -3	 6	 -2	 -4	 -2	 -4	 -3	 0	 -2	 -2	 -2	 0	 -2	 -3	 -2	 -3	 -1	 0	 1	 1	 -3	 0	 0	 1	 -1	 0	 -1	 -1	 -2	 0	 -1	 1	 0	 2	 2	 -1	 10.00	 14.00	 28.00	 32.00	 42.00	 1.85	 2.00	 16	 0	 0	 0.19047619047619	 0	 1
0.02	 -2.3	 6.2	 0.298	 0.66	 55.2	 -2	 -2	 -3	 -2	 3	 -3	 2	 -1	 -2	 -1	 -1	 -2	 -3	 -1	 -2	 -2	 -2	 -1	 2	 7	 -3	 -1	 -2	 -3	 -4	 -2	 -3	 -1	 -1	 -2	 -2	 -1	 -4	 2	 -4	 1	 -1	 2	 8	 -3	 17.00	 23.00	 24.00	 30.00	 47.00	 4.21	 6.30	 112	 89	 0.794642857142857	 0.504504504504504	 0.400900900900901	 -1
-1.1	 3	 11.3	 0.219	 -0.36	 103	 -1	 -3	 -1	 1	 -3	 -2	 -1	 -3	 5	 -2	 -1	 0	 -1	 1	 2	 0	 -1	 -2	 -3	 -2	 0	 2	 0	 -1	 -2	 0	 0	 0	 2	 -2	 -2	 2	 -1	 -2	 -1	 1	 0	 -2	 -1	 -2	 22.00	 19.00	 28.00	 25.00	 47.00	 3.09	 3.80	 136	 110	 0.808823529411765	 0.663414634146341	 0.536585365853659	 1
-0.72	 3	 13	 0.105	 -0.38	 60.6	 -2	 -3	 6	 2	 -3	 -1	 -1	 -3	 -1	 -4	 -3	 1	 -1	 0	 -2	 0	 -1	 -3	 -4	 -3	 1	 0	 2	 1	 -3	 0	 0	 -1	 0	 -2	 -2	 -1	 -1	 0	 -1	 1	 0	 1	 3	 -1	 11.00	 13.00	 25.00	 27.00	 38.00	 3.75	 4.62	 19	 0	 0	 0.139705882352941	 0	 -1
-1.1	 3	 11.3	 0.219	 -0.36	 103	 -1	 -3	 -1	 1	 -3	 -2	 -1	 -3	 5	 -2	 -1	 0	 -1	 1	 2	 0	 -1	 -2	 -3	 -2	 -1	 2	 0	 -1	 -3	 1	 1	 -2	 -1	 -3	 -2	 4	 -1	 -3	 -1	 0	 -1	 -3	 -2	 -2	 26.00	 32.00	 21.00	 27.00	 53.00	 4.13	 4.86	 78	 75	 0.961538461538462	 0.380487804878049	 0.365853658536585	 1
-0.18	 -0.4	 8.6	 0.108	 -0.18	 45	 0	 -1	 -1	 -1	 -2	 -2	 -2	 -1	 -1	 -1	 -1	 0	 -1	 -1	 -1	 1	 5	 0	 -2	 -2	 0	 -1	 0	 -1	 -1	 -1	 -1	 -2	 -2	 -1	 -1	 -1	 -1	 -2	 -1	 1	 5	 -2	 -2	 0	 14.00	 13.00	 27.00	 26.00	 40.00	 2.23	 2.54	 56	 31	 0.553571428571429	 0.394366197183099	 0.21830985915493	 -1
-1.1	 3	 11.3	 0.219	 -0.36	 103	 -1	 -3	 -1	 1	 -3	 -2	 -1	 -3	 5	 -2	 -1	 0	 -1	 1	 2	 0	 -1	 -2	 -3	 -2	 -2	 0	 -1	 -1	 -3	 2	 1	 -2	 0	 1	 1	 1	 -1	 -2	 2	 0	 -1	 -4	 -1	 0	 23.00	 18.00	 24.00	 19.00	 42.00	 2.60	 2.55	 71	 19	 0.267605633802817	 0.346341463414634	 0.0926829268292683	 -1
-1.1	 3	 11.3	 0.219	 -0.36	 103	 -1	 -3	 -1	 1	 -3	 -2	 -1	 -3	 5	 -2	 -1	 0	 -1	 1	 2	 0	 -1	 -2	 -3	 -2	 -1	 1	 -1	 -1	 -3	 0	 0	 -2	 -1	 2	 -1	 4	 0	 -2	 -2	 -1	 -1	 -3	 -2	 0	 15.00	 11.00	 27.00	 23.00	 38.00	 2.78	 2.74	 110	 3	 0.0272727272727273	 0.536585365853659	 0.0146341463414634	 -1
-0.64	 2	 11.6	 0.134	 0.12	 60.1	 -2	 -3	 1	 0	 -3	 0	 1	 -3	 0	 -3	 -2	 6	 -2	 0	 0	 1	 0	 -3	 -4	 -2	 -2	 0	 6	 1	 -3	 0	 0	 0	 1	 -3	 -3	 0	 -2	 -3	 -2	 1	 0	 -4	 -2	 -3	 8.00	 10.00	 25.00	 27.00	 35.00	 2.10	 2.65	 99	 55	 0.555555555555556	 0.630573248407643	 0.35031847133758	 -1
-1.76	 3	 10.5	 0.291	 0.27	 94.7	 -1	 -3	 -2	 0	 -3	 -2	 0	 -3	 2	 -2	 -1	 0	 -2	 1	 5	 -1	 -1	 -3	 -3	 -2	 -2	 7	 -1	 -3	 -5	 0	 -1	 -3	 -1	 -4	 -3	 1	 -2	 -4	 -3	 -2	 -2	 -4	 -3	 -4	 17.00	 17.00	 18.00	 18.00	 35.00	 4.82	 5.42	 23	 1	 0.0434782608695652	 0.092741935483871	 0.00403225806451613	 1
0.02	 -2.3	 6.2	 0.298	 0.66	 55.2	 -2	 -2	 -3	 -2	 3	 -3	 2	 -1	 -2	 -1	 -1	 -2	 -3	 -1	 -2	 -2	 -2	 -1	 2	 7	 -2	 -2	 -2	 -3	 -3	 -2	 -2	 -3	 2	 -2	 -1	 -2	 -1	 3	 -3	 -2	 -2	 2	 7	 -1	 16.00	 13.00	 23.00	 20.00	 36.00	 2.37	 2.00	 176	 102	 0.579545454545455	 0.792792792792793	 0.459459459459459	 1
-1.1	 3	 11.3	 0.219	 -0.36	 103	 -1	 -3	 -1	 1	 -3	 -2	 -1	 -3	 5	 -2	 -1	 0	 -1	 1	 2	 0	 -1	 -2	 -3	 -2	 -2	 4	 -1	 -2	 -4	 1	 -1	 -3	 0	 -4	 -3	 6	 -3	 -4	 -3	 0	 0	 -4	 -3	 -3	 26.00	 23.00	 27.00	 24.00	 50.00	 2.75	 2.70	 100	 82	 0.82	 0.48780487804878	 0.4	 1
0.73	 -1.8	 5.2	 0.186	 0.44	 22.8	 -1	 -1	 -3	 -3	 0	 -4	 -3	 4	 -3	 2	 1	 -3	 -3	 -3	 -3	 -2	 -1	 3	 -3	 -1	 -1	 -3	 -3	 -3	 -1	 -3	 -3	 -4	 -3	 4	 2	 -3	 1	 0	 -3	 -2	 -1	 -3	 -1	 3	 23.00	 20.00	 22.00	 19.00	 42.00	 4.96	 5.07	 26	 26	 1	 0.153846153846154	 0.153846153846154	 1
-0.72	 3	 13	 0.105	 -0.38	 60.6	 -2	 -3	 6	 2	 -3	 -1	 -1	 -3	 -1	 -4	 -3	 1	 -1	 0	 -2	 0	 -1	 -3	 -4	 -3	 -2	 -1	 5	 4	 -3	 0	 0	 -1	 0	 -3	 -4	 0	 -3	 -3	 -2	 0	 0	 -4	 -3	 -3	 17.00	 19.00	 16.00	 18.00	 35.00	 1.77	 2.36	 152	 60	 0.394736842105263	 0.932515337423313	 0.368098159509202	 -1
-1.1	 3	 11.3	 0.219	 -0.36	 103	 -1	 -3	 -1	 1	 -3	 -2	 -1	 -3	 5	 -2	 -1	 0	 -1	 1	 2	 0	 -1	 -2	 -3	 -2	 0	 1	 2	 0	 -3	 2	 0	 -1	 0	 -4	 -2	 -1	 0	 -2	 -3	 3	 -2	 1	 -1	 -1	 24.00	 23.00	 24.00	 23.00	 47.00	 2.61	 3.49	 96	 52	 0.541666666666667	 0.468292682926829	 0.253658536585366	 -1
0.73	 -1.8	 5.2	 0.186	 0.44	 22.8	 -1	 -1	 -3	 -3	 0	 -4	 -3	 4	 -3	 2	 1	 -3	 -3	 -3	 -3	 -2	 -1	 3	 -3	 -1	 -1	 -3	 -2	 -2	 -2	 -2	 -3	 -3	 0	 3	 2	 -2	 0	 2	 -1	 1	 -1	 -3	 -1	 2	 29.00	 31.00	 18.00	 20.00	 49.00	 4.19	 3.78	 21	 19	 0.904761904761905	 0.124260355029586	 0.112426035502959	 -1
0.53	 -1.8	 4.9	 0.186	 0.4	 27.6	 -1	 -1	 -4	 -3	 0	 -4	 -3	 2	 -2	 4	 2	 -3	 -3	 -2	 -2	 -2	 -1	 1	 -2	 -1	 -1	 -2	 -3	 -4	 -1	 -2	 -3	 -4	 -3	 2	 4	 -2	 2	 0	 -3	 -2	 -1	 -2	 -1	 1	 28.00	 23.00	 13.00	 8.00	 36.00	 3.62	 3.17	 121	 94	 0.776859504132231	 0.73780487804878	 0.573170731707317	 -1
0.16	 0	 9	 0	 -0.07	 24.5	 0	 -3	 -1	 -2	 -3	 6	 -2	 -4	 -2	 -4	 -3	 0	 -2	 -2	 -2	 0	 -2	 -3	 -2	 -3	 -1	 3	 0	 0	 -3	 1	 3	 3	 -1	 -4	 -3	 1	 -2	 -3	 -2	 0	 -1	 -3	 -2	 -3	 16.00	 11.00	 18.00	 13.00	 29.00	 2.40	 2.00	 29	 11	 0.379310344827586	 0.345238095238095	 0.130952380952381	 -1
