0.399601	0.600399
0.566851	0.433149
0.477994	0.522006
0.196810	0.803190
0.635364	0.364636
0.670649	0.329351
0.716332	0.283668
0.302430	0.697570
0.593117	0.406883
0.744413	0.255587
0.824340	0.175660
0.584034	0.415966
0.234638	0.765362
0.080514	0.919486
0.583908	0.416092
0.593503	0.406497
0.750937	0.249063
0.357951	0.642049
0.693582	0.306418
0.301315	0.698685
0.204947	0.795053
0.701335	0.298665
0.800869	0.199131
0.126969	0.873031
0.923633	0.076367
0.446845	0.553155
0.533216	0.466784
0.825103	0.174897
0.783162	0.216838
0.854565	0.145435
0.519454	0.480546
