0.648508	0.351492
0.443163	0.556837
0.366854	0.633146
0.316470	0.683530
0.642394	0.357606
0.812430	0.187570
0.451562	0.548438
0.511643	0.488357
0.722134	0.277866
0.519639	0.480361
0.599886	0.400114
0.639015	0.360985
0.758146	0.241854
0.338546	0.661454
0.337171	0.662829
0.663623	0.336377
0.788385	0.211615
0.598865	0.401135
0.342268	0.657732
0.572766	0.427234
0.319274	0.680726
0.250409	0.749591
0.291437	0.708563
0.392412	0.607588
0.330924	0.669076
0.385559	0.614441
0.409456	0.590544
0.565688	0.434312
0.817372	0.182628
0.405616	0.594384
0.538761	0.461239
0.405603	0.594397
