-0.62	 3	 12.3	 0.151	 -0.13	 68.2	 -1	 -4	 2	 5	 -3	 -2	 0	 -3	 1	 -3	 -2	 0	 -1	 2	 0	 0	 -1	 -2	 -3	 -2	 -1	 0	 0	 2	 -4	 2	 5	 -2	 0	 -3	 -3	 1	 -2	 -3	 -1	 0	 -1	 -3	 -2	 -3	 26.00	 16.00	 29.00	 19.00	 45.00	 3.03	 2.99	 17	 3	 0.176470588235294	 0.0876288659793814	 0.0154639175257732	 -1
-0.72	 3	 13	 0.105	 -0.38	 60.6	 -2	 -3	 6	 2	 -3	 -1	 -1	 -3	 -1	 -4	 -3	 1	 -1	 0	 -2	 0	 -1	 -3	 -4	 -3	 -2	 -2	 1	 6	 -3	 0	 2	 -1	 -1	 -3	 -4	 -1	 -3	 -4	 -1	 0	 -1	 -4	 -3	 -3	 5.00	 3.00	 28.00	 26.00	 31.00	 2.26	 2.00	 76	 19	 0.25	 0.466257668711656	 0.116564417177914	 -1
0.02	 -2.3	 6.2	 0.298	 0.66	 55.2	 -2	 -2	 -3	 -2	 3	 -3	 2	 -1	 -2	 -1	 -1	 -2	 -3	 -1	 -2	 -2	 -2	 -1	 2	 7	 -2	 -4	 0	 -2	 -2	 -2	 -1	 -2	 1	 -3	 0	 -3	 -2	 1	 4	 0	 0	 2	 5	 -3	 22.00	 22.00	 25.00	 25.00	 47.00	 4.71	 5.11	 143	 67	 0.468531468531469	 0.644144144144144	 0.301801801801802	 1
-0.26	 0.3	 9.2	 0.062	 -0.33	 42	 1	 -1	 0	 0	 -2	 0	 -1	 -2	 0	 -2	 -1	 1	 -1	 0	 -1	 4	 1	 -2	 -3	 -2	 -1	 -1	 1	 0	 1	 1	 -2	 -1	 -2	 -2	 0	 -1	 0	 0	 -1	 4	 0	 -3	 -2	 -1	 15.00	 16.00	 26.00	 27.00	 42.00	 3.83	 3.87	 36	 31	 0.861111111111111	 0.276923076923077	 0.238461538461538	 -1
-1.76	 3	 10.5	 0.291	 0.27	 94.7	 -1	 -3	 -2	 0	 -3	 -2	 0	 -3	 2	 -2	 -1	 0	 -2	 1	 5	 -1	 -1	 -3	 -3	 -2	 -1	 6	 -1	 -2	 -4	 1	 0	 -3	 -1	 -3	 -3	 2	 -2	 -3	 -2	 0	 -1	 -3	 -2	 -3	 20.00	 15.00	 32.00	 27.00	 47.00	 4.82	 7.32	 160	 133	 0.83125	 0.645161290322581	 0.536290322580645	 1
-0.62	 3	 12.3	 0.151	 -0.13	 68.2	 -1	 -4	 2	 5	 -3	 -2	 0	 -3	 1	 -3	 -2	 0	 -1	 2	 0	 0	 -1	 -2	 -3	 -2	 0	 -1	 2	 3	 -3	 -1	 2	 -2	 -2	 -3	 -3	 1	 -3	 -2	 -3	 3	 0	 -4	 1	 -2	 23.00	 27.00	 21.00	 25.00	 48.00	 2.03	 2.36	 67	 25	 0.373134328358209	 0.345360824742268	 0.128865979381443	 -1
-0.69	 0.2	 10.5	 0.18	 -0.11	 68.7	 -1	 -3	 0	 2	 -3	 -2	 0	 -3	 1	 -2	 0	 0	 -1	 5	 1	 0	 -1	 -2	 -2	 -1	 0	 2	 0	 -1	 -2	 2	 0	 3	 -1	 -2	 -2	 0	 -1	 -2	 -1	 0	 0	 -1	 -1	 -1	 19.00	 12.00	 26.00	 19.00	 38.00	 2.74	 3.72	 59	 15	 0.254237288135593	 0.297979797979798	 0.0757575757575758	 -1
0.61	 -2.5	 5.2	 0.29	 0.82	 25.5	 -2	 -2	 -3	 -3	 6	 -3	 -1	 0	 -3	 0	 0	 -3	 -4	 -3	 -3	 -2	 -2	 -1	 1	 3	 -2	 2	 -2	 -2	 -3	 -1	 -1	 -3	 0	 -1	 -1	 1	 -1	 4	 -3	 -1	 -2	 1	 4	 -1	 32.00	 30.00	 30.00	 28.00	 60.00	 7.36	 7.50	 102	 101	 0.990196078431373	 0.517766497461929	 0.512690355329949	 1
-1.76	 3	 10.5	 0.291	 0.27	 94.7	 -1	 -3	 -2	 0	 -3	 -2	 0	 -3	 2	 -2	 -1	 0	 -2	 1	 5	 -1	 -1	 -3	 -3	 -2	 -1	 0	 -4	 -4	 -3	 -3	 -2	 -5	 -4	 0	 4	 -1	 1	 2	 -4	 -1	 0	 -3	 -1	 0	 16.00	 18.00	 23.00	 25.00	 41.00	 2.95	 4.27	 43	 1	 0.0232558139534884	 0.173387096774194	 0.00403225806451613	 -1
-0.69	 0.2	 10.5	 0.18	 -0.11	 68.7	 -1	 -3	 0	 2	 -3	 -2	 0	 -3	 1	 -2	 0	 0	 -1	 5	 1	 0	 -1	 -2	 -2	 -1	 -1	 1	 3	 1	 -3	 2	 0	 -2	 1	 0	 0	 0	 0	 -2	 -3	 1	 0	 -4	 -2	 -2	 13.00	 8.00	 31.00	 26.00	 39.00	 2.53	 3.02	 65	 16	 0.246153846153846	 0.328282828282828	 0.0808080808080808	 -1
0.02	 -2.3	 6.2	 0.298	 0.66	 55.2	 -2	 -2	 -3	 -2	 3	 -3	 2	 -1	 -2	 -1	 -1	 -2	 -3	 -1	 -2	 -2	 -2	 -1	 2	 7	 -2	 -2	 1	 -1	 -2	 -2	 -1	 0	 0	 -1	 -1	 -2	 -3	 2	 -3	 1	 0	 6	 4	 0	 30.00	 29.00	 28.00	 27.00	 57.00	 4.65	 5.80	 71	 69	 0.971830985915493	 0.31981981981982	 0.310810810810811	 -1
-0.72	 3	 13	 0.105	 -0.38	 60.6	 -2	 -3	 6	 2	 -3	 -1	 -1	 -3	 -1	 -4	 -3	 1	 -1	 0	 -2	 0	 -1	 -3	 -4	 -3	 -2	 -1	 5	 4	 -3	 0	 0	 -1	 0	 -3	 -4	 0	 -3	 -3	 -2	 0	 0	 -4	 -3	 -3	 17.00	 19.00	 16.00	 18.00	 35.00	 1.77	 2.36	 152	 60	 0.394736842105263	 0.932515337423313	 0.368098159509202	 -1
-0.62	 3	 12.3	 0.151	 -0.13	 68.2	 -1	 -4	 2	 5	 -3	 -2	 0	 -3	 1	 -3	 -2	 0	 -1	 2	 0	 0	 -1	 -2	 -3	 -2	 0	 -2	 -1	 3	 -3	 1	 1	 -2	 0	 -1	 -2	 -1	 -2	 -3	 4	 -1	 -1	 -4	 -3	 -1	 12.00	 14.00	 23.00	 25.00	 37.00	 1.76	 2.00	 161	 70	 0.434782608695652	 0.829896907216495	 0.360824742268041	 1
-0.62	 3	 12.3	 0.151	 -0.13	 68.2	 -1	 -4	 2	 5	 -3	 -2	 0	 -3	 1	 -3	 -2	 0	 -1	 2	 0	 0	 -1	 -2	 -3	 -2	 -1	 0	 -1	 0	 -3	 2	 3	 -3	 0	 -1	 -2	 0	 1	 1	 -2	 1	 -1	 0	 -2	 0	 17.00	 13.00	 28.00	 24.00	 41.00	 2.32	 2.26	 16	 4	 0.25	 0.0824742268041237	 0.0206185567010309	 -1
-0.64	 2	 11.6	 0.134	 0.12	 60.1	 -2	 -3	 1	 0	 -3	 0	 1	 -3	 0	 -3	 -2	 6	 -2	 0	 0	 1	 0	 -3	 -4	 -2	 1	 -1	 6	 1	 -3	 0	 -1	 -1	 0	 -3	 -3	 -1	 -2	 -3	 -2	 0	 0	 -4	 -2	 -3	 29.00	 28.00	 28.00	 27.00	 56.00	 2.17	 2.00	 69	 58	 0.840579710144927	 0.439490445859873	 0.369426751592357	 1
-0.18	 -0.4	 8.6	 0.108	 -0.18	 45	 0	 -1	 -1	 -1	 -2	 -2	 -2	 -1	 -1	 -1	 -1	 0	 -1	 -1	 -1	 1	 5	 0	 -2	 -2	 0	 -1	 0	 -1	 -2	 0	 -1	 -1	 -2	 -2	 -2	 1	 -2	 -3	 -1	 4	 4	 -3	 -2	 -1	 29.00	 29.00	 27.00	 27.00	 56.00	 30.73	 30.70	 144	 144	 1	 1.01408450704225	 1.01408450704225	 1
0.37	 -3.4	 5.4	 0.409	 0.83	 34.7	 -3	 -2	 -4	 -3	 1	 -2	 -2	 -3	 -3	 -2	 -1	 -4	 -4	 -2	 -3	 -3	 -2	 -3	 11	 2	 -2	 -2	 1	 -3	 -3	 -2	 -2	 -3	 0	 -2	 0	 -2	 -1	 1	 -3	 -2	 0	 6	 6	 -2	 19.00	 15.00	 31.00	 27.00	 46.00	 3.46	 5.73	 84	 51	 0.607142857142857	 0.370044052863436	 0.224669603524229	 1
-0.69	 0.2	 10.5	 0.18	 -0.11	 68.7	 -1	 -3	 0	 2	 -3	 -2	 0	 -3	 1	 -2	 0	 0	 -1	 5	 1	 0	 -1	 -2	 -2	 -1	 -1	 1	 0	 0	 -3	 5	 2	 -2	 0	 -3	 -2	 1	 0	 -3	 -1	 0	 -1	 -2	 -1	 -2	 9.00	 13.00	 12.00	 16.00	 25.00	 2.06	 2.62	 72	 23	 0.319444444444444	 0.363636363636364	 0.116161616161616	 1
-0.72	 3	 13	 0.105	 -0.38	 60.6	 -2	 -3	 6	 2	 -3	 -1	 -1	 -3	 -1	 -4	 -3	 1	 -1	 0	 -2	 0	 -1	 -3	 -4	 -3	 -2	 -2	 1	 6	 -4	 0	 1	 -1	 -1	 -3	 -4	 -1	 -3	 -4	 -2	 0	 -1	 -4	 -3	 -3	 13.00	 16.00	 26.00	 29.00	 42.00	 3.64	 4.71	 74	 44	 0.594594594594595	 0.45398773006135	 0.269938650306748	 1
0.37	 -3.4	 5.4	 0.409	 0.83	 34.7	 -3	 -2	 -4	 -3	 1	 -2	 -2	 -3	 -3	 -2	 -1	 -4	 -4	 -2	 -3	 -3	 -2	 -3	 11	 2	 -4	 1	 2	 3	 -1	 1	 0	 -3	 2	 0	 -2	 -1	 -1	 -2	 -4	 1	 -3	 4	 1	 -1	 20.00	 23.00	 23.00	 26.00	 46.00	 2.94	 4.56	 39	 33	 0.846153846153846	 0.171806167400881	 0.145374449339207	 -1
-0.26	 0.3	 9.2	 0.062	 -0.33	 42	 1	 -1	 0	 0	 -2	 0	 -1	 -2	 0	 -2	 -1	 1	 -1	 0	 -1	 4	 1	 -2	 -3	 -2	 0	 -1	 0	 0	 -3	 1	 -1	 0	 4	 -1	 -3	 1	 -3	 1	 0	 2	 -1	 -3	 1	 -2	 30.00	 28.00	 21.00	 19.00	 49.00	 2.69	 2.34	 41	 31	 0.75609756097561	 0.315384615384615	 0.238461538461538	 -1
-1.76	 3	 10.5	 0.291	 0.27	 94.7	 -1	 -3	 -2	 0	 -3	 -2	 0	 -3	 2	 -2	 -1	 0	 -2	 1	 5	 -1	 -1	 -3	 -3	 -2	 -2	 7	 -1	 -2	 -4	 0	 -1	 -3	 -1	 -4	 -3	 3	 -2	 -4	 -3	 -2	 -2	 -4	 -3	 -3	 14.00	 12.00	 34.00	 32.00	 46.00	 3.70	 5.24	 41	 24	 0.585365853658537	 0.165322580645161	 0.0967741935483871	 -1
0.53	 -1.8	 4.9	 0.186	 0.4	 27.6	 -1	 -1	 -4	 -3	 0	 -4	 -3	 2	 -2	 4	 2	 -3	 -3	 -2	 -2	 -2	 -1	 1	 -2	 -1	 -2	 -2	 -2	 1	 -2	 -2	 -2	 -3	 -1	 0	 3	 -2	 0	 0	 3	 -2	 -1	 -1	 2	 0	 16.00	 18.00	 17.00	 19.00	 35.00	 2.84	 2.97	 34	 13	 0.382352941176471	 0.207317073170732	 0.0792682926829268	 1
-0.62	 3	 12.3	 0.151	 -0.13	 68.2	 -1	 -4	 2	 5	 -3	 -2	 0	 -3	 1	 -3	 -2	 0	 -1	 2	 0	 0	 -1	 -2	 -3	 -2	 -2	 -1	 0	 3	 -5	 0	 5	 -1	 4	 -5	 -4	 -1	 -4	 -5	 -3	 1	 0	 -5	 -3	 -4	 7.00	 3.00	 24.00	 20.00	 27.00	 1.83	 2.00	 144	 32	 0.222222222222222	 0.742268041237113	 0.164948453608247	 -1
0.02	 -2.3	 6.2	 0.298	 0.66	 55.2	 -2	 -2	 -3	 -2	 3	 -3	 2	 -1	 -2	 -1	 -1	 -2	 -3	 -1	 -2	 -2	 -2	 -1	 2	 7	 -1	 -1	 1	 -1	 -3	 -2	 -1	 0	 3	 -2	 -1	 -2	 -3	 3	 0	 2	 0	 -3	 1	 -1	 15.00	 9.00	 31.00	 25.00	 40.00	 2.18	 2.00	 130	 79	 0.607692307692308	 0.585585585585586	 0.355855855855856	 -1
-1.76	 3	 10.5	 0.291	 0.27	 94.7	 -1	 -3	 -2	 0	 -3	 -2	 0	 -3	 2	 -2	 -1	 0	 -2	 1	 5	 -1	 -1	 -3	 -3	 -2	 -2	 7	 -1	 -3	 -5	 0	 -1	 -3	 -1	 -4	 -3	 1	 -2	 -4	 -3	 -2	 -2	 -4	 -3	 -4	 17.00	 17.00	 18.00	 18.00	 35.00	 4.82	 5.42	 23	 1	 0.0434782608695652	 0.092741935483871	 0.00403225806451613	 1
0.37	 -3.4	 5.4	 0.409	 0.83	 34.7	 -3	 -2	 -4	 -3	 1	 -2	 -2	 -3	 -3	 -2	 -1	 -4	 -4	 -2	 -3	 -3	 -2	 -3	 11	 2	 -3	 -3	 -4	 -5	 -3	 -2	 -3	 -3	 -3	 -3	 -2	 -3	 -2	 1	 -4	 -3	 -3	 11	 2	 -3	 24.00	 21.00	 20.00	 17.00	 41.00	 4.28	 2.66	 97	 67	 0.690721649484536	 0.427312775330396	 0.295154185022026	 -1
-1.1	 3	 11.3	 0.219	 -0.36	 103	 -1	 -3	 -1	 1	 -3	 -2	 -1	 -3	 5	 -2	 -1	 0	 -1	 1	 2	 0	 -1	 -2	 -3	 -2	 -1	 0	 1	 0	 -2	 1	 2	 2	 0	 -2	 -2	 1	 -1	 -2	 -1	 0	 -1	 -2	 -1	 -2	 23.00	 24.00	 18.00	 19.00	 42.00	 3.83	 4.41	 45	 38	 0.844444444444444	 0.219512195121951	 0.185365853658537	 -1
-0.64	 2	 11.6	 0.134	 0.12	 60.1	 -2	 -3	 1	 0	 -3	 0	 1	 -3	 0	 -3	 -2	 6	 -2	 0	 0	 1	 0	 -3	 -4	 -2	 -2	 0	 6	 1	 -3	 0	 0	 0	 1	 -3	 -3	 0	 -2	 -3	 -2	 1	 0	 -4	 -2	 -3	 8.00	 10.00	 25.00	 27.00	 35.00	 2.10	 2.65	 99	 55	 0.555555555555556	 0.630573248407643	 0.35031847133758	 -1
-0.18	 -0.4	 8.6	 0.108	 -0.18	 45	 0	 -1	 -1	 -1	 -2	 -2	 -2	 -1	 -1	 -1	 -1	 0	 -1	 -1	 -1	 1	 5	 0	 -2	 -2	 0	 -1	 -1	 -1	 -2	 -1	 -1	 3	 -2	 -1	 -2	 1	 -1	 -2	 -2	 0	 2	 -3	 -2	 0	 22.00	 16.00	 11.00	 5.00	 27.00	 2.29	 2.00	 38	 16	 0.421052631578947	 0.267605633802817	 0.112676056338028	 -1
-0.72	 3	 13	 0.105	 -0.38	 60.6	 -2	 -3	 6	 2	 -3	 -1	 -1	 -3	 -1	 -4	 -3	 1	 -1	 0	 -2	 0	 -1	 -3	 -4	 -3	 -2	 2	 1	 4	 -4	 1	 2	 1	 -1	 -3	 -2	 -1	 -3	 -4	 -2	 0	 -2	 -4	 -3	 -3	 21.00	 19.00	 18.00	 16.00	 37.00	 3.09	 3.28	 100	 99	 0.99	 0.613496932515337	 0.607361963190184	 1
