0.125720	0.874280
0.500000	0.500000
0.125918	0.874082
0.893085	0.106915
0.767706	0.232294
0.170545	0.829455
0.103705	0.896295
0.398915	0.601085
0.567116	0.432884
0.339490	0.660510
0.418059	0.581941
0.357674	0.642326
0.819931	0.180069
0.814689	0.185311
0.512428	0.487572
0.296589	0.703411
0.665103	0.334897
0.571048	0.428952
0.319089	0.680911
0.452215	0.547785
0.289458	0.710542
0.622807	0.377193
0.725232	0.274768
0.306392	0.693608
0.269241	0.730759
0.378362	0.621638
0.793928	0.206072
0.538655	0.461345
0.221824	0.778176
0.821641	0.178359
0.712068	0.287932
0.167167	0.832833
