0.851332	0.148668
0.211001	0.788999
0.394239	0.605761
0.776373	0.223627
0.215498	0.784502
0.187744	0.812256
0.306578	0.693422
0.913274	0.086726
0.720696	0.279304
0.822011	0.177989
0.813326	0.186674
0.226975	0.773025
0.175264	0.824736
0.266558	0.733442
0.222746	0.777254
0.404673	0.595327
0.701104	0.298896
0.208590	0.791410
0.807257	0.192743
0.689144	0.310856
0.826395	0.173605
0.625410	0.374590
0.653064	0.346936
0.447824	0.552176
0.815673	0.184327
0.827328	0.172672
0.696816	0.303184
0.500000	0.500000
0.594873	0.405127
0.237676	0.762324
0.750457	0.249543
0.277039	0.722961
