-1.76	 3	 10.5	 0.291	 0.27	 94.7	 -1	 -3	 -2	 0	 -3	 -2	 0	 -3	 2	 -2	 -1	 0	 -2	 1	 5	 -1	 -1	 -3	 -3	 -2	 0	 2	 -1	 -2	 3	 0	 -1	 4	 -2	 -3	 -3	 2	 -2	 -3	 -2	 -1	 -1	 -3	 -3	 -3	 28.00	 21.00	 27.00	 20.00	 48.00	 6.11	 6.25	 102	 96	 0.941176470588235	 0.411290322580645	 0.387096774193548	 -1
-1.76	 3	 10.5	 0.291	 0.27	 94.7	 -1	 -3	 -2	 0	 -3	 -2	 0	 -3	 2	 -2	 -1	 0	 -2	 1	 5	 -1	 -1	 -3	 -3	 -2	 0	 4	 0	 0	 -2	 1	 -1	 -2	 -2	 -2	 -2	 3	 -1	 -2	 -3	 1	 -1	 -4	 -3	 -1	 21.00	 18.00	 21.00	 18.00	 39.00	 2.03	 2.00	 180	 146	 0.811111111111111	 0.725806451612903	 0.588709677419355	 -1
0.02	 -2.3	 6.2	 0.298	 0.66	 55.2	 -2	 -2	 -3	 -2	 3	 -3	 2	 -1	 -2	 -1	 -1	 -2	 -3	 -1	 -2	 -2	 -2	 -1	 2	 7	 0	 -2	 -1	 -2	 -2	 -1	 -1	 1	 0	 -1	 0	 -1	 -1	 1	 -2	 2	 0	 0	 4	 -1	 7.00	 12.00	 18.00	 23.00	 30.00	 1.96	 2.69	 160	 46	 0.2875	 0.720720720720721	 0.207207207207207	 -1
-1.1	 3	 11.3	 0.219	 -0.36	 103	 -1	 -3	 -1	 1	 -3	 -2	 -1	 -3	 5	 -2	 -1	 0	 -1	 1	 2	 0	 -1	 -2	 -3	 -2	 -2	 4	 1	 -2	 -4	 0	 -1	 0	 0	 -4	 -1	 3	 1	 -1	 -4	 -1	 2	 -4	 0	 -3	 39.00	 33.00	 31.00	 25.00	 64.00	 6.94	 6.62	 184	 180	 0.978260869565217	 0.897560975609756	 0.878048780487805	 1
0.02	 -2.3	 6.2	 0.298	 0.66	 55.2	 -2	 -2	 -3	 -2	 3	 -3	 2	 -1	 -2	 -1	 -1	 -2	 -3	 -1	 -2	 -2	 -2	 -1	 2	 7	 -2	 -2	 -2	 -3	 -3	 -2	 -2	 -3	 2	 -2	 -1	 -2	 -1	 3	 -3	 -2	 -2	 2	 7	 -1	 16.00	 13.00	 23.00	 20.00	 36.00	 2.37	 2.00	 176	 102	 0.579545454545455	 0.792792792792793	 0.459459459459459	 1
-0.18	 -0.4	 8.6	 0.108	 -0.18	 45	 0	 -1	 -1	 -1	 -2	 -2	 -2	 -1	 -1	 -1	 -1	 0	 -1	 -1	 -1	 1	 5	 0	 -2	 -2	 -1	 -2	 1	 -1	 -1	 -1	 -1	 -2	 -2	 1	 -1	 -1	 1	 -2	 -2	 1	 5	 -3	 -2	 0	 25.00	 23.00	 19.00	 17.00	 42.00	 5.48	 5.24	 10	 8	 0.8	 0.0704225352112676	 0.0563380281690141	 -1
0.37	 -3.4	 5.4	 0.409	 0.83	 34.7	 -3	 -2	 -4	 -3	 1	 -2	 -2	 -3	 -3	 -2	 -1	 -4	 -4	 -2	 -3	 -3	 -2	 -3	 11	 2	 -4	 1	 2	 3	 -1	 1	 0	 -3	 2	 0	 -2	 -1	 -1	 -2	 -4	 1	 -3	 4	 1	 -1	 20.00	 23.00	 23.00	 26.00	 46.00	 2.94	 4.56	 39	 33	 0.846153846153846	 0.171806167400881	 0.145374449339207	 -1
-1.76	 3	 10.5	 0.291	 0.27	 94.7	 -1	 -3	 -2	 0	 -3	 -2	 0	 -3	 2	 -2	 -1	 0	 -2	 1	 5	 -1	 -1	 -3	 -3	 -2	 -1	 4	 -1	 -1	 -3	 3	 1	 0	 1	 -3	 -1	 2	 -2	 -3	 -2	 -1	 -2	 1	 -1	 -2	 19.00	 19.00	 18.00	 18.00	 37.00	 2.01	 2.00	 161	 126	 0.782608695652174	 0.649193548387097	 0.508064516129032	 -1
0.02	 -2.3	 6.2	 0.298	 0.66	 55.2	 -2	 -2	 -3	 -2	 3	 -3	 2	 -1	 -2	 -1	 -1	 -2	 -3	 -1	 -2	 -2	 -2	 -1	 2	 7	 -3	 -3	 2	 0	 -4	 -2	 -2	 -3	 1	 -1	 -3	 -2	 -1	 1	 -4	 1	 1	 -2	 7	 -2	 25.00	 20.00	 27.00	 22.00	 47.00	 3.49	 4.44	 62	 32	 0.516129032258065	 0.279279279279279	 0.144144144144144	 -1
-0.26	 0.3	 9.2	 0.062	 -0.33	 42	 1	 -1	 0	 0	 -2	 0	 -1	 -2	 0	 -2	 -1	 1	 -1	 0	 -1	 4	 1	 -2	 -3	 -2	 1	 -1	 0	 0	 -1	 0	 0	 -1	 -1	 -2	 -2	 0	 -1	 -2	 -1	 4	 2	 -3	 -2	 -1	 25.00	 29.00	 19.00	 23.00	 48.00	 5.74	 5.77	 38	 38	 1	 0.292307692307692	 0.292307692307692	 1
-0.62	 3	 12.3	 0.151	 -0.13	 68.2	 -1	 -4	 2	 5	 -3	 -2	 0	 -3	 1	 -3	 -2	 0	 -1	 2	 0	 0	 -1	 -2	 -3	 -2	 -1	 -1	 -1	 1	 -4	 1	 -1	 1	 -2	 -2	 -1	 -2	 -1	 1	 -3	 1	 -1	 4	 4	 0	 24.00	 27.00	 22.00	 25.00	 49.00	 8.63	 7.91	 28	 28	 1	 0.144329896907216	 0.144329896907216	 1
-0.62	 3	 12.3	 0.151	 -0.13	 68.2	 -1	 -4	 2	 5	 -3	 -2	 0	 -3	 1	 -3	 -2	 0	 -1	 2	 0	 0	 -1	 -2	 -3	 -2	 -1	 0	 -1	 0	 -2	 1	 3	 -2	 -1	 1	 -1	 2	 -1	 -2	 -2	 -1	 -1	 -3	 -2	 1	 16.00	 16.00	 20.00	 20.00	 36.00	 2.58	 2.58	 58	 45	 0.775862068965517	 0.298969072164948	 0.231958762886598	 1
-0.64	 2	 11.6	 0.134	 0.12	 60.1	 -2	 -3	 1	 0	 -3	 0	 1	 -3	 0	 -3	 -2	 6	 -2	 0	 0	 1	 0	 -3	 -4	 -2	 -3	 -2	 1	 -1	 7	 0	 1	 -1	 1	 -1	 -2	 -1	 -1	 -1	 1	 -1	 -1	 -7	 1	 -1	 13.00	 12.00	 24.00	 23.00	 36.00	 2.30	 3.09	 71	 34	 0.47887323943662	 0.452229299363057	 0.21656050955414	 -1
-0.72	 3	 13	 0.105	 -0.38	 60.6	 -2	 -3	 6	 2	 -3	 -1	 -1	 -3	 -1	 -4	 -3	 1	 -1	 0	 -2	 0	 -1	 -3	 -4	 -3	 1	 -2	 0	 3	 -3	 -1	 0	 4	 -3	 -3	 -2	 -2	 -3	 -3	 -3	 1	 -1	 -4	 -2	 -1	 13.00	 19.00	 14.00	 20.00	 33.00	 2.58	 2.99	 65	 0	 0	 0.398773006134969	 0	 1
-0.18	 -0.4	 8.6	 0.108	 -0.18	 45	 0	 -1	 -1	 -1	 -2	 -2	 -2	 -1	 -1	 -1	 -1	 0	 -1	 -1	 -1	 1	 5	 0	 -2	 -2	 0	 -1	 0	 -1	 -1	 -1	 -1	 -2	 -2	 -1	 -1	 -1	 -1	 -2	 -1	 1	 5	 -3	 -2	 0	 28.00	 28.00	 23.00	 23.00	 51.00	 5.06	 5.22	 18	 16	 0.888888888888889	 0.126760563380282	 0.112676056338028	 1
-0.62	 3	 12.3	 0.151	 -0.13	 68.2	 -1	 -4	 2	 5	 -3	 -2	 0	 -3	 1	 -3	 -2	 0	 -1	 2	 0	 0	 -1	 -2	 -3	 -2	 3	 -2	 -2	 0	 -3	 0	 5	 -2	 -2	 -4	 -4	 -1	 -3	 -4	 -2	 -1	 -2	 -4	 -3	 -3	 21.00	 23.00	 19.00	 21.00	 42.00	 5.11	 5.09	 40	 40	 1	 0.206185567010309	 0.206185567010309	 1
-0.72	 3	 13	 0.105	 -0.38	 60.6	 -2	 -3	 6	 2	 -3	 -1	 -1	 -3	 -1	 -4	 -3	 1	 -1	 0	 -2	 0	 -1	 -3	 -4	 -3	 -1	 0	 3	 1	 -3	 1	 1	 -1	 2	 -1	 -2	 1	 -1	 -2	 0	 0	 0	 -3	 3	 -2	 19.00	 12.00	 27.00	 20.00	 39.00	 2.43	 2.29	 72	 51	 0.708333333333333	 0.441717791411043	 0.312883435582822	 -1
0.02	 -2.3	 6.2	 0.298	 0.66	 55.2	 -2	 -2	 -3	 -2	 3	 -3	 2	 -1	 -2	 -1	 -1	 -2	 -3	 -1	 -2	 -2	 -2	 -1	 2	 7	 -1	 3	 -1	 -2	 -3	 3	 0	 -2	 3	 -2	 0	 0	 0	 0	 -2	 0	 0	 -2	 2	 -1	 11.00	 15.00	 19.00	 23.00	 34.00	 2.35	 2.80	 124	 87	 0.701612903225806	 0.558558558558559	 0.391891891891892	 -1
-0.62	 3	 12.3	 0.151	 -0.13	 68.2	 -1	 -4	 2	 5	 -3	 -2	 0	 -3	 1	 -3	 -2	 0	 -1	 2	 0	 0	 -1	 -2	 -3	 -2	 -1	 0	 -1	 0	 -2	 1	 3	 -2	 -1	 1	 -1	 2	 -1	 -2	 -2	 -1	 -1	 -3	 -2	 1	 16.00	 17.00	 21.00	 22.00	 38.00	 2.26	 2.67	 65	 41	 0.630769230769231	 0.335051546391753	 0.211340206185567	 1
0.61	 -2.5	 5.2	 0.29	 0.82	 25.5	 -2	 -2	 -3	 -3	 6	 -3	 -1	 0	 -3	 0	 0	 -3	 -4	 -3	 -3	 -2	 -2	 -1	 1	 3	 -1	 -1	 3	 0	 -2	 -1	 -1	 -1	 0	 -1	 -1	 -1	 -1	 3	 -1	 0	 -1	 0	 3	 -1	 17.00	 24.00	 18.00	 25.00	 42.00	 1.93	 2.37	 145	 45	 0.310344827586207	 0.736040609137056	 0.228426395939086	 1
-0.26	 0.3	 9.2	 0.062	 -0.33	 42	 1	 -1	 0	 0	 -2	 0	 -1	 -2	 0	 -2	 -1	 1	 -1	 0	 -1	 4	 1	 -2	 -3	 -2	 -1	 1	 0	 0	 -2	 0	 0	 0	 -1	 -2	 -1	 1	 -1	 0	 -1	 1	 0	 0	 2	 -1	 16.00	 22.00	 23.00	 29.00	 45.00	 4.34	 5.11	 90	 80	 0.888888888888889	 0.692307692307692	 0.615384615384615	 -1
-0.26	 0.3	 9.2	 0.062	 -0.33	 42	 1	 -1	 0	 0	 -2	 0	 -1	 -2	 0	 -2	 -1	 1	 -1	 0	 -1	 4	 1	 -2	 -3	 -2	 -1	 1	 -1	 0	 -2	 -1	 1	 -1	 -1	 -1	 -1	 1	 0	 -2	 0	 1	 1	 -2	 1	 0	 7.00	 15.00	 10.00	 18.00	 25.00	 1.89	 2.48	 72	 26	 0.361111111111111	 0.553846153846154	 0.2	 -1
0.02	 -2.3	 6.2	 0.298	 0.66	 55.2	 -2	 -2	 -3	 -2	 3	 -3	 2	 -1	 -2	 -1	 -1	 -2	 -3	 -1	 -2	 -2	 -2	 -1	 2	 7	 -2	 -2	 -2	 -3	 -3	 -2	 -3	 2	 1	 -2	 -2	 -2	 -2	 2	 -3	 -2	 -2	 1	 7	 -2	 29.00	 26.00	 24.00	 21.00	 50.00	 7.32	 6.53	 2	 0	 0	 0.00900900900900901	 0	 1
-0.18	 -0.4	 8.6	 0.108	 -0.18	 45	 0	 -1	 -1	 -1	 -2	 -2	 -2	 -1	 -1	 -1	 -1	 0	 -1	 -1	 -1	 1	 5	 0	 -2	 -2	 0	 -1	 -1	 0	 -2	 -1	 0	 -2	 -2	 -1	 0	 1	 -1	 -3	 -2	 1	 5	 -3	 -2	 -1	 10.00	 15.00	 24.00	 29.00	 39.00	 2.33	 2.72	 51	 15	 0.294117647058824	 0.359154929577465	 0.105633802816901	 -1
-0.4	 -0.5	 10.4	 0.23	 0.41	 50.7	 -2	 -3	 -1	 0	 -1	 -2	 8	 -3	 -1	 -3	 -2	 1	 -2	 0	 0	 -1	 -2	 -3	 -2	 2	 -2	 1	 -2	 -1	 -3	 -1	 -2	 -3	 0	 1	 -3	 2	 -1	 -4	 -2	 1	 5	 -4	 -3	 0	 17.00	 17.00	 26.00	 26.00	 43.00	 2.16	 2.00	 101	 72	 0.712871287128713	 0.548913043478261	 0.391304347826087	 -1
-0.62	 3	 12.3	 0.151	 -0.13	 68.2	 -1	 -4	 2	 5	 -3	 -2	 0	 -3	 1	 -3	 -2	 0	 -1	 2	 0	 0	 -1	 -2	 -3	 -2	 -3	 0	 0	 -2	 -4	 0	 3	 -4	 2	 0	 -2	 0	 -2	 1	 -6	 0	 2	 -1	 1	 2	 14.00	 17.00	 23.00	 26.00	 40.00	 2.69	 2.91	 54	 32	 0.592592592592593	 0.278350515463918	 0.164948453608247	 -1
0.61	 -2.5	 5.2	 0.29	 0.82	 25.5	 -2	 -2	 -3	 -3	 6	 -3	 -1	 0	 -3	 0	 0	 -3	 -4	 -3	 -3	 -2	 -2	 -1	 1	 3	 -2	 -3	 -3	 -4	 -2	 -3	 -3	 -3	 -1	 0	 0	 -3	 0	 6	 -4	 -2	 -2	 1	 3	 -1	 23.00	 27.00	 20.00	 24.00	 47.00	 3.96	 2.68	 161	 146	 0.906832298136646	 0.817258883248731	 0.741116751269036	 1
0.53	 -1.8	 4.9	 0.186	 0.4	 27.6	 -1	 -1	 -4	 -3	 0	 -4	 -3	 2	 -2	 4	 2	 -3	 -3	 -2	 -2	 -2	 -1	 1	 -2	 -1	 -1	 -2	 -3	 -4	 -1	 -2	 -3	 -4	 -3	 2	 4	 -2	 2	 0	 -3	 -2	 -1	 -2	 -1	 1	 16.00	 18.00	 14.00	 16.00	 32.00	 2.77	 3.09	 82	 65	 0.792682926829268	 0.5	 0.396341463414634	 1
0.02	 -2.3	 6.2	 0.298	 0.66	 55.2	 -2	 -2	 -3	 -2	 3	 -3	 2	 -1	 -2	 -1	 -1	 -2	 -3	 -1	 -2	 -2	 -2	 -1	 2	 7	 -2	 -2	 -2	 -2	 -3	 -1	 0	 -3	 0	 -2	 -2	 -2	 -2	 1	 2	 -2	 -2	 1	 7	 -2	 21.00	 22.00	 18.00	 19.00	 40.00	 2.74	 2.65	 129	 123	 0.953488372093023	 0.581081081081081	 0.554054054054054	 1
-0.4	 -0.5	 10.4	 0.23	 0.41	 50.7	 -2	 -3	 -1	 0	 -1	 -2	 8	 -3	 -1	 -3	 -2	 1	 -2	 0	 0	 -1	 -2	 -3	 -2	 2	 -4	 1	 1	 -4	 -2	 -3	 -3	 -5	 9	 -5	 -5	 -2	 -2	 0	 -5	 1	 -1	 -4	 4	 -3	 25.00	 27.00	 22.00	 24.00	 49.00	 5.68	 6.36	 30	 29	 0.966666666666667	 0.16304347826087	 0.157608695652174	 -1
-0.26	 0.3	 9.2	 0.062	 -0.33	 42	 1	 -1	 0	 0	 -2	 0	 -1	 -2	 0	 -2	 -1	 1	 -1	 0	 -1	 4	 1	 -2	 -3	 -2	 0	 -1	 0	 0	 -3	 1	 -1	 0	 4	 -1	 -3	 1	 -3	 1	 0	 2	 -1	 -3	 1	 -2	 30.00	 28.00	 21.00	 19.00	 49.00	 2.69	 2.34	 41	 31	 0.75609756097561	 0.315384615384615	 0.238461538461538	 -1
