0.996852	0.003148
0.002348	0.997652
0.028996	0.971004
0.370131	0.629869
0.958585	0.041415
0.998481	0.001519
0.373144	0.626856
0.883232	0.116768
0.646635	0.353365
0.024140	0.975860
0.322120	0.677880
0.004113	0.995887
0.998941	0.001059
0.110979	0.889021
0.001406	0.998594
0.097094	0.902906
0.993363	0.006637
0.389393	0.610607
0.999717	0.000283
0.021541	0.978459
0.138297	0.861703
0.366363	0.633637
0.700164	0.299836
0.999147	0.000853
0.004096	0.995904
0.265287	0.734713
0.981893	0.018107
0.120514	0.879486
0.013059	0.986941
0.342492	0.657508
0.975267	0.024733
0.148559	0.851441
