0.450193	0.549807
0.033228	0.966772
0.024961	0.975039
0.954973	0.045027
0.002074	0.997926
0.964477	0.035523
0.945986	0.054014
0.126233	0.873767
0.001512	0.998488
0.422881	0.577119
0.859248	0.140752
0.999699	0.000301
0.000200	0.999800
0.998010	0.001990
0.990620	0.009380
0.996067	0.003933
0.913708	0.086292
0.004811	0.995189
0.544455	0.455545
0.000358	0.999642
0.562136	0.437864
0.999872	0.000128
0.870516	0.129484
0.026487	0.973513
0.366668	0.633332
0.132151	0.867849
0.997502	0.002498
0.986854	0.013146
0.002585	0.997415
0.100942	0.899058
0.000354	0.999646
