0.429871	0.570129
0.818559	0.181441
0.725859	0.274141
0.964857	0.035143
0.401089	0.598911
0.995804	0.004196
0.938493	0.061507
0.989847	0.010153
0.999488	0.000512
0.000112	0.999888
0.990874	0.009126
0.931779	0.068221
0.991625	0.008375
0.061927	0.938073
0.034478	0.965522
0.904323	0.095677
0.057244	0.942756
0.004734	0.995266
0.998043	0.001957
0.017643	0.982357
0.986092	0.013908
0.281202	0.718798
0.500556	0.499444
0.993719	0.006281
0.991077	0.008923
0.009965	0.990035
0.002019	0.997981
0.000439	0.999561
0.999498	0.000502
0.789483	0.210517
0.990687	0.009313
0.773195	0.226805
