0.376624	0.623376
0.139811	0.860189
0.018494	0.981506
0.025277	0.974723
0.052148	0.947852
0.971011	0.028989
0.018233	0.981767
0.998873	0.001127
0.003414	0.996586
0.968334	0.031666
0.854005	0.145995
0.033654	0.966346
0.962417	0.037583
0.015989	0.984011
0.068491	0.931509
0.995731	0.004269
0.658486	0.341514
0.015060	0.984940
0.951284	0.048716
0.947769	0.052231
0.905053	0.094947
0.990124	0.009876
0.767562	0.232438
0.111092	0.888908
0.414223	0.585777
0.997610	0.002390
0.004010	0.995990
0.998371	0.001629
0.106446	0.893554
0.010950	0.989050
0.775732	0.224268
