0.73	 -1.8	 5.2	 0.186	 0.44	 22.8	 -1	 -1	 -3	 -3	 0	 -4	 -3	 4	 -3	 2	 1	 -3	 -3	 -3	 -3	 -2	 -1	 3	 -3	 -1	 -4	 -5	 -6	 -6	 -4	 -4	 -5	 -6	 -5	 3	 5	 -5	 3	 1	 -5	 -5	 -3	 -4	 -3	 2	 19.00	 19.00	 20.00	 20.00	 39.00	 2.33	 2.00	 41	 32	 0.780487804878049	 0.242603550295858	 0.189349112426035	 -1
-1.76	 3	 10.5	 0.291	 0.27	 94.7	 -1	 -3	 -2	 0	 -3	 -2	 0	 -3	 2	 -2	 -1	 0	 -2	 1	 5	 -1	 -1	 -3	 -3	 -2	 -2	 6	 -2	 -3	 -4	 0	 -1	 -3	 -1	 -1	 -2	 1	 -2	 2	 -3	 -2	 -2	 5	 -1	 -2	 24.00	 22.00	 27.00	 25.00	 49.00	 6.44	 6.97	 25	 7	 0.28	 0.100806451612903	 0.0282258064516129	 1
-1.76	 3	 10.5	 0.291	 0.27	 94.7	 -1	 -3	 -2	 0	 -3	 -2	 0	 -3	 2	 -2	 -1	 0	 -2	 1	 5	 -1	 -1	 -3	 -3	 -2	 -1	 5	 0	 -2	 -3	 1	 0	 -2	 0	 -3	 -2	 2	 -1	 -3	 -2	 -1	 -1	 -3	 -2	 -3	 20.00	 13.00	 19.00	 12.00	 32.00	 3.05	 2.54	 214	 170	 0.794392523364486	 0.862903225806452	 0.685483870967742	 1
-0.69	 0.2	 10.5	 0.18	 -0.11	 68.7	 -1	 -3	 0	 2	 -3	 -2	 0	 -3	 1	 -2	 0	 0	 -1	 5	 1	 0	 -1	 -2	 -2	 -1	 -1	 1	 1	 0	 -3	 1	 1	 -3	 3	 -2	 -2	 -1	 -2	 -1	 0	 2	 2	 -4	 -1	 -1	 14.00	 17.00	 30.00	 33.00	 47.00	 2.37	 2.60	 68	 27	 0.397058823529412	 0.343434343434343	 0.136363636363636	 -1
0.73	 -1.8	 5.2	 0.186	 0.44	 22.8	 -1	 -1	 -3	 -3	 0	 -4	 -3	 4	 -3	 2	 1	 -3	 -3	 -3	 -3	 -2	 -1	 3	 -3	 -1	 -2	 -4	 -5	 -5	 -3	 -4	 -3	 -5	 -1	 3	 3	 -4	 2	 1	 -5	 -4	 -1	 -4	 -1	 4	 25.00	 19.00	 30.00	 24.00	 49.00	 3.16	 3.15	 21	 21	 1	 0.124260355029586	 0.124260355029586	 -1
-1.76	 3	 10.5	 0.291	 0.27	 94.7	 -1	 -3	 -2	 0	 -3	 -2	 0	 -3	 2	 -2	 -1	 0	 -2	 1	 5	 -1	 -1	 -3	 -3	 -2	 -1	 6	 -1	 -2	 -4	 1	 0	 -3	 -1	 -3	 -3	 2	 -2	 -3	 -2	 0	 -1	 -3	 -2	 -3	 20.00	 15.00	 32.00	 27.00	 47.00	 4.82	 7.32	 160	 133	 0.83125	 0.645161290322581	 0.536290322580645	 1
0.54	 -1.5	 5.9	 0.14	 0.27	 23.7	 0	 -1	 -3	 -2	 -1	 -3	 -3	 3	 -2	 1	 1	 -3	 -2	 -2	 -3	 -2	 0	 4	 -3	 -1	 -1	 -2	 -2	 -3	 -2	 -1	 -2	 -3	 3	 1	 1	 -2	 0	 1	 -2	 -2	 -1	 0	 5	 1	 27.00	 26.00	 26.00	 25.00	 52.00	 2.23	 2.82	 87	 67	 0.770114942528736	 0.612676056338028	 0.471830985915493	 1
-1.1	 3	 11.3	 0.219	 -0.36	 103	 -1	 -3	 -1	 1	 -3	 -2	 -1	 -3	 5	 -2	 -1	 0	 -1	 1	 2	 0	 -1	 -2	 -3	 -2	 -1	 2	 0	 -1	 -3	 1	 1	 -2	 -1	 -3	 -3	 5	 -2	 -3	 -1	 0	 -1	 -3	 -2	 -2	 23.00	 24.00	 30.00	 31.00	 54.00	 5.08	 5.11	 123	 107	 0.869918699186992	 0.6	 0.521951219512195	 1
0.73	 -1.8	 5.2	 0.186	 0.44	 22.8	 -1	 -1	 -3	 -3	 0	 -4	 -3	 4	 -3	 2	 1	 -3	 -3	 -3	 -3	 -2	 -1	 3	 -3	 -1	 -1	 1	 -3	 -3	 -4	 1	 -1	 -2	 1	 -1	 -1	 0	 -3	 0	 5	 -1	 1	 -4	 -2	 -1	 22.00	 22.00	 29.00	 29.00	 51.00	 2.40	 2.70	 114	 69	 0.605263157894737	 0.674556213017751	 0.408284023668639	 -1
-1.76	 3	 10.5	 0.291	 0.27	 94.7	 -1	 -3	 -2	 0	 -3	 -2	 0	 -3	 2	 -2	 -1	 0	 -2	 1	 5	 -1	 -1	 -3	 -3	 -2	 -2	 2	 1	 -1	 -5	 2	 2	 4	 1	 -5	 -2	 0	 -1	 -4	 -2	 -2	 -3	 -4	 0	 -4	 15.00	 8.00	 25.00	 18.00	 33.00	 2.23	 2.00	 171	 70	 0.409356725146199	 0.689516129032258	 0.282258064516129	 -1
0.37	 -3.4	 5.4	 0.409	 0.83	 34.7	 -3	 -2	 -4	 -3	 1	 -2	 -2	 -3	 -3	 -2	 -1	 -4	 -4	 -2	 -3	 -3	 -2	 -3	 11	 2	 -2	 0	 2	 3	 -1	 -1	 0	 0	 1	 -2	 -3	 1	 -2	 -1	 -2	 1	 -1	 4	 0	 -3	 23.00	 24.00	 25.00	 26.00	 49.00	 3.78	 5.46	 71	 54	 0.76056338028169	 0.312775330396476	 0.237885462555066	 -1
0.16	 0	 9	 0	 -0.07	 24.5	 0	 -3	 -1	 -2	 -3	 6	 -2	 -4	 -2	 -4	 -3	 0	 -2	 -2	 -2	 0	 -2	 -3	 -2	 -3	 -1	 3	 0	 0	 -3	 1	 3	 3	 -1	 -4	 -3	 1	 -2	 -3	 -2	 0	 -1	 -3	 -2	 -3	 16.00	 11.00	 18.00	 13.00	 29.00	 2.40	 2.00	 29	 11	 0.379310344827586	 0.345238095238095	 0.130952380952381	 -1
0.37	 -3.4	 5.4	 0.409	 0.83	 34.7	 -3	 -2	 -4	 -3	 1	 -2	 -2	 -3	 -3	 -2	 -1	 -4	 -4	 -2	 -3	 -3	 -2	 -3	 11	 2	 -1	 3	 -3	 -4	 -4	 -2	 -3	 -4	 2	 2	 -2	 -2	 -2	 0	 2	 -3	 0	 2	 6	 -2	 10.00	 12.00	 20.00	 22.00	 32.00	 2.00	 2.80	 181	 96	 0.530386740331492	 0.797356828193833	 0.422907488986784	 -1
0.37	 -3.4	 5.4	 0.409	 0.83	 34.7	 -3	 -2	 -4	 -3	 1	 -2	 -2	 -3	 -3	 -2	 -1	 -4	 -4	 -2	 -3	 -3	 -2	 -3	 11	 2	 0	 1	 2	 -1	 -1	 -1	 -1	 -1	 0	 -1	 -1	 -1	 -1	 1	 -1	 1	 -1	 2	 4	 -1	 24.00	 28.00	 26.00	 30.00	 54.00	 6.67	 6.33	 19	 19	 1	 0.0837004405286344	 0.0837004405286344	 1
-0.69	 0.2	 10.5	 0.18	 -0.11	 68.7	 -1	 -3	 0	 2	 -3	 -2	 0	 -3	 1	 -2	 0	 0	 -1	 5	 1	 0	 -1	 -2	 -2	 -1	 0	 2	 0	 1	 -3	 1	 0	 -2	 1	 -3	 -3	 2	 -2	 -3	 3	 0	 0	 -3	 -1	 -3	 7.00	 10.00	 22.00	 25.00	 32.00	 1.79	 2.00	 140	 36	 0.257142857142857	 0.707070707070707	 0.181818181818182	 -1
-1.1	 3	 11.3	 0.219	 -0.36	 103	 -1	 -3	 -1	 1	 -3	 -2	 -1	 -3	 5	 -2	 -1	 0	 -1	 1	 2	 0	 -1	 -2	 -3	 -2	 -1	 2	 0	 -1	 -3	 1	 1	 -2	 -1	 -3	 -2	 4	 -1	 -3	 -1	 0	 -1	 -3	 -2	 -2	 23.00	 24.00	 27.00	 28.00	 51.00	 2.37	 2.64	 158	 152	 0.962025316455696	 0.770731707317073	 0.741463414634146	 -1
-1.76	 3	 10.5	 0.291	 0.27	 94.7	 -1	 -3	 -2	 0	 -3	 -2	 0	 -3	 2	 -2	 -1	 0	 -2	 1	 5	 -1	 -1	 -3	 -3	 -2	 -1	 4	 -1	 -1	 -3	 3	 1	 0	 1	 -3	 -1	 2	 -2	 -3	 -2	 -1	 -2	 1	 -1	 -2	 19.00	 19.00	 18.00	 18.00	 37.00	 2.01	 2.00	 161	 126	 0.782608695652174	 0.649193548387097	 0.508064516129032	 -1
0.54	 -1.5	 5.9	 0.14	 0.27	 23.7	 0	 -1	 -3	 -2	 -1	 -3	 -3	 3	 -2	 1	 1	 -3	 -2	 -2	 -3	 -2	 0	 4	 -3	 -1	 0	 -3	 -3	 -3	 -1	 -2	 -3	 -3	 -3	 3	 1	 -3	 1	 -1	 -3	 -2	 0	 -3	 -1	 4	 24.00	 23.00	 13.00	 12.00	 36.00	 4.63	 5.15	 81	 81	 1	 0.570422535211268	 0.570422535211268	 1
-0.18	 -0.4	 8.6	 0.108	 -0.18	 45	 0	 -1	 -1	 -1	 -2	 -2	 -2	 -1	 -1	 -1	 -1	 0	 -1	 -1	 -1	 1	 5	 0	 -2	 -2	 0	 -1	 0	 -1	 -1	 -1	 -1	 -2	 -2	 -1	 -1	 -1	 -1	 -2	 -1	 1	 5	 -3	 -2	 0	 25.00	 23.00	 25.00	 23.00	 48.00	 2.97	 2.41	 71	 42	 0.591549295774648	 0.5	 0.295774647887324	 -1
-0.62	 3	 12.3	 0.151	 -0.13	 68.2	 -1	 -4	 2	 5	 -3	 -2	 0	 -3	 1	 -3	 -2	 0	 -1	 2	 0	 0	 -1	 -2	 -3	 -2	 -1	 0	 1	 3	 -4	 -1	 2	 -2	 1	 -1	 -3	 0	 -3	 -3	 1	 0	 0	 1	 2	 -1	 17.00	 13.00	 32.00	 28.00	 45.00	 2.08	 2.62	 111	 75	 0.675675675675676	 0.572164948453608	 0.38659793814433	 -1
0.37	 -3.4	 5.4	 0.409	 0.83	 34.7	 -3	 -2	 -4	 -3	 1	 -2	 -2	 -3	 -3	 -2	 -1	 -4	 -4	 -2	 -3	 -3	 -2	 -3	 11	 2	 -3	 -3	 -4	 -5	 -3	 -2	 -3	 -3	 -3	 -3	 -2	 -3	 -2	 1	 -4	 -3	 -3	 11	 2	 -3	 24.00	 21.00	 20.00	 17.00	 41.00	 4.28	 2.66	 97	 67	 0.690721649484536	 0.427312775330396	 0.295154185022026	 -1
-1.1	 3	 11.3	 0.219	 -0.36	 103	 -1	 -3	 -1	 1	 -3	 -2	 -1	 -3	 5	 -2	 -1	 0	 -1	 1	 2	 0	 -1	 -2	 -3	 -2	 -4	 0	 -2	 -4	 -6	 -2	 -2	 -4	 0	 -5	 -5	 7	 0	 -2	 -4	 -3	 0	 -5	 -1	 -3	 31.00	 23.00	 36.00	 28.00	 59.00	 4.86	 6.11	 39	 31	 0.794871794871795	 0.190243902439024	 0.151219512195122	 1
-0.26	 0.3	 9.2	 0.062	 -0.33	 42	 1	 -1	 0	 0	 -2	 0	 -1	 -2	 0	 -2	 -1	 1	 -1	 0	 -1	 4	 1	 -2	 -3	 -2	 1	 -1	 0	 0	 -1	 0	 0	 -1	 -1	 -2	 -2	 0	 -1	 -2	 -1	 4	 2	 -3	 -2	 -1	 26.00	 29.00	 20.00	 23.00	 49.00	 5.70	 5.78	 36	 36	 1	 0.276923076923077	 0.276923076923077	 1
-1.1	 3	 11.3	 0.219	 -0.36	 103	 -1	 -3	 -1	 1	 -3	 -2	 -1	 -3	 5	 -2	 -1	 0	 -1	 1	 2	 0	 -1	 -2	 -3	 -2	 -2	 1	 -2	 -2	 -5	 1	 -1	 -3	 -2	 -4	 -3	 7	 2	 -4	 -3	 -2	 -2	 -4	 -3	 -3	 27.00	 27.00	 27.00	 27.00	 54.00	 3.98	 3.79	 50	 50	 1	 0.24390243902439	 0.24390243902439	 1
0.02	 -2.3	 6.2	 0.298	 0.66	 55.2	 -2	 -2	 -3	 -2	 3	 -3	 2	 -1	 -2	 -1	 -1	 -2	 -3	 -1	 -2	 -2	 -2	 -1	 2	 7	 -2	 1	 1	 2	 -5	 2	 1	 0	 0	 -3	 -1	 1	 -2	 0	 0	 0	 -1	 -1	 2	 -3	 23.00	 24.00	 28.00	 29.00	 52.00	 2.48	 2.00	 183	 176	 0.961748633879781	 0.824324324324324	 0.792792792792793	 1
0.73	 -1.8	 5.2	 0.186	 0.44	 22.8	 -1	 -1	 -3	 -3	 0	 -4	 -3	 4	 -3	 2	 1	 -3	 -3	 -3	 -3	 -2	 -1	 3	 -3	 -1	 -1	 -1	 -1	 -1	 -2	 0	 -1	 -1	 0	 1	 0	 -1	 2	 2	 0	 0	 0	 1	 -1	 1	 21.00	 24.00	 18.00	 21.00	 42.00	 2.50	 2.81	 57	 28	 0.491228070175439	 0.337278106508876	 0.165680473372781	 1
-0.26	 0.3	 9.2	 0.062	 -0.33	 42	 1	 -1	 0	 0	 -2	 0	 -1	 -2	 0	 -2	 -1	 1	 -1	 0	 -1	 4	 1	 -2	 -3	 -2	 0	 -2	 2	 0	 -1	 0	 1	 -2	 -1	 -1	 -2	 0	 -2	 -4	 5	 0	 -2	 -4	 0	 1	 22.00	 26.00	 15.00	 19.00	 41.00	 2.25	 2.67	 46	 3	 0.0652173913043478	 0.353846153846154	 0.0230769230769231	 -1
-0.72	 3	 13	 0.105	 -0.38	 60.6	 -2	 -3	 6	 2	 -3	 -1	 -1	 -3	 -1	 -4	 -3	 1	 -1	 0	 -2	 0	 -1	 -3	 -4	 -3	 -2	 -2	 1	 6	 -4	 0	 2	 -1	 -1	 -3	 -4	 -1	 -3	 -4	 -2	 0	 -1	 -5	 -3	 -3	 4.00	 14.00	 21.00	 31.00	 35.00	 2.86	 3.20	 84	 40	 0.476190476190476	 0.515337423312883	 0.245398773006135	 -1
-1.1	 3	 11.3	 0.219	 -0.36	 103	 -1	 -3	 -1	 1	 -3	 -2	 -1	 -3	 5	 -2	 -1	 0	 -1	 1	 2	 0	 -1	 -2	 -3	 -2	 -2	 2	 -1	 -1	 -3	 0	 0	 -2	 0	 -2	 1	 3	 2	 0	 -3	 0	 0	 -2	 2	 -2	 21.00	 22.00	 29.00	 30.00	 51.00	 4.32	 5.27	 27	 27	 1	 0.131707317073171	 0.131707317073171	 -1
-1.76	 3	 10.5	 0.291	 0.27	 94.7	 -1	 -3	 -2	 0	 -3	 -2	 0	 -3	 2	 -2	 -1	 0	 -2	 1	 5	 -1	 -1	 -3	 -3	 -2	 -1	 4	 0	 -1	 0	 1	 -1	 -1	 -1	 0	 -2	 2	 0	 -3	 -1	 0	 -1	 -4	 -3	 0	 19.00	 14.00	 22.00	 17.00	 36.00	 2.01	 2.29	 192	 75	 0.390625	 0.774193548387097	 0.30241935483871	 -1
-1.76	 3	 10.5	 0.291	 0.27	 94.7	 -1	 -3	 -2	 0	 -3	 -2	 0	 -3	 2	 -2	 -1	 0	 -2	 1	 5	 -1	 -1	 -3	 -3	 -2	 -1	 0	 1	 -3	 -4	 -1	 -1	 -2	 2	 -1	 -1	 -1	 1	 2	 -1	 2	 -2	 3	 4	 -1	 32.00	 26.00	 33.00	 27.00	 59.00	 3.12	 3.95	 210	 199	 0.947619047619048	 0.846774193548387	 0.80241935483871	 -1
