0.850004	0.149996
0.891204	0.108796
0.470007	0.529993
0.390937	0.609063
0.789070	0.210930
0.299627	0.700373
0.346913	0.653087
0.517554	0.482446
0.312904	0.687096
0.510257	0.489743
0.761676	0.238324
0.292940	0.707060
0.697241	0.302759
0.566971	0.433029
0.494741	0.505259
0.659041	0.340959
0.554240	0.445760
0.186848	0.813152
0.517384	0.482616
0.662674	0.337326
0.515592	0.484408
0.467397	0.532603
0.215426	0.784574
0.154565	0.845435
0.648304	0.351696
0.260395	0.739605
0.860090	0.139910
0.689829	0.310171
0.538454	0.461546
0.791177	0.208823
0.301168	0.698832
