0.259106	0.740894
0.128213	0.871787
0.680386	0.319614
0.413226	0.586774
0.617479	0.382521
0.677014	0.322986
0.478750	0.521250
0.618747	0.381253
0.218982	0.781018
0.446463	0.553537
0.742327	0.257673
0.449524	0.550476
0.357585	0.642415
0.318551	0.681449
0.551501	0.448499
0.769382	0.230618
0.837805	0.162195
0.671590	0.328410
0.382371	0.617629
0.440802	0.559198
0.511775	0.488225
0.743275	0.256725
0.460058	0.539942
0.385010	0.614990
0.493946	0.506054
0.465406	0.534594
0.597790	0.402210
0.732248	0.267752
0.147021	0.852979
0.546646	0.453354
0.236589	0.763411
