0.02	 -2.3	 6.2	 0.298	 0.66	 55.2	 -2	 -2	 -3	 -2	 3	 -3	 2	 -1	 -2	 -1	 -1	 -2	 -3	 -1	 -2	 -2	 -2	 -1	 2	 7	 -1	 -1	 4	 0	 -3	 0	 0	 -2	 2	 -2	 -2	 0	 -2	 -1	 -2	 0	 0	 -1	 4	 -1	 15.00	 10.00	 20.00	 15.00	 30.00	 2.07	 2.00	 116	 89	 0.767241379310345	 0.522522522522523	 0.400900900900901	 -1
-0.26	 0.3	 9.2	 0.062	 -0.33	 42	 1	 -1	 0	 0	 -2	 0	 -1	 -2	 0	 -2	 -1	 1	 -1	 0	 -1	 4	 1	 -2	 -3	 -2	 -1	 1	 -1	 0	 -2	 -1	 1	 -1	 -1	 -1	 -1	 1	 0	 -2	 0	 1	 1	 -2	 1	 0	 7.00	 15.00	 10.00	 18.00	 25.00	 1.89	 2.48	 72	 26	 0.361111111111111	 0.553846153846154	 0.2	 -1
-0.72	 3	 13	 0.105	 -0.38	 60.6	 -2	 -3	 6	 2	 -3	 -1	 -1	 -3	 -1	 -4	 -3	 1	 -1	 0	 -2	 0	 -1	 -3	 -4	 -3	 -1	 1	 0	 1	 -3	 0	 1	 -2	 3	 -1	 -1	 1	 -2	 -1	 1	 1	 -1	 -3	 2	 -1	 23.00	 27.00	 9.00	 13.00	 36.00	 2.27	 2.00	 75	 5	 0.0666666666666667	 0.460122699386503	 0.0306748466257669	 1
0.02	 -2.3	 6.2	 0.298	 0.66	 55.2	 -2	 -2	 -3	 -2	 3	 -3	 2	 -1	 -2	 -1	 -1	 -2	 -3	 -1	 -2	 -2	 -2	 -1	 2	 7	 -2	 -2	 0	 1	 -3	 -2	 -2	 -3	 1	 -2	 -2	 -2	 -2	 5	 -3	 -1	 -1	 0	 6	 -2	 28.00	 30.00	 15.00	 17.00	 45.00	 3.67	 2.00	 75	 75	 1	 0.337837837837838	 0.337837837837838	 1
0.16	 0	 9	 0	 -0.07	 24.5	 0	 -3	 -1	 -2	 -3	 6	 -2	 -4	 -2	 -4	 -3	 0	 -2	 -2	 -2	 0	 -2	 -3	 -2	 -3	 -2	 -6	 0	 -5	 -6	 -5	 -5	 7	 -5	 -6	 -6	 -5	 -6	 -6	 -6	 -4	 -5	 -5	 1	 -6	 5.00	 10.00	 17.00	 22.00	 27.00	 1.81	 2.00	 6	 4	 0.666666666666667	 0.0714285714285714	 0.0476190476190476	 -1
-0.72	 3	 13	 0.105	 -0.38	 60.6	 -2	 -3	 6	 2	 -3	 -1	 -1	 -3	 -1	 -4	 -3	 1	 -1	 0	 -2	 0	 -1	 -3	 -4	 -3	 -2	 -2	 1	 6	 -3	 0	 2	 -1	 -1	 -3	 -4	 -1	 -3	 -3	 -1	 0	 -1	 -4	 -3	 -3	 21.00	 14.00	 21.00	 14.00	 35.00	 3.83	 3.73	 37	 0	 0	 0.226993865030675	 0	 -1
0.53	 -1.8	 4.9	 0.186	 0.4	 27.6	 -1	 -1	 -4	 -3	 0	 -4	 -3	 2	 -2	 4	 2	 -3	 -3	 -2	 -2	 -2	 -1	 1	 -2	 -1	 -1	 -1	 -2	 -1	 -2	 -2	 -1	 -2	 -2	 1	 2	 -1	 2	 0	 0	 -1	 -1	 5	 2	 0	 24.00	 22.00	 30.00	 28.00	 52.00	 3.17	 3.47	 33	 30	 0.909090909090909	 0.201219512195122	 0.182926829268293	 -1
0.37	 -3.4	 5.4	 0.409	 0.83	 34.7	 -3	 -2	 -4	 -3	 1	 -2	 -2	 -3	 -3	 -2	 -1	 -4	 -4	 -2	 -3	 -3	 -2	 -3	 11	 2	 -4	 1	 2	 3	 -1	 1	 0	 -3	 2	 0	 -2	 -1	 -1	 -2	 -4	 1	 -3	 4	 1	 -1	 20.00	 23.00	 23.00	 26.00	 46.00	 2.94	 4.56	 39	 33	 0.846153846153846	 0.171806167400881	 0.145374449339207	 -1
-0.69	 0.2	 10.5	 0.18	 -0.11	 68.7	 -1	 -3	 0	 2	 -3	 -2	 0	 -3	 1	 -2	 0	 0	 -1	 5	 1	 0	 -1	 -2	 -2	 -1	 0	 1	 0	 1	 -3	 4	 1	 0	 -1	 -2	 0	 -1	 0	 -2	 -1	 0	 0	 0	 -2	 -2	 12.00	 16.00	 19.00	 23.00	 35.00	 2.46	 2.61	 107	 32	 0.299065420560748	 0.54040404040404	 0.161616161616162	 -1
-0.72	 3	 13	 0.105	 -0.38	 60.6	 -2	 -3	 6	 2	 -3	 -1	 -1	 -3	 -1	 -4	 -3	 1	 -1	 0	 -2	 0	 -1	 -3	 -4	 -3	 -1	 1	 2	 4	 -3	 2	 2	 -2	 3	 -3	 -3	 0	 -2	 -3	 -2	 0	 -1	 -3	 -1	 -3	 17.00	 16.00	 23.00	 22.00	 39.00	 3.96	 3.16	 107	 95	 0.88785046728972	 0.656441717791411	 0.582822085889571	 1
-0.62	 3	 12.3	 0.151	 -0.13	 68.2	 -1	 -4	 2	 5	 -3	 -2	 0	 -3	 1	 -3	 -2	 0	 -1	 2	 0	 0	 -1	 -2	 -3	 -2	 0	 -1	 -1	 -2	 2	 2	 0	 0	 1	 -4	 -2	 -2	 -1	 -2	 4	 2	 0	 -5	 -4	 -4	 14.00	 19.00	 19.00	 24.00	 38.00	 1.86	 2.31	 103	 49	 0.475728155339806	 0.530927835051546	 0.252577319587629	 -1
0.02	 -2.3	 6.2	 0.298	 0.66	 55.2	 -2	 -2	 -3	 -2	 3	 -3	 2	 -1	 -2	 -1	 -1	 -2	 -3	 -1	 -2	 -2	 -2	 -1	 2	 7	 -1	 -1	 2	 0	 -2	 -1	 -1	 0	 0	 -2	 -2	 -1	 -2	 -1	 2	 2	 0	 1	 2	 -1	 20.00	 17.00	 23.00	 20.00	 40.00	 2.62	 3.18	 153	 112	 0.73202614379085	 0.689189189189189	 0.504504504504504	 1
-1.1	 3	 11.3	 0.219	 -0.36	 103	 -1	 -3	 -1	 1	 -3	 -2	 -1	 -3	 5	 -2	 -1	 0	 -1	 1	 2	 0	 -1	 -2	 -3	 -2	 -1	 2	 0	 -1	 -3	 1	 1	 -2	 -1	 -3	 -3	 5	 -2	 -3	 -1	 0	 -1	 -3	 -2	 -2	 23.00	 24.00	 30.00	 31.00	 54.00	 5.08	 5.11	 123	 107	 0.869918699186992	 0.6	 0.521951219512195	 1
-1.76	 3	 10.5	 0.291	 0.27	 94.7	 -1	 -3	 -2	 0	 -3	 -2	 0	 -3	 2	 -2	 -1	 0	 -2	 1	 5	 -1	 -1	 -3	 -3	 -2	 -4	 7	 -1	 -3	 -6	 1	 -3	 -5	 0	 -5	 -2	 1	 -4	 -5	 -5	 -3	 -4	 -5	 -1	 -5	 17.00	 10.00	 24.00	 17.00	 34.00	 1.83	 2.00	 103	 2	 0.0194174757281553	 0.415322580645161	 0.00806451612903226	 -1
0.54	 -1.5	 5.9	 0.14	 0.27	 23.7	 0	 -1	 -3	 -2	 -1	 -3	 -3	 3	 -2	 1	 1	 -3	 -2	 -2	 -3	 -2	 0	 4	 -3	 -1	 0	 -3	 -3	 -3	 -1	 -2	 -3	 -3	 -3	 3	 1	 -3	 1	 -1	 -3	 -2	 0	 -3	 -1	 4	 24.00	 23.00	 13.00	 12.00	 36.00	 4.63	 5.15	 81	 81	 1	 0.570422535211268	 0.570422535211268	 1
-0.62	 3	 12.3	 0.151	 -0.13	 68.2	 -1	 -4	 2	 5	 -3	 -2	 0	 -3	 1	 -3	 -2	 0	 -1	 2	 0	 0	 -1	 -2	 -3	 -2	 3	 -2	 -2	 0	 -3	 0	 5	 -2	 -2	 -4	 -4	 -1	 -3	 -4	 -2	 -1	 -2	 -4	 -3	 -3	 21.00	 23.00	 19.00	 21.00	 42.00	 5.11	 5.09	 40	 40	 1	 0.206185567010309	 0.206185567010309	 1
0.16	 0	 9	 0	 -0.07	 24.5	 0	 -3	 -1	 -2	 -3	 6	 -2	 -4	 -2	 -4	 -3	 0	 -2	 -2	 -2	 0	 -2	 -3	 -2	 -3	 -1	 0	 1	 1	 -3	 0	 0	 1	 -1	 0	 -1	 -1	 -2	 0	 -1	 1	 0	 2	 2	 -1	 10.00	 14.00	 28.00	 32.00	 42.00	 1.85	 2.00	 16	 0	 0	 0.19047619047619	 0	 1
-0.4	 -0.5	 10.4	 0.23	 0.41	 50.7	 -2	 -3	 -1	 0	 -1	 -2	 8	 -3	 -1	 -3	 -2	 1	 -2	 0	 0	 -1	 -2	 -3	 -2	 2	 -2	 1	 -2	 -1	 -3	 -1	 -2	 -3	 0	 1	 -3	 2	 -1	 -4	 -2	 1	 5	 -4	 -3	 0	 17.00	 17.00	 26.00	 26.00	 43.00	 2.16	 2.00	 101	 72	 0.712871287128713	 0.548913043478261	 0.391304347826087	 -1
-0.18	 -0.4	 8.6	 0.108	 -0.18	 45	 0	 -1	 -1	 -1	 -2	 -2	 -2	 -1	 -1	 -1	 -1	 0	 -1	 -1	 -1	 1	 5	 0	 -2	 -2	 0	 -2	 2	 -1	 -1	 -1	 -1	 -2	 -2	 0	 -1	 -1	 -1	 -2	 2	 1	 4	 -3	 -2	 0	 20.00	 22.00	 20.00	 22.00	 42.00	 3.16	 3.51	 32	 19	 0.59375	 0.225352112676056	 0.133802816901408	 -1
-1.76	 3	 10.5	 0.291	 0.27	 94.7	 -1	 -3	 -2	 0	 -3	 -2	 0	 -3	 2	 -2	 -1	 0	 -2	 1	 5	 -1	 -1	 -3	 -3	 -2	 0	 1	 2	 1	 -3	 1	 1	 -2	 0	 -2	 0	 0	 0	 -2	 -1	 0	 0	 -3	 0	 -2	 26.00	 19.00	 31.00	 24.00	 50.00	 2.39	 2.20	 105	 44	 0.419047619047619	 0.423387096774194	 0.17741935483871	 -1
-1.1	 3	 11.3	 0.219	 -0.36	 103	 -1	 -3	 -1	 1	 -3	 -2	 -1	 -3	 5	 -2	 -1	 0	 -1	 1	 2	 0	 -1	 -2	 -3	 -2	 0	 4	 0	 -1	 -3	 0	 0	 1	 -1	 -3	 -3	 3	 -2	 -3	 -2	 1	 -1	 -3	 -2	 -2	 20.00	 17.00	 28.00	 25.00	 45.00	 3.53	 4.26	 53	 10	 0.188679245283019	 0.258536585365854	 0.0487804878048781	 -1
0.02	 -2.3	 6.2	 0.298	 0.66	 55.2	 -2	 -2	 -3	 -2	 3	 -3	 2	 -1	 -2	 -1	 -1	 -2	 -3	 -1	 -2	 -2	 -2	 -1	 2	 7	 -2	 -2	 -2	 -3	 -3	 -2	 -2	 -3	 2	 -2	 -1	 -2	 -1	 3	 -3	 -2	 -2	 2	 7	 -1	 28.00	 28.00	 22.00	 22.00	 50.00	 5.35	 3.77	 98	 96	 0.979591836734694	 0.441441441441441	 0.432432432432432	 1
0.61	 -2.5	 5.2	 0.29	 0.82	 25.5	 -2	 -2	 -3	 -3	 6	 -3	 -1	 0	 -3	 0	 0	 -3	 -4	 -3	 -3	 -2	 -2	 -1	 1	 3	 -2	 -3	 -3	 -4	 -2	 -3	 -3	 -3	 -1	 0	 0	 -3	 0	 6	 -4	 -2	 -2	 1	 3	 -1	 24.00	 20.00	 12.00	 8.00	 32.00	 2.45	 2.72	 110	 93	 0.845454545454545	 0.558375634517767	 0.472081218274112	 1
-1.76	 3	 10.5	 0.291	 0.27	 94.7	 -1	 -3	 -2	 0	 -3	 -2	 0	 -3	 2	 -2	 -1	 0	 -2	 1	 5	 -1	 -1	 -3	 -3	 -2	 -2	 0	 -2	 -2	 -3	 0	 -2	 -1	 -2	 0	 3	 0	 0	 1	 -1	 -2	 -1	 2	 3	 -1	 27.00	 30.00	 24.00	 27.00	 54.00	 7.27	 5.84	 34	 31	 0.911764705882353	 0.137096774193548	 0.125	 1
-0.62	 3	 12.3	 0.151	 -0.13	 68.2	 -1	 -4	 2	 5	 -3	 -2	 0	 -3	 1	 -3	 -2	 0	 -1	 2	 0	 0	 -1	 -2	 -3	 -2	 -1	 0	 0	 1	 -4	 2	 5	 -2	 0	 -3	 -3	 1	 -2	 -3	 -1	 0	 -1	 -3	 -2	 -2	 21.00	 28.00	 24.00	 31.00	 52.00	 5.16	 5.71	 70	 69	 0.985714285714286	 0.360824742268041	 0.355670103092784	 1
0.02	 -2.3	 6.2	 0.298	 0.66	 55.2	 -2	 -2	 -3	 -2	 3	 -3	 2	 -1	 -2	 -1	 -1	 -2	 -3	 -1	 -2	 -2	 -2	 -1	 2	 7	 -2	 -2	 1	 -1	 -2	 -2	 -1	 0	 0	 -1	 -1	 -2	 -3	 2	 -3	 1	 0	 6	 4	 0	 30.00	 29.00	 28.00	 27.00	 57.00	 4.65	 5.80	 71	 69	 0.971830985915493	 0.31981981981982	 0.310810810810811	 -1
-1.1	 3	 11.3	 0.219	 -0.36	 103	 -1	 -3	 -1	 1	 -3	 -2	 -1	 -3	 5	 -2	 -1	 0	 -1	 1	 2	 0	 -1	 -2	 -3	 -2	 -1	 1	 -1	 -1	 -3	 0	 0	 -2	 -1	 2	 -1	 4	 0	 -2	 -2	 -1	 -1	 -3	 -2	 0	 15.00	 11.00	 27.00	 23.00	 38.00	 2.78	 2.74	 110	 3	 0.0272727272727273	 0.536585365853659	 0.0146341463414634	 -1
-0.4	 -0.5	 10.4	 0.23	 0.41	 50.7	 -2	 -3	 -1	 0	 -1	 -2	 8	 -3	 -1	 -3	 -2	 1	 -2	 0	 0	 -1	 -2	 -3	 -2	 2	 0	 -1	 0	 -1	 -1	 -3	 -3	 0	 1	 -3	 -2	 -2	 -3	 1	 -4	 0	 0	 5	 6	 -2	 22.00	 20.00	 33.00	 31.00	 53.00	 7.09	 7.00	 62	 31	 0.5	 0.33695652173913	 0.168478260869565	 -1
-0.62	 3	 12.3	 0.151	 -0.13	 68.2	 -1	 -4	 2	 5	 -3	 -2	 0	 -3	 1	 -3	 -2	 0	 -1	 2	 0	 0	 -1	 -2	 -3	 -2	 0	 -1	 2	 3	 -3	 -1	 2	 -2	 -2	 -3	 -3	 1	 -3	 -2	 -3	 3	 0	 -4	 1	 -2	 23.00	 27.00	 21.00	 25.00	 48.00	 2.03	 2.36	 67	 25	 0.373134328358209	 0.345360824742268	 0.128865979381443	 -1
-0.62	 3	 12.3	 0.151	 -0.13	 68.2	 -1	 -4	 2	 5	 -3	 -2	 0	 -3	 1	 -3	 -2	 0	 -1	 2	 0	 0	 -1	 -2	 -3	 -2	 -1	 1	 -1	 0	 -3	 2	 2	 -1	 0	 -2	 -2	 1	 0	 -1	 -3	 1	 2	 1	 0	 -1	 19.00	 17.00	 24.00	 22.00	 41.00	 3.62	 5.41	 86	 69	 0.802325581395349	 0.443298969072165	 0.355670103092784	 -1
0.73	 -1.8	 5.2	 0.186	 0.44	 22.8	 -1	 -1	 -3	 -3	 0	 -4	 -3	 4	 -3	 2	 1	 -3	 -3	 -3	 -3	 -2	 -1	 3	 -3	 -1	 -4	 -5	 -6	 -6	 -4	 -4	 -5	 -6	 -5	 3	 5	 -5	 3	 1	 -5	 -5	 -3	 -4	 -3	 2	 19.00	 19.00	 20.00	 20.00	 39.00	 2.33	 2.00	 41	 32	 0.780487804878049	 0.242603550295858	 0.189349112426035	 -1
