0.921466	0.078534
0.352366	0.647634
0.460714	0.539286
0.908662	0.091338
0.212297	0.787703
0.893841	0.106159
0.942563	0.057437
0.077337	0.922663
0.613844	0.386156
0.932599	0.067401
0.123326	0.876674
0.126125	0.873875
0.794162	0.205838
0.444835	0.555165
0.277886	0.722114
0.175002	0.824998
0.054275	0.945725
0.883149	0.116851
0.172016	0.827984
0.681009	0.318991
0.316516	0.683484
0.186255	0.813745
0.627812	0.372188
0.749410	0.250590
0.929526	0.070474
0.361788	0.638212
0.463788	0.536212
0.379023	0.620977
0.558400	0.441600
0.220293	0.779707
0.705082	0.294918
