0.315571	0.684429
0.591932	0.408068
0.789598	0.210402
0.425276	0.574724
0.682944	0.317056
0.570925	0.429075
0.781385	0.218615
0.447597	0.552403
0.447351	0.552649
0.519045	0.480955
0.667484	0.332516
0.347453	0.652547
0.265734	0.734266
0.363047	0.636953
0.769020	0.230980
0.672237	0.327763
0.446863	0.553137
0.297091	0.702909
0.578954	0.421046
0.514014	0.485986
0.626199	0.373801
0.861792	0.138208
0.340984	0.659016
0.563612	0.436388
0.661312	0.338688
0.176705	0.823295
0.457683	0.542317
0.624606	0.375394
0.636494	0.363506
0.576140	0.423860
0.185675	0.814325
0.756732	0.243268
