0.896182	0.103818
0.804827	0.195173
0.830808	0.169192
0.219386	0.780614
0.852400	0.147600
0.693095	0.306905
0.525602	0.474398
0.304704	0.695296
0.354326	0.645674
0.397490	0.602510
0.296060	0.703940
0.665690	0.334310
0.396407	0.603593
0.436196	0.563804
0.305947	0.694053
0.327913	0.672087
0.721397	0.278603
0.412474	0.587526
0.729837	0.270163
0.800427	0.199573
0.513044	0.486956
0.325008	0.674992
0.228956	0.771044
0.360230	0.639770
0.342195	0.657805
0.556498	0.443502
0.718542	0.281458
0.196973	0.803027
0.545756	0.454244
0.237425	0.762575
0.593342	0.406658
