0.602416	0.397584
0.769797	0.230203
0.881234	0.118766
0.835505	0.164495
0.381371	0.618629
0.536242	0.463758
0.712002	0.287998
0.157796	0.842204
0.690300	0.309700
0.733032	0.266968
0.437349	0.562651
0.709574	0.290426
0.485953	0.514047
0.861336	0.138664
0.500000	0.500000
0.478083	0.521917
0.485985	0.514015
0.837149	0.162851
0.647299	0.352701
0.119812	0.880188
0.522133	0.477867
0.852128	0.147872
0.520615	0.479385
0.438331	0.561669
0.681950	0.318050
0.633307	0.366693
0.622878	0.377122
0.680927	0.319073
0.189218	0.810782
0.608580	0.391420
0.888538	0.111462
