0.992851	0.007149
0.887030	0.112970
0.999303	0.000697
0.999719	0.000281
0.128588	0.871412
0.982618	0.017382
0.994683	0.005317
0.407107	0.592893
0.378144	0.621856
0.134720	0.865280
0.308716	0.691284
0.082014	0.917986
0.014864	0.985136
0.999433	0.000567
0.012275	0.987725
0.032609	0.967391
0.913465	0.086535
0.954441	0.045559
0.004716	0.995284
0.468026	0.531974
0.999026	0.000974
0.988771	0.011229
0.000761	0.999239
0.994998	0.005002
0.998456	0.001544
0.060992	0.939008
0.239146	0.760854
0.995900	0.004100
0.720017	0.279983
0.697527	0.302473
0.000502	0.999498
