-0.64	 2	 11.6	 0.134	 0.12	 60.1	 -2	 -3	 1	 0	 -3	 0	 1	 -3	 0	 -3	 -2	 6	 -2	 0	 0	 1	 0	 -3	 -4	 -2	 -3	 -2	 1	 -1	 7	 0	 1	 -1	 1	 -1	 -2	 -1	 -1	 -1	 1	 -1	 -1	 -7	 1	 -1	 13.00	 12.00	 24.00	 23.00	 36.00	 2.30	 3.09	 71	 34	 0.47887323943662	 0.452229299363057	 0.21656050955414	 -1
-0.72	 3	 13	 0.105	 -0.38	 60.6	 -2	 -3	 6	 2	 -3	 -1	 -1	 -3	 -1	 -4	 -3	 1	 -1	 0	 -2	 0	 -1	 -3	 -4	 -3	 -1	 -1	 0	 4	 -4	 1	 4	 -2	 -1	 -3	 -3	 0	 -3	 -4	 -1	 0	 -1	 -4	 -3	 -3	 11.00	 14.00	 24.00	 27.00	 38.00	 2.10	 2.69	 89	 20	 0.224719101123595	 0.54601226993865	 0.122699386503067	 -1
-0.62	 3	 12.3	 0.151	 -0.13	 68.2	 -1	 -4	 2	 5	 -3	 -2	 0	 -3	 1	 -3	 -2	 0	 -1	 2	 0	 0	 -1	 -2	 -3	 -2	 -1	 0	 0	 2	 -4	 2	 5	 -2	 0	 -3	 -3	 1	 -2	 -3	 -1	 0	 -1	 -3	 -2	 -2	 23.00	 27.00	 24.00	 28.00	 51.00	 8.16	 8.94	 16	 10	 0.625	 0.0824742268041237	 0.0515463917525773	 1
-0.69	 0.2	 10.5	 0.18	 -0.11	 68.7	 -1	 -3	 0	 2	 -3	 -2	 0	 -3	 1	 -2	 0	 0	 -1	 5	 1	 0	 -1	 -2	 -2	 -1	 -3	 -1	 -2	 -3	 -5	 7	 0	 -4	 0	 -5	 -2	 3	 -3	 -5	 -4	 0	 -2	 -5	 -4	 -4	 23.00	 21.00	 23.00	 21.00	 44.00	 4.61	 5.28	 45	 29	 0.644444444444444	 0.227272727272727	 0.146464646464646	 -1
-0.26	 0.3	 9.2	 0.062	 -0.33	 42	 1	 -1	 0	 0	 -2	 0	 -1	 -2	 0	 -2	 -1	 1	 -1	 0	 -1	 4	 1	 -2	 -3	 -2	 0	 -2	 2	 0	 0	 -1	 -1	 0	 -2	 -2	 -2	 0	 1	 -2	 1	 2	 2	 -3	 0	 -1	 22.00	 27.00	 14.00	 19.00	 41.00	 3.44	 2.94	 13	 12	 0.923076923076923	 0.1	 0.0923076923076923	 -1
-0.72	 3	 13	 0.105	 -0.38	 60.6	 -2	 -3	 6	 2	 -3	 -1	 -1	 -3	 -1	 -4	 -3	 1	 -1	 0	 -2	 0	 -1	 -3	 -4	 -3	 -2	 -2	 1	 6	 -4	 0	 2	 -1	 -1	 -3	 -4	 -1	 -3	 -4	 -2	 0	 -1	 -4	 -3	 -3	 33.00	 33.00	 24.00	 24.00	 57.00	 4.99	 4.95	 167	 157	 0.940119760479042	 1.02453987730061	 0.96319018404908	 1
-0.26	 0.3	 9.2	 0.062	 -0.33	 42	 1	 -1	 0	 0	 -2	 0	 -1	 -2	 0	 -2	 -1	 1	 -1	 0	 -1	 4	 1	 -2	 -3	 -2	 0	 -1	 0	 0	 -3	 1	 -1	 0	 4	 -1	 -3	 1	 -3	 1	 0	 2	 -1	 -3	 1	 -2	 30.00	 28.00	 21.00	 19.00	 49.00	 2.69	 2.34	 41	 31	 0.75609756097561	 0.315384615384615	 0.238461538461538	 -1
-0.26	 0.3	 9.2	 0.062	 -0.33	 42	 1	 -1	 0	 0	 -2	 0	 -1	 -2	 0	 -2	 -1	 1	 -1	 0	 -1	 4	 1	 -2	 -3	 -2	 0	 -2	 -1	 -2	 -1	 -1	 -1	 -2	 -2	 0	 2	 -1	 1	 -1	 -2	 2	 0	 -2	 -1	 0	 4.00	 8.00	 17.00	 21.00	 25.00	 1.85	 2.31	 113	 34	 0.300884955752212	 0.869230769230769	 0.261538461538462	 -1
-0.18	 -0.4	 8.6	 0.108	 -0.18	 45	 0	 -1	 -1	 -1	 -2	 -2	 -2	 -1	 -1	 -1	 -1	 0	 -1	 -1	 -1	 1	 5	 0	 -2	 -2	 -1	 -1	 0	 -2	 -4	 0	 0	 -1	 -1	 -3	 -1	 0	 0	 -2	 4	 1	 1	 -1	 0	 -2	 23.00	 27.00	 24.00	 28.00	 51.00	 2.83	 3.46	 103	 87	 0.844660194174757	 0.725352112676056	 0.612676056338028	 -1
-0.62	 3	 12.3	 0.151	 -0.13	 68.2	 -1	 -4	 2	 5	 -3	 -2	 0	 -3	 1	 -3	 -2	 0	 -1	 2	 0	 0	 -1	 -2	 -3	 -2	 -2	 -1	 0	 2	 -4	 1	 4	 -3	 2	 0	 -1	 0	 0	 -3	 -3	 0	 0	 -4	 -1	 0	 23.00	 26.00	 32.00	 35.00	 58.00	 3.97	 5.15	 77	 56	 0.727272727272727	 0.396907216494845	 0.288659793814433	 1
0.02	 -2.3	 6.2	 0.298	 0.66	 55.2	 -2	 -2	 -3	 -2	 3	 -3	 2	 -1	 -2	 -1	 -1	 -2	 -3	 -1	 -2	 -2	 -2	 -1	 2	 7	 -2	 -4	 0	 -2	 -2	 -2	 -1	 -2	 1	 -3	 0	 -3	 -2	 1	 4	 0	 0	 2	 5	 -3	 22.00	 22.00	 25.00	 25.00	 47.00	 4.71	 5.11	 143	 67	 0.468531468531469	 0.644144144144144	 0.301801801801802	 1
0.02	 -2.3	 6.2	 0.298	 0.66	 55.2	 -2	 -2	 -3	 -2	 3	 -3	 2	 -1	 -2	 -1	 -1	 -2	 -3	 -1	 -2	 -2	 -2	 -1	 2	 7	 -2	 -2	 0	 1	 -3	 -2	 -2	 -3	 1	 -2	 -2	 -2	 -2	 5	 -3	 -1	 -1	 0	 6	 -2	 28.00	 30.00	 15.00	 17.00	 45.00	 3.67	 2.00	 75	 75	 1	 0.337837837837838	 0.337837837837838	 1
0.61	 -2.5	 5.2	 0.29	 0.82	 25.5	 -2	 -2	 -3	 -3	 6	 -3	 -1	 0	 -3	 0	 0	 -3	 -4	 -3	 -3	 -2	 -2	 -1	 1	 3	 -2	 -3	 -3	 -4	 -3	 -4	 -4	 -3	 -1	 0	 0	 -3	 0	 7	 -4	 -3	 -2	 1	 3	 -1	 26.00	 25.00	 20.00	 19.00	 45.00	 5.04	 4.50	 179	 155	 0.865921787709497	 0.908629441624365	 0.786802030456853	 1
-0.72	 3	 13	 0.105	 -0.38	 60.6	 -2	 -3	 6	 2	 -3	 -1	 -1	 -3	 -1	 -4	 -3	 1	 -1	 0	 -2	 0	 -1	 -3	 -4	 -3	 -2	 -2	 1	 6	 -4	 0	 2	 -1	 -1	 -3	 -4	 -1	 -3	 -4	 -2	 0	 -1	 -5	 -3	 -3	 32.00	 27.00	 28.00	 23.00	 55.00	 7.83	 7.32	 92	 90	 0.978260869565217	 0.56441717791411	 0.552147239263804	 1
-0.72	 3	 13	 0.105	 -0.38	 60.6	 -2	 -3	 6	 2	 -3	 -1	 -1	 -3	 -1	 -4	 -3	 1	 -1	 0	 -2	 0	 -1	 -3	 -4	 -3	 -1	 0	 3	 1	 -3	 1	 1	 -1	 2	 -1	 -2	 1	 -1	 -2	 0	 0	 0	 -3	 3	 -2	 19.00	 12.00	 27.00	 20.00	 39.00	 2.43	 2.29	 72	 51	 0.708333333333333	 0.441717791411043	 0.312883435582822	 -1
-0.62	 3	 12.3	 0.151	 -0.13	 68.2	 -1	 -4	 2	 5	 -3	 -2	 0	 -3	 1	 -3	 -2	 0	 -1	 2	 0	 0	 -1	 -2	 -3	 -2	 -1	 0	 -1	 0	 -2	 1	 3	 -2	 -1	 1	 -1	 2	 -1	 -2	 -2	 -1	 -1	 -3	 -2	 1	 16.00	 17.00	 21.00	 22.00	 38.00	 2.26	 2.67	 65	 41	 0.630769230769231	 0.335051546391753	 0.211340206185567	 1
0.37	 -3.4	 5.4	 0.409	 0.83	 34.7	 -3	 -2	 -4	 -3	 1	 -2	 -2	 -3	 -3	 -2	 -1	 -4	 -4	 -2	 -3	 -3	 -2	 -3	 11	 2	 -1	 -1	 0	 0	 -2	 -1	 0	 -1	 1	 0	 -1	 0	 -1	 -1	 2	 1	 0	 2	 2	 -1	 22.00	 20.00	 31.00	 29.00	 51.00	 6.00	 6.62	 63	 26	 0.412698412698413	 0.277533039647577	 0.114537444933921	 1
-1.1	 3	 11.3	 0.219	 -0.36	 103	 -1	 -3	 -1	 1	 -3	 -2	 -1	 -3	 5	 -2	 -1	 0	 -1	 1	 2	 0	 -1	 -2	 -3	 -2	 -1	 -1	 -1	 -1	 -2	 1	 0	 -2	 1	 0	 1	 1	 -1	 -2	 2	 0	 1	 -3	 -2	 1	 27.00	 28.00	 21.00	 22.00	 49.00	 6.04	 5.98	 114	 88	 0.771929824561403	 0.55609756097561	 0.429268292682927	 -1
-0.62	 3	 12.3	 0.151	 -0.13	 68.2	 -1	 -4	 2	 5	 -3	 -2	 0	 -3	 1	 -3	 -2	 0	 -1	 2	 0	 0	 -1	 -2	 -3	 -2	 -1	 0	 0	 2	 -4	 2	 5	 -2	 0	 -3	 -3	 1	 -2	 -3	 -1	 0	 -1	 -3	 -2	 -3	 7.00	 13.00	 28.00	 34.00	 41.00	 2.41	 2.71	 74	 16	 0.216216216216216	 0.381443298969072	 0.0824742268041237	 -1
-0.07	 0	 8	 0.131	 -0.25	 51.5	 -1	 -3	 -1	 -1	 -4	 -2	 -2	 -3	 -1	 -3	 -2	 -2	 7	 -1	 -2	 -1	 -1	 -2	 -4	 -3	 -1	 -1	 -2	 -2	 -3	 -2	 -2	 -3	 -3	 -3	 -3	 -1	 -3	 -4	 8	 -1	 -2	 -4	 -3	 -3	 7.00	 8.00	 17.00	 18.00	 25.00	 1.98	 2.00	 90	 37	 0.411111111111111	 0.661764705882353	 0.272058823529412	 1
-1.76	 3	 10.5	 0.291	 0.27	 94.7	 -1	 -3	 -2	 0	 -3	 -2	 0	 -3	 2	 -2	 -1	 0	 -2	 1	 5	 -1	 -1	 -3	 -3	 -2	 0	 4	 0	 0	 -2	 1	 -1	 -2	 -2	 -2	 -2	 3	 -1	 -2	 -3	 1	 -1	 -4	 -3	 -1	 21.00	 18.00	 21.00	 18.00	 39.00	 2.03	 2.00	 180	 146	 0.811111111111111	 0.725806451612903	 0.588709677419355	 -1
-0.26	 0.3	 9.2	 0.062	 -0.33	 42	 1	 -1	 0	 0	 -2	 0	 -1	 -2	 0	 -2	 -1	 1	 -1	 0	 -1	 4	 1	 -2	 -3	 -2	 1	 -1	 3	 0	 -1	 0	 0	 0	 0	 -3	 -3	 0	 -2	 -3	 -1	 4	 1	 -3	 -2	 -2	 7.00	 7.00	 27.00	 27.00	 34.00	 2.27	 2.00	 109	 33	 0.302752293577982	 0.838461538461538	 0.253846153846154	 -1
-1.1	 3	 11.3	 0.219	 -0.36	 103	 -1	 -3	 -1	 1	 -3	 -2	 -1	 -3	 5	 -2	 -1	 0	 -1	 1	 2	 0	 -1	 -2	 -3	 -2	 -4	 0	 -2	 -4	 -6	 -2	 -2	 -4	 0	 -5	 -5	 7	 0	 -2	 -4	 -3	 0	 -5	 -1	 -3	 31.00	 23.00	 36.00	 28.00	 59.00	 4.86	 6.11	 39	 31	 0.794871794871795	 0.190243902439024	 0.151219512195122	 1
-0.4	 -0.5	 10.4	 0.23	 0.41	 50.7	 -2	 -3	 -1	 0	 -1	 -2	 8	 -3	 -1	 -3	 -2	 1	 -2	 0	 0	 -1	 -2	 -3	 -2	 2	 -1	 2	 0	 1	 -4	 -1	 -2	 -3	 2	 -4	 -4	 4	 -3	 -3	 -4	 -2	 -1	 8	 -2	 -4	 17.00	 10.00	 21.00	 14.00	 31.00	 2.23	 2.00	 109	 25	 0.229357798165138	 0.592391304347826	 0.135869565217391	 -1
0.02	 -2.3	 6.2	 0.298	 0.66	 55.2	 -2	 -2	 -3	 -2	 3	 -3	 2	 -1	 -2	 -1	 -1	 -2	 -3	 -1	 -2	 -2	 -2	 -1	 2	 7	 -2	 -2	 1	 0	 -4	 -2	 -1	 -3	 1	 -3	 -3	 -2	 -3	 1	 -4	 1	 0	 -1	 7	 -3	 6.00	 4.00	 22.00	 20.00	 26.00	 1.82	 2.00	 199	 76	 0.381909547738693	 0.896396396396396	 0.342342342342342	 -1
-0.62	 3	 12.3	 0.151	 -0.13	 68.2	 -1	 -4	 2	 5	 -3	 -2	 0	 -3	 1	 -3	 -2	 0	 -1	 2	 0	 0	 -1	 -2	 -3	 -2	 0	 -1	 2	 3	 -3	 -1	 2	 -2	 -2	 -3	 -3	 1	 -3	 -2	 -3	 3	 0	 -4	 1	 -2	 23.00	 27.00	 21.00	 25.00	 48.00	 2.03	 2.36	 67	 25	 0.373134328358209	 0.345360824742268	 0.128865979381443	 -1
0.54	 -1.5	 5.9	 0.14	 0.27	 23.7	 0	 -1	 -3	 -2	 -1	 -3	 -3	 3	 -2	 1	 1	 -3	 -2	 -2	 -3	 -2	 0	 4	 -3	 -1	 1	 -2	 -3	 -3	 -1	 -2	 -2	 -2	 -3	 2	 2	 -2	 3	 -1	 -2	 -1	 -1	 -3	 -1	 3	 25.00	 27.00	 26.00	 28.00	 53.00	 7.49	 8.42	 50	 50	 1	 0.352112676056338	 0.352112676056338	 1
0.02	 -2.3	 6.2	 0.298	 0.66	 55.2	 -2	 -2	 -3	 -2	 3	 -3	 2	 -1	 -2	 -1	 -1	 -2	 -3	 -1	 -2	 -2	 -2	 -1	 2	 7	 -1	 0	 -1	 0	 -3	 -1	 0	 1	 -1	 0	 -1	 -1	 -1	 1	 -1	 1	 -1	 2	 3	 -1	 11.00	 15.00	 27.00	 31.00	 42.00	 2.56	 3.37	 117	 57	 0.487179487179487	 0.527027027027027	 0.256756756756757	 -1
0.37	 -3.4	 5.4	 0.409	 0.83	 34.7	 -3	 -2	 -4	 -3	 1	 -2	 -2	 -3	 -3	 -2	 -1	 -4	 -4	 -2	 -3	 -3	 -2	 -3	 11	 2	 0	 1	 2	 -1	 -1	 -1	 -1	 -1	 0	 -1	 -1	 -1	 -1	 1	 -1	 1	 -1	 2	 4	 -1	 24.00	 28.00	 26.00	 30.00	 54.00	 6.67	 6.33	 19	 19	 1	 0.0837004405286344	 0.0837004405286344	 1
-0.69	 0.2	 10.5	 0.18	 -0.11	 68.7	 -1	 -3	 0	 2	 -3	 -2	 0	 -3	 1	 -2	 0	 0	 -1	 5	 1	 0	 -1	 -2	 -2	 -1	 -1	 1	 0	 -2	 -3	 2	 -1	 -3	 2	 1	 0	 1	 1	 -3	 -1	 0	 1	 -3	 -2	 0	 15.00	 16.00	 20.00	 21.00	 36.00	 1.95	 2.44	 161	 84	 0.521739130434783	 0.813131313131313	 0.424242424242424	 -1
0.02	 -2.3	 6.2	 0.298	 0.66	 55.2	 -2	 -2	 -3	 -2	 3	 -3	 2	 -1	 -2	 -1	 -1	 -2	 -3	 -1	 -2	 -2	 -2	 -1	 2	 7	 -3	 -3	 2	 0	 -4	 -2	 -2	 -3	 1	 -1	 -3	 -2	 -1	 1	 -4	 1	 1	 -2	 7	 -2	 25.00	 20.00	 27.00	 22.00	 47.00	 3.49	 4.44	 62	 32	 0.516129032258065	 0.279279279279279	 0.144144144144144	 -1
