0.572281	0.427719
0.252895	0.747105
0.739298	0.260702
0.646583	0.353417
0.678127	0.321873
0.493700	0.506300
0.691916	0.308084
0.735204	0.264796
0.656912	0.343088
0.286707	0.713293
0.651318	0.348682
0.207216	0.792784
0.616762	0.383238
0.653657	0.346343
0.677480	0.322520
0.794347	0.205653
0.624668	0.375332
0.330325	0.669675
0.529969	0.470031
0.710628	0.289372
0.529828	0.470172
0.459077	0.540923
0.162847	0.837153
0.684069	0.315931
0.747553	0.252447
0.398237	0.601763
0.782800	0.217200
0.359670	0.640330
0.460085	0.539915
0.779630	0.220370
0.365564	0.634436
