0.500000	0.500000
0.263082	0.736918
0.237714	0.762286
0.665364	0.334636
0.773000	0.227000
0.243767	0.756233
0.639745	0.360255
0.151390	0.848610
0.745193	0.254807
0.450995	0.549005
0.438125	0.561875
0.636638	0.363362
0.469366	0.530634
0.299925	0.700075
0.605984	0.394016
0.527331	0.472669
0.752377	0.247623
0.485181	0.514819
0.722028	0.277972
0.841273	0.158727
0.717849	0.282151
0.614122	0.385878
0.820146	0.179854
0.820607	0.179393
0.657285	0.342715
0.208260	0.791740
0.700218	0.299782
0.779624	0.220376
0.479734	0.520266
0.322315	0.677685
0.656098	0.343902
