0.515198	0.484802
0.612429	0.387571
0.231798	0.768202
0.657024	0.342976
0.483186	0.516814
0.266915	0.733085
0.797194	0.202806
0.777490	0.222510
0.569322	0.430678
0.796410	0.203590
0.500000	0.500000
0.407344	0.592656
0.537929	0.462071
0.334778	0.665222
0.553898	0.446102
0.814210	0.185790
0.724075	0.275925
0.364799	0.635201
0.528731	0.471269
0.569655	0.430345
0.426714	0.573286
0.264601	0.735399
0.823927	0.176073
0.775287	0.224713
0.243743	0.756257
0.371757	0.628243
0.479473	0.520527
0.671024	0.328976
0.795566	0.204434
0.418769	0.581231
0.558635	0.441365
