0.193509	0.806491
0.201727	0.798273
0.042607	0.957393
0.295722	0.704278
0.114757	0.885243
0.845221	0.154779
0.255315	0.744685
0.341102	0.658898
0.001254	0.998746
0.995612	0.004388
0.236682	0.763318
0.057575	0.942425
0.775710	0.224290
0.608112	0.391888
0.465449	0.534551
0.051997	0.948003
0.873852	0.126148
0.950660	0.049340
0.998946	0.001054
0.073902	0.926098
0.245108	0.754892
0.256476	0.743524
0.709648	0.290352
0.038827	0.961173
0.262856	0.737144
0.029885	0.970115
0.999482	0.000518
0.040896	0.959104
0.353326	0.646674
0.893247	0.106753
0.076500	0.923500
0.995669	0.004331
