0.025865	0.974135
0.696414	0.303586
0.038053	0.961947
0.956522	0.043478
0.928186	0.071814
0.013734	0.986266
0.996720	0.003280
0.641322	0.358678
0.060310	0.939690
0.199927	0.800073
0.999425	0.000575
0.998842	0.001158
0.991206	0.008794
0.001916	0.998084
0.170717	0.829283
0.282164	0.717836
0.999197	0.000803
0.676071	0.323929
0.005858	0.994142
0.000099	0.999901
0.052433	0.947567
0.999239	0.000761
0.936028	0.063972
0.010523	0.989477
0.560815	0.439185
0.041098	0.958902
0.993820	0.006180
0.282213	0.717787
0.874675	0.125325
0.013076	0.986924
0.999052	0.000948
