0.02	 -2.3	 6.2	 0.298	 0.66	 55.2	 -2	 -2	 -3	 -2	 3	 -3	 2	 -1	 -2	 -1	 -1	 -2	 -3	 -1	 -2	 -2	 -2	 -1	 2	 7	 -1	 -1	 2	 -2	 -3	 -1	 -1	 0	 -1	 -1	 -1	 -2	 -2	 1	 1	 1	 0	 3	 4	 -2	 29.00	 29.00	 23.00	 23.00	 52.00	 5.72	 6.60	 208	 198	 0.951923076923077	 0.936936936936937	 0.891891891891892	 1
-1.1	 3	 11.3	 0.219	 -0.36	 103	 -1	 -3	 -1	 1	 -3	 -2	 -1	 -3	 5	 -2	 -1	 0	 -1	 1	 2	 0	 -1	 -2	 -3	 -2	 -2	 0	 -1	 -1	 -3	 2	 1	 -2	 0	 1	 1	 1	 -1	 -2	 2	 0	 -1	 -4	 -1	 0	 23.00	 18.00	 24.00	 19.00	 42.00	 2.60	 2.55	 71	 19	 0.267605633802817	 0.346341463414634	 0.0926829268292683	 -1
0.02	 -2.3	 6.2	 0.298	 0.66	 55.2	 -2	 -2	 -3	 -2	 3	 -3	 2	 -1	 -2	 -1	 -1	 -2	 -3	 -1	 -2	 -2	 -2	 -1	 2	 7	 -2	 -2	 -2	 -3	 -3	 -2	 -2	 -3	 2	 -2	 -1	 -2	 -1	 3	 -3	 -2	 -2	 2	 7	 -1	 16.00	 13.00	 23.00	 20.00	 36.00	 2.37	 2.00	 176	 102	 0.579545454545455	 0.792792792792793	 0.459459459459459	 1
-0.62	 3	 12.3	 0.151	 -0.13	 68.2	 -1	 -4	 2	 5	 -3	 -2	 0	 -3	 1	 -3	 -2	 0	 -1	 2	 0	 0	 -1	 -2	 -3	 -2	 -3	 1	 2	 4	 -5	 -1	 5	 -3	 -2	 -5	 -3	 -1	 -4	 -5	 -3	 -2	 -3	 0	 -4	 -3	 18.00	 17.00	 17.00	 16.00	 34.00	 1.79	 2.00	 84	 52	 0.619047619047619	 0.43298969072165	 0.268041237113402	 -1
0.37	 -3.4	 5.4	 0.409	 0.83	 34.7	 -3	 -2	 -4	 -3	 1	 -2	 -2	 -3	 -3	 -2	 -1	 -4	 -4	 -2	 -3	 -3	 -2	 -3	 11	 2	 -2	 0	 2	 3	 -1	 -1	 0	 0	 1	 -2	 -3	 1	 -2	 -1	 -2	 1	 -1	 4	 0	 -3	 23.00	 24.00	 25.00	 26.00	 49.00	 3.78	 5.46	 71	 54	 0.76056338028169	 0.312775330396476	 0.237885462555066	 -1
-0.4	 -0.5	 10.4	 0.23	 0.41	 50.7	 -2	 -3	 -1	 0	 -1	 -2	 8	 -3	 -1	 -3	 -2	 1	 -2	 0	 0	 -1	 -2	 -3	 -2	 2	 -4	 1	 1	 -4	 -2	 -3	 -3	 -5	 9	 -5	 -5	 -2	 -2	 0	 -5	 1	 -1	 -4	 4	 -3	 25.00	 27.00	 22.00	 24.00	 49.00	 5.68	 6.36	 30	 29	 0.966666666666667	 0.16304347826087	 0.157608695652174	 -1
-0.72	 3	 13	 0.105	 -0.38	 60.6	 -2	 -3	 6	 2	 -3	 -1	 -1	 -3	 -1	 -4	 -3	 1	 -1	 0	 -2	 0	 -1	 -3	 -4	 -3	 -2	 -2	 1	 6	 -4	 0	 2	 -1	 -1	 -3	 -4	 -1	 -3	 -4	 -2	 0	 -1	 -5	 -3	 -3	 19.00	 22.00	 27.00	 30.00	 49.00	 5.66	 5.28	 53	 45	 0.849056603773585	 0.325153374233129	 0.276073619631902	 1
0.16	 0	 9	 0	 -0.07	 24.5	 0	 -3	 -1	 -2	 -3	 6	 -2	 -4	 -2	 -4	 -3	 0	 -2	 -2	 -2	 0	 -2	 -3	 -2	 -3	 -1	 3	 0	 0	 -3	 1	 3	 3	 -1	 -4	 -3	 1	 -2	 -3	 -2	 0	 -1	 -3	 -2	 -3	 16.00	 11.00	 18.00	 13.00	 29.00	 2.40	 2.00	 29	 11	 0.379310344827586	 0.345238095238095	 0.130952380952381	 -1
-0.72	 3	 13	 0.105	 -0.38	 60.6	 -2	 -3	 6	 2	 -3	 -1	 -1	 -3	 -1	 -4	 -3	 1	 -1	 0	 -2	 0	 -1	 -3	 -4	 -3	 -2	 -2	 1	 6	 -4	 0	 1	 -1	 -1	 -3	 -4	 -1	 -3	 -4	 -2	 0	 -1	 -4	 -3	 -3	 13.00	 16.00	 26.00	 29.00	 42.00	 3.64	 4.71	 74	 44	 0.594594594594595	 0.45398773006135	 0.269938650306748	 1
-0.4	 -0.5	 10.4	 0.23	 0.41	 50.7	 -2	 -3	 -1	 0	 -1	 -2	 8	 -3	 -1	 -3	 -2	 1	 -2	 0	 0	 -1	 -2	 -3	 -2	 2	 -5	 -3	 0	 -1	 -6	 -2	 -3	 -5	 11	 -6	 -6	 -4	 -5	 -4	 -5	 -4	 -5	 -5	 -1	 -6	 22.00	 18.00	 32.00	 28.00	 50.00	 3.66	 3.83	 85	 62	 0.729411764705882	 0.46195652173913	 0.33695652173913	 -1
-0.69	 0.2	 10.5	 0.18	 -0.11	 68.7	 -1	 -3	 0	 2	 -3	 -2	 0	 -3	 1	 -2	 0	 0	 -1	 5	 1	 0	 -1	 -2	 -2	 -1	 0	 1	 0	 1	 -3	 4	 1	 0	 -1	 -2	 0	 -1	 0	 -2	 -1	 0	 0	 0	 -2	 -2	 12.00	 16.00	 19.00	 23.00	 35.00	 2.46	 2.61	 107	 32	 0.299065420560748	 0.54040404040404	 0.161616161616162	 -1
-0.64	 2	 11.6	 0.134	 0.12	 60.1	 -2	 -3	 1	 0	 -3	 0	 1	 -3	 0	 -3	 -2	 6	 -2	 0	 0	 1	 0	 -3	 -4	 -2	 -2	 -2	 6	 1	 -4	 0	 0	 -1	 -1	 -4	 -3	 2	 -3	 -3	 -3	 -1	 -2	 -4	 1	 -4	 15.00	 14.00	 17.00	 16.00	 31.00	 1.89	 2.00	 105	 12	 0.114285714285714	 0.668789808917197	 0.0764331210191083	 -1
-0.69	 0.2	 10.5	 0.18	 -0.11	 68.7	 -1	 -3	 0	 2	 -3	 -2	 0	 -3	 1	 -2	 0	 0	 -1	 5	 1	 0	 -1	 -2	 -2	 -1	 0	 2	 0	 1	 -3	 1	 0	 -2	 1	 -3	 -3	 2	 -2	 -3	 3	 0	 0	 -3	 -1	 -3	 7.00	 10.00	 22.00	 25.00	 32.00	 1.79	 2.00	 140	 36	 0.257142857142857	 0.707070707070707	 0.181818181818182	 -1
-0.07	 0	 8	 0.131	 -0.25	 51.5	 -1	 -3	 -1	 -1	 -4	 -2	 -2	 -3	 -1	 -3	 -2	 -2	 7	 -1	 -2	 -1	 -1	 -2	 -4	 -3	 -1	 -1	 -2	 -2	 -3	 -2	 -2	 -3	 -3	 -3	 -3	 -1	 -3	 -4	 8	 -1	 -2	 -4	 -3	 -3	 7.00	 8.00	 17.00	 18.00	 25.00	 1.98	 2.00	 90	 37	 0.411111111111111	 0.661764705882353	 0.272058823529412	 1
-1.76	 3	 10.5	 0.291	 0.27	 94.7	 -1	 -3	 -2	 0	 -3	 -2	 0	 -3	 2	 -2	 -1	 0	 -2	 1	 5	 -1	 -1	 -3	 -3	 -2	 1	 5	 -2	 -2	 -3	 0	 0	 -3	 -2	 -4	 -3	 1	 1	 -4	 2	 2	 -2	 3	 -3	 -3	 21.00	 19.00	 16.00	 14.00	 35.00	 2.14	 2.00	 142	 102	 0.71830985915493	 0.57258064516129	 0.411290322580645	 1
-1.76	 3	 10.5	 0.291	 0.27	 94.7	 -1	 -3	 -2	 0	 -3	 -2	 0	 -3	 2	 -2	 -1	 0	 -2	 1	 5	 -1	 -1	 -3	 -3	 -2	 -1	 4	 -1	 -1	 -3	 3	 1	 0	 1	 -3	 -1	 2	 -2	 -3	 -2	 -1	 -2	 1	 -1	 -2	 19.00	 19.00	 18.00	 18.00	 37.00	 2.01	 2.00	 161	 126	 0.782608695652174	 0.649193548387097	 0.508064516129032	 -1
0.02	 -2.3	 6.2	 0.298	 0.66	 55.2	 -2	 -2	 -3	 -2	 3	 -3	 2	 -1	 -2	 -1	 -1	 -2	 -3	 -1	 -2	 -2	 -2	 -1	 2	 7	 -1	 -1	 1	 -2	 -4	 -2	 -2	 1	 -1	 -2	 -1	 -3	 -1	 1	 1	 1	 0	 2	 4	 -2	 25.00	 22.00	 28.00	 25.00	 50.00	 8.72	 8.77	 182	 155	 0.851648351648352	 0.81981981981982	 0.698198198198198	 1
-0.18	 -0.4	 8.6	 0.108	 -0.18	 45	 0	 -1	 -1	 -1	 -2	 -2	 -2	 -1	 -1	 -1	 -1	 0	 -1	 -1	 -1	 1	 5	 0	 -2	 -2	 -1	 -1	 0	 -2	 -4	 0	 0	 -1	 -1	 -3	 -1	 0	 0	 -2	 4	 1	 1	 -1	 0	 -2	 23.00	 27.00	 24.00	 28.00	 51.00	 2.83	 3.46	 103	 87	 0.844660194174757	 0.725352112676056	 0.612676056338028	 -1
0.53	 -1.8	 4.9	 0.186	 0.4	 27.6	 -1	 -1	 -4	 -3	 0	 -4	 -3	 2	 -2	 4	 2	 -3	 -3	 -2	 -2	 -2	 -1	 1	 -2	 -1	 1	 0	 -2	 -1	 -2	 -1	 0	 0	 2	 1	 1	 -1	 0	 -1	 -2	 -1	 -1	 -3	 -1	 1	 25.00	 21.00	 22.00	 18.00	 43.00	 2.21	 2.00	 67	 61	 0.91044776119403	 0.408536585365854	 0.371951219512195	 -1
0.53	 -1.8	 4.9	 0.186	 0.4	 27.6	 -1	 -1	 -4	 -3	 0	 -4	 -3	 2	 -2	 4	 2	 -3	 -3	 -2	 -2	 -2	 -1	 1	 -2	 -1	 -1	 -1	 0	 -2	 -2	 -1	 -2	 -3	 -2	 2	 2	 0	 1	 2	 -2	 -1	 0	 -2	 -1	 2	 23.00	 22.00	 18.00	 17.00	 40.00	 5.12	 4.91	 65	 65	 1	 0.396341463414634	 0.396341463414634	 -1
-0.62	 3	 12.3	 0.151	 -0.13	 68.2	 -1	 -4	 2	 5	 -3	 -2	 0	 -3	 1	 -3	 -2	 0	 -1	 2	 0	 0	 -1	 -2	 -3	 -2	 -2	 0	 -1	 -3	 -3	 -2	 2	 -6	 4	 -1	 -4	 1	 -4	 -1	 -8	 2	 2	 0	 3	 1	 13.00	 16.00	 24.00	 27.00	 40.00	 2.50	 2.73	 50	 7	 0.14	 0.257731958762887	 0.0360824742268041	 -1
-0.62	 3	 12.3	 0.151	 -0.13	 68.2	 -1	 -4	 2	 5	 -3	 -2	 0	 -3	 1	 -3	 -2	 0	 -1	 2	 0	 0	 -1	 -2	 -3	 -2	 -1	 0	 0	 1	 -4	 2	 5	 -2	 0	 -3	 -3	 1	 -2	 -3	 -1	 0	 -1	 -3	 -2	 -2	 21.00	 28.00	 24.00	 31.00	 52.00	 5.16	 5.71	 70	 69	 0.985714285714286	 0.360824742268041	 0.355670103092784	 1
0.53	 -1.8	 4.9	 0.186	 0.4	 27.6	 -1	 -1	 -4	 -3	 0	 -4	 -3	 2	 -2	 4	 2	 -3	 -3	 -2	 -2	 -2	 -1	 1	 -2	 -1	 -1	 -2	 -3	 -4	 -1	 -2	 -3	 -4	 -3	 2	 4	 -2	 2	 0	 -3	 -2	 -1	 -2	 -1	 1	 16.00	 18.00	 14.00	 16.00	 32.00	 2.77	 3.09	 82	 65	 0.792682926829268	 0.5	 0.396341463414634	 1
-0.72	 3	 13	 0.105	 -0.38	 60.6	 -2	 -3	 6	 2	 -3	 -1	 -1	 -3	 -1	 -4	 -3	 1	 -1	 0	 -2	 0	 -1	 -3	 -4	 -3	 -1	 1	 0	 1	 -3	 0	 1	 -2	 3	 -1	 -1	 1	 -2	 -1	 1	 1	 -1	 -3	 2	 -1	 23.00	 27.00	 9.00	 13.00	 36.00	 2.27	 2.00	 75	 5	 0.0666666666666667	 0.460122699386503	 0.0306748466257669	 1
-0.26	 0.3	 9.2	 0.062	 -0.33	 42	 1	 -1	 0	 0	 -2	 0	 -1	 -2	 0	 -2	 -1	 1	 -1	 0	 -1	 4	 1	 -2	 -3	 -2	 0	 -2	 2	 0	 0	 -1	 -1	 0	 -2	 -2	 -2	 0	 1	 -2	 1	 2	 2	 -3	 0	 -1	 22.00	 27.00	 14.00	 19.00	 41.00	 3.44	 2.94	 13	 12	 0.923076923076923	 0.1	 0.0923076923076923	 -1
0.54	 -1.5	 5.9	 0.14	 0.27	 23.7	 0	 -1	 -3	 -2	 -1	 -3	 -3	 3	 -2	 1	 1	 -3	 -2	 -2	 -3	 -2	 0	 4	 -3	 -1	 -2	 -1	 -1	 -1	 2	 0	 0	 -2	 2	 -1	 -1	 -2	 0	 -1	 3	 0	 1	 2	 1	 -1	 12.00	 22.00	 20.00	 30.00	 42.00	 4.26	 4.32	 130	 109	 0.838461538461538	 0.915492957746479	 0.767605633802817	 -1
-0.69	 0.2	 10.5	 0.18	 -0.11	 68.7	 -1	 -3	 0	 2	 -3	 -2	 0	 -3	 1	 -2	 0	 0	 -1	 5	 1	 0	 -1	 -2	 -2	 -1	 -2	 0	 -2	 -2	 9	 1	 0	 -2	 0	 -2	 -3	 -2	 -1	 -1	 -2	 -3	 -3	 -6	 -1	 -1	 19.00	 19.00	 12.00	 12.00	 31.00	 1.90	 2.23	 85	 37	 0.435294117647059	 0.429292929292929	 0.186868686868687	 -1
0.37	 -3.4	 5.4	 0.409	 0.83	 34.7	 -3	 -2	 -4	 -3	 1	 -2	 -2	 -3	 -3	 -2	 -1	 -4	 -4	 -2	 -3	 -3	 -2	 -3	 11	 2	 -4	 -5	 -5	 -6	 -4	 -4	 -5	 -4	 -4	 -4	 -4	 -5	 -3	 0	 -5	 -5	 -4	 12	 0	 -5	 25.00	 25.00	 22.00	 22.00	 47.00	 3.56	 5.17	 35	 21	 0.6	 0.154185022026432	 0.092511013215859	 -1
-0.72	 3	 13	 0.105	 -0.38	 60.6	 -2	 -3	 6	 2	 -3	 -1	 -1	 -3	 -1	 -4	 -3	 1	 -1	 0	 -2	 0	 -1	 -3	 -4	 -3	 0	 -1	 2	 3	 -3	 1	 1	 1	 0	 -2	 -2	 -1	 -2	 -2	 -2	 2	 0	 -3	 -2	 -2	 19.00	 16.00	 22.00	 19.00	 38.00	 2.36	 2.00	 119	 78	 0.65546218487395	 0.730061349693252	 0.478527607361963	 1
0.54	 -1.5	 5.9	 0.14	 0.27	 23.7	 0	 -1	 -3	 -2	 -1	 -3	 -3	 3	 -2	 1	 1	 -3	 -2	 -2	 -3	 -2	 0	 4	 -3	 -1	 -2	 -2	 -2	 -2	 -4	 -1	 -3	 -5	 -1	 4	 0	 -1	 4	 0	 -3	 -2	 1	 3	 -2	 2	 24.00	 25.00	 24.00	 25.00	 49.00	 2.38	 3.17	 60	 26	 0.433333333333333	 0.422535211267606	 0.183098591549296	 -1
0.02	 -2.3	 6.2	 0.298	 0.66	 55.2	 -2	 -2	 -3	 -2	 3	 -3	 2	 -1	 -2	 -1	 -1	 -2	 -3	 -1	 -2	 -2	 -2	 -1	 2	 7	 -2	 -4	 0	 -2	 -2	 -2	 -1	 -2	 1	 -3	 0	 -3	 -2	 1	 4	 0	 0	 2	 5	 -3	 22.00	 22.00	 25.00	 25.00	 47.00	 4.71	 5.11	 143	 67	 0.468531468531469	 0.644144144144144	 0.301801801801802	 1
-0.64	 2	 11.6	 0.134	 0.12	 60.1	 -2	 -3	 1	 0	 -3	 0	 1	 -3	 0	 -3	 -2	 6	 -2	 0	 0	 1	 0	 -3	 -4	 -2	 -3	 -3	 3	 0	 -5	 -1	 -2	 0	 1	 -3	 -2	 -2	 -2	 -1	 2	 2	 1	 -4	 4	 -4	 20.00	 21.00	 26.00	 27.00	 47.00	 2.93	 2.58	 70	 54	 0.771428571428571	 0.445859872611465	 0.343949044585987	 1
