0.37	 -3.4	 5.4	 0.409	 0.83	 34.7	 -3	 -2	 -4	 -3	 1	 -2	 -2	 -3	 -3	 -2	 -1	 -4	 -4	 -2	 -3	 -3	 -2	 -3	 11	 2	 -3	 -3	 -4	 -5	 -3	 -2	 -3	 -3	 -3	 -3	 -2	 -3	 -2	 1	 -4	 -3	 -3	 12	 2	 -3	 18.00	 20.00	 12.00	 14.00	 32.00	 2.21	 2.00	 192	 138	 0.71875	 0.845814977973568	 0.607929515418502	 1
-0.62	 3	 12.3	 0.151	 -0.13	 68.2	 -1	 -4	 2	 5	 -3	 -2	 0	 -3	 1	 -3	 -2	 0	 -1	 2	 0	 0	 -1	 -2	 -3	 -2	 -1	 0	 0	 2	 -4	 2	 5	 -2	 0	 -3	 -3	 1	 -2	 -3	 -1	 0	 -1	 -3	 -2	 -2	 22.00	 22.00	 25.00	 25.00	 47.00	 2.52	 2.00	 108	 108	 1	 0.556701030927835	 0.556701030927835	 1
-0.18	 -0.4	 8.6	 0.108	 -0.18	 45	 0	 -1	 -1	 -1	 -2	 -2	 -2	 -1	 -1	 -1	 -1	 0	 -1	 -1	 -1	 1	 5	 0	 -2	 -2	 0	 -1	 0	 -1	 -1	 -1	 -1	 -2	 -2	 -1	 -1	 -1	 -1	 -2	 -1	 1	 5	 -3	 -2	 0	 28.00	 28.00	 23.00	 23.00	 51.00	 5.06	 5.22	 18	 16	 0.888888888888889	 0.126760563380282	 0.112676056338028	 1
-0.26	 0.3	 9.2	 0.062	 -0.33	 42	 1	 -1	 0	 0	 -2	 0	 -1	 -2	 0	 -2	 -1	 1	 -1	 0	 -1	 4	 1	 -2	 -3	 -2	 1	 -1	 2	 2	 -3	 1	 -1	 -3	 3	 -3	 -2	 -1	 -3	 0	 -1	 2	 2	 -4	 -1	 -2	 21.00	 21.00	 28.00	 28.00	 49.00	 4.83	 5.21	 12	 12	 1	 0.0923076923076923	 0.0923076923076923	 -1
-0.72	 3	 13	 0.105	 -0.38	 60.6	 -2	 -3	 6	 2	 -3	 -1	 -1	 -3	 -1	 -4	 -3	 1	 -1	 0	 -2	 0	 -1	 -3	 -4	 -3	 -1	 -2	 1	 5	 -4	 0	 2	 2	 -1	 -4	 -4	 -1	 -3	 -4	 -2	 -1	 -1	 -4	 -3	 -3	 24.00	 25.00	 19.00	 20.00	 44.00	 5.12	 4.69	 29	 23	 0.793103448275862	 0.177914110429448	 0.141104294478528	 1
-0.72	 3	 13	 0.105	 -0.38	 60.6	 -2	 -3	 6	 2	 -3	 -1	 -1	 -3	 -1	 -4	 -3	 1	 -1	 0	 -2	 0	 -1	 -3	 -4	 -3	 -2	 -1	 5	 4	 -3	 0	 0	 -1	 0	 -3	 -4	 0	 -3	 -3	 -2	 0	 0	 -4	 -3	 -3	 17.00	 19.00	 16.00	 18.00	 35.00	 1.77	 2.36	 152	 60	 0.394736842105263	 0.932515337423313	 0.368098159509202	 -1
0.02	 -2.3	 6.2	 0.298	 0.66	 55.2	 -2	 -2	 -3	 -2	 3	 -3	 2	 -1	 -2	 -1	 -1	 -2	 -3	 -1	 -2	 -2	 -2	 -1	 2	 7	 -2	 -2	 -2	 -3	 -3	 -2	 -2	 -3	 2	 -2	 -1	 -2	 -1	 3	 -3	 -2	 -2	 2	 7	 -1	 17.00	 12.00	 18.00	 13.00	 30.00	 2.44	 2.00	 163	 100	 0.613496932515337	 0.734234234234234	 0.45045045045045	 1
0.73	 -1.8	 5.2	 0.186	 0.44	 22.8	 -1	 -1	 -3	 -3	 0	 -4	 -3	 4	 -3	 2	 1	 -3	 -3	 -3	 -3	 -2	 -1	 3	 -3	 -1	 -2	 -4	 -5	 -5	 -3	 -4	 -5	 -5	 -5	 6	 0	 -4	 0	 -2	 -4	 -4	 -2	 -4	 -3	 4	 23.00	 23.00	 22.00	 22.00	 45.00	 3.44	 4.09	 7	 2	 0.285714285714286	 0.0414201183431953	 0.0118343195266272	 -1
0.54	 -1.5	 5.9	 0.14	 0.27	 23.7	 0	 -1	 -3	 -2	 -1	 -3	 -3	 3	 -2	 1	 1	 -3	 -2	 -2	 -3	 -2	 0	 4	 -3	 -1	 1	 -2	 -3	 -3	 -1	 -2	 -2	 -2	 -3	 2	 2	 -2	 3	 -1	 -2	 -1	 -1	 -3	 -1	 3	 25.00	 27.00	 26.00	 28.00	 53.00	 7.49	 8.42	 50	 50	 1	 0.352112676056338	 0.352112676056338	 1
0.02	 -2.3	 6.2	 0.298	 0.66	 55.2	 -2	 -2	 -3	 -2	 3	 -3	 2	 -1	 -2	 -1	 -1	 -2	 -3	 -1	 -2	 -2	 -2	 -1	 2	 7	 -3	 -1	 -2	 -3	 -4	 -2	 -3	 -1	 -1	 -2	 -2	 -1	 -4	 2	 -4	 1	 -1	 2	 8	 -3	 17.00	 23.00	 24.00	 30.00	 47.00	 4.21	 6.30	 112	 89	 0.794642857142857	 0.504504504504504	 0.400900900900901	 -1
0.61	 -2.5	 5.2	 0.29	 0.82	 25.5	 -2	 -2	 -3	 -3	 6	 -3	 -1	 0	 -3	 0	 0	 -3	 -4	 -3	 -3	 -2	 -2	 -1	 1	 3	 -2	 -3	 -3	 -4	 -2	 -3	 -3	 -3	 -1	 0	 0	 -3	 0	 6	 -4	 -2	 -2	 1	 3	 -1	 23.00	 27.00	 20.00	 24.00	 47.00	 3.96	 2.68	 161	 146	 0.906832298136646	 0.817258883248731	 0.741116751269036	 1
-0.62	 3	 12.3	 0.151	 -0.13	 68.2	 -1	 -4	 2	 5	 -3	 -2	 0	 -3	 1	 -3	 -2	 0	 -1	 2	 0	 0	 -1	 -2	 -3	 -2	 0	 -1	 -1	 -2	 2	 2	 0	 0	 1	 -4	 -2	 -2	 -1	 -2	 4	 2	 0	 -5	 -4	 -4	 14.00	 19.00	 19.00	 24.00	 38.00	 1.86	 2.31	 103	 49	 0.475728155339806	 0.530927835051546	 0.252577319587629	 -1
0.02	 -2.3	 6.2	 0.298	 0.66	 55.2	 -2	 -2	 -3	 -2	 3	 -3	 2	 -1	 -2	 -1	 -1	 -2	 -3	 -1	 -2	 -2	 -2	 -1	 2	 7	 -2	 -2	 -2	 -3	 -3	 -2	 -3	 2	 1	 -2	 -2	 -2	 -2	 2	 -3	 -2	 -2	 1	 7	 -2	 29.00	 26.00	 24.00	 21.00	 50.00	 7.32	 6.53	 2	 0	 0	 0.00900900900900901	 0	 1
-0.64	 2	 11.6	 0.134	 0.12	 60.1	 -2	 -3	 1	 0	 -3	 0	 1	 -3	 0	 -3	 -2	 6	 -2	 0	 0	 1	 0	 -3	 -4	 -2	 -3	 -3	 3	 0	 -5	 -1	 -2	 0	 1	 -3	 -2	 -2	 -2	 -1	 2	 2	 1	 -4	 4	 -4	 20.00	 21.00	 26.00	 27.00	 47.00	 2.93	 2.58	 70	 54	 0.771428571428571	 0.445859872611465	 0.343949044585987	 1
0.73	 -1.8	 5.2	 0.186	 0.44	 22.8	 -1	 -1	 -3	 -3	 0	 -4	 -3	 4	 -3	 2	 1	 -3	 -3	 -3	 -3	 -2	 -1	 3	 -3	 -1	 -4	 -5	 -6	 -6	 -4	 -4	 -5	 -6	 -5	 3	 5	 -5	 3	 1	 -5	 -5	 -3	 -4	 -3	 2	 19.00	 19.00	 20.00	 20.00	 39.00	 2.33	 2.00	 41	 32	 0.780487804878049	 0.242603550295858	 0.189349112426035	 -1
0.37	 -3.4	 5.4	 0.409	 0.83	 34.7	 -3	 -2	 -4	 -3	 1	 -2	 -2	 -3	 -3	 -2	 -1	 -4	 -4	 -2	 -3	 -3	 -2	 -3	 11	 2	 0	 3	 -1	 0	 0	 1	 -1	 -2	 3	 -3	 -2	 -3	 -2	 -2	 -1	 3	 -2	 3	 0	 -2	 23.00	 22.00	 27.00	 26.00	 49.00	 3.52	 4.28	 42	 36	 0.857142857142857	 0.185022026431718	 0.158590308370044	 1
0.37	 -3.4	 5.4	 0.409	 0.83	 34.7	 -3	 -2	 -4	 -3	 1	 -2	 -2	 -3	 -3	 -2	 -1	 -4	 -4	 -2	 -3	 -3	 -2	 -3	 11	 2	 -3	 -3	 -4	 -4	 -2	 -2	 -3	 -2	 -2	 -3	 -2	 -3	 -1	 1	 -4	 -3	 -2	 10	 2	 -3	 3.00	 0.00	 16.00	 13.00	 16.00	 1.67	 2.00	 136	 99	 0.727941176470588	 0.599118942731278	 0.436123348017621	 1
-1.76	 3	 10.5	 0.291	 0.27	 94.7	 -1	 -3	 -2	 0	 -3	 -2	 0	 -3	 2	 -2	 -1	 0	 -2	 1	 5	 -1	 -1	 -3	 -3	 -2	 -2	 2	 1	 -1	 -5	 2	 2	 4	 1	 -5	 -2	 0	 -1	 -4	 -2	 -2	 -3	 -4	 0	 -4	 15.00	 8.00	 25.00	 18.00	 33.00	 2.23	 2.00	 171	 70	 0.409356725146199	 0.689516129032258	 0.282258064516129	 -1
-0.69	 0.2	 10.5	 0.18	 -0.11	 68.7	 -1	 -3	 0	 2	 -3	 -2	 0	 -3	 1	 -2	 0	 0	 -1	 5	 1	 0	 -1	 -2	 -2	 -1	 -3	 -1	 -2	 -3	 -5	 7	 0	 -4	 0	 -5	 -2	 3	 -3	 -5	 -4	 0	 -2	 -5	 -4	 -4	 23.00	 21.00	 23.00	 21.00	 44.00	 4.61	 5.28	 45	 29	 0.644444444444444	 0.227272727272727	 0.146464646464646	 -1
-0.18	 -0.4	 8.6	 0.108	 -0.18	 45	 0	 -1	 -1	 -1	 -2	 -2	 -2	 -1	 -1	 -1	 -1	 0	 -1	 -1	 -1	 1	 5	 0	 -2	 -2	 -1	 -1	 0	 -2	 -4	 0	 0	 -1	 -1	 -3	 -1	 0	 0	 -2	 4	 1	 1	 -1	 0	 -2	 23.00	 27.00	 24.00	 28.00	 51.00	 2.83	 3.46	 103	 87	 0.844660194174757	 0.725352112676056	 0.612676056338028	 -1
0.53	 -1.8	 4.9	 0.186	 0.4	 27.6	 -1	 -1	 -4	 -3	 0	 -4	 -3	 2	 -2	 4	 2	 -3	 -3	 -2	 -2	 -2	 -1	 1	 -2	 -1	 -1	 -2	 -3	 -4	 -1	 -2	 -3	 -4	 -3	 2	 4	 -2	 2	 0	 -3	 -2	 -1	 -2	 -1	 1	 16.00	 18.00	 14.00	 16.00	 32.00	 2.77	 3.09	 82	 65	 0.792682926829268	 0.5	 0.396341463414634	 1
0.73	 -1.8	 5.2	 0.186	 0.44	 22.8	 -1	 -1	 -3	 -3	 0	 -4	 -3	 4	 -3	 2	 1	 -3	 -3	 -3	 -3	 -2	 -1	 3	 -3	 -1	 -1	 -3	 -2	 -2	 -2	 -2	 -3	 -3	 0	 3	 2	 -2	 0	 2	 -1	 1	 -1	 -3	 -1	 2	 29.00	 31.00	 18.00	 20.00	 49.00	 4.19	 3.78	 21	 19	 0.904761904761905	 0.124260355029586	 0.112426035502959	 -1
-0.26	 0.3	 9.2	 0.062	 -0.33	 42	 1	 -1	 0	 0	 -2	 0	 -1	 -2	 0	 -2	 -1	 1	 -1	 0	 -1	 4	 1	 -2	 -3	 -2	 0	 2	 -1	 -1	 -2	 2	 0	 -1	 -1	 -3	 -2	 3	 -2	 -3	 -1	 2	 0	 -3	 -2	 -2	 30.00	 27.00	 22.00	 19.00	 49.00	 2.74	 2.00	 40	 40	 1	 0.307692307692308	 0.307692307692308	 -1
-1.1	 3	 11.3	 0.219	 -0.36	 103	 -1	 -3	 -1	 1	 -3	 -2	 -1	 -3	 5	 -2	 -1	 0	 -1	 1	 2	 0	 -1	 -2	 -3	 -2	 -1	 2	 0	 -1	 -3	 1	 1	 -2	 -1	 -3	 -3	 5	 -1	 -3	 -1	 0	 -1	 -3	 -2	 -2	 27.00	 24.00	 27.00	 24.00	 51.00	 5.30	 4.89	 26	 24	 0.923076923076923	 0.126829268292683	 0.117073170731707	 1
-0.62	 3	 12.3	 0.151	 -0.13	 68.2	 -1	 -4	 2	 5	 -3	 -2	 0	 -3	 1	 -3	 -2	 0	 -1	 2	 0	 0	 -1	 -2	 -3	 -2	 -1	 0	 0	 2	 -4	 2	 5	 -2	 0	 -3	 -3	 1	 -2	 -3	 -1	 0	 -1	 -3	 -2	 -3	 26.00	 16.00	 29.00	 19.00	 45.00	 3.03	 2.99	 17	 3	 0.176470588235294	 0.0876288659793814	 0.0154639175257732	 -1
0.73	 -1.8	 5.2	 0.186	 0.44	 22.8	 -1	 -1	 -3	 -3	 0	 -4	 -3	 4	 -3	 2	 1	 -3	 -3	 -3	 -3	 -2	 -1	 3	 -3	 -1	 -1	 -3	 -3	 -3	 -1	 -3	 -3	 -4	 -3	 4	 2	 -3	 1	 0	 -3	 -2	 -1	 -3	 -1	 3	 23.00	 20.00	 22.00	 19.00	 42.00	 4.96	 5.07	 26	 26	 1	 0.153846153846154	 0.153846153846154	 1
-1.76	 3	 10.5	 0.291	 0.27	 94.7	 -1	 -3	 -2	 0	 -3	 -2	 0	 -3	 2	 -2	 -1	 0	 -2	 1	 5	 -1	 -1	 -3	 -3	 -2	 -1	 2	 3	 1	 -4	 0	 3	 2	 -1	 -4	 -4	 1	 -2	 -4	 -3	 1	 0	 -4	 -3	 -3	 10.00	 16.00	 16.00	 22.00	 32.00	 2.85	 4.69	 229	 96	 0.419213973799127	 0.923387096774194	 0.387096774193548	 1
0.73	 -1.8	 5.2	 0.186	 0.44	 22.8	 -1	 -1	 -3	 -3	 0	 -4	 -3	 4	 -3	 2	 1	 -3	 -3	 -3	 -3	 -2	 -1	 3	 -3	 -1	 -1	 0	 -2	 0	 -3	 2	 0	 -2	 -2	 2	 -1	 0	 -1	 -1	 -1	 0	 2	 -3	 -1	 2	 22.00	 21.00	 26.00	 25.00	 47.00	 2.99	 2.69	 34	 13	 0.382352941176471	 0.201183431952663	 0.0769230769230769	 -1
0.37	 -3.4	 5.4	 0.409	 0.83	 34.7	 -3	 -2	 -4	 -3	 1	 -2	 -2	 -3	 -3	 -2	 -1	 -4	 -4	 -2	 -3	 -3	 -2	 -3	 11	 2	 -2	 -2	 1	 -3	 -3	 -2	 -2	 -3	 0	 -2	 0	 -2	 -1	 1	 -3	 -2	 0	 6	 6	 -2	 19.00	 15.00	 31.00	 27.00	 46.00	 3.46	 5.73	 84	 51	 0.607142857142857	 0.370044052863436	 0.224669603524229	 1
-0.72	 3	 13	 0.105	 -0.38	 60.6	 -2	 -3	 6	 2	 -3	 -1	 -1	 -3	 -1	 -4	 -3	 1	 -1	 0	 -2	 0	 -1	 -3	 -4	 -3	 -1	 1	 0	 1	 -3	 0	 1	 -2	 3	 -1	 -1	 1	 -2	 -1	 1	 1	 -1	 -3	 2	 -1	 23.00	 27.00	 9.00	 13.00	 36.00	 2.27	 2.00	 75	 5	 0.0666666666666667	 0.460122699386503	 0.0306748466257669	 1
0.02	 -2.3	 6.2	 0.298	 0.66	 55.2	 -2	 -2	 -3	 -2	 3	 -3	 2	 -1	 -2	 -1	 -1	 -2	 -3	 -1	 -2	 -2	 -2	 -1	 2	 7	 -2	 -2	 1	 0	 -4	 -2	 -1	 -3	 1	 -3	 -3	 -2	 -3	 1	 -4	 1	 0	 -1	 7	 -3	 6.00	 4.00	 22.00	 20.00	 26.00	 1.82	 2.00	 199	 76	 0.381909547738693	 0.896396396396396	 0.342342342342342	 -1
