0.621013	0.378987
0.779878	0.220122
0.593173	0.406827
0.567105	0.432895
0.737629	0.262371
0.303740	0.696260
0.393195	0.606805
0.715595	0.284405
0.677183	0.322817
0.340522	0.659478
0.620035	0.379965
0.249382	0.750618
0.633580	0.366420
0.439402	0.560598
0.429151	0.570849
0.624886	0.375114
0.704884	0.295116
0.375201	0.624799
0.746900	0.253100
0.382520	0.617480
0.712655	0.287345
0.345059	0.654941
0.407355	0.592645
0.500000	0.500000
0.573300	0.426700
0.695186	0.304814
0.621814	0.378186
0.532712	0.467288
0.346870	0.653130
0.618666	0.381334
0.312735	0.687265
