0.000069	0.999931
0.998756	0.001244
0.000219	0.999781
0.991358	0.008642
0.967192	0.032808
0.027307	0.972693
0.998464	0.001536
0.000868	0.999132
0.992235	0.007765
0.877049	0.122951
0.000248	0.999752
0.631271	0.368729
0.000490	0.999510
0.999813	0.000187
0.015222	0.984778
0.998832	0.001168
0.524249	0.475751
0.988699	0.011301
0.939020	0.060980
0.961503	0.038497
0.033037	0.966963
0.011311	0.988689
0.004468	0.995532
0.816774	0.183226
0.996230	0.003770
0.042815	0.957185
0.795155	0.204845
0.998366	0.001634
0.588624	0.411376
0.999417	0.000583
0.665998	0.334002
0.068285	0.931715
