0.043465	0.956535
0.998203	0.001797
0.992966	0.007034
0.001219	0.998781
0.142680	0.857320
0.002937	0.997063
0.701825	0.298175
0.002898	0.997102
0.946950	0.053050
0.974196	0.025804
0.938547	0.061453
0.008018	0.991982
0.998602	0.001398
0.237874	0.762126
0.999415	0.000585
0.982060	0.017940
0.999191	0.000809
0.910980	0.089020
0.003620	0.996380
0.025258	0.974742
0.490941	0.509059
0.013925	0.986075
0.322431	0.677569
0.010282	0.989718
0.000741	0.999259
0.531458	0.468542
0.936364	0.063636
0.002583	0.997417
0.273490	0.726510
0.211943	0.788057
0.075277	0.924723
