0.427395	0.572605
0.689670	0.310330
0.124478	0.875522
0.761721	0.238279
0.198111	0.801889
0.287890	0.712110
0.694541	0.305459
0.492754	0.507246
0.419779	0.580221
0.196409	0.803591
0.272290	0.727710
0.843778	0.156222
0.711047	0.288953
0.424898	0.575102
0.579963	0.420037
0.819382	0.180618
0.567190	0.432810
0.575520	0.424480
0.500000	0.500000
0.500000	0.500000
0.816038	0.183962
0.831811	0.168189
0.698239	0.301761
0.834601	0.165399
0.788552	0.211448
0.208590	0.791410
0.580835	0.419165
0.115279	0.884721
0.370138	0.629862
0.687426	0.312574
0.530294	0.469706
