0.002769	0.997231
0.004987	0.995013
0.911157	0.088843
0.000007	0.999993
0.018553	0.981447
0.002842	0.997158
0.981896	0.018104
0.328031	0.671969
0.906702	0.093298
0.984846	0.015154
0.998650	0.001350
0.933615	0.066385
0.198507	0.801493
0.991362	0.008638
0.111186	0.888814
0.011794	0.988206
0.424079	0.575921
0.012220	0.987780
0.999501	0.000499
0.531084	0.468916
0.764757	0.235243
0.066390	0.933610
0.990336	0.009664
0.999958	0.000042
0.898449	0.101551
0.898599	0.101401
0.238762	0.761238
0.271171	0.728829
0.944641	0.055359
0.002824	0.997176
0.654075	0.345925
