0.886256	0.113744
0.012071	0.987929
0.980384	0.019616
0.000158	0.999842
0.980656	0.019344
0.999077	0.000923
0.006514	0.993486
0.000745	0.999255
0.052810	0.947190
0.997206	0.002794
0.998245	0.001755
0.006194	0.993806
0.880593	0.119407
0.000510	0.999490
0.221399	0.778601
0.139303	0.860697
0.010971	0.989029
0.939596	0.060404
0.470505	0.529495
0.428981	0.571019
0.041949	0.958051
0.683914	0.316086
0.059684	0.940316
0.995072	0.004928
0.996073	0.003927
0.998533	0.001467
0.089096	0.910904
0.000818	0.999182
0.009726	0.990274
0.984901	0.015099
0.002739	0.997261
