0.224874	0.775126
0.569894	0.430106
0.310360	0.689640
0.864190	0.135810
0.812648	0.187352
0.110138	0.889862
0.242757	0.757243
0.528276	0.471724
0.372834	0.627166
0.233609	0.766391
0.605130	0.394870
0.850269	0.149731
0.469242	0.530758
0.181371	0.818629
0.418206	0.581794
0.594662	0.405338
0.483974	0.516026
0.807843	0.192157
0.699741	0.300259
0.151969	0.848031
0.142925	0.857075
0.517234	0.482766
0.627112	0.372888
0.174292	0.825708
0.667140	0.332860
0.787643	0.212357
0.687780	0.312220
0.491550	0.508450
0.481773	0.518227
0.778043	0.221957
0.804616	0.195384
