0.485997	0.514003
0.840374	0.159626
0.239934	0.760066
0.536876	0.463124
0.505039	0.494961
0.727613	0.272387
0.557139	0.442861
0.640647	0.359353
0.632662	0.367338
0.751966	0.248034
0.438241	0.561759
0.714523	0.285477
0.710365	0.289635
0.476852	0.523148
0.472044	0.527956
0.865555	0.134445
0.563911	0.436089
0.721922	0.278078
0.596895	0.403105
0.201626	0.798374
0.751322	0.248678
0.333388	0.666612
0.564957	0.435043
0.640306	0.359694
0.719367	0.280633
0.671517	0.328483
0.511060	0.488940
0.639014	0.360986
0.421167	0.578833
0.553653	0.446347
0.579378	0.420622
