0.999987	0.000013
0.011694	0.988306
0.999948	0.000052
0.440794	0.559206
0.001671	0.998329
0.916823	0.083177
0.824888	0.175112
0.742894	0.257106
0.051977	0.948023
0.329504	0.670496
0.993047	0.006953
0.999901	0.000099
0.007049	0.992951
0.004845	0.995155
0.000190	0.999810
0.001208	0.998792
0.186266	0.813734
0.994661	0.005339
0.997580	0.002420
0.999936	0.000064
0.002662	0.997338
0.017261	0.982739
0.022520	0.977480
0.031299	0.968701
0.999985	0.000015
0.089769	0.910231
0.973976	0.026024
0.000142	0.999858
0.999815	0.000185
0.040638	0.959362
0.350422	0.649578
