0.02	 -2.3	 6.2	 0.298	 0.66	 55.2	 -2	 -2	 -3	 -2	 3	 -3	 2	 -1	 -2	 -1	 -1	 -2	 -3	 -1	 -2	 -2	 -2	 -1	 2	 7	 -1	 -2	 -3	 -3	 -2	 -2	 -2	 -3	 1	 1	 0	 -2	 0	 2	 -3	 -2	 -1	 1	 6	 2	 11.00	 11.00	 18.00	 18.00	 29.00	 2.57	 2.86	 94	 30	 0.319148936170213	 0.423423423423423	 0.135135135135135	 -1
-0.18	 -0.4	 8.6	 0.108	 -0.18	 45	 0	 -1	 -1	 -1	 -2	 -2	 -2	 -1	 -1	 -1	 -1	 0	 -1	 -1	 -1	 1	 5	 0	 -2	 -2	 0	 -2	 2	 -1	 -1	 -1	 -1	 -2	 -2	 0	 -1	 -1	 -1	 -2	 2	 1	 4	 -3	 -2	 0	 20.00	 22.00	 20.00	 22.00	 42.00	 3.16	 3.51	 32	 19	 0.59375	 0.225352112676056	 0.133802816901408	 -1
-0.72	 3	 13	 0.105	 -0.38	 60.6	 -2	 -3	 6	 2	 -3	 -1	 -1	 -3	 -1	 -4	 -3	 1	 -1	 0	 -2	 0	 -1	 -3	 -4	 -3	 1	 -2	 0	 3	 -3	 -1	 0	 4	 -3	 -3	 -2	 -2	 -3	 -3	 -3	 1	 -1	 -4	 -2	 -1	 13.00	 19.00	 14.00	 20.00	 33.00	 2.58	 2.99	 65	 0	 0	 0.398773006134969	 0	 1
0.73	 -1.8	 5.2	 0.186	 0.44	 22.8	 -1	 -1	 -3	 -3	 0	 -4	 -3	 4	 -3	 2	 1	 -3	 -3	 -3	 -3	 -2	 -1	 3	 -3	 -1	 -4	 -5	 -6	 -6	 -4	 -4	 -5	 -6	 -5	 3	 5	 -5	 3	 1	 -5	 -5	 -3	 -4	 -3	 2	 19.00	 19.00	 20.00	 20.00	 39.00	 2.33	 2.00	 41	 32	 0.780487804878049	 0.242603550295858	 0.189349112426035	 -1
-0.18	 -0.4	 8.6	 0.108	 -0.18	 45	 0	 -1	 -1	 -1	 -2	 -2	 -2	 -1	 -1	 -1	 -1	 0	 -1	 -1	 -1	 1	 5	 0	 -2	 -2	 -1	 -2	 -1	 1	 0	 -1	 1	 -2	 -2	 1	 0	 0	 -1	 1	 0	 0	 3	 -3	 -2	 0	 24.00	 27.00	 19.00	 22.00	 46.00	 4.63	 4.10	 15	 12	 0.8	 0.105633802816901	 0.0845070422535211	 -1
-0.64	 2	 11.6	 0.134	 0.12	 60.1	 -2	 -3	 1	 0	 -3	 0	 1	 -3	 0	 -3	 -2	 6	 -2	 0	 0	 1	 0	 -3	 -4	 -2	 -2	 0	 6	 1	 -3	 0	 0	 0	 1	 -3	 -3	 0	 -2	 -3	 -2	 1	 0	 -4	 -2	 -3	 8.00	 10.00	 25.00	 27.00	 35.00	 2.10	 2.65	 99	 55	 0.555555555555556	 0.630573248407643	 0.35031847133758	 -1
-0.62	 3	 12.3	 0.151	 -0.13	 68.2	 -1	 -4	 2	 5	 -3	 -2	 0	 -3	 1	 -3	 -2	 0	 -1	 2	 0	 0	 -1	 -2	 -3	 -2	 -1	 0	 0	 2	 -4	 2	 5	 -2	 0	 -4	 -3	 1	 -2	 -4	 -1	 0	 -1	 -3	 -2	 -3	 10.00	 8.00	 21.00	 19.00	 29.00	 1.83	 2.00	 169	 48	 0.284023668639053	 0.871134020618557	 0.247422680412371	 -1
0.02	 -2.3	 6.2	 0.298	 0.66	 55.2	 -2	 -2	 -3	 -2	 3	 -3	 2	 -1	 -2	 -1	 -1	 -2	 -3	 -1	 -2	 -2	 -2	 -1	 2	 7	 -3	 -4	 -4	 -4	 -4	 -4	 -2	 -4	 2	 1	 -2	 -4	 -1	 0	 -3	 -2	 3	 -3	 5	 4	 22.00	 20.00	 21.00	 19.00	 41.00	 5.88	 4.81	 90	 0	 0	 0.405405405405405	 0	 1
-0.64	 2	 11.6	 0.134	 0.12	 60.1	 -2	 -3	 1	 0	 -3	 0	 1	 -3	 0	 -3	 -2	 6	 -2	 0	 0	 1	 0	 -3	 -4	 -2	 3	 -1	 3	 -2	 -3	 -1	 -1	 1	 -2	 -3	 -3	 -2	 -3	 -4	 3	 1	 0	 -4	 -3	 -2	 24.00	 15.00	 26.00	 17.00	 41.00	 2.17	 2.00	 22	 0	 0	 0.140127388535032	 0	 -1
0.73	 -1.8	 5.2	 0.186	 0.44	 22.8	 -1	 -1	 -3	 -3	 0	 -4	 -3	 4	 -3	 2	 1	 -3	 -3	 -3	 -3	 -2	 -1	 3	 -3	 -1	 -1	 -3	 -3	 -3	 -1	 -3	 -3	 -4	 -4	 4	 1	 -3	 1	 0	 -3	 -2	 -1	 -3	 -1	 3	 21.00	 21.00	 22.00	 22.00	 43.00	 4.79	 4.76	 76	 59	 0.776315789473684	 0.449704142011834	 0.349112426035503	 1
-1.76	 3	 10.5	 0.291	 0.27	 94.7	 -1	 -3	 -2	 0	 -3	 -2	 0	 -3	 2	 -2	 -1	 0	 -2	 1	 5	 -1	 -1	 -3	 -3	 -2	 -1	 5	 0	 -2	 -3	 1	 0	 -2	 0	 -3	 -2	 2	 -1	 -3	 -2	 -1	 -1	 -3	 -2	 -3	 28.00	 28.00	 22.00	 22.00	 50.00	 8.51	 8.92	 3	 3	 1	 0.0120967741935484	 0.0120967741935484	 1
-0.69	 0.2	 10.5	 0.18	 -0.11	 68.7	 -1	 -3	 0	 2	 -3	 -2	 0	 -3	 1	 -2	 0	 0	 -1	 5	 1	 0	 -1	 -2	 -2	 -1	 -1	 1	 3	 1	 -3	 2	 0	 -2	 1	 0	 0	 0	 0	 -2	 -3	 1	 0	 -4	 -2	 -2	 13.00	 8.00	 31.00	 26.00	 39.00	 2.53	 3.02	 65	 16	 0.246153846153846	 0.328282828282828	 0.0808080808080808	 -1
-0.72	 3	 13	 0.105	 -0.38	 60.6	 -2	 -3	 6	 2	 -3	 -1	 -1	 -3	 -1	 -4	 -3	 1	 -1	 0	 -2	 0	 -1	 -3	 -4	 -3	 -2	 2	 1	 4	 -4	 1	 2	 1	 -1	 -3	 -2	 -1	 -3	 -4	 -2	 0	 -2	 -4	 -3	 -3	 21.00	 19.00	 18.00	 16.00	 37.00	 3.09	 3.28	 100	 99	 0.99	 0.613496932515337	 0.607361963190184	 1
-0.72	 3	 13	 0.105	 -0.38	 60.6	 -2	 -3	 6	 2	 -3	 -1	 -1	 -3	 -1	 -4	 -3	 1	 -1	 0	 -2	 0	 -1	 -3	 -4	 -3	 -2	 -2	 1	 6	 -4	 0	 2	 -1	 -1	 -3	 -4	 -1	 -3	 -4	 -2	 0	 -1	 -5	 -3	 -3	 24.00	 21.00	 24.00	 21.00	 45.00	 7.15	 7.48	 135	 132	 0.977777777777778	 0.828220858895706	 0.809815950920245	 1
-1.76	 3	 10.5	 0.291	 0.27	 94.7	 -1	 -3	 -2	 0	 -3	 -2	 0	 -3	 2	 -2	 -1	 0	 -2	 1	 5	 -1	 -1	 -3	 -3	 -2	 1	 5	 -2	 -2	 -3	 0	 0	 -3	 -2	 -4	 -3	 1	 1	 -4	 2	 2	 -2	 3	 -3	 -3	 21.00	 19.00	 16.00	 14.00	 35.00	 2.14	 2.00	 142	 102	 0.71830985915493	 0.57258064516129	 0.411290322580645	 1
-0.64	 2	 11.6	 0.134	 0.12	 60.1	 -2	 -3	 1	 0	 -3	 0	 1	 -3	 0	 -3	 -2	 6	 -2	 0	 0	 1	 0	 -3	 -4	 -2	 -2	 -2	 6	 1	 -4	 0	 0	 -1	 -1	 -4	 -3	 2	 -3	 -3	 -3	 -1	 -2	 -4	 1	 -4	 15.00	 14.00	 17.00	 16.00	 31.00	 1.89	 2.00	 105	 12	 0.114285714285714	 0.668789808917197	 0.0764331210191083	 -1
-0.72	 3	 13	 0.105	 -0.38	 60.6	 -2	 -3	 6	 2	 -3	 -1	 -1	 -3	 -1	 -4	 -3	 1	 -1	 0	 -2	 0	 -1	 -3	 -4	 -3	 0	 -1	 2	 3	 -3	 1	 1	 1	 0	 -2	 -2	 -1	 -2	 -2	 -2	 2	 0	 -3	 -2	 -2	 19.00	 16.00	 22.00	 19.00	 38.00	 2.36	 2.00	 119	 78	 0.65546218487395	 0.730061349693252	 0.478527607361963	 1
-0.64	 2	 11.6	 0.134	 0.12	 60.1	 -2	 -3	 1	 0	 -3	 0	 1	 -3	 0	 -3	 -2	 6	 -2	 0	 0	 1	 0	 -3	 -4	 -2	 -3	 -3	 3	 0	 -5	 -1	 -2	 0	 1	 -3	 -2	 -2	 -2	 -1	 2	 2	 1	 -4	 4	 -4	 20.00	 21.00	 26.00	 27.00	 47.00	 2.93	 2.58	 70	 54	 0.771428571428571	 0.445859872611465	 0.343949044585987	 1
-0.64	 2	 11.6	 0.134	 0.12	 60.1	 -2	 -3	 1	 0	 -3	 0	 1	 -3	 0	 -3	 -2	 6	 -2	 0	 0	 1	 0	 -3	 -4	 -2	 -1	 -2	 4	 2	 -2	 -1	 -1	 1	 -1	 -2	 -2	 -1	 -2	 -2	 -2	 1	 -1	 6	 -1	 0	 20.00	 17.00	 17.00	 14.00	 34.00	 1.82	 2.00	 75	 53	 0.706666666666667	 0.477707006369427	 0.337579617834395	 -1
0.61	 -2.5	 5.2	 0.29	 0.82	 25.5	 -2	 -2	 -3	 -3	 6	 -3	 -1	 0	 -3	 0	 0	 -3	 -4	 -3	 -3	 -2	 -2	 -1	 1	 3	 -2	 -2	 -2	 1	 -3	 -1	 1	 -3	 -1	 -2	 -1	 -2	 -1	 5	 3	 -2	 -2	 0	 3	 -2	 25.00	 21.00	 13.00	 9.00	 34.00	 3.45	 2.00	 125	 105	 0.84	 0.634517766497462	 0.532994923857868	 1
0.73	 -1.8	 5.2	 0.186	 0.44	 22.8	 -1	 -1	 -3	 -3	 0	 -4	 -3	 4	 -3	 2	 1	 -3	 -3	 -3	 -3	 -2	 -1	 3	 -3	 -1	 -1	 1	 1	 0	 2	 0	 1	 -1	 0	 0	 -1	 0	 0	 -1	 0	 0	 0	 0	 0	 0	 15.00	 7.00	 21.00	 13.00	 28.00	 1.96	 2.00	 83	 8	 0.0963855421686747	 0.49112426035503	 0.0473372781065089	 -1
-1.1	 3	 11.3	 0.219	 -0.36	 103	 -1	 -3	 -1	 1	 -3	 -2	 -1	 -3	 5	 -2	 -1	 0	 -1	 1	 2	 0	 -1	 -2	 -3	 -2	 -1	 2	 0	 -1	 -3	 1	 1	 -2	 -1	 -3	 -2	 4	 -1	 -3	 -1	 0	 -1	 -3	 -2	 -2	 26.00	 32.00	 21.00	 27.00	 53.00	 4.13	 4.86	 78	 75	 0.961538461538462	 0.380487804878049	 0.365853658536585	 1
0.02	 -2.3	 6.2	 0.298	 0.66	 55.2	 -2	 -2	 -3	 -2	 3	 -3	 2	 -1	 -2	 -1	 -1	 -2	 -3	 -1	 -2	 -2	 -2	 -1	 2	 7	 0	 1	 1	 0	 1	 0	 -1	 -1	 0	 -4	 -2	 -2	 -1	 -1	 -2	 3	 0	 3	 0	 -2	 21.00	 21.00	 24.00	 24.00	 45.00	 3.46	 4.35	 121	 117	 0.966942148760331	 0.545045045045045	 0.527027027027027	 1
-0.07	 0	 8	 0.131	 -0.25	 51.5	 -1	 -3	 -1	 -1	 -4	 -2	 -2	 -3	 -1	 -3	 -2	 -2	 7	 -1	 -2	 -1	 -1	 -2	 -4	 -3	 -1	 -1	 -2	 -2	 -3	 -2	 -2	 -3	 -3	 -3	 -3	 -1	 -3	 -4	 8	 -1	 -2	 -4	 -3	 -3	 7.00	 8.00	 17.00	 18.00	 25.00	 1.98	 2.00	 90	 37	 0.411111111111111	 0.661764705882353	 0.272058823529412	 1
-0.26	 0.3	 9.2	 0.062	 -0.33	 42	 1	 -1	 0	 0	 -2	 0	 -1	 -2	 0	 -2	 -1	 1	 -1	 0	 -1	 4	 1	 -2	 -3	 -2	 0	 0	 3	 0	 -2	 -1	 1	 -1	 -1	 -2	 -3	 0	 -1	 -2	 2	 2	 0	 -3	 0	 -2	 11.00	 14.00	 22.00	 25.00	 36.00	 2.42	 2.00	 92	 53	 0.576086956521739	 0.707692307692308	 0.407692307692308	 -1
-1.1	 3	 11.3	 0.219	 -0.36	 103	 -1	 -3	 -1	 1	 -3	 -2	 -1	 -3	 5	 -2	 -1	 0	 -1	 1	 2	 0	 -1	 -2	 -3	 -2	 -1	 2	 0	 -1	 -3	 1	 1	 -2	 -1	 -3	 -2	 5	 -1	 -3	 -1	 0	 -1	 -3	 -2	 -2	 22.00	 25.00	 17.00	 20.00	 42.00	 3.97	 3.57	 73	 56	 0.767123287671233	 0.35609756097561	 0.273170731707317	 1
0.73	 -1.8	 5.2	 0.186	 0.44	 22.8	 -1	 -1	 -3	 -3	 0	 -4	 -3	 4	 -3	 2	 1	 -3	 -3	 -3	 -3	 -2	 -1	 3	 -3	 -1	 -1	 -2	 -2	 -3	 -2	 -2	 -2	 -3	 -3	 4	 1	 0	 1	 -1	 -3	 0	 -1	 -3	 -2	 2	 19.00	 19.00	 19.00	 19.00	 38.00	 2.72	 2.64	 109	 72	 0.660550458715596	 0.644970414201183	 0.42603550295858	 -1
-1.1	 3	 11.3	 0.219	 -0.36	 103	 -1	 -3	 -1	 1	 -3	 -2	 -1	 -3	 5	 -2	 -1	 0	 -1	 1	 2	 0	 -1	 -2	 -3	 -2	 -1	 2	 0	 -1	 -3	 1	 1	 -2	 -1	 -3	 -2	 4	 -1	 -3	 -1	 0	 -1	 -3	 -2	 -2	 23.00	 24.00	 27.00	 28.00	 51.00	 2.37	 2.64	 158	 152	 0.962025316455696	 0.770731707317073	 0.741463414634146	 -1
-0.72	 3	 13	 0.105	 -0.38	 60.6	 -2	 -3	 6	 2	 -3	 -1	 -1	 -3	 -1	 -4	 -3	 1	 -1	 0	 -2	 0	 -1	 -3	 -4	 -3	 -2	 -2	 1	 6	 -4	 0	 2	 -1	 -1	 -3	 -4	 -1	 -3	 -4	 -2	 0	 -1	 -4	 -3	 -3	 33.00	 33.00	 24.00	 24.00	 57.00	 4.99	 4.95	 167	 157	 0.940119760479042	 1.02453987730061	 0.96319018404908	 1
-1.1	 3	 11.3	 0.219	 -0.36	 103	 -1	 -3	 -1	 1	 -3	 -2	 -1	 -3	 5	 -2	 -1	 0	 -1	 1	 2	 0	 -1	 -2	 -3	 -2	 -1	 4	 0	 -1	 -3	 1	 0	 -2	 -1	 -3	 -2	 4	 -1	 -3	 -1	 0	 -1	 -3	 -2	 -2	 14.00	 18.00	 19.00	 23.00	 37.00	 2.16	 2.00	 121	 58	 0.479338842975207	 0.590243902439024	 0.282926829268293	 -1
-1.1	 3	 11.3	 0.219	 -0.36	 103	 -1	 -3	 -1	 1	 -3	 -2	 -1	 -3	 5	 -2	 -1	 0	 -1	 1	 2	 0	 -1	 -2	 -3	 -2	 -2	 4	 1	 -2	 -4	 0	 -1	 0	 0	 -4	 -1	 3	 1	 -1	 -4	 -1	 2	 -4	 0	 -3	 39.00	 33.00	 31.00	 25.00	 64.00	 6.94	 6.62	 184	 180	 0.978260869565217	 0.897560975609756	 0.878048780487805	 1
0.02	 -2.3	 6.2	 0.298	 0.66	 55.2	 -2	 -2	 -3	 -2	 3	 -3	 2	 -1	 -2	 -1	 -1	 -2	 -3	 -1	 -2	 -2	 -2	 -1	 2	 7	 -2	 -4	 0	 -2	 -2	 -2	 -1	 -2	 1	 -3	 0	 -3	 -2	 1	 4	 0	 0	 2	 5	 -3	 22.00	 22.00	 25.00	 25.00	 47.00	 4.71	 5.11	 143	 67	 0.468531468531469	 0.644144144144144	 0.301801801801802	 1
