0.136718	0.863282
0.791544	0.208456
0.638105	0.361895
0.789757	0.210243
0.353196	0.646804
0.592299	0.407701
0.655833	0.344167
0.598716	0.401284
0.564928	0.435072
0.335308	0.664692
0.881830	0.118170
0.248943	0.751057
0.154802	0.845198
0.512606	0.487394
0.322387	0.677613
0.436273	0.563727
0.130076	0.869924
0.620477	0.379523
0.693847	0.306153
0.307373	0.692627
0.579442	0.420558
0.657257	0.342743
0.610642	0.389358
0.833363	0.166637
0.174644	0.825356
0.615807	0.384193
0.183430	0.816570
0.743409	0.256591
0.405707	0.594293
0.099924	0.900076
0.581361	0.418639
0.810738	0.189262
