0.999824	0.000176
0.990731	0.009269
0.996271	0.003729
0.363459	0.636541
0.988189	0.011811
0.009604	0.990396
0.711866	0.288134
0.999982	0.000018
0.999797	0.000203
0.210699	0.789301
0.419766	0.580234
0.368477	0.631523
0.999586	0.000414
0.999483	0.000517
0.907182	0.092818
0.007365	0.992635
0.966887	0.033113
0.000954	0.999046
0.000143	0.999857
0.039323	0.960677
0.100065	0.899935
0.143326	0.856674
0.000596	0.999404
0.961652	0.038348
0.216771	0.783229
0.806057	0.193943
0.005007	0.994993
0.999788	0.000212
0.999341	0.000659
0.121001	0.878999
0.997820	0.002180
