0.180064	0.819936
0.004237	0.995763
0.729207	0.270793
0.157177	0.842823
0.003039	0.996961
0.557358	0.442642
0.997472	0.002528
0.010130	0.989870
0.939342	0.060658
0.244793	0.755207
0.484535	0.515465
0.437519	0.562481
0.059845	0.940155
0.001147	0.998853
0.027520	0.972480
0.993844	0.006156
0.910054	0.089946
0.000549	0.999451
0.970645	0.029355
0.022352	0.977648
0.138533	0.861467
0.629012	0.370988
0.715961	0.284039
0.854347	0.145653
0.979831	0.020169
0.691708	0.308292
0.829402	0.170598
0.093964	0.906036
0.900765	0.099235
0.139626	0.860374
0.992300	0.007700
0.017404	0.982596
