-0.69	 0.2	 10.5	 0.18	 -0.11	 68.7	 -1	 -3	 0	 2	 -3	 -2	 0	 -3	 1	 -2	 0	 0	 -1	 5	 1	 0	 -1	 -2	 -2	 -1	 -3	 -1	 -2	 -3	 -5	 7	 0	 -4	 0	 -5	 -2	 3	 -3	 -5	 -4	 0	 -2	 -5	 -4	 -4	 23.00	 21.00	 23.00	 21.00	 44.00	 4.61	 5.28	 45	 29	 0.644444444444444	 0.227272727272727	 0.146464646464646	 -1
-1.76	 3	 10.5	 0.291	 0.27	 94.7	 -1	 -3	 -2	 0	 -3	 -2	 0	 -3	 2	 -2	 -1	 0	 -2	 1	 5	 -1	 -1	 -3	 -3	 -2	 -2	 6	 -2	 -3	 -4	 0	 -1	 -3	 -1	 -1	 -2	 1	 -2	 2	 -3	 -2	 -2	 5	 -1	 -2	 24.00	 22.00	 27.00	 25.00	 49.00	 6.44	 6.97	 25	 7	 0.28	 0.100806451612903	 0.0282258064516129	 1
0.53	 -1.8	 4.9	 0.186	 0.4	 27.6	 -1	 -1	 -4	 -3	 0	 -4	 -3	 2	 -2	 4	 2	 -3	 -3	 -2	 -2	 -2	 -1	 1	 -2	 -1	 -1	 -1	 -2	 -1	 -2	 -2	 -1	 -2	 -2	 1	 2	 -1	 2	 0	 0	 -1	 -1	 5	 2	 0	 24.00	 22.00	 30.00	 28.00	 52.00	 3.17	 3.47	 33	 30	 0.909090909090909	 0.201219512195122	 0.182926829268293	 -1
-0.4	 -0.5	 10.4	 0.23	 0.41	 50.7	 -2	 -3	 -1	 0	 -1	 -2	 8	 -3	 -1	 -3	 -2	 1	 -2	 0	 0	 -1	 -2	 -3	 -2	 2	 -4	 -1	 0	 1	 -6	 5	 3	 -2	 7	 -6	 -5	 -1	 -4	 -5	 -4	 -2	 -2	 0	 -3	 -5	 14.00	 18.00	 24.00	 28.00	 42.00	 2.42	 3.19	 96	 73	 0.760416666666667	 0.521739130434783	 0.396739130434783	 -1
0.02	 -2.3	 6.2	 0.298	 0.66	 55.2	 -2	 -2	 -3	 -2	 3	 -3	 2	 -1	 -2	 -1	 -1	 -2	 -3	 -1	 -2	 -2	 -2	 -1	 2	 7	 -2	 -2	 -2	 -3	 -3	 -2	 -2	 -3	 2	 -2	 -1	 -2	 -1	 3	 -3	 -2	 -2	 2	 7	 -1	 28.00	 28.00	 22.00	 22.00	 50.00	 5.35	 3.77	 98	 96	 0.979591836734694	 0.441441441441441	 0.432432432432432	 1
-0.26	 0.3	 9.2	 0.062	 -0.33	 42	 1	 -1	 0	 0	 -2	 0	 -1	 -2	 0	 -2	 -1	 1	 -1	 0	 -1	 4	 1	 -2	 -3	 -2	 0	 -2	 -1	 -2	 -1	 -1	 -1	 -2	 -2	 0	 2	 -1	 1	 -1	 -2	 2	 0	 -2	 -1	 0	 4.00	 8.00	 17.00	 21.00	 25.00	 1.85	 2.31	 113	 34	 0.300884955752212	 0.869230769230769	 0.261538461538462	 -1
-0.62	 3	 12.3	 0.151	 -0.13	 68.2	 -1	 -4	 2	 5	 -3	 -2	 0	 -3	 1	 -3	 -2	 0	 -1	 2	 0	 0	 -1	 -2	 -3	 -2	 -2	 1	 2	 1	 2	 1	 1	 0	 1	 -2	 -1	 0	 -1	 1	 -1	 -1	 -2	 1	 0	 -3	 7.00	 10.00	 31.00	 34.00	 41.00	 2.18	 2.88	 167	 73	 0.437125748502994	 0.860824742268041	 0.376288659793814	 -1
0.73	 -1.8	 5.2	 0.186	 0.44	 22.8	 -1	 -1	 -3	 -3	 0	 -4	 -3	 4	 -3	 2	 1	 -3	 -3	 -3	 -3	 -2	 -1	 3	 -3	 -1	 -1	 -1	 -1	 -1	 -2	 0	 -1	 -1	 0	 1	 0	 -1	 2	 2	 0	 0	 0	 1	 -1	 1	 21.00	 24.00	 18.00	 21.00	 42.00	 2.50	 2.81	 57	 28	 0.491228070175439	 0.337278106508876	 0.165680473372781	 1
-1.1	 3	 11.3	 0.219	 -0.36	 103	 -1	 -3	 -1	 1	 -3	 -2	 -1	 -3	 5	 -2	 -1	 0	 -1	 1	 2	 0	 -1	 -2	 -3	 -2	 -1	 -1	 -1	 -1	 -2	 1	 0	 -2	 1	 0	 1	 1	 -1	 -2	 2	 0	 1	 -3	 -2	 1	 27.00	 28.00	 21.00	 22.00	 49.00	 6.04	 5.98	 114	 88	 0.771929824561403	 0.55609756097561	 0.429268292682927	 -1
0.73	 -1.8	 5.2	 0.186	 0.44	 22.8	 -1	 -1	 -3	 -3	 0	 -4	 -3	 4	 -3	 2	 1	 -3	 -3	 -3	 -3	 -2	 -1	 3	 -3	 -1	 -1	 1	 1	 0	 2	 0	 1	 -1	 0	 0	 -1	 0	 0	 -1	 0	 0	 0	 0	 0	 0	 15.00	 7.00	 21.00	 13.00	 28.00	 1.96	 2.00	 83	 8	 0.0963855421686747	 0.49112426035503	 0.0473372781065089	 -1
-0.62	 3	 12.3	 0.151	 -0.13	 68.2	 -1	 -4	 2	 5	 -3	 -2	 0	 -3	 1	 -3	 -2	 0	 -1	 2	 0	 0	 -1	 -2	 -3	 -2	 -3	 0	 0	 -2	 -4	 0	 3	 -4	 2	 0	 -2	 0	 -2	 1	 -6	 0	 2	 -1	 1	 2	 14.00	 17.00	 23.00	 26.00	 40.00	 2.69	 2.91	 54	 32	 0.592592592592593	 0.278350515463918	 0.164948453608247	 -1
-0.72	 3	 13	 0.105	 -0.38	 60.6	 -2	 -3	 6	 2	 -3	 -1	 -1	 -3	 -1	 -4	 -3	 1	 -1	 0	 -2	 0	 -1	 -3	 -4	 -3	 -1	 -2	 1	 5	 -4	 0	 2	 2	 -1	 -4	 -4	 -1	 -3	 -4	 -2	 -1	 -1	 -4	 -3	 -3	 24.00	 25.00	 19.00	 20.00	 44.00	 5.12	 4.69	 29	 23	 0.793103448275862	 0.177914110429448	 0.141104294478528	 1
-0.72	 3	 13	 0.105	 -0.38	 60.6	 -2	 -3	 6	 2	 -3	 -1	 -1	 -3	 -1	 -4	 -3	 1	 -1	 0	 -2	 0	 -1	 -3	 -4	 -3	 -1	 -2	 1	 6	 -3	 0	 1	 -1	 -1	 -3	 -4	 -1	 -3	 -4	 -1	 1	 0	 -4	 -3	 -3	 21.00	 20.00	 26.00	 25.00	 46.00	 1.99	 2.00	 107	 82	 0.766355140186916	 0.656441717791411	 0.503067484662577	 -1
0.54	 -1.5	 5.9	 0.14	 0.27	 23.7	 0	 -1	 -3	 -2	 -1	 -3	 -3	 3	 -2	 1	 1	 -3	 -2	 -2	 -3	 -2	 0	 4	 -3	 -1	 0	 -2	 -2	 -2	 -1	 -2	 -2	 -2	 -2	 2	 2	 -2	 1	 -1	 -2	 -1	 0	 -2	 -1	 3	 33.00	 31.00	 21.00	 19.00	 52.00	 5.65	 5.68	 13	 13	 1	 0.0915492957746479	 0.0915492957746479	 -1
0.54	 -1.5	 5.9	 0.14	 0.27	 23.7	 0	 -1	 -3	 -2	 -1	 -3	 -3	 3	 -2	 1	 1	 -3	 -2	 -2	 -3	 -2	 0	 4	 -3	 -1	 -1	 -2	 -2	 -3	 -2	 -1	 -2	 -3	 3	 1	 1	 -2	 0	 1	 -2	 -2	 -1	 0	 5	 1	 27.00	 26.00	 26.00	 25.00	 52.00	 2.23	 2.82	 87	 67	 0.770114942528736	 0.612676056338028	 0.471830985915493	 1
0.16	 0	 9	 0	 -0.07	 24.5	 0	 -3	 -1	 -2	 -3	 6	 -2	 -4	 -2	 -4	 -3	 0	 -2	 -2	 -2	 0	 -2	 -3	 -2	 -3	 -1	 3	 0	 0	 -3	 1	 3	 3	 -1	 -4	 -3	 1	 -2	 -3	 -2	 0	 -1	 -3	 -2	 -3	 16.00	 11.00	 18.00	 13.00	 29.00	 2.40	 2.00	 29	 11	 0.379310344827586	 0.345238095238095	 0.130952380952381	 -1
-0.64	 2	 11.6	 0.134	 0.12	 60.1	 -2	 -3	 1	 0	 -3	 0	 1	 -3	 0	 -3	 -2	 6	 -2	 0	 0	 1	 0	 -3	 -4	 -2	 -1	 -1	 5	 1	 -2	 0	 0	 0	 0	 -3	 -3	 0	 -2	 -3	 -2	 2	 0	 -4	 -2	 -3	 24.00	 27.00	 23.00	 26.00	 50.00	 5.25	 5.55	 25	 25	 1	 0.159235668789809	 0.159235668789809	 1
0.02	 -2.3	 6.2	 0.298	 0.66	 55.2	 -2	 -2	 -3	 -2	 3	 -3	 2	 -1	 -2	 -1	 -1	 -2	 -3	 -1	 -2	 -2	 -2	 -1	 2	 7	 -2	 -2	 -2	 -2	 -3	 -1	 0	 -3	 0	 -2	 -2	 -2	 -2	 1	 2	 -2	 -2	 1	 7	 -2	 21.00	 22.00	 18.00	 19.00	 40.00	 2.74	 2.65	 129	 123	 0.953488372093023	 0.581081081081081	 0.554054054054054	 1
-0.64	 2	 11.6	 0.134	 0.12	 60.1	 -2	 -3	 1	 0	 -3	 0	 1	 -3	 0	 -3	 -2	 6	 -2	 0	 0	 1	 0	 -3	 -4	 -2	 -2	 0	 6	 1	 -3	 0	 0	 0	 1	 -3	 -3	 0	 -2	 -3	 -2	 1	 0	 -4	 -2	 -3	 22.00	 20.00	 30.00	 28.00	 50.00	 3.24	 3.91	 91	 89	 0.978021978021978	 0.579617834394904	 0.56687898089172	 1
-0.64	 2	 11.6	 0.134	 0.12	 60.1	 -2	 -3	 1	 0	 -3	 0	 1	 -3	 0	 -3	 -2	 6	 -2	 0	 0	 1	 0	 -3	 -4	 -2	 -3	 -3	 3	 0	 -5	 -1	 -2	 0	 1	 -3	 -2	 -2	 -2	 -1	 2	 2	 1	 -4	 4	 -4	 20.00	 21.00	 26.00	 27.00	 47.00	 2.93	 2.58	 70	 54	 0.771428571428571	 0.445859872611465	 0.343949044585987	 1
0.02	 -2.3	 6.2	 0.298	 0.66	 55.2	 -2	 -2	 -3	 -2	 3	 -3	 2	 -1	 -2	 -1	 -1	 -2	 -3	 -1	 -2	 -2	 -2	 -1	 2	 7	 -2	 -1	 -2	 1	 -2	 0	 -2	 -3	 -1	 0	 1	 -1	 2	 2	 -2	 -2	 -1	 3	 3	 1	 25.00	 23.00	 19.00	 17.00	 42.00	 6.71	 6.43	 125	 121	 0.968	 0.563063063063063	 0.545045045045045	 1
0.37	 -3.4	 5.4	 0.409	 0.83	 34.7	 -3	 -2	 -4	 -3	 1	 -2	 -2	 -3	 -3	 -2	 -1	 -4	 -4	 -2	 -3	 -3	 -2	 -3	 11	 2	 -1	 -1	 3	 2	 -3	 -2	 -2	 1	 -1	 -3	 -2	 -2	 -3	 -1	 -2	 1	 0	 1	 3	 -3	 26.00	 23.00	 21.00	 18.00	 44.00	 2.89	 3.76	 108	 76	 0.703703703703704	 0.475770925110132	 0.334801762114537	 -1
0.02	 -2.3	 6.2	 0.298	 0.66	 55.2	 -2	 -2	 -3	 -2	 3	 -3	 2	 -1	 -2	 -1	 -1	 -2	 -3	 -1	 -2	 -2	 -2	 -1	 2	 7	 0	 -2	 -1	 -2	 -2	 -1	 -1	 1	 0	 -1	 0	 -1	 -1	 1	 -2	 2	 0	 0	 4	 -1	 7.00	 12.00	 18.00	 23.00	 30.00	 1.96	 2.69	 160	 46	 0.2875	 0.720720720720721	 0.207207207207207	 -1
-0.4	 -0.5	 10.4	 0.23	 0.41	 50.7	 -2	 -3	 -1	 0	 -1	 -2	 8	 -3	 -1	 -3	 -2	 1	 -2	 0	 0	 -1	 -2	 -3	 -2	 2	 -2	 0	 0	 -1	 -3	 0	 0	 -2	 8	 -4	 -3	 -1	 -2	 -1	 -2	 -1	 -2	 -3	 2	 -3	 28.00	 25.00	 11.00	 8.00	 36.00	 2.44	 2.74	 28	 0	 0	 0.152173913043478	 0	 -1
-0.62	 3	 12.3	 0.151	 -0.13	 68.2	 -1	 -4	 2	 5	 -3	 -2	 0	 -3	 1	 -3	 -2	 0	 -1	 2	 0	 0	 -1	 -2	 -3	 -2	 -1	 -1	 1	 -1	 -4	 3	 -1	 3	 0	 -3	 -3	 -1	 -2	 -3	 -2	 2	 2	 -5	 -2	 -3	 13.00	 8.00	 24.00	 19.00	 32.00	 2.31	 2.00	 93	 50	 0.537634408602151	 0.479381443298969	 0.257731958762887	 -1
0.73	 -1.8	 5.2	 0.186	 0.44	 22.8	 -1	 -1	 -3	 -3	 0	 -4	 -3	 4	 -3	 2	 1	 -3	 -3	 -3	 -3	 -2	 -1	 3	 -3	 -1	 -2	 2	 -1	 -2	 -4	 2	 1	 -3	 3	 -1	 -2	 1	 -2	 -1	 -3	 0	 2	 -4	 1	 0	 23.00	 22.00	 25.00	 24.00	 47.00	 3.24	 3.19	 80	 72	 0.9	 0.473372781065089	 0.42603550295858	 -1
0.53	 -1.8	 4.9	 0.186	 0.4	 27.6	 -1	 -1	 -4	 -3	 0	 -4	 -3	 2	 -2	 4	 2	 -3	 -3	 -2	 -2	 -2	 -1	 1	 -2	 -1	 -1	 -1	 -2	 -1	 -2	 0	 2	 -3	 -2	 1	 3	 -1	 3	 0	 -2	 -1	 -1	 -2	 -1	 0	 10.00	 8.00	 28.00	 26.00	 36.00	 3.36	 3.94	 80	 53	 0.6625	 0.48780487804878	 0.323170731707317	 -1
-0.26	 0.3	 9.2	 0.062	 -0.33	 42	 1	 -1	 0	 0	 -2	 0	 -1	 -2	 0	 -2	 -1	 1	 -1	 0	 -1	 4	 1	 -2	 -3	 -2	 2	 0	 0	 2	 -1	 0	 0	 -1	 -1	 -2	 -2	 2	 -2	 -3	 -1	 2	 0	 -3	 -2	 -1	 0.00	 0.00	 20.00	 20.00	 20.00	 1.90	 2.00	 110	 5	 0.0454545454545455	 0.846153846153846	 0.0384615384615385	 -1
-0.72	 3	 13	 0.105	 -0.38	 60.6	 -2	 -3	 6	 2	 -3	 -1	 -1	 -3	 -1	 -4	 -3	 1	 -1	 0	 -2	 0	 -1	 -3	 -4	 -3	 -1	 1	 2	 4	 -3	 2	 2	 -2	 3	 -3	 -3	 0	 -2	 -3	 -2	 0	 -1	 -3	 -1	 -3	 17.00	 16.00	 23.00	 22.00	 39.00	 3.96	 3.16	 107	 95	 0.88785046728972	 0.656441717791411	 0.582822085889571	 1
-0.18	 -0.4	 8.6	 0.108	 -0.18	 45	 0	 -1	 -1	 -1	 -2	 -2	 -2	 -1	 -1	 -1	 -1	 0	 -1	 -1	 -1	 1	 5	 0	 -2	 -2	 -1	 0	 -3	 -3	 -4	 -3	 -3	 -4	 -1	 -3	 -3	 -1	 0	 -4	 5	 1	 5	 -5	 -4	 -1	 29.00	 27.00	 31.00	 29.00	 58.00	 3.27	 2.88	 97	 73	 0.752577319587629	 0.683098591549296	 0.514084507042254	 1
0.37	 -3.4	 5.4	 0.409	 0.83	 34.7	 -3	 -2	 -4	 -3	 1	 -2	 -2	 -3	 -3	 -2	 -1	 -4	 -4	 -2	 -3	 -3	 -2	 -3	 11	 2	 -1	 -1	 0	 -1	 2	 0	 -1	 1	 1	 -1	 0	 -1	 -1	 0	 -1	 0	 -1	 6	 2	 -1	 23.00	 23.00	 25.00	 25.00	 48.00	 5.88	 5.82	 90	 89	 0.988888888888889	 0.39647577092511	 0.392070484581498	 1
