0.180109	0.819891
0.361767	0.638233
0.500000	0.500000
0.586632	0.413368
0.570280	0.429720
0.741006	0.258994
0.791948	0.208052
0.434485	0.565515
0.248999	0.751001
0.357072	0.642928
0.510555	0.489445
0.191090	0.808910
0.317173	0.682827
0.382930	0.617070
0.705117	0.294883
0.789358	0.210642
0.163474	0.836526
0.367760	0.632240
0.140363	0.859637
0.789537	0.210463
0.203650	0.796350
0.319645	0.680355
0.805007	0.194993
0.527684	0.472316
0.776310	0.223690
0.622318	0.377682
0.426454	0.573546
0.560181	0.439819
0.700468	0.299532
0.347361	0.652639
0.758771	0.241229
