0.999181	0.000819
0.998207	0.001793
0.176050	0.823950
0.905002	0.094998
0.999930	0.000070
0.000109	0.999891
0.000448	0.999552
0.020791	0.979209
0.893596	0.106404
0.991833	0.008167
0.159489	0.840511
0.993594	0.006406
0.000627	0.999373
0.851611	0.148389
0.724146	0.275854
0.871398	0.128602
0.999963	0.000037
0.111321	0.888679
0.000488	0.999512
0.993676	0.006324
0.009208	0.990792
0.999472	0.000528
0.022746	0.977254
0.009327	0.990673
0.986437	0.013563
0.997899	0.002101
0.008308	0.991692
0.756472	0.243528
0.013903	0.986097
0.999891	0.000109
0.007459	0.992541
0.179563	0.820437
