0.53	 -1.8	 4.9	 0.186	 0.4	 27.6	 -1	 -1	 -4	 -3	 0	 -4	 -3	 2	 -2	 4	 2	 -3	 -3	 -2	 -2	 -2	 -1	 1	 -2	 -1	 -1	 -1	 -2	 -1	 -2	 0	 2	 -3	 -2	 1	 3	 -1	 3	 0	 -2	 -1	 -1	 -2	 -1	 0	 10.00	 8.00	 28.00	 26.00	 36.00	 3.36	 3.94	 80	 53	 0.6625	 0.48780487804878	 0.323170731707317	 -1
-0.62	 3	 12.3	 0.151	 -0.13	 68.2	 -1	 -4	 2	 5	 -3	 -2	 0	 -3	 1	 -3	 -2	 0	 -1	 2	 0	 0	 -1	 -2	 -3	 -2	 3	 -2	 -2	 0	 -3	 0	 5	 -2	 -2	 -4	 -4	 -1	 -3	 -4	 -2	 -1	 -2	 -4	 -3	 -3	 21.00	 23.00	 19.00	 21.00	 42.00	 5.11	 5.09	 40	 40	 1	 0.206185567010309	 0.206185567010309	 1
0.61	 -2.5	 5.2	 0.29	 0.82	 25.5	 -2	 -2	 -3	 -3	 6	 -3	 -1	 0	 -3	 0	 0	 -3	 -4	 -3	 -3	 -2	 -2	 -1	 1	 3	 -2	 -3	 -4	 -4	 -2	 -3	 -3	 -4	 -3	 2	 3	 -3	 2	 2	 -3	 -3	 -1	 -1	 0	 1	 20.00	 14.00	 35.00	 29.00	 49.00	 5.54	 6.42	 63	 63	 1	 0.319796954314721	 0.319796954314721	 -1
-0.72	 3	 13	 0.105	 -0.38	 60.6	 -2	 -3	 6	 2	 -3	 -1	 -1	 -3	 -1	 -4	 -3	 1	 -1	 0	 -2	 0	 -1	 -3	 -4	 -3	 -1	 1	 2	 4	 -3	 2	 2	 -2	 3	 -3	 -3	 0	 -2	 -3	 -2	 0	 -1	 -3	 -1	 -3	 17.00	 16.00	 23.00	 22.00	 39.00	 3.96	 3.16	 107	 95	 0.88785046728972	 0.656441717791411	 0.582822085889571	 1
0.73	 -1.8	 5.2	 0.186	 0.44	 22.8	 -1	 -1	 -3	 -3	 0	 -4	 -3	 4	 -3	 2	 1	 -3	 -3	 -3	 -3	 -2	 -1	 3	 -3	 -1	 -1	 -3	 -3	 -3	 -1	 -3	 -3	 -4	 -3	 4	 2	 -3	 1	 0	 -3	 -3	 -1	 -3	 -1	 2	 30.00	 35.00	 21.00	 26.00	 56.00	 6.88	 6.74	 11	 11	 1	 0.0650887573964497	 0.0650887573964497	 -1
-0.72	 3	 13	 0.105	 -0.38	 60.6	 -2	 -3	 6	 2	 -3	 -1	 -1	 -3	 -1	 -4	 -3	 1	 -1	 0	 -2	 0	 -1	 -3	 -4	 -3	 -3	 -1	 4	 1	 -4	 1	 0	 2	 3	 -1	 -2	 0	 -4	 -4	 -2	 1	 -1	 -6	 -1	 -5	 23.00	 21.00	 24.00	 22.00	 45.00	 2.06	 2.72	 130	 98	 0.753846153846154	 0.797546012269939	 0.601226993865031	 1
0.02	 -2.3	 6.2	 0.298	 0.66	 55.2	 -2	 -2	 -3	 -2	 3	 -3	 2	 -1	 -2	 -1	 -1	 -2	 -3	 -1	 -2	 -2	 -2	 -1	 2	 7	 -3	 -3	 -3	 -4	 -3	 -3	 -3	 -4	 3	 -2	 -1	 -3	 -2	 3	 -4	 -3	 -1	 6	 7	 -1	 31.00	 29.00	 25.00	 23.00	 54.00	 5.21	 5.44	 0	 0	 0	 0	 0	 1
-0.64	 2	 11.6	 0.134	 0.12	 60.1	 -2	 -3	 1	 0	 -3	 0	 1	 -3	 0	 -3	 -2	 6	 -2	 0	 0	 1	 0	 -3	 -4	 -2	 3	 -1	 3	 -2	 -3	 -1	 -1	 1	 -2	 -3	 -3	 -2	 -3	 -4	 3	 1	 0	 -4	 -3	 -2	 24.00	 15.00	 26.00	 17.00	 41.00	 2.17	 2.00	 22	 0	 0	 0.140127388535032	 0	 -1
0.37	 -3.4	 5.4	 0.409	 0.83	 34.7	 -3	 -2	 -4	 -3	 1	 -2	 -2	 -3	 -3	 -2	 -1	 -4	 -4	 -2	 -3	 -3	 -2	 -3	 11	 2	 -1	 -1	 0	 -1	 2	 0	 -1	 1	 1	 -1	 0	 -1	 -1	 0	 -1	 0	 -1	 6	 2	 -1	 23.00	 23.00	 25.00	 25.00	 48.00	 5.88	 5.82	 90	 89	 0.988888888888889	 0.39647577092511	 0.392070484581498	 1
0.73	 -1.8	 5.2	 0.186	 0.44	 22.8	 -1	 -1	 -3	 -3	 0	 -4	 -3	 4	 -3	 2	 1	 -3	 -3	 -3	 -3	 -2	 -1	 3	 -3	 -1	 -1	 -1	 -1	 -1	 -2	 0	 -1	 -1	 0	 1	 0	 -1	 2	 2	 0	 0	 0	 1	 -1	 1	 21.00	 24.00	 18.00	 21.00	 42.00	 2.50	 2.81	 57	 28	 0.491228070175439	 0.337278106508876	 0.165680473372781	 1
-0.62	 3	 12.3	 0.151	 -0.13	 68.2	 -1	 -4	 2	 5	 -3	 -2	 0	 -3	 1	 -3	 -2	 0	 -1	 2	 0	 0	 -1	 -2	 -3	 -2	 -2	 1	 -1	 0	 -4	 1	 5	 -1	 -1	 -4	 -4	 3	 -3	 -4	 0	 -1	 -1	 -4	 -3	 -3	 31.00	 27.00	 29.00	 25.00	 56.00	 2.66	 3.22	 116	 102	 0.879310344827586	 0.597938144329897	 0.525773195876289	 1
-1.1	 3	 11.3	 0.219	 -0.36	 103	 -1	 -3	 -1	 1	 -3	 -2	 -1	 -3	 5	 -2	 -1	 0	 -1	 1	 2	 0	 -1	 -2	 -3	 -2	 -1	 1	 -1	 -1	 -3	 0	 0	 -2	 -1	 2	 -1	 4	 0	 -2	 -2	 -1	 -1	 -3	 -2	 0	 15.00	 11.00	 27.00	 23.00	 38.00	 2.78	 2.74	 110	 3	 0.0272727272727273	 0.536585365853659	 0.0146341463414634	 -1
-0.69	 0.2	 10.5	 0.18	 -0.11	 68.7	 -1	 -3	 0	 2	 -3	 -2	 0	 -3	 1	 -2	 0	 0	 -1	 5	 1	 0	 -1	 -2	 -2	 -1	 -2	 0	 -2	 -2	 9	 1	 0	 -2	 0	 -2	 -3	 -2	 -1	 -1	 -2	 -3	 -3	 -6	 -1	 -1	 19.00	 19.00	 12.00	 12.00	 31.00	 1.90	 2.23	 85	 37	 0.435294117647059	 0.429292929292929	 0.186868686868687	 -1
0.53	 -1.8	 4.9	 0.186	 0.4	 27.6	 -1	 -1	 -4	 -3	 0	 -4	 -3	 2	 -2	 4	 2	 -3	 -3	 -2	 -2	 -2	 -1	 1	 -2	 -1	 -2	 2	 -1	 -1	 -5	 2	 -1	 -3	 1	 -3	 0	 0	 -4	 -2	 5	 -1	 -2	 -1	 1	 -2	 10.00	 5.00	 27.00	 22.00	 32.00	 2.34	 2.18	 92	 1	 0.0108695652173913	 0.560975609756098	 0.00609756097560976	 -1
-0.26	 0.3	 9.2	 0.062	 -0.33	 42	 1	 -1	 0	 0	 -2	 0	 -1	 -2	 0	 -2	 -1	 1	 -1	 0	 -1	 4	 1	 -2	 -3	 -2	 0	 -1	 3	 0	 -2	 0	 0	 -1	 0	 -3	 -3	 0	 -2	 -1	 -2	 3	 1	 -1	 2	 -2	 22.00	 24.00	 18.00	 20.00	 42.00	 4.27	 4.85	 45	 29	 0.644444444444444	 0.346153846153846	 0.223076923076923	 -1
-0.69	 0.2	 10.5	 0.18	 -0.11	 68.7	 -1	 -3	 0	 2	 -3	 -2	 0	 -3	 1	 -2	 0	 0	 -1	 5	 1	 0	 -1	 -2	 -2	 -1	 -1	 0	 1	 1	 -1	 2	 1	 0	 1	 -1	 -1	 0	 -1	 0	 1	 0	 0	 -2	 0	 -1	 32.00	 28.00	 25.00	 21.00	 53.00	 4.97	 5.33	 120	 101	 0.841666666666667	 0.606060606060606	 0.51010101010101	 -1
-0.62	 3	 12.3	 0.151	 -0.13	 68.2	 -1	 -4	 2	 5	 -3	 -2	 0	 -3	 1	 -3	 -2	 0	 -1	 2	 0	 0	 -1	 -2	 -3	 -2	 -3	 1	 2	 4	 -5	 -1	 5	 -3	 -2	 -5	 -3	 -1	 -4	 -5	 -3	 -2	 -3	 0	 -4	 -3	 18.00	 17.00	 17.00	 16.00	 34.00	 1.79	 2.00	 84	 52	 0.619047619047619	 0.43298969072165	 0.268041237113402	 -1
0.02	 -2.3	 6.2	 0.298	 0.66	 55.2	 -2	 -2	 -3	 -2	 3	 -3	 2	 -1	 -2	 -1	 -1	 -2	 -3	 -1	 -2	 -2	 -2	 -1	 2	 7	 0	 1	 1	 0	 1	 0	 -1	 -1	 0	 -4	 -2	 -2	 -1	 -1	 -2	 3	 0	 3	 0	 -2	 21.00	 21.00	 24.00	 24.00	 45.00	 3.46	 4.35	 121	 117	 0.966942148760331	 0.545045045045045	 0.527027027027027	 1
-0.62	 3	 12.3	 0.151	 -0.13	 68.2	 -1	 -4	 2	 5	 -3	 -2	 0	 -3	 1	 -3	 -2	 0	 -1	 2	 0	 0	 -1	 -2	 -3	 -2	 -1	 -1	 -1	 1	 -4	 1	 -1	 1	 -2	 -2	 -1	 -2	 -1	 1	 -3	 1	 -1	 4	 4	 0	 24.00	 27.00	 22.00	 25.00	 49.00	 8.63	 7.91	 28	 28	 1	 0.144329896907216	 0.144329896907216	 1
0.37	 -3.4	 5.4	 0.409	 0.83	 34.7	 -3	 -2	 -4	 -3	 1	 -2	 -2	 -3	 -3	 -2	 -1	 -4	 -4	 -2	 -3	 -3	 -2	 -3	 11	 2	 -3	 -3	 -4	 -5	 -3	 -2	 -3	 -3	 -3	 -3	 -2	 -3	 -2	 1	 -4	 -3	 -3	 12	 2	 -3	 18.00	 20.00	 12.00	 14.00	 32.00	 2.21	 2.00	 192	 138	 0.71875	 0.845814977973568	 0.607929515418502	 1
-0.62	 3	 12.3	 0.151	 -0.13	 68.2	 -1	 -4	 2	 5	 -3	 -2	 0	 -3	 1	 -3	 -2	 0	 -1	 2	 0	 0	 -1	 -2	 -3	 -2	 0	 0	 2	 -1	 0	 1	 0	 -2	 2	 -2	 -1	 -1	 -1	 0	 -1	 2	 -1	 1	 -1	 0	 22.00	 21.00	 24.00	 23.00	 45.00	 2.90	 3.74	 51	 30	 0.588235294117647	 0.262886597938144	 0.154639175257732	 -1
-1.76	 3	 10.5	 0.291	 0.27	 94.7	 -1	 -3	 -2	 0	 -3	 -2	 0	 -3	 2	 -2	 -1	 0	 -2	 1	 5	 -1	 -1	 -3	 -3	 -2	 -1	 2	 3	 2	 -3	 0	 0	 -3	 -2	 -1	 -1	 1	 3	 1	 -3	 -1	 -1	 -3	 -1	 -1	 17.00	 12.00	 32.00	 27.00	 44.00	 2.29	 2.00	 190	 100	 0.526315789473684	 0.766129032258065	 0.403225806451613	 1
-0.62	 3	 12.3	 0.151	 -0.13	 68.2	 -1	 -4	 2	 5	 -3	 -2	 0	 -3	 1	 -3	 -2	 0	 -1	 2	 0	 0	 -1	 -2	 -3	 -2	 -1	 0	 -1	 0	 -3	 2	 3	 -3	 0	 -1	 -2	 0	 1	 1	 -2	 1	 -1	 0	 -2	 0	 17.00	 13.00	 28.00	 24.00	 41.00	 2.32	 2.26	 16	 4	 0.25	 0.0824742268041237	 0.0206185567010309	 -1
-0.72	 3	 13	 0.105	 -0.38	 60.6	 -2	 -3	 6	 2	 -3	 -1	 -1	 -3	 -1	 -4	 -3	 1	 -1	 0	 -2	 0	 -1	 -3	 -4	 -3	 -2	 -2	 1	 6	 -4	 0	 2	 -1	 -1	 -3	 -4	 -1	 -3	 -4	 -2	 0	 -1	 -5	 -3	 -3	 4.00	 14.00	 21.00	 31.00	 35.00	 2.86	 3.20	 84	 40	 0.476190476190476	 0.515337423312883	 0.245398773006135	 -1
-0.64	 2	 11.6	 0.134	 0.12	 60.1	 -2	 -3	 1	 0	 -3	 0	 1	 -3	 0	 -3	 -2	 6	 -2	 0	 0	 1	 0	 -3	 -4	 -2	 -2	 -2	 6	 1	 -4	 0	 0	 -1	 -1	 -4	 -3	 2	 -3	 -3	 -3	 -1	 -2	 -4	 1	 -4	 15.00	 14.00	 17.00	 16.00	 31.00	 1.89	 2.00	 105	 12	 0.114285714285714	 0.668789808917197	 0.0764331210191083	 -1
-1.76	 3	 10.5	 0.291	 0.27	 94.7	 -1	 -3	 -2	 0	 -3	 -2	 0	 -3	 2	 -2	 -1	 0	 -2	 1	 5	 -1	 -1	 -3	 -3	 -2	 -1	 3	 0	 1	 -3	 0	 0	 -3	 0	 -2	 -2	 2	 -2	 -2	 2	 -1	 -1	 -3	 1	 1	 10.00	 9.00	 22.00	 21.00	 31.00	 2.01	 2.00	 155	 71	 0.458064516129032	 0.625	 0.286290322580645	 -1
-0.62	 3	 12.3	 0.151	 -0.13	 68.2	 -1	 -4	 2	 5	 -3	 -2	 0	 -3	 1	 -3	 -2	 0	 -1	 2	 0	 0	 -1	 -2	 -3	 -2	 -2	 -1	 0	 -2	 0	 -1	 3	 -3	 4	 0	 0	 1	 -2	 0	 -3	 -1	 1	 1	 2	 -1	 14.00	 10.00	 29.00	 25.00	 39.00	 3.02	 3.59	 58	 30	 0.517241379310345	 0.298969072164948	 0.154639175257732	 -1
0.73	 -1.8	 5.2	 0.186	 0.44	 22.8	 -1	 -1	 -3	 -3	 0	 -4	 -3	 4	 -3	 2	 1	 -3	 -3	 -3	 -3	 -2	 -1	 3	 -3	 -1	 -1	 -2	 -2	 -3	 -2	 -2	 -2	 -3	 -3	 4	 1	 0	 1	 -1	 -3	 0	 -1	 -3	 -2	 2	 19.00	 19.00	 19.00	 19.00	 38.00	 2.72	 2.64	 109	 72	 0.660550458715596	 0.644970414201183	 0.42603550295858	 -1
0.61	 -2.5	 5.2	 0.29	 0.82	 25.5	 -2	 -2	 -3	 -3	 6	 -3	 -1	 0	 -3	 0	 0	 -3	 -4	 -3	 -3	 -2	 -2	 -1	 1	 3	 -2	 -3	 -3	 -4	 -2	 -3	 -3	 -3	 -1	 0	 0	 -3	 0	 6	 -4	 -2	 -2	 1	 3	 -1	 24.00	 20.00	 12.00	 8.00	 32.00	 2.45	 2.72	 110	 93	 0.845454545454545	 0.558375634517767	 0.472081218274112	 1
0.61	 -2.5	 5.2	 0.29	 0.82	 25.5	 -2	 -2	 -3	 -3	 6	 -3	 -1	 0	 -3	 0	 0	 -3	 -4	 -3	 -3	 -2	 -2	 -1	 1	 3	 -3	 -5	 -3	 -6	 -5	 -4	 -5	 -6	 0	 -3	 -1	 -3	 -3	 5	 -6	 -3	 -4	 -1	 8	 -4	 29.00	 24.00	 30.00	 25.00	 54.00	 6.44	 7.36	 6	 6	 1	 0.0304568527918782	 0.0304568527918782	 -1
0.37	 -3.4	 5.4	 0.409	 0.83	 34.7	 -3	 -2	 -4	 -3	 1	 -2	 -2	 -3	 -3	 -2	 -1	 -4	 -4	 -2	 -3	 -3	 -2	 -3	 11	 2	 -1	 3	 -3	 -4	 -4	 -2	 -3	 -4	 2	 2	 -2	 -2	 -2	 0	 2	 -3	 0	 2	 6	 -2	 10.00	 12.00	 20.00	 22.00	 32.00	 2.00	 2.80	 181	 96	 0.530386740331492	 0.797356828193833	 0.422907488986784	 -1
