0.53	 -1.8	 4.9	 0.186	 0.4	 27.6	 -1	 -1	 -4	 -3	 0	 -4	 -3	 2	 -2	 4	 2	 -3	 -3	 -2	 -2	 -2	 -1	 1	 -2	 -1	 -1	 -1	 -2	 -1	 -2	 -2	 -1	 -2	 -2	 1	 2	 -1	 2	 0	 0	 -1	 -1	 5	 2	 0	 24.00	 22.00	 30.00	 28.00	 52.00	 3.17	 3.47	 33	 30	 0.909090909090909	 0.201219512195122	 0.182926829268293	 -1
0.02	 -2.3	 6.2	 0.298	 0.66	 55.2	 -2	 -2	 -3	 -2	 3	 -3	 2	 -1	 -2	 -1	 -1	 -2	 -3	 -1	 -2	 -2	 -2	 -1	 2	 7	 -2	 -2	 1	 -1	 -2	 -2	 -1	 0	 0	 -1	 -1	 -2	 -3	 2	 -3	 1	 0	 6	 4	 0	 30.00	 29.00	 28.00	 27.00	 57.00	 4.65	 5.80	 71	 69	 0.971830985915493	 0.31981981981982	 0.310810810810811	 -1
-0.64	 2	 11.6	 0.134	 0.12	 60.1	 -2	 -3	 1	 0	 -3	 0	 1	 -3	 0	 -3	 -2	 6	 -2	 0	 0	 1	 0	 -3	 -4	 -2	 1	 -1	 6	 1	 -3	 0	 -1	 -1	 0	 -3	 -3	 -1	 -2	 -3	 -2	 0	 0	 -4	 -2	 -3	 29.00	 28.00	 28.00	 27.00	 56.00	 2.17	 2.00	 69	 58	 0.840579710144927	 0.439490445859873	 0.369426751592357	 1
0.02	 -2.3	 6.2	 0.298	 0.66	 55.2	 -2	 -2	 -3	 -2	 3	 -3	 2	 -1	 -2	 -1	 -1	 -2	 -3	 -1	 -2	 -2	 -2	 -1	 2	 7	 -2	 -2	 1	 0	 -4	 -2	 -1	 -3	 1	 -3	 -3	 -2	 -3	 1	 -4	 1	 0	 -1	 7	 -3	 6.00	 4.00	 22.00	 20.00	 26.00	 1.82	 2.00	 199	 76	 0.381909547738693	 0.896396396396396	 0.342342342342342	 -1
0.02	 -2.3	 6.2	 0.298	 0.66	 55.2	 -2	 -2	 -3	 -2	 3	 -3	 2	 -1	 -2	 -1	 -1	 -2	 -3	 -1	 -2	 -2	 -2	 -1	 2	 7	 -2	 -2	 -2	 -3	 -3	 -2	 -3	 2	 1	 -2	 -2	 -2	 -2	 2	 -3	 -2	 -2	 1	 7	 -2	 29.00	 26.00	 24.00	 21.00	 50.00	 7.32	 6.53	 2	 0	 0	 0.00900900900900901	 0	 1
-0.72	 3	 13	 0.105	 -0.38	 60.6	 -2	 -3	 6	 2	 -3	 -1	 -1	 -3	 -1	 -4	 -3	 1	 -1	 0	 -2	 0	 -1	 -3	 -4	 -3	 -1	 -1	 0	 4	 -4	 1	 4	 -2	 -1	 -3	 -3	 0	 -3	 -4	 -1	 0	 -1	 -4	 -3	 -3	 11.00	 14.00	 24.00	 27.00	 38.00	 2.10	 2.69	 89	 20	 0.224719101123595	 0.54601226993865	 0.122699386503067	 -1
-0.62	 3	 12.3	 0.151	 -0.13	 68.2	 -1	 -4	 2	 5	 -3	 -2	 0	 -3	 1	 -3	 -2	 0	 -1	 2	 0	 0	 -1	 -2	 -3	 -2	 -1	 0	 0	 2	 -4	 2	 5	 -2	 0	 -3	 -3	 1	 -2	 -3	 -1	 0	 -1	 -3	 -2	 -3	 7.00	 13.00	 28.00	 34.00	 41.00	 2.41	 2.71	 74	 16	 0.216216216216216	 0.381443298969072	 0.0824742268041237	 -1
0.02	 -2.3	 6.2	 0.298	 0.66	 55.2	 -2	 -2	 -3	 -2	 3	 -3	 2	 -1	 -2	 -1	 -1	 -2	 -3	 -1	 -2	 -2	 -2	 -1	 2	 7	 0	 0	 -1	 0	 -1	 -3	 -3	 0	 0	 -3	 -3	 -2	 0	 1	 -1	 0	 0	 5	 6	 -2	 25.00	 22.00	 31.00	 28.00	 53.00	 6.46	 6.00	 78	 78	 1	 0.351351351351351	 0.351351351351351	 1
-0.18	 -0.4	 8.6	 0.108	 -0.18	 45	 0	 -1	 -1	 -1	 -2	 -2	 -2	 -1	 -1	 -1	 -1	 0	 -1	 -1	 -1	 1	 5	 0	 -2	 -2	 0	 -1	 -1	 -1	 -2	 -1	 -1	 3	 -2	 -1	 -2	 1	 -1	 -2	 -2	 0	 2	 -3	 -2	 0	 22.00	 16.00	 11.00	 5.00	 27.00	 2.29	 2.00	 38	 16	 0.421052631578947	 0.267605633802817	 0.112676056338028	 -1
0.73	 -1.8	 5.2	 0.186	 0.44	 22.8	 -1	 -1	 -3	 -3	 0	 -4	 -3	 4	 -3	 2	 1	 -3	 -3	 -3	 -3	 -2	 -1	 3	 -3	 -1	 -4	 -5	 -6	 -6	 -4	 -4	 -5	 -6	 -5	 3	 5	 -5	 3	 1	 -5	 -5	 -3	 -4	 -3	 2	 19.00	 19.00	 20.00	 20.00	 39.00	 2.33	 2.00	 41	 32	 0.780487804878049	 0.242603550295858	 0.189349112426035	 -1
-0.26	 0.3	 9.2	 0.062	 -0.33	 42	 1	 -1	 0	 0	 -2	 0	 -1	 -2	 0	 -2	 -1	 1	 -1	 0	 -1	 4	 1	 -2	 -3	 -2	 0	 -2	 2	 0	 0	 -1	 -1	 0	 -2	 -2	 -2	 0	 1	 -2	 1	 2	 2	 -3	 0	 -1	 22.00	 27.00	 14.00	 19.00	 41.00	 3.44	 2.94	 13	 12	 0.923076923076923	 0.1	 0.0923076923076923	 -1
0.02	 -2.3	 6.2	 0.298	 0.66	 55.2	 -2	 -2	 -3	 -2	 3	 -3	 2	 -1	 -2	 -1	 -1	 -2	 -3	 -1	 -2	 -2	 -2	 -1	 2	 7	 -3	 -4	 -4	 -4	 -4	 -4	 -2	 -4	 2	 1	 -2	 -4	 -1	 0	 -3	 -2	 3	 -3	 5	 4	 22.00	 20.00	 21.00	 19.00	 41.00	 5.88	 4.81	 90	 0	 0	 0.405405405405405	 0	 1
-0.72	 3	 13	 0.105	 -0.38	 60.6	 -2	 -3	 6	 2	 -3	 -1	 -1	 -3	 -1	 -4	 -3	 1	 -1	 0	 -2	 0	 -1	 -3	 -4	 -3	 -2	 -2	 1	 6	 -4	 0	 2	 -1	 -1	 -3	 -4	 -1	 -3	 -4	 -2	 0	 -1	 -5	 -3	 -3	 24.00	 21.00	 24.00	 21.00	 45.00	 7.15	 7.48	 135	 132	 0.977777777777778	 0.828220858895706	 0.809815950920245	 1
-0.26	 0.3	 9.2	 0.062	 -0.33	 42	 1	 -1	 0	 0	 -2	 0	 -1	 -2	 0	 -2	 -1	 1	 -1	 0	 -1	 4	 1	 -2	 -3	 -2	 -1	 -1	 2	 0	 -3	 0	 0	 1	 -1	 -2	 -2	 0	 -3	 -1	 1	 3	 0	 -3	 1	 -2	 19.00	 17.00	 30.00	 28.00	 47.00	 2.31	 2.87	 66	 55	 0.833333333333333	 0.507692307692308	 0.423076923076923	 -1
-0.26	 0.3	 9.2	 0.062	 -0.33	 42	 1	 -1	 0	 0	 -2	 0	 -1	 -2	 0	 -2	 -1	 1	 -1	 0	 -1	 4	 1	 -2	 -3	 -2	 0	 -2	 2	 0	 -1	 0	 1	 -2	 -1	 -1	 -2	 0	 -2	 -4	 5	 0	 -2	 -4	 0	 1	 22.00	 26.00	 15.00	 19.00	 41.00	 2.25	 2.67	 46	 3	 0.0652173913043478	 0.353846153846154	 0.0230769230769231	 -1
0.73	 -1.8	 5.2	 0.186	 0.44	 22.8	 -1	 -1	 -3	 -3	 0	 -4	 -3	 4	 -3	 2	 1	 -3	 -3	 -3	 -3	 -2	 -1	 3	 -3	 -1	 -1	 1	 -3	 -3	 -4	 1	 -1	 -2	 1	 -1	 -1	 0	 -3	 0	 5	 -1	 1	 -4	 -2	 -1	 22.00	 22.00	 29.00	 29.00	 51.00	 2.40	 2.70	 114	 69	 0.605263157894737	 0.674556213017751	 0.408284023668639	 -1
-1.1	 3	 11.3	 0.219	 -0.36	 103	 -1	 -3	 -1	 1	 -3	 -2	 -1	 -3	 5	 -2	 -1	 0	 -1	 1	 2	 0	 -1	 -2	 -3	 -2	 -1	 2	 0	 -1	 -3	 1	 1	 -2	 -1	 -3	 -2	 5	 -1	 -3	 -1	 0	 -1	 -3	 -2	 -2	 12.00	 5.00	 12.00	 5.00	 17.00	 1.89	 2.00	 147	 0	 0	 0.717073170731707	 0	 -1
-0.07	 0	 8	 0.131	 -0.25	 51.5	 -1	 -3	 -1	 -1	 -4	 -2	 -2	 -3	 -1	 -3	 -2	 -2	 7	 -1	 -2	 -1	 -1	 -2	 -4	 -3	 0	 -2	 -1	 -1	 -2	 -1	 -1	 -1	 -2	 -2	 -2	 -1	 -2	 -2	 7	 -1	 -1	 -2	 -2	 -2	 34.00	 30.00	 23.00	 19.00	 53.00	 2.95	 2.72	 122	 122	 1	 0.897058823529412	 0.897058823529412	 1
-0.64	 2	 11.6	 0.134	 0.12	 60.1	 -2	 -3	 1	 0	 -3	 0	 1	 -3	 0	 -3	 -2	 6	 -2	 0	 0	 1	 0	 -3	 -4	 -2	 0	 -1	 1	 1	 -1	 1	 0	 -1	 -1	 -1	 0	 0	 -1	 -1	 -1	 2	 1	 -2	 -1	 -1	 28.00	 23.00	 27.00	 22.00	 50.00	 4.42	 4.30	 125	 125	 1	 0.796178343949045	 0.796178343949045	 1
-1.1	 3	 11.3	 0.219	 -0.36	 103	 -1	 -3	 -1	 1	 -3	 -2	 -1	 -3	 5	 -2	 -1	 0	 -1	 1	 2	 0	 -1	 -2	 -3	 -2	 -1	 4	 0	 -1	 -3	 1	 0	 -2	 -1	 -3	 -2	 4	 -1	 -3	 -1	 0	 -1	 -3	 -2	 -2	 14.00	 18.00	 19.00	 23.00	 37.00	 2.16	 2.00	 121	 58	 0.479338842975207	 0.590243902439024	 0.282926829268293	 -1
-1.76	 3	 10.5	 0.291	 0.27	 94.7	 -1	 -3	 -2	 0	 -3	 -2	 0	 -3	 2	 -2	 -1	 0	 -2	 1	 5	 -1	 -1	 -3	 -3	 -2	 -2	 0	 -2	 -2	 -3	 0	 -2	 -1	 -2	 0	 3	 0	 0	 1	 -1	 -2	 -1	 2	 3	 -1	 27.00	 30.00	 24.00	 27.00	 54.00	 7.27	 5.84	 34	 31	 0.911764705882353	 0.137096774193548	 0.125	 1
0.37	 -3.4	 5.4	 0.409	 0.83	 34.7	 -3	 -2	 -4	 -3	 1	 -2	 -2	 -3	 -3	 -2	 -1	 -4	 -4	 -2	 -3	 -3	 -2	 -3	 11	 2	 0	 1	 3	 1	 -3	 -1	 -2	 1	 -1	 -2	 -2	 -2	 -2	 -1	 -2	 0	 1	 1	 3	 -1	 24.00	 26.00	 25.00	 27.00	 51.00	 4.32	 5.69	 116	 115	 0.991379310344828	 0.511013215859031	 0.506607929515419	 1
-0.64	 2	 11.6	 0.134	 0.12	 60.1	 -2	 -3	 1	 0	 -3	 0	 1	 -3	 0	 -3	 -2	 6	 -2	 0	 0	 1	 0	 -3	 -4	 -2	 -2	 0	 6	 1	 -3	 0	 0	 0	 1	 -3	 -3	 0	 -2	 -3	 -2	 1	 0	 -4	 -2	 -3	 8.00	 10.00	 25.00	 27.00	 35.00	 2.10	 2.65	 99	 55	 0.555555555555556	 0.630573248407643	 0.35031847133758	 -1
0.37	 -3.4	 5.4	 0.409	 0.83	 34.7	 -3	 -2	 -4	 -3	 1	 -2	 -2	 -3	 -3	 -2	 -1	 -4	 -4	 -2	 -3	 -3	 -2	 -3	 11	 2	 -3	 -3	 -3	 -2	 -4	 -2	 -2	 2	 -2	 -2	 -2	 -3	 -2	 2	 -4	 1	 -1	 6	 6	 0	 25.00	 24.00	 24.00	 23.00	 48.00	 6.70	 6.77	 116	 94	 0.810344827586207	 0.511013215859031	 0.414096916299559	 1
0.02	 -2.3	 6.2	 0.298	 0.66	 55.2	 -2	 -2	 -3	 -2	 3	 -3	 2	 -1	 -2	 -1	 -1	 -2	 -3	 -1	 -2	 -2	 -2	 -1	 2	 7	 -3	 -2	 -1	 -2	 -4	 0	 -2	 -4	 1	 -3	 -1	 -2	 1	 2	 -2	 -1	 -3	 3	 7	 -1	 30.00	 28.00	 30.00	 28.00	 58.00	 3.48	 4.77	 141	 122	 0.865248226950355	 0.635135135135135	 0.54954954954955	 1
-0.69	 0.2	 10.5	 0.18	 -0.11	 68.7	 -1	 -3	 0	 2	 -3	 -2	 0	 -3	 1	 -2	 0	 0	 -1	 5	 1	 0	 -1	 -2	 -2	 -1	 -1	 1	 0	 0	 -3	 5	 2	 -2	 0	 -3	 -2	 1	 0	 -3	 -1	 0	 -1	 -2	 -1	 -2	 18.00	 15.00	 7.00	 4.00	 22.00	 1.92	 2.00	 137	 64	 0.467153284671533	 0.691919191919192	 0.323232323232323	 -1
0.37	 -3.4	 5.4	 0.409	 0.83	 34.7	 -3	 -2	 -4	 -3	 1	 -2	 -2	 -3	 -3	 -2	 -1	 -4	 -4	 -2	 -3	 -3	 -2	 -3	 11	 2	 -2	 0	 2	 3	 -1	 -1	 0	 0	 1	 -2	 -3	 1	 -2	 -1	 -2	 1	 -1	 4	 0	 -3	 23.00	 24.00	 25.00	 26.00	 49.00	 3.78	 5.46	 71	 54	 0.76056338028169	 0.312775330396476	 0.237885462555066	 -1
-0.72	 3	 13	 0.105	 -0.38	 60.6	 -2	 -3	 6	 2	 -3	 -1	 -1	 -3	 -1	 -4	 -3	 1	 -1	 0	 -2	 0	 -1	 -3	 -4	 -3	 -3	 -2	 3	 1	 -4	 -2	 -2	 -1	 1	 -2	 -3	 -2	 -2	 0	 -4	 1	 1	 -2	 6	 -3	 24.00	 22.00	 26.00	 24.00	 48.00	 2.76	 2.86	 35	 27	 0.771428571428571	 0.214723926380368	 0.165644171779141	 1
-0.62	 3	 12.3	 0.151	 -0.13	 68.2	 -1	 -4	 2	 5	 -3	 -2	 0	 -3	 1	 -3	 -2	 0	 -1	 2	 0	 0	 -1	 -2	 -3	 -2	 -1	 3	 -2	 1	 -4	 2	 4	 0	 -2	 -4	 -4	 1	 -3	 -4	 0	 1	 0	 -4	 -3	 -2	 5.00	 8.00	 17.00	 20.00	 25.00	 1.91	 2.47	 128	 25	 0.1953125	 0.65979381443299	 0.128865979381443	 -1
-0.26	 0.3	 9.2	 0.062	 -0.33	 42	 1	 -1	 0	 0	 -2	 0	 -1	 -2	 0	 -2	 -1	 1	 -1	 0	 -1	 4	 1	 -2	 -3	 -2	 0	 0	 3	 0	 -2	 -1	 1	 -1	 -1	 -2	 -3	 0	 -1	 -2	 2	 2	 0	 -3	 0	 -2	 11.00	 14.00	 22.00	 25.00	 36.00	 2.42	 2.00	 92	 53	 0.576086956521739	 0.707692307692308	 0.407692307692308	 -1
0.37	 -3.4	 5.4	 0.409	 0.83	 34.7	 -3	 -2	 -4	 -3	 1	 -2	 -2	 -3	 -3	 -2	 -1	 -4	 -4	 -2	 -3	 -3	 -2	 -3	 11	 2	 -1	 -1	 0	 0	 -2	 -1	 0	 -1	 1	 0	 -1	 0	 -1	 -1	 2	 1	 0	 2	 2	 -1	 22.00	 20.00	 31.00	 29.00	 51.00	 6.00	 6.62	 63	 26	 0.412698412698413	 0.277533039647577	 0.114537444933921	 1
