-0.4	 -0.5	 10.4	 0.23	 0.41	 50.7	 -2	 -3	 -1	 0	 -1	 -2	 8	 -3	 -1	 -3	 -2	 1	 -2	 0	 0	 -1	 -2	 -3	 -2	 2	 -2	 1	 -2	 -1	 -3	 -1	 -2	 -3	 0	 1	 -3	 2	 -1	 -4	 -2	 1	 5	 -4	 -3	 0	 17.00	 17.00	 26.00	 26.00	 43.00	 2.16	 2.00	 101	 72	 0.712871287128713	 0.548913043478261	 0.391304347826087	 -1
-0.26	 0.3	 9.2	 0.062	 -0.33	 42	 1	 -1	 0	 0	 -2	 0	 -1	 -2	 0	 -2	 -1	 1	 -1	 0	 -1	 4	 1	 -2	 -3	 -2	 1	 -1	 3	 0	 -1	 0	 0	 0	 0	 -3	 -3	 0	 -2	 -3	 -1	 4	 1	 -3	 -2	 -2	 7.00	 7.00	 27.00	 27.00	 34.00	 2.27	 2.00	 109	 33	 0.302752293577982	 0.838461538461538	 0.253846153846154	 -1
0.02	 -2.3	 6.2	 0.298	 0.66	 55.2	 -2	 -2	 -3	 -2	 3	 -3	 2	 -1	 -2	 -1	 -1	 -2	 -3	 -1	 -2	 -2	 -2	 -1	 2	 7	 -2	 -1	 -2	 1	 -2	 0	 -2	 -3	 -1	 0	 1	 -1	 2	 2	 -2	 -2	 -1	 3	 3	 1	 25.00	 23.00	 19.00	 17.00	 42.00	 6.71	 6.43	 125	 121	 0.968	 0.563063063063063	 0.545045045045045	 1
-0.62	 3	 12.3	 0.151	 -0.13	 68.2	 -1	 -4	 2	 5	 -3	 -2	 0	 -3	 1	 -3	 -2	 0	 -1	 2	 0	 0	 -1	 -2	 -3	 -2	 -1	 0	 -1	 0	 -3	 2	 3	 -3	 0	 -1	 -2	 0	 1	 1	 -2	 1	 -1	 0	 -2	 0	 17.00	 13.00	 28.00	 24.00	 41.00	 2.32	 2.26	 16	 4	 0.25	 0.0824742268041237	 0.0206185567010309	 -1
-1.1	 3	 11.3	 0.219	 -0.36	 103	 -1	 -3	 -1	 1	 -3	 -2	 -1	 -3	 5	 -2	 -1	 0	 -1	 1	 2	 0	 -1	 -2	 -3	 -2	 -4	 0	 -2	 -4	 -6	 -2	 -2	 -4	 0	 -5	 -5	 7	 0	 -2	 -4	 -3	 0	 -5	 -1	 -3	 31.00	 23.00	 36.00	 28.00	 59.00	 4.86	 6.11	 39	 31	 0.794871794871795	 0.190243902439024	 0.151219512195122	 1
0.02	 -2.3	 6.2	 0.298	 0.66	 55.2	 -2	 -2	 -3	 -2	 3	 -3	 2	 -1	 -2	 -1	 -1	 -2	 -3	 -1	 -2	 -2	 -2	 -1	 2	 7	 0	 0	 -1	 0	 -1	 -3	 -3	 0	 0	 -3	 -3	 -2	 0	 1	 -1	 0	 0	 5	 6	 -2	 25.00	 22.00	 31.00	 28.00	 53.00	 6.46	 6.00	 78	 78	 1	 0.351351351351351	 0.351351351351351	 1
-0.64	 2	 11.6	 0.134	 0.12	 60.1	 -2	 -3	 1	 0	 -3	 0	 1	 -3	 0	 -3	 -2	 6	 -2	 0	 0	 1	 0	 -3	 -4	 -2	 -2	 -2	 6	 1	 -4	 0	 0	 -1	 -1	 -4	 -3	 2	 -3	 -3	 -3	 -1	 -2	 -4	 1	 -4	 15.00	 14.00	 17.00	 16.00	 31.00	 1.89	 2.00	 105	 12	 0.114285714285714	 0.668789808917197	 0.0764331210191083	 -1
-0.4	 -0.5	 10.4	 0.23	 0.41	 50.7	 -2	 -3	 -1	 0	 -1	 -2	 8	 -3	 -1	 -3	 -2	 1	 -2	 0	 0	 -1	 -2	 -3	 -2	 2	 0	 2	 0	 -2	 -3	 2	 1	 -3	 1	 0	 -1	 0	 -2	 1	 -3	 1	 2	 0	 2	 -2	 24.00	 25.00	 31.00	 32.00	 56.00	 4.33	 6.15	 66	 39	 0.590909090909091	 0.358695652173913	 0.21195652173913	 -1
0.53	 -1.8	 4.9	 0.186	 0.4	 27.6	 -1	 -1	 -4	 -3	 0	 -4	 -3	 2	 -2	 4	 2	 -3	 -3	 -2	 -2	 -2	 -1	 1	 -2	 -1	 -1	 -1	 0	 -2	 -2	 -1	 -2	 -3	 -2	 2	 2	 0	 1	 2	 -2	 -1	 0	 -2	 -1	 2	 23.00	 22.00	 18.00	 17.00	 40.00	 5.12	 4.91	 65	 65	 1	 0.396341463414634	 0.396341463414634	 -1
-0.64	 2	 11.6	 0.134	 0.12	 60.1	 -2	 -3	 1	 0	 -3	 0	 1	 -3	 0	 -3	 -2	 6	 -2	 0	 0	 1	 0	 -3	 -4	 -2	 0	 -2	 3	 4	 -3	 0	 1	 1	 -2	 -3	 -3	 -1	 -3	 -2	 -2	 1	 -1	 -3	 -1	 -2	 12.00	 6.00	 19.00	 13.00	 25.00	 1.84	 2.00	 114	 17	 0.149122807017544	 0.726114649681529	 0.10828025477707	 -1
-1.1	 3	 11.3	 0.219	 -0.36	 103	 -1	 -3	 -1	 1	 -3	 -2	 -1	 -3	 5	 -2	 -1	 0	 -1	 1	 2	 0	 -1	 -2	 -3	 -2	 0	 2	 0	 -1	 -2	 0	 0	 0	 2	 -2	 -2	 2	 -1	 -2	 -1	 1	 0	 -2	 -1	 -2	 22.00	 19.00	 28.00	 25.00	 47.00	 3.09	 3.80	 136	 110	 0.808823529411765	 0.663414634146341	 0.536585365853659	 1
0.37	 -3.4	 5.4	 0.409	 0.83	 34.7	 -3	 -2	 -4	 -3	 1	 -2	 -2	 -3	 -3	 -2	 -1	 -4	 -4	 -2	 -3	 -3	 -2	 -3	 11	 2	 -3	 -3	 -3	 0	 -4	 -1	 1	 -2	 -2	 -3	 -2	 -2	 -1	 4	 -2	 -2	 0	 8	 4	 -3	 22.00	 22.00	 25.00	 25.00	 47.00	 3.11	 2.70	 161	 154	 0.956521739130435	 0.709251101321586	 0.6784140969163	 1
0.53	 -1.8	 4.9	 0.186	 0.4	 27.6	 -1	 -1	 -4	 -3	 0	 -4	 -3	 2	 -2	 4	 2	 -3	 -3	 -2	 -2	 -2	 -1	 1	 -2	 -1	 -1	 -2	 -3	 -4	 -1	 -2	 -3	 -4	 -3	 2	 4	 -2	 2	 0	 -3	 -2	 -1	 -2	 -1	 1	 16.00	 18.00	 14.00	 16.00	 32.00	 2.77	 3.09	 82	 65	 0.792682926829268	 0.5	 0.396341463414634	 1
-0.18	 -0.4	 8.6	 0.108	 -0.18	 45	 0	 -1	 -1	 -1	 -2	 -2	 -2	 -1	 -1	 -1	 -1	 0	 -1	 -1	 -1	 1	 5	 0	 -2	 -2	 -1	 0	 -3	 -3	 -4	 -3	 -3	 -4	 -1	 -3	 -3	 -1	 0	 -4	 5	 1	 5	 -5	 -4	 -1	 29.00	 27.00	 31.00	 29.00	 58.00	 3.27	 2.88	 97	 73	 0.752577319587629	 0.683098591549296	 0.514084507042254	 1
-0.18	 -0.4	 8.6	 0.108	 -0.18	 45	 0	 -1	 -1	 -1	 -2	 -2	 -2	 -1	 -1	 -1	 -1	 0	 -1	 -1	 -1	 1	 5	 0	 -2	 -2	 0	 -2	 1	 -1	 5	 -1	 -1	 0	 -2	 0	 -1	 -1	 -1	 -2	 -2	 1	 2	 -2	 -2	 0	 27.00	 24.00	 25.00	 22.00	 49.00	 5.25	 5.25	 24	 0	 0	 0.169014084507042	 0	 -1
-0.72	 3	 13	 0.105	 -0.38	 60.6	 -2	 -3	 6	 2	 -3	 -1	 -1	 -3	 -1	 -4	 -3	 1	 -1	 0	 -2	 0	 -1	 -3	 -4	 -3	 1	 -2	 1	 2	 -3	 0	 0	 1	 -1	 -3	 -3	 -1	 -3	 -3	 1	 2	 0	 -4	 -1	 -2	 6.00	 3.00	 23.00	 20.00	 26.00	 1.86	 2.00	 77	 18	 0.233766233766234	 0.47239263803681	 0.110429447852761	 -1
-1.1	 3	 11.3	 0.219	 -0.36	 103	 -1	 -3	 -1	 1	 -3	 -2	 -1	 -3	 5	 -2	 -1	 0	 -1	 1	 2	 0	 -1	 -2	 -3	 -2	 -1	 2	 -1	 -1	 -3	 1	 0	 -2	 -1	 0	 -1	 4	 -1	 -2	 -1	 -1	 -1	 -3	 -2	 -1	 24.00	 20.00	 26.00	 22.00	 46.00	 3.02	 2.93	 36	 25	 0.694444444444444	 0.175609756097561	 0.121951219512195	 -1
0.02	 -2.3	 6.2	 0.298	 0.66	 55.2	 -2	 -2	 -3	 -2	 3	 -3	 2	 -1	 -2	 -1	 -1	 -2	 -3	 -1	 -2	 -2	 -2	 -1	 2	 7	 -1	 -2	 -3	 -3	 -2	 -2	 -2	 -3	 1	 1	 0	 -2	 0	 2	 -3	 -2	 -1	 1	 6	 2	 11.00	 11.00	 18.00	 18.00	 29.00	 2.57	 2.86	 94	 30	 0.319148936170213	 0.423423423423423	 0.135135135135135	 -1
-0.62	 3	 12.3	 0.151	 -0.13	 68.2	 -1	 -4	 2	 5	 -3	 -2	 0	 -3	 1	 -3	 -2	 0	 -1	 2	 0	 0	 -1	 -2	 -3	 -2	 0	 -1	 -1	 -2	 2	 2	 0	 0	 1	 -4	 -2	 -2	 -1	 -2	 4	 2	 0	 -5	 -4	 -4	 14.00	 19.00	 19.00	 24.00	 38.00	 1.86	 2.31	 103	 49	 0.475728155339806	 0.530927835051546	 0.252577319587629	 -1
-0.72	 3	 13	 0.105	 -0.38	 60.6	 -2	 -3	 6	 2	 -3	 -1	 -1	 -3	 -1	 -4	 -3	 1	 -1	 0	 -2	 0	 -1	 -3	 -4	 -3	 -2	 -2	 1	 6	 -3	 0	 2	 -1	 -1	 -3	 -4	 -1	 -3	 -3	 -1	 0	 -1	 -4	 -3	 -3	 21.00	 14.00	 21.00	 14.00	 35.00	 3.83	 3.73	 37	 0	 0	 0.226993865030675	 0	 -1
-1.1	 3	 11.3	 0.219	 -0.36	 103	 -1	 -3	 -1	 1	 -3	 -2	 -1	 -3	 5	 -2	 -1	 0	 -1	 1	 2	 0	 -1	 -2	 -3	 -2	 -1	 4	 0	 -1	 -3	 1	 0	 -2	 -1	 -3	 -2	 4	 -1	 -3	 -1	 0	 -1	 -3	 -2	 -2	 14.00	 18.00	 19.00	 23.00	 37.00	 2.16	 2.00	 121	 58	 0.479338842975207	 0.590243902439024	 0.282926829268293	 -1
-0.62	 3	 12.3	 0.151	 -0.13	 68.2	 -1	 -4	 2	 5	 -3	 -2	 0	 -3	 1	 -3	 -2	 0	 -1	 2	 0	 0	 -1	 -2	 -3	 -2	 -2	 -1	 0	 3	 -5	 0	 5	 -1	 4	 -5	 -4	 -1	 -4	 -5	 -3	 1	 0	 -5	 -3	 -4	 7.00	 3.00	 24.00	 20.00	 27.00	 1.83	 2.00	 144	 32	 0.222222222222222	 0.742268041237113	 0.164948453608247	 -1
0.73	 -1.8	 5.2	 0.186	 0.44	 22.8	 -1	 -1	 -3	 -3	 0	 -4	 -3	 4	 -3	 2	 1	 -3	 -3	 -3	 -3	 -2	 -1	 3	 -3	 -1	 -1	 -3	 -3	 -3	 -1	 -3	 -3	 -4	 -3	 4	 2	 -3	 1	 0	 -3	 -2	 -1	 -3	 -1	 3	 20.00	 29.00	 10.00	 19.00	 39.00	 4.31	 4.50	 92	 83	 0.902173913043478	 0.544378698224852	 0.49112426035503	 1
0.37	 -3.4	 5.4	 0.409	 0.83	 34.7	 -3	 -2	 -4	 -3	 1	 -2	 -2	 -3	 -3	 -2	 -1	 -4	 -4	 -2	 -3	 -3	 -2	 -3	 11	 2	 -3	 -3	 -3	 -2	 -4	 -2	 -2	 2	 -2	 -2	 -2	 -3	 -2	 2	 -4	 1	 -1	 6	 6	 0	 25.00	 24.00	 24.00	 23.00	 48.00	 6.70	 6.77	 116	 94	 0.810344827586207	 0.511013215859031	 0.414096916299559	 1
-0.18	 -0.4	 8.6	 0.108	 -0.18	 45	 0	 -1	 -1	 -1	 -2	 -2	 -2	 -1	 -1	 -1	 -1	 0	 -1	 -1	 -1	 1	 5	 0	 -2	 -2	 -1	 -1	 0	 0	 -1	 0	 -1	 -2	 2	 1	 0	 -1	 -1	 0	 0	 1	 1	 -2	 1	 0	 33.00	 33.00	 26.00	 26.00	 59.00	 5.72	 4.96	 57	 24	 0.421052631578947	 0.401408450704225	 0.169014084507042	 -1
-0.07	 0	 8	 0.131	 -0.25	 51.5	 -1	 -3	 -1	 -1	 -4	 -2	 -2	 -3	 -1	 -3	 -2	 -2	 7	 -1	 -2	 -1	 -1	 -2	 -4	 -3	 0	 -2	 -1	 -1	 -2	 -1	 -1	 -1	 -2	 -2	 -2	 -1	 -2	 -2	 7	 -1	 -1	 -2	 -2	 -2	 34.00	 30.00	 23.00	 19.00	 53.00	 2.95	 2.72	 122	 122	 1	 0.897058823529412	 0.897058823529412	 1
-0.18	 -0.4	 8.6	 0.108	 -0.18	 45	 0	 -1	 -1	 -1	 -2	 -2	 -2	 -1	 -1	 -1	 -1	 0	 -1	 -1	 -1	 1	 5	 0	 -2	 -2	 -1	 -1	 0	 -2	 -4	 0	 0	 -1	 -1	 -3	 -1	 0	 0	 -2	 4	 1	 1	 -1	 0	 -2	 23.00	 27.00	 24.00	 28.00	 51.00	 2.83	 3.46	 103	 87	 0.844660194174757	 0.725352112676056	 0.612676056338028	 -1
0.54	 -1.5	 5.9	 0.14	 0.27	 23.7	 0	 -1	 -3	 -2	 -1	 -3	 -3	 3	 -2	 1	 1	 -3	 -2	 -2	 -3	 -2	 0	 4	 -3	 -1	 -2	 -2	 -2	 -2	 -4	 -1	 -3	 -5	 -1	 4	 0	 -1	 4	 0	 -3	 -2	 1	 3	 -2	 2	 24.00	 25.00	 24.00	 25.00	 49.00	 2.38	 3.17	 60	 26	 0.433333333333333	 0.422535211267606	 0.183098591549296	 -1
0.02	 -2.3	 6.2	 0.298	 0.66	 55.2	 -2	 -2	 -3	 -2	 3	 -3	 2	 -1	 -2	 -1	 -1	 -2	 -3	 -1	 -2	 -2	 -2	 -1	 2	 7	 -1	 3	 -1	 -2	 -3	 3	 0	 -2	 3	 -2	 0	 0	 0	 0	 -2	 0	 0	 -2	 2	 -1	 11.00	 15.00	 19.00	 23.00	 34.00	 2.35	 2.80	 124	 87	 0.701612903225806	 0.558558558558559	 0.391891891891892	 -1
-1.1	 3	 11.3	 0.219	 -0.36	 103	 -1	 -3	 -1	 1	 -3	 -2	 -1	 -3	 5	 -2	 -1	 0	 -1	 1	 2	 0	 -1	 -2	 -3	 -2	 -2	 4	 -1	 -2	 -4	 1	 -1	 -3	 0	 -4	 -3	 6	 -3	 -4	 -3	 0	 0	 -4	 -3	 -3	 26.00	 23.00	 27.00	 24.00	 50.00	 2.75	 2.70	 100	 82	 0.82	 0.48780487804878	 0.4	 1
0.61	 -2.5	 5.2	 0.29	 0.82	 25.5	 -2	 -2	 -3	 -3	 6	 -3	 -1	 0	 -3	 0	 0	 -3	 -4	 -3	 -3	 -2	 -2	 -1	 1	 3	 2	 -1	 -1	 1	 -3	 1	 1	 -1	 -2	 0	 -2	 0	 0	 -1	 -2	 2	 2	 -4	 -2	 -1	 18.00	 17.00	 27.00	 26.00	 44.00	 2.98	 3.96	 76	 49	 0.644736842105263	 0.385786802030457	 0.248730964467005	 -1
