0.547757	0.452243
0.187013	0.812987
0.142136	0.857864
0.521182	0.478818
0.638927	0.361073
0.463979	0.536021
0.584519	0.415481
0.269943	0.730057
0.600651	0.399349
0.573575	0.426425
0.660054	0.339946
0.848219	0.151781
0.317903	0.682097
0.515205	0.484795
0.301484	0.698516
0.300207	0.699793
0.884820	0.115180
0.155905	0.844095
0.671328	0.328672
0.752454	0.247546
0.195294	0.804706
0.802929	0.197071
0.190801	0.809199
0.332154	0.667846
0.487917	0.512083
0.833262	0.166738
0.246224	0.753776
0.708044	0.291956
0.870703	0.129297
0.271043	0.728957
0.648020	0.351980
