0.808201	0.191799
0.908801	0.091199
0.224831	0.775169
0.766069	0.233931
0.735889	0.264111
0.651566	0.348434
0.342897	0.657103
0.903078	0.096922
0.870902	0.129098
0.920732	0.079268
0.064518	0.935482
0.942940	0.057060
0.884407	0.115593
0.865062	0.134938
0.371379	0.628621
0.619990	0.380010
0.245349	0.754651
0.844920	0.155080
0.807328	0.192672
0.201170	0.798830
0.960871	0.039129
0.085102	0.914898
0.639110	0.360890
0.317808	0.682192
0.197737	0.802263
0.566605	0.433395
0.646248	0.353752
0.350958	0.649042
0.448861	0.551139
0.064229	0.935771
0.698551	0.301449
