0.000071	0.999929
0.898371	0.101629
0.966658	0.033342
0.102948	0.897052
0.001224	0.998776
0.758392	0.241608
0.999428	0.000572
0.987135	0.012865
0.691087	0.308913
0.999919	0.000081
0.977697	0.022303
0.442525	0.557475
0.007587	0.992413
0.039835	0.960165
0.989562	0.010438
0.000441	0.999559
0.275679	0.724321
0.018577	0.981423
0.992747	0.007253
0.999023	0.000977
0.079399	0.920601
0.943051	0.056949
0.105666	0.894334
0.866486	0.133514
0.996962	0.003038
0.824837	0.175163
0.843734	0.156266
0.547073	0.452927
0.004035	0.995965
0.999690	0.000310
0.981236	0.018764
