0.982471	0.017529
0.296402	0.703598
0.999832	0.000168
0.000427	0.999573
0.635396	0.364604
0.264979	0.735021
0.117590	0.882410
0.000961	0.999039
0.869925	0.130075
0.994685	0.005315
0.734105	0.265895
0.816981	0.183019
0.994362	0.005638
0.996842	0.003158
0.986046	0.013954
0.999895	0.000105
0.002630	0.997370
0.000244	0.999756
0.985780	0.014220
0.990005	0.009995
0.012402	0.987598
0.000103	0.999897
0.998839	0.001161
0.972645	0.027355
0.950104	0.049896
0.039063	0.960937
0.996760	0.003240
0.063175	0.936825
0.021368	0.978632
0.307575	0.692425
0.999443	0.000557
