-0.26	 0.3	 9.2	 0.062	 -0.33	 42	 1	 -1	 0	 0	 -2	 0	 -1	 -2	 0	 -2	 -1	 1	 -1	 0	 -1	 4	 1	 -2	 -3	 -2	 1	 -1	 2	 2	 -3	 1	 -1	 -3	 3	 -3	 -2	 -1	 -3	 0	 -1	 2	 2	 -4	 -1	 -2	 21.00	 21.00	 28.00	 28.00	 49.00	 4.83	 5.21	 12	 12	 1	 0.0923076923076923	 0.0923076923076923	 -1
-1.1	 3	 11.3	 0.219	 -0.36	 103	 -1	 -3	 -1	 1	 -3	 -2	 -1	 -3	 5	 -2	 -1	 0	 -1	 1	 2	 0	 -1	 -2	 -3	 -2	 1	 5	 -1	 -2	 -3	 1	 0	 -2	 -1	 -3	 -2	 3	 -1	 -3	 -2	 0	 -1	 -3	 -2	 -2	 7.00	 11.00	 20.00	 24.00	 31.00	 1.99	 2.47	 157	 54	 0.343949044585987	 0.765853658536585	 0.263414634146341	 -1
0.53	 -1.8	 4.9	 0.186	 0.4	 27.6	 -1	 -1	 -4	 -3	 0	 -4	 -3	 2	 -2	 4	 2	 -3	 -3	 -2	 -2	 -2	 -1	 1	 -2	 -1	 -1	 4	 -2	 -2	 -3	 1	 -2	 -1	 0	 -1	 1	 1	 3	 -3	 0	 -1	 -1	 -4	 -3	 -1	 39.00	 34.00	 28.00	 23.00	 62.00	 6.40	 6.60	 168	 167	 0.994047619047619	 1.02439024390244	 1.01829268292683	 1
-0.69	 0.2	 10.5	 0.18	 -0.11	 68.7	 -1	 -3	 0	 2	 -3	 -2	 0	 -3	 1	 -2	 0	 0	 -1	 5	 1	 0	 -1	 -2	 -2	 -1	 0	 1	 1	 0	 -2	 3	 0	 -1	 1	 -2	 -2	 1	 -2	 -2	 1	 1	 -1	 -2	 2	 -1	 14.00	 5.00	 23.00	 14.00	 28.00	 2.19	 2.00	 126	 34	 0.26984126984127	 0.636363636363636	 0.171717171717172	 -1
0.37	 -3.4	 5.4	 0.409	 0.83	 34.7	 -3	 -2	 -4	 -3	 1	 -2	 -2	 -3	 -3	 -2	 -1	 -4	 -4	 -2	 -3	 -3	 -2	 -3	 11	 2	 -1	 -1	 0	 0	 -2	 -1	 0	 -1	 1	 0	 -1	 0	 -1	 -1	 2	 1	 0	 2	 2	 -1	 22.00	 20.00	 31.00	 29.00	 51.00	 6.00	 6.62	 63	 26	 0.412698412698413	 0.277533039647577	 0.114537444933921	 1
0.61	 -2.5	 5.2	 0.29	 0.82	 25.5	 -2	 -2	 -3	 -3	 6	 -3	 -1	 0	 -3	 0	 0	 -3	 -4	 -3	 -3	 -2	 -2	 -1	 1	 3	 -2	 -3	 -3	 -4	 -2	 -3	 -3	 -3	 -1	 0	 0	 -3	 0	 6	 -4	 -2	 -2	 1	 3	 -1	 23.00	 27.00	 20.00	 24.00	 47.00	 3.96	 2.68	 161	 146	 0.906832298136646	 0.817258883248731	 0.741116751269036	 1
0.37	 -3.4	 5.4	 0.409	 0.83	 34.7	 -3	 -2	 -4	 -3	 1	 -2	 -2	 -3	 -3	 -2	 -1	 -4	 -4	 -2	 -3	 -3	 -2	 -3	 11	 2	 0	 3	 -1	 0	 0	 1	 -1	 -2	 3	 -3	 -2	 -3	 -2	 -2	 -1	 3	 -2	 3	 0	 -2	 23.00	 22.00	 27.00	 26.00	 49.00	 3.52	 4.28	 42	 36	 0.857142857142857	 0.185022026431718	 0.158590308370044	 1
0.02	 -2.3	 6.2	 0.298	 0.66	 55.2	 -2	 -2	 -3	 -2	 3	 -3	 2	 -1	 -2	 -1	 -1	 -2	 -3	 -1	 -2	 -2	 -2	 -1	 2	 7	 -2	 -2	 -2	 -3	 -3	 -2	 -3	 2	 1	 -2	 -2	 -2	 -2	 2	 -3	 -2	 -2	 1	 7	 -2	 29.00	 26.00	 24.00	 21.00	 50.00	 7.32	 6.53	 2	 0	 0	 0.00900900900900901	 0	 1
-0.64	 2	 11.6	 0.134	 0.12	 60.1	 -2	 -3	 1	 0	 -3	 0	 1	 -3	 0	 -3	 -2	 6	 -2	 0	 0	 1	 0	 -3	 -4	 -2	 1	 -1	 6	 1	 -3	 0	 -1	 -1	 0	 -3	 -3	 -1	 -2	 -3	 -2	 0	 0	 -4	 -2	 -3	 29.00	 28.00	 28.00	 27.00	 56.00	 2.17	 2.00	 69	 58	 0.840579710144927	 0.439490445859873	 0.369426751592357	 1
-1.76	 3	 10.5	 0.291	 0.27	 94.7	 -1	 -3	 -2	 0	 -3	 -2	 0	 -3	 2	 -2	 -1	 0	 -2	 1	 5	 -1	 -1	 -3	 -3	 -2	 -1	 0	 1	 -3	 -4	 -1	 -1	 -2	 2	 -1	 -1	 -1	 1	 2	 -1	 2	 -2	 3	 4	 -1	 32.00	 26.00	 33.00	 27.00	 59.00	 3.12	 3.95	 210	 199	 0.947619047619048	 0.846774193548387	 0.80241935483871	 -1
0.53	 -1.8	 4.9	 0.186	 0.4	 27.6	 -1	 -1	 -4	 -3	 0	 -4	 -3	 2	 -2	 4	 2	 -3	 -3	 -2	 -2	 -2	 -1	 1	 -2	 -1	 1	 0	 -2	 -1	 -2	 -1	 0	 0	 2	 1	 1	 -1	 0	 -1	 -2	 -1	 -1	 -3	 -1	 1	 25.00	 21.00	 22.00	 18.00	 43.00	 2.21	 2.00	 67	 61	 0.91044776119403	 0.408536585365854	 0.371951219512195	 -1
-1.76	 3	 10.5	 0.291	 0.27	 94.7	 -1	 -3	 -2	 0	 -3	 -2	 0	 -3	 2	 -2	 -1	 0	 -2	 1	 5	 -1	 -1	 -3	 -3	 -2	 -2	 2	 1	 -1	 -5	 2	 2	 4	 1	 -5	 -2	 0	 -1	 -4	 -2	 -2	 -3	 -4	 0	 -4	 15.00	 8.00	 25.00	 18.00	 33.00	 2.23	 2.00	 171	 70	 0.409356725146199	 0.689516129032258	 0.282258064516129	 -1
-0.72	 3	 13	 0.105	 -0.38	 60.6	 -2	 -3	 6	 2	 -3	 -1	 -1	 -3	 -1	 -4	 -3	 1	 -1	 0	 -2	 0	 -1	 -3	 -4	 -3	 1	 -2	 0	 3	 -3	 -1	 0	 4	 -3	 -3	 -2	 -2	 -3	 -3	 -3	 1	 -1	 -4	 -2	 -1	 13.00	 19.00	 14.00	 20.00	 33.00	 2.58	 2.99	 65	 0	 0	 0.398773006134969	 0	 1
0.73	 -1.8	 5.2	 0.186	 0.44	 22.8	 -1	 -1	 -3	 -3	 0	 -4	 -3	 4	 -3	 2	 1	 -3	 -3	 -3	 -3	 -2	 -1	 3	 -3	 -1	 -1	 0	 -2	 0	 -3	 2	 0	 -2	 -2	 2	 -1	 0	 -1	 -1	 -1	 0	 2	 -3	 -1	 2	 22.00	 21.00	 26.00	 25.00	 47.00	 2.99	 2.69	 34	 13	 0.382352941176471	 0.201183431952663	 0.0769230769230769	 -1
-0.07	 0	 8	 0.131	 -0.25	 51.5	 -1	 -3	 -1	 -1	 -4	 -2	 -2	 -3	 -1	 -3	 -2	 -2	 7	 -1	 -2	 -1	 -1	 -2	 -4	 -3	 -1	 -1	 -2	 -2	 -3	 -2	 -2	 -3	 -3	 -3	 -3	 -1	 -3	 -4	 8	 -1	 -2	 -4	 -3	 -3	 7.00	 8.00	 17.00	 18.00	 25.00	 1.98	 2.00	 90	 37	 0.411111111111111	 0.661764705882353	 0.272058823529412	 1
0.54	 -1.5	 5.9	 0.14	 0.27	 23.7	 0	 -1	 -3	 -2	 -1	 -3	 -3	 3	 -2	 1	 1	 -3	 -2	 -2	 -3	 -2	 0	 4	 -3	 -1	 -1	 -1	 -1	 -1	 1	 -1	 -1	 -2	 -1	 2	 1	 0	 0	 -2	 0	 0	 2	 -3	 -2	 1	 20.00	 22.00	 27.00	 29.00	 49.00	 3.37	 3.74	 70	 40	 0.571428571428571	 0.492957746478873	 0.28169014084507	 -1
-0.72	 3	 13	 0.105	 -0.38	 60.6	 -2	 -3	 6	 2	 -3	 -1	 -1	 -3	 -1	 -4	 -3	 1	 -1	 0	 -2	 0	 -1	 -3	 -4	 -3	 -3	 -2	 3	 1	 -4	 -2	 -2	 -1	 1	 -2	 -3	 -2	 -2	 0	 -4	 1	 1	 -2	 6	 -3	 24.00	 22.00	 26.00	 24.00	 48.00	 2.76	 2.86	 35	 27	 0.771428571428571	 0.214723926380368	 0.165644171779141	 1
-0.72	 3	 13	 0.105	 -0.38	 60.6	 -2	 -3	 6	 2	 -3	 -1	 -1	 -3	 -1	 -4	 -3	 1	 -1	 0	 -2	 0	 -1	 -3	 -4	 -3	 -2	 -2	 1	 6	 -3	 0	 1	 -1	 -1	 -3	 -4	 -1	 -3	 -3	 -1	 0	 -1	 -4	 -3	 -3	 8.00	 12.00	 22.00	 26.00	 34.00	 1.87	 2.72	 124	 42	 0.338709677419355	 0.760736196319018	 0.257668711656442	 -1
0.54	 -1.5	 5.9	 0.14	 0.27	 23.7	 0	 -1	 -3	 -2	 -1	 -3	 -3	 3	 -2	 1	 1	 -3	 -2	 -2	 -3	 -2	 0	 4	 -3	 -1	 -2	 -1	 -1	 -1	 2	 0	 0	 -2	 2	 -1	 -1	 -2	 0	 -1	 3	 0	 1	 2	 1	 -1	 12.00	 22.00	 20.00	 30.00	 42.00	 4.26	 4.32	 130	 109	 0.838461538461538	 0.915492957746479	 0.767605633802817	 -1
0.54	 -1.5	 5.9	 0.14	 0.27	 23.7	 0	 -1	 -3	 -2	 -1	 -3	 -3	 3	 -2	 1	 1	 -3	 -2	 -2	 -3	 -2	 0	 4	 -3	 -1	 -1	 -3	 -3	 -3	 -1	 -3	 -3	 -4	 -3	 3	 1	 -3	 1	 -1	 -3	 -2	 0	 -3	 -1	 4	 16.00	 15.00	 37.00	 36.00	 52.00	 4.84	 4.83	 2	 1	 0.5	 0.0140845070422535	 0.00704225352112676	 -1
0.02	 -2.3	 6.2	 0.298	 0.66	 55.2	 -2	 -2	 -3	 -2	 3	 -3	 2	 -1	 -2	 -1	 -1	 -2	 -3	 -1	 -2	 -2	 -2	 -1	 2	 7	 -1	 3	 -1	 -2	 -3	 3	 0	 -2	 3	 -2	 0	 0	 0	 0	 -2	 0	 0	 -2	 2	 -1	 11.00	 15.00	 19.00	 23.00	 34.00	 2.35	 2.80	 124	 87	 0.701612903225806	 0.558558558558559	 0.391891891891892	 -1
-1.1	 3	 11.3	 0.219	 -0.36	 103	 -1	 -3	 -1	 1	 -3	 -2	 -1	 -3	 5	 -2	 -1	 0	 -1	 1	 2	 0	 -1	 -2	 -3	 -2	 -1	 2	 0	 -1	 -3	 1	 1	 -2	 -1	 -3	 -2	 4	 -1	 -3	 -1	 0	 -1	 -3	 -2	 -2	 23.00	 24.00	 27.00	 28.00	 51.00	 2.37	 2.64	 158	 152	 0.962025316455696	 0.770731707317073	 0.741463414634146	 -1
-0.26	 0.3	 9.2	 0.062	 -0.33	 42	 1	 -1	 0	 0	 -2	 0	 -1	 -2	 0	 -2	 -1	 1	 -1	 0	 -1	 4	 1	 -2	 -3	 -2	 3	 -1	 0	 -1	 -1	 0	 0	 0	 -1	 -2	 -2	 0	 -1	 -3	 -1	 3	 1	 -3	 -2	 -1	 27.00	 25.00	 21.00	 19.00	 46.00	 6.33	 6.64	 31	 31	 1	 0.238461538461538	 0.238461538461538	 -1
-1.76	 3	 10.5	 0.291	 0.27	 94.7	 -1	 -3	 -2	 0	 -3	 -2	 0	 -3	 2	 -2	 -1	 0	 -2	 1	 5	 -1	 -1	 -3	 -3	 -2	 -2	 2	 1	 0	 0	 0	 1	 -3	 0	 -1	 -2	 0	 -2	 -4	 -3	 1	 3	 -4	 -3	 1	 10.00	 5.00	 27.00	 22.00	 32.00	 2.10	 2.31	 168	 36	 0.214285714285714	 0.67741935483871	 0.145161290322581	 -1
-0.69	 0.2	 10.5	 0.18	 -0.11	 68.7	 -1	 -3	 0	 2	 -3	 -2	 0	 -3	 1	 -2	 0	 0	 -1	 5	 1	 0	 -1	 -2	 -2	 -1	 -1	 1	 0	 0	 -3	 6	 2	 -2	 0	 -3	 -2	 1	 -1	 -3	 -1	 0	 -1	 -2	 -2	 -2	 24.00	 22.00	 29.00	 27.00	 51.00	 6.65	 7.01	 32	 29	 0.90625	 0.161616161616162	 0.146464646464646	 -1
-1.1	 3	 11.3	 0.219	 -0.36	 103	 -1	 -3	 -1	 1	 -3	 -2	 -1	 -3	 5	 -2	 -1	 0	 -1	 1	 2	 0	 -1	 -2	 -3	 -2	 -1	 -1	 -1	 -1	 -2	 1	 0	 -2	 1	 0	 1	 1	 -1	 -2	 2	 0	 1	 -3	 -2	 1	 27.00	 28.00	 21.00	 22.00	 49.00	 6.04	 5.98	 114	 88	 0.771929824561403	 0.55609756097561	 0.429268292682927	 -1
-0.69	 0.2	 10.5	 0.18	 -0.11	 68.7	 -1	 -3	 0	 2	 -3	 -2	 0	 -3	 1	 -2	 0	 0	 -1	 5	 1	 0	 -1	 -2	 -2	 -1	 -1	 1	 3	 1	 -3	 2	 0	 -2	 1	 0	 0	 0	 0	 -2	 -3	 1	 0	 -4	 -2	 -2	 13.00	 8.00	 31.00	 26.00	 39.00	 2.53	 3.02	 65	 16	 0.246153846153846	 0.328282828282828	 0.0808080808080808	 -1
0.37	 -3.4	 5.4	 0.409	 0.83	 34.7	 -3	 -2	 -4	 -3	 1	 -2	 -2	 -3	 -3	 -2	 -1	 -4	 -4	 -2	 -3	 -3	 -2	 -3	 11	 2	 -3	 -3	 -4	 -5	 -3	 -2	 -3	 -3	 -3	 -3	 -2	 -3	 -2	 1	 -4	 -3	 -3	 12	 2	 -3	 18.00	 20.00	 12.00	 14.00	 32.00	 2.21	 2.00	 192	 138	 0.71875	 0.845814977973568	 0.607929515418502	 1
0.37	 -3.4	 5.4	 0.409	 0.83	 34.7	 -3	 -2	 -4	 -3	 1	 -2	 -2	 -3	 -3	 -2	 -1	 -4	 -4	 -2	 -3	 -3	 -2	 -3	 11	 2	 -1	 -1	 -2	 -1	 -3	 1	 -1	 -1	 0	 0	 -1	 0	 -1	 0	 -3	 0	 1	 7	 1	 0	 13.00	 15.00	 10.00	 12.00	 25.00	 1.98	 2.33	 99	 4	 0.0404040404040404	 0.436123348017621	 0.0176211453744493	 -1
-0.07	 0	 8	 0.131	 -0.25	 51.5	 -1	 -3	 -1	 -1	 -4	 -2	 -2	 -3	 -1	 -3	 -2	 -2	 7	 -1	 -2	 -1	 -1	 -2	 -4	 -3	 0	 -2	 -1	 -1	 -2	 -1	 -1	 -1	 -2	 -2	 -2	 -1	 -2	 -2	 7	 -1	 -1	 -2	 -2	 -2	 34.00	 30.00	 23.00	 19.00	 53.00	 2.95	 2.72	 122	 122	 1	 0.897058823529412	 0.897058823529412	 1
0.54	 -1.5	 5.9	 0.14	 0.27	 23.7	 0	 -1	 -3	 -2	 -1	 -3	 -3	 3	 -2	 1	 1	 -3	 -2	 -2	 -3	 -2	 0	 4	 -3	 -1	 -1	 -2	 -2	 -3	 -2	 -1	 -2	 -3	 3	 1	 1	 -2	 0	 1	 -2	 -2	 -1	 0	 5	 1	 27.00	 26.00	 26.00	 25.00	 52.00	 2.23	 2.82	 87	 67	 0.770114942528736	 0.612676056338028	 0.471830985915493	 1
