0.486126	0.513874
0.597564	0.402436
0.583387	0.416613
0.800290	0.199710
0.188542	0.811458
0.392779	0.607221
0.560307	0.439693
0.897257	0.102743
0.470619	0.529381
0.187662	0.812338
0.389482	0.610518
0.402715	0.597285
0.518434	0.481566
0.147184	0.852816
0.601264	0.398736
0.821518	0.178482
0.664164	0.335836
0.630819	0.369181
0.436850	0.563150
0.570169	0.429831
0.880840	0.119160
0.290034	0.709966
0.748331	0.251669
0.635174	0.364826
0.265939	0.734061
0.339677	0.660323
0.541813	0.458187
0.530468	0.469532
0.613696	0.386304
0.819556	0.180444
0.500000	0.500000
0.750413	0.249587
