0.416950	0.583050
0.475438	0.524562
0.308772	0.691228
0.313098	0.686902
0.668016	0.331984
0.766626	0.233374
0.643712	0.356288
0.614684	0.385316
0.564647	0.435353
0.633583	0.366417
0.311156	0.688844
0.374974	0.625026
0.577122	0.422878
0.394446	0.605554
0.507238	0.492762
0.403397	0.596603
0.509268	0.490732
0.646818	0.353182
0.594176	0.405824
0.505534	0.494466
0.594726	0.405274
0.522708	0.477292
0.237225	0.762775
0.551670	0.448330
0.369475	0.630525
0.402443	0.597557
0.356306	0.643694
0.516912	0.483088
0.467284	0.532716
0.271495	0.728505
0.594052	0.405948
