-0.26	 0.3	 9.2	 0.062	 -0.33	 42	 1	 -1	 0	 0	 -2	 0	 -1	 -2	 0	 -2	 -1	 1	 -1	 0	 -1	 4	 1	 -2	 -3	 -2	 2	 -1	 0	 -1	 -1	 -1	 0	 -1	 -2	 -3	 -3	 -1	 -2	 -3	 2	 4	 0	 -3	 -2	 -2	 24.00	 35.00	 19.00	 30.00	 54.00	 27.56	 28.10	 97	 87	 0.896907216494845	 0.746153846153846	 0.669230769230769	 1
-0.26	 0.3	 9.2	 0.062	 -0.33	 42	 1	 -1	 0	 0	 -2	 0	 -1	 -2	 0	 -2	 -1	 1	 -1	 0	 -1	 4	 1	 -2	 -3	 -2	 3	 -1	 0	 -1	 -1	 0	 0	 0	 -1	 -2	 -2	 0	 -1	 -3	 -1	 3	 1	 -3	 -2	 -1	 27.00	 25.00	 21.00	 19.00	 46.00	 6.33	 6.64	 31	 31	 1	 0.238461538461538	 0.238461538461538	 -1
-0.69	 0.2	 10.5	 0.18	 -0.11	 68.7	 -1	 -3	 0	 2	 -3	 -2	 0	 -3	 1	 -2	 0	 0	 -1	 5	 1	 0	 -1	 -2	 -2	 -1	 -1	 1	 0	 0	 -3	 5	 2	 -2	 0	 -3	 -2	 1	 0	 -3	 -1	 0	 -1	 -2	 -1	 -2	 18.00	 15.00	 7.00	 4.00	 22.00	 1.92	 2.00	 137	 64	 0.467153284671533	 0.691919191919192	 0.323232323232323	 -1
-0.69	 0.2	 10.5	 0.18	 -0.11	 68.7	 -1	 -3	 0	 2	 -3	 -2	 0	 -3	 1	 -2	 0	 0	 -1	 5	 1	 0	 -1	 -2	 -2	 -1	 -1	 4	 -1	 -1	 -3	 3	 1	 -2	 0	 -3	 -3	 3	 -1	 -3	 1	 -1	 -1	 -3	 -2	 -3	 16.00	 14.00	 27.00	 25.00	 41.00	 1.97	 2.00	 71	 19	 0.267605633802817	 0.358585858585859	 0.095959595959596	 -1
-0.64	 2	 11.6	 0.134	 0.12	 60.1	 -2	 -3	 1	 0	 -3	 0	 1	 -3	 0	 -3	 -2	 6	 -2	 0	 0	 1	 0	 -3	 -4	 -2	 -3	 -3	 3	 0	 -5	 -1	 -2	 0	 1	 -3	 -2	 -2	 -2	 -1	 2	 2	 1	 -4	 4	 -4	 20.00	 21.00	 26.00	 27.00	 47.00	 2.93	 2.58	 70	 54	 0.771428571428571	 0.445859872611465	 0.343949044585987	 1
-0.62	 3	 12.3	 0.151	 -0.13	 68.2	 -1	 -4	 2	 5	 -3	 -2	 0	 -3	 1	 -3	 -2	 0	 -1	 2	 0	 0	 -1	 -2	 -3	 -2	 -1	 1	 -1	 0	 -3	 2	 2	 -1	 0	 -2	 -2	 1	 0	 -1	 -3	 1	 2	 1	 0	 -1	 19.00	 17.00	 24.00	 22.00	 41.00	 3.62	 5.41	 86	 69	 0.802325581395349	 0.443298969072165	 0.355670103092784	 -1
0.54	 -1.5	 5.9	 0.14	 0.27	 23.7	 0	 -1	 -3	 -2	 -1	 -3	 -3	 3	 -2	 1	 1	 -3	 -2	 -2	 -3	 -2	 0	 4	 -3	 -1	 0	 -2	 -2	 -2	 -1	 -2	 -2	 -2	 -2	 2	 2	 -2	 1	 -1	 -2	 -1	 0	 -2	 -1	 3	 33.00	 31.00	 21.00	 19.00	 52.00	 5.65	 5.68	 13	 13	 1	 0.0915492957746479	 0.0915492957746479	 -1
0.53	 -1.8	 4.9	 0.186	 0.4	 27.6	 -1	 -1	 -4	 -3	 0	 -4	 -3	 2	 -2	 4	 2	 -3	 -3	 -2	 -2	 -2	 -1	 1	 -2	 -1	 -2	 2	 -1	 -1	 -5	 2	 -1	 -3	 1	 -3	 0	 0	 -4	 -2	 5	 -1	 -2	 -1	 1	 -2	 10.00	 5.00	 27.00	 22.00	 32.00	 2.34	 2.18	 92	 1	 0.0108695652173913	 0.560975609756098	 0.00609756097560976	 -1
0.73	 -1.8	 5.2	 0.186	 0.44	 22.8	 -1	 -1	 -3	 -3	 0	 -4	 -3	 4	 -3	 2	 1	 -3	 -3	 -3	 -3	 -2	 -1	 3	 -3	 -1	 -1	 -1	 -1	 -1	 -2	 0	 -1	 -1	 0	 1	 0	 -1	 2	 2	 0	 0	 0	 1	 -1	 1	 21.00	 24.00	 18.00	 21.00	 42.00	 2.50	 2.81	 57	 28	 0.491228070175439	 0.337278106508876	 0.165680473372781	 1
-0.62	 3	 12.3	 0.151	 -0.13	 68.2	 -1	 -4	 2	 5	 -3	 -2	 0	 -3	 1	 -3	 -2	 0	 -1	 2	 0	 0	 -1	 -2	 -3	 -2	 -1	 0	 0	 2	 -4	 2	 5	 -2	 0	 -4	 -3	 1	 -2	 -4	 -1	 0	 -1	 -3	 -2	 -3	 14.00	 25.00	 20.00	 31.00	 45.00	 2.55	 2.54	 83	 58	 0.698795180722892	 0.427835051546392	 0.298969072164948	 -1
0.02	 -2.3	 6.2	 0.298	 0.66	 55.2	 -2	 -2	 -3	 -2	 3	 -3	 2	 -1	 -2	 -1	 -1	 -2	 -3	 -1	 -2	 -2	 -2	 -1	 2	 7	 -1	 3	 -1	 -2	 -3	 3	 0	 -2	 3	 -2	 0	 0	 0	 0	 -2	 0	 0	 -2	 2	 -1	 11.00	 15.00	 19.00	 23.00	 34.00	 2.35	 2.80	 124	 87	 0.701612903225806	 0.558558558558559	 0.391891891891892	 -1
0.02	 -2.3	 6.2	 0.298	 0.66	 55.2	 -2	 -2	 -3	 -2	 3	 -3	 2	 -1	 -2	 -1	 -1	 -2	 -3	 -1	 -2	 -2	 -2	 -1	 2	 7	 -3	 -4	 -4	 -4	 -4	 -4	 -2	 -4	 2	 1	 -2	 -4	 -1	 0	 -3	 -2	 3	 -3	 5	 4	 22.00	 20.00	 21.00	 19.00	 41.00	 5.88	 4.81	 90	 0	 0	 0.405405405405405	 0	 1
0.54	 -1.5	 5.9	 0.14	 0.27	 23.7	 0	 -1	 -3	 -2	 -1	 -3	 -3	 3	 -2	 1	 1	 -3	 -2	 -2	 -3	 -2	 0	 4	 -3	 -1	 -1	 -2	 -2	 -3	 -2	 -1	 -2	 -3	 3	 1	 1	 -2	 0	 1	 -2	 -2	 -1	 0	 5	 1	 27.00	 26.00	 26.00	 25.00	 52.00	 2.23	 2.82	 87	 67	 0.770114942528736	 0.612676056338028	 0.471830985915493	 1
-0.72	 3	 13	 0.105	 -0.38	 60.6	 -2	 -3	 6	 2	 -3	 -1	 -1	 -3	 -1	 -4	 -3	 1	 -1	 0	 -2	 0	 -1	 -3	 -4	 -3	 1	 0	 2	 1	 -3	 0	 0	 -1	 0	 -2	 -2	 -1	 -1	 0	 -1	 1	 0	 1	 3	 -1	 11.00	 13.00	 25.00	 27.00	 38.00	 3.75	 4.62	 19	 0	 0	 0.139705882352941	 0	 -1
-0.62	 3	 12.3	 0.151	 -0.13	 68.2	 -1	 -4	 2	 5	 -3	 -2	 0	 -3	 1	 -3	 -2	 0	 -1	 2	 0	 0	 -1	 -2	 -3	 -2	 -2	 -1	 0	 2	 -4	 1	 4	 -3	 2	 0	 -1	 0	 0	 -3	 -3	 0	 0	 -4	 -1	 0	 23.00	 26.00	 32.00	 35.00	 58.00	 3.97	 5.15	 77	 56	 0.727272727272727	 0.396907216494845	 0.288659793814433	 1
-0.62	 3	 12.3	 0.151	 -0.13	 68.2	 -1	 -4	 2	 5	 -3	 -2	 0	 -3	 1	 -3	 -2	 0	 -1	 2	 0	 0	 -1	 -2	 -3	 -2	 -1	 -1	 1	 -1	 -4	 3	 -1	 3	 0	 -3	 -3	 -1	 -2	 -3	 -2	 2	 2	 -5	 -2	 -3	 13.00	 8.00	 24.00	 19.00	 32.00	 2.31	 2.00	 93	 50	 0.537634408602151	 0.479381443298969	 0.257731958762887	 -1
-1.1	 3	 11.3	 0.219	 -0.36	 103	 -1	 -3	 -1	 1	 -3	 -2	 -1	 -3	 5	 -2	 -1	 0	 -1	 1	 2	 0	 -1	 -2	 -3	 -2	 0	 2	 0	 -1	 -2	 0	 0	 0	 2	 -2	 -2	 2	 -1	 -2	 -1	 1	 0	 -2	 -1	 -2	 22.00	 19.00	 28.00	 25.00	 47.00	 3.09	 3.80	 136	 110	 0.808823529411765	 0.663414634146341	 0.536585365853659	 1
-0.64	 2	 11.6	 0.134	 0.12	 60.1	 -2	 -3	 1	 0	 -3	 0	 1	 -3	 0	 -3	 -2	 6	 -2	 0	 0	 1	 0	 -3	 -4	 -2	 -3	 -2	 1	 -1	 7	 0	 1	 -1	 1	 -1	 -2	 -1	 -1	 -1	 1	 -1	 -1	 -7	 1	 -1	 13.00	 12.00	 24.00	 23.00	 36.00	 2.30	 3.09	 71	 34	 0.47887323943662	 0.452229299363057	 0.21656050955414	 -1
-1.76	 3	 10.5	 0.291	 0.27	 94.7	 -1	 -3	 -2	 0	 -3	 -2	 0	 -3	 2	 -2	 -1	 0	 -2	 1	 5	 -1	 -1	 -3	 -3	 -2	 -1	 2	 3	 2	 -3	 0	 0	 -3	 -2	 -1	 -1	 1	 3	 1	 -3	 -1	 -1	 -3	 -1	 -1	 17.00	 12.00	 32.00	 27.00	 44.00	 2.29	 2.00	 190	 100	 0.526315789473684	 0.766129032258065	 0.403225806451613	 1
-1.76	 3	 10.5	 0.291	 0.27	 94.7	 -1	 -3	 -2	 0	 -3	 -2	 0	 -3	 2	 -2	 -1	 0	 -2	 1	 5	 -1	 -1	 -3	 -3	 -2	 -2	 7	 -1	 -2	 -4	 0	 -1	 -3	 -1	 -4	 -3	 3	 -2	 -4	 -3	 -2	 -2	 -4	 -3	 -3	 14.00	 12.00	 34.00	 32.00	 46.00	 3.70	 5.24	 41	 24	 0.585365853658537	 0.165322580645161	 0.0967741935483871	 -1
0.02	 -2.3	 6.2	 0.298	 0.66	 55.2	 -2	 -2	 -3	 -2	 3	 -3	 2	 -1	 -2	 -1	 -1	 -2	 -3	 -1	 -2	 -2	 -2	 -1	 2	 7	 -1	 -1	 2	 0	 -2	 -1	 -1	 0	 0	 -2	 -2	 -1	 -2	 -1	 2	 2	 0	 1	 2	 -1	 20.00	 17.00	 23.00	 20.00	 40.00	 2.62	 3.18	 153	 112	 0.73202614379085	 0.689189189189189	 0.504504504504504	 1
-0.72	 3	 13	 0.105	 -0.38	 60.6	 -2	 -3	 6	 2	 -3	 -1	 -1	 -3	 -1	 -4	 -3	 1	 -1	 0	 -2	 0	 -1	 -3	 -4	 -3	 -2	 -2	 1	 6	 -3	 0	 1	 -1	 -1	 -3	 -4	 -1	 -3	 -3	 -1	 0	 -1	 -4	 -3	 -3	 8.00	 12.00	 22.00	 26.00	 34.00	 1.87	 2.72	 124	 42	 0.338709677419355	 0.760736196319018	 0.257668711656442	 -1
-0.4	 -0.5	 10.4	 0.23	 0.41	 50.7	 -2	 -3	 -1	 0	 -1	 -2	 8	 -3	 -1	 -3	 -2	 1	 -2	 0	 0	 -1	 -2	 -3	 -2	 2	 -4	 -1	 0	 1	 -6	 5	 3	 -2	 7	 -6	 -5	 -1	 -4	 -5	 -4	 -2	 -2	 0	 -3	 -5	 14.00	 18.00	 24.00	 28.00	 42.00	 2.42	 3.19	 96	 73	 0.760416666666667	 0.521739130434783	 0.396739130434783	 -1
0.73	 -1.8	 5.2	 0.186	 0.44	 22.8	 -1	 -1	 -3	 -3	 0	 -4	 -3	 4	 -3	 2	 1	 -3	 -3	 -3	 -3	 -2	 -1	 3	 -3	 -1	 -2	 -4	 -5	 -5	 -3	 -4	 -5	 -5	 -5	 6	 0	 -4	 0	 -2	 -4	 -4	 -2	 -4	 -3	 4	 23.00	 23.00	 22.00	 22.00	 45.00	 3.44	 4.09	 7	 2	 0.285714285714286	 0.0414201183431953	 0.0118343195266272	 -1
0.73	 -1.8	 5.2	 0.186	 0.44	 22.8	 -1	 -1	 -3	 -3	 0	 -4	 -3	 4	 -3	 2	 1	 -3	 -3	 -3	 -3	 -2	 -1	 3	 -3	 -1	 -1	 -3	 -3	 -3	 -1	 -3	 -3	 -4	 -4	 4	 1	 -3	 1	 0	 -3	 -2	 -1	 -3	 -1	 3	 21.00	 21.00	 22.00	 22.00	 43.00	 4.79	 4.76	 76	 59	 0.776315789473684	 0.449704142011834	 0.349112426035503	 1
-0.18	 -0.4	 8.6	 0.108	 -0.18	 45	 0	 -1	 -1	 -1	 -2	 -2	 -2	 -1	 -1	 -1	 -1	 0	 -1	 -1	 -1	 1	 5	 0	 -2	 -2	 -1	 -2	 -1	 -2	 -2	 -2	 -2	 -3	 1	 -2	 -2	 -2	 -2	 -3	 2	 0	 6	 -3	 -2	 -1	 30.00	 31.00	 33.00	 34.00	 64.00	 6.77	 7.42	 82	 81	 0.98780487804878	 0.577464788732394	 0.570422535211268	 1
-0.18	 -0.4	 8.6	 0.108	 -0.18	 45	 0	 -1	 -1	 -1	 -2	 -2	 -2	 -1	 -1	 -1	 -1	 0	 -1	 -1	 -1	 1	 5	 0	 -2	 -2	 0	 -2	 1	 -1	 5	 -1	 -1	 0	 -2	 0	 -1	 -1	 -1	 -2	 -2	 1	 2	 -2	 -2	 0	 27.00	 24.00	 25.00	 22.00	 49.00	 5.25	 5.25	 24	 0	 0	 0.169014084507042	 0	 -1
-0.62	 3	 12.3	 0.151	 -0.13	 68.2	 -1	 -4	 2	 5	 -3	 -2	 0	 -3	 1	 -3	 -2	 0	 -1	 2	 0	 0	 -1	 -2	 -3	 -2	 -1	 0	 0	 2	 -4	 2	 5	 -2	 0	 -3	 -3	 1	 -2	 -3	 -1	 0	 -1	 -3	 -2	 -2	 22.00	 22.00	 25.00	 25.00	 47.00	 2.52	 2.00	 108	 108	 1	 0.556701030927835	 0.556701030927835	 1
-0.62	 3	 12.3	 0.151	 -0.13	 68.2	 -1	 -4	 2	 5	 -3	 -2	 0	 -3	 1	 -3	 -2	 0	 -1	 2	 0	 0	 -1	 -2	 -3	 -2	 3	 -2	 -2	 0	 -3	 0	 5	 -2	 -2	 -4	 -4	 -1	 -3	 -4	 -2	 -1	 -2	 -4	 -3	 -3	 21.00	 23.00	 19.00	 21.00	 42.00	 5.11	 5.09	 40	 40	 1	 0.206185567010309	 0.206185567010309	 1
0.61	 -2.5	 5.2	 0.29	 0.82	 25.5	 -2	 -2	 -3	 -3	 6	 -3	 -1	 0	 -3	 0	 0	 -3	 -4	 -3	 -3	 -2	 -2	 -1	 1	 3	 -2	 -2	 -2	 1	 -3	 -1	 1	 -3	 -1	 -2	 -1	 -2	 -1	 5	 3	 -2	 -2	 0	 3	 -2	 25.00	 21.00	 13.00	 9.00	 34.00	 3.45	 2.00	 125	 105	 0.84	 0.634517766497462	 0.532994923857868	 1
0.16	 0	 9	 0	 -0.07	 24.5	 0	 -3	 -1	 -2	 -3	 6	 -2	 -4	 -2	 -4	 -3	 0	 -2	 -2	 -2	 0	 -2	 -3	 -2	 -3	 1	 -1	 0	 -1	 -1	 -1	 -1	 4	 -1	 -2	 -2	 -1	 -1	 -2	 2	 0	 -1	 -1	 -1	 -1	 30.00	 31.00	 22.00	 23.00	 53.00	 1.61	 2.00	 72	 56	 0.777777777777778	 0.857142857142857	 0.666666666666667	 1
