-1.1	 3	 11.3	 0.219	 -0.36	 103	 -1	 -3	 -1	 1	 -3	 -2	 -1	 -3	 5	 -2	 -1	 0	 -1	 1	 2	 0	 -1	 -2	 -3	 -2	 -1	 2	 0	 -1	 -3	 1	 1	 -2	 -1	 -3	 -2	 4	 -1	 -3	 -1	 0	 -1	 -3	 -2	 -2	 26.00	 32.00	 21.00	 27.00	 53.00	 4.13	 4.86	 78	 75	 0.961538461538462	 0.380487804878049	 0.365853658536585	 1
-0.72	 3	 13	 0.105	 -0.38	 60.6	 -2	 -3	 6	 2	 -3	 -1	 -1	 -3	 -1	 -4	 -3	 1	 -1	 0	 -2	 0	 -1	 -3	 -4	 -3	 1	 0	 2	 1	 -3	 0	 0	 -1	 0	 -2	 -2	 -1	 -1	 0	 -1	 1	 0	 1	 3	 -1	 11.00	 13.00	 25.00	 27.00	 38.00	 3.75	 4.62	 19	 0	 0	 0.139705882352941	 0	 -1
-1.76	 3	 10.5	 0.291	 0.27	 94.7	 -1	 -3	 -2	 0	 -3	 -2	 0	 -3	 2	 -2	 -1	 0	 -2	 1	 5	 -1	 -1	 -3	 -3	 -2	 0	 2	 -1	 -2	 3	 0	 -1	 4	 -2	 -3	 -3	 2	 -2	 -3	 -2	 -1	 -1	 -3	 -3	 -3	 28.00	 21.00	 27.00	 20.00	 48.00	 6.11	 6.25	 102	 96	 0.941176470588235	 0.411290322580645	 0.387096774193548	 -1
0.73	 -1.8	 5.2	 0.186	 0.44	 22.8	 -1	 -1	 -3	 -3	 0	 -4	 -3	 4	 -3	 2	 1	 -3	 -3	 -3	 -3	 -2	 -1	 3	 -3	 -1	 -1	 -3	 -3	 -3	 -1	 -3	 -3	 -4	 -3	 4	 2	 -3	 1	 0	 -3	 -3	 -1	 -3	 -1	 2	 30.00	 35.00	 21.00	 26.00	 56.00	 6.88	 6.74	 11	 11	 1	 0.0650887573964497	 0.0650887573964497	 -1
0.53	 -1.8	 4.9	 0.186	 0.4	 27.6	 -1	 -1	 -4	 -3	 0	 -4	 -3	 2	 -2	 4	 2	 -3	 -3	 -2	 -2	 -2	 -1	 1	 -2	 -1	 -1	 -2	 -3	 -4	 -1	 -2	 -3	 -4	 -3	 2	 4	 -2	 2	 0	 -3	 -2	 -1	 -2	 -1	 1	 28.00	 23.00	 13.00	 8.00	 36.00	 3.62	 3.17	 121	 94	 0.776859504132231	 0.73780487804878	 0.573170731707317	 -1
0.73	 -1.8	 5.2	 0.186	 0.44	 22.8	 -1	 -1	 -3	 -3	 0	 -4	 -3	 4	 -3	 2	 1	 -3	 -3	 -3	 -3	 -2	 -1	 3	 -3	 -1	 -1	 -3	 -2	 -2	 -2	 -2	 -3	 -3	 0	 3	 2	 -2	 0	 2	 -1	 1	 -1	 -3	 -1	 2	 29.00	 31.00	 18.00	 20.00	 49.00	 4.19	 3.78	 21	 19	 0.904761904761905	 0.124260355029586	 0.112426035502959	 -1
-0.72	 3	 13	 0.105	 -0.38	 60.6	 -2	 -3	 6	 2	 -3	 -1	 -1	 -3	 -1	 -4	 -3	 1	 -1	 0	 -2	 0	 -1	 -3	 -4	 -3	 -1	 1	 0	 1	 -3	 0	 1	 -2	 3	 -1	 -1	 1	 -2	 -1	 1	 1	 -1	 -3	 2	 -1	 23.00	 27.00	 9.00	 13.00	 36.00	 2.27	 2.00	 75	 5	 0.0666666666666667	 0.460122699386503	 0.0306748466257669	 1
-0.26	 0.3	 9.2	 0.062	 -0.33	 42	 1	 -1	 0	 0	 -2	 0	 -1	 -2	 0	 -2	 -1	 1	 -1	 0	 -1	 4	 1	 -2	 -3	 -2	 -1	 -1	 2	 0	 -3	 0	 0	 1	 -1	 -2	 -2	 0	 -3	 -1	 1	 3	 0	 -3	 1	 -2	 19.00	 17.00	 30.00	 28.00	 47.00	 2.31	 2.87	 66	 55	 0.833333333333333	 0.507692307692308	 0.423076923076923	 -1
-0.4	 -0.5	 10.4	 0.23	 0.41	 50.7	 -2	 -3	 -1	 0	 -1	 -2	 8	 -3	 -1	 -3	 -2	 1	 -2	 0	 0	 -1	 -2	 -3	 -2	 2	 0	 2	 0	 -2	 -3	 2	 1	 -3	 1	 0	 -1	 0	 -2	 1	 -3	 1	 2	 0	 2	 -2	 24.00	 25.00	 31.00	 32.00	 56.00	 4.33	 6.15	 66	 39	 0.590909090909091	 0.358695652173913	 0.21195652173913	 -1
-0.64	 2	 11.6	 0.134	 0.12	 60.1	 -2	 -3	 1	 0	 -3	 0	 1	 -3	 0	 -3	 -2	 6	 -2	 0	 0	 1	 0	 -3	 -4	 -2	 3	 -1	 3	 -2	 -3	 -1	 -1	 1	 -2	 -3	 -3	 -2	 -3	 -4	 3	 1	 0	 -4	 -3	 -2	 24.00	 15.00	 26.00	 17.00	 41.00	 2.17	 2.00	 22	 0	 0	 0.140127388535032	 0	 -1
-0.72	 3	 13	 0.105	 -0.38	 60.6	 -2	 -3	 6	 2	 -3	 -1	 -1	 -3	 -1	 -4	 -3	 1	 -1	 0	 -2	 0	 -1	 -3	 -4	 -3	 -4	 2	 -1	 0	 -6	 2	 -1	 -5	 9	 -6	 -5	 1	 -4	 -2	 -5	 -1	 -4	 -5	 0	 -6	 28.00	 28.00	 28.00	 28.00	 56.00	 8.25	 8.62	 77	 71	 0.922077922077922	 0.47239263803681	 0.43558282208589	 -1
0.54	 -1.5	 5.9	 0.14	 0.27	 23.7	 0	 -1	 -3	 -2	 -1	 -3	 -3	 3	 -2	 1	 1	 -3	 -2	 -2	 -3	 -2	 0	 4	 -3	 -1	 -1	 -3	 -3	 -3	 -1	 -3	 -3	 -4	 -3	 3	 1	 -3	 1	 -1	 -3	 -2	 0	 -3	 -1	 4	 16.00	 15.00	 37.00	 36.00	 52.00	 4.84	 4.83	 2	 1	 0.5	 0.0140845070422535	 0.00704225352112676	 -1
0.73	 -1.8	 5.2	 0.186	 0.44	 22.8	 -1	 -1	 -3	 -3	 0	 -4	 -3	 4	 -3	 2	 1	 -3	 -3	 -3	 -3	 -2	 -1	 3	 -3	 -1	 -1	 -3	 -4	 -3	 -1	 -3	 -3	 -4	 -4	 5	 2	 -3	 1	 0	 -3	 -3	 -1	 -3	 -1	 3	 16.00	 16.00	 34.00	 34.00	 50.00	 5.19	 5.84	 28	 24	 0.857142857142857	 0.165680473372781	 0.142011834319527	 -1
-0.26	 0.3	 9.2	 0.062	 -0.33	 42	 1	 -1	 0	 0	 -2	 0	 -1	 -2	 0	 -2	 -1	 1	 -1	 0	 -1	 4	 1	 -2	 -3	 -2	 -1	 -1	 1	 0	 1	 1	 -2	 -1	 -2	 -2	 0	 -1	 0	 0	 -1	 4	 0	 -3	 -2	 -1	 15.00	 16.00	 26.00	 27.00	 42.00	 3.83	 3.87	 36	 31	 0.861111111111111	 0.276923076923077	 0.238461538461538	 -1
0.02	 -2.3	 6.2	 0.298	 0.66	 55.2	 -2	 -2	 -3	 -2	 3	 -3	 2	 -1	 -2	 -1	 -1	 -2	 -3	 -1	 -2	 -2	 -2	 -1	 2	 7	 -2	 -4	 0	 -2	 -2	 -2	 -1	 -2	 1	 -3	 0	 -3	 -2	 1	 4	 0	 0	 2	 5	 -3	 22.00	 22.00	 25.00	 25.00	 47.00	 4.71	 5.11	 143	 67	 0.468531468531469	 0.644144144144144	 0.301801801801802	 1
-0.62	 3	 12.3	 0.151	 -0.13	 68.2	 -1	 -4	 2	 5	 -3	 -2	 0	 -3	 1	 -3	 -2	 0	 -1	 2	 0	 0	 -1	 -2	 -3	 -2	 -2	 0	 -1	 -3	 -3	 -2	 2	 -6	 4	 -1	 -4	 1	 -4	 -1	 -8	 2	 2	 0	 3	 1	 13.00	 16.00	 24.00	 27.00	 40.00	 2.50	 2.73	 50	 7	 0.14	 0.257731958762887	 0.0360824742268041	 -1
-0.26	 0.3	 9.2	 0.062	 -0.33	 42	 1	 -1	 0	 0	 -2	 0	 -1	 -2	 0	 -2	 -1	 1	 -1	 0	 -1	 4	 1	 -2	 -3	 -2	 0	 -2	 2	 0	 0	 -1	 -1	 0	 -2	 -2	 -2	 0	 1	 -2	 1	 2	 2	 -3	 0	 -1	 22.00	 27.00	 14.00	 19.00	 41.00	 3.44	 2.94	 13	 12	 0.923076923076923	 0.1	 0.0923076923076923	 -1
-0.4	 -0.5	 10.4	 0.23	 0.41	 50.7	 -2	 -3	 -1	 0	 -1	 -2	 8	 -3	 -1	 -3	 -2	 1	 -2	 0	 0	 -1	 -2	 -3	 -2	 2	 -1	 2	 0	 1	 -4	 -1	 -2	 -3	 2	 -4	 -4	 4	 -3	 -3	 -4	 -2	 -1	 8	 -2	 -4	 17.00	 10.00	 21.00	 14.00	 31.00	 2.23	 2.00	 109	 25	 0.229357798165138	 0.592391304347826	 0.135869565217391	 -1
0.54	 -1.5	 5.9	 0.14	 0.27	 23.7	 0	 -1	 -3	 -2	 -1	 -3	 -3	 3	 -2	 1	 1	 -3	 -2	 -2	 -3	 -2	 0	 4	 -3	 -1	 -1	 1	 0	 -1	 -3	 2	 -1	 -3	 -1	 1	 -2	 2	 0	 -3	 -2	 0	 1	 -4	 -2	 1	 13.00	 12.00	 36.00	 35.00	 48.00	 5.66	 5.41	 38	 36	 0.947368421052632	 0.267605633802817	 0.253521126760563	 1
0.02	 -2.3	 6.2	 0.298	 0.66	 55.2	 -2	 -2	 -3	 -2	 3	 -3	 2	 -1	 -2	 -1	 -1	 -2	 -3	 -1	 -2	 -2	 -2	 -1	 2	 7	 -2	 -2	 -2	 -3	 -3	 -2	 -2	 -3	 2	 -2	 -1	 -2	 -1	 3	 -3	 -2	 -2	 2	 7	 -1	 16.00	 13.00	 23.00	 20.00	 36.00	 2.37	 2.00	 176	 102	 0.579545454545455	 0.792792792792793	 0.459459459459459	 1
0.37	 -3.4	 5.4	 0.409	 0.83	 34.7	 -3	 -2	 -4	 -3	 1	 -2	 -2	 -3	 -3	 -2	 -1	 -4	 -4	 -2	 -3	 -3	 -2	 -3	 11	 2	 -1	 -1	 0	 -1	 2	 0	 -1	 1	 1	 -1	 0	 -1	 -1	 0	 -1	 0	 -1	 6	 2	 -1	 23.00	 23.00	 25.00	 25.00	 48.00	 5.88	 5.82	 90	 89	 0.988888888888889	 0.39647577092511	 0.392070484581498	 1
0.02	 -2.3	 6.2	 0.298	 0.66	 55.2	 -2	 -2	 -3	 -2	 3	 -3	 2	 -1	 -2	 -1	 -1	 -2	 -3	 -1	 -2	 -2	 -2	 -1	 2	 7	 -1	 -2	 -2	 -3	 -2	 -1	 -2	 -3	 2	 1	 1	 -2	 4	 2	 -3	 -2	 -1	 0	 4	 1	 29.00	 23.00	 24.00	 18.00	 47.00	 5.05	 3.91	 133	 122	 0.917293233082707	 0.599099099099099	 0.54954954954955	 1
0.02	 -2.3	 6.2	 0.298	 0.66	 55.2	 -2	 -2	 -3	 -2	 3	 -3	 2	 -1	 -2	 -1	 -1	 -2	 -3	 -1	 -2	 -2	 -2	 -1	 2	 7	 -3	 -3	 -3	 -4	 -3	 -3	 -3	 -4	 -1	 0	 2	 -3	 0	 5	 -4	 -3	 -2	 0	 5	 -1	 24.00	 25.00	 21.00	 22.00	 46.00	 4.78	 7.24	 159	 106	 0.666666666666667	 0.716216216216216	 0.477477477477477	 1
-1.1	 3	 11.3	 0.219	 -0.36	 103	 -1	 -3	 -1	 1	 -3	 -2	 -1	 -3	 5	 -2	 -1	 0	 -1	 1	 2	 0	 -1	 -2	 -3	 -2	 0	 4	 0	 -1	 -3	 0	 0	 1	 -1	 -3	 -3	 3	 -2	 -3	 -2	 1	 -1	 -3	 -2	 -2	 20.00	 17.00	 28.00	 25.00	 45.00	 3.53	 4.26	 53	 10	 0.188679245283019	 0.258536585365854	 0.0487804878048781	 -1
-0.62	 3	 12.3	 0.151	 -0.13	 68.2	 -1	 -4	 2	 5	 -3	 -2	 0	 -3	 1	 -3	 -2	 0	 -1	 2	 0	 0	 -1	 -2	 -3	 -2	 -1	 0	 0	 2	 -4	 2	 5	 -2	 0	 -3	 -3	 1	 -2	 -3	 -1	 0	 -1	 -3	 -2	 -3	 7.00	 13.00	 28.00	 34.00	 41.00	 2.41	 2.71	 74	 16	 0.216216216216216	 0.381443298969072	 0.0824742268041237	 -1
-1.76	 3	 10.5	 0.291	 0.27	 94.7	 -1	 -3	 -2	 0	 -3	 -2	 0	 -3	 2	 -2	 -1	 0	 -2	 1	 5	 -1	 -1	 -3	 -3	 -2	 -1	 4	 0	 -1	 0	 1	 -1	 -1	 -1	 0	 -2	 2	 0	 -3	 -1	 0	 -1	 -4	 -3	 0	 19.00	 14.00	 22.00	 17.00	 36.00	 2.01	 2.29	 192	 75	 0.390625	 0.774193548387097	 0.30241935483871	 -1
-0.62	 3	 12.3	 0.151	 -0.13	 68.2	 -1	 -4	 2	 5	 -3	 -2	 0	 -3	 1	 -3	 -2	 0	 -1	 2	 0	 0	 -1	 -2	 -3	 -2	 0	 -1	 -1	 -2	 2	 2	 0	 0	 1	 -4	 -2	 -2	 -1	 -2	 4	 2	 0	 -5	 -4	 -4	 14.00	 19.00	 19.00	 24.00	 38.00	 1.86	 2.31	 103	 49	 0.475728155339806	 0.530927835051546	 0.252577319587629	 -1
-0.62	 3	 12.3	 0.151	 -0.13	 68.2	 -1	 -4	 2	 5	 -3	 -2	 0	 -3	 1	 -3	 -2	 0	 -1	 2	 0	 0	 -1	 -2	 -3	 -2	 -1	 0	 2	 1	 -2	 1	 1	 -2	 -1	 0	 -2	 2	 -1	 -3	 -2	 1	 0	 -3	 -2	 -1	 12.00	 15.00	 20.00	 23.00	 35.00	 1.77	 2.31	 172	 76	 0.441860465116279	 0.88659793814433	 0.391752577319588	 -1
-0.4	 -0.5	 10.4	 0.23	 0.41	 50.7	 -2	 -3	 -1	 0	 -1	 -2	 8	 -3	 -1	 -3	 -2	 1	 -2	 0	 0	 -1	 -2	 -3	 -2	 2	 0	 0	 1	 -1	 -2	 2	 0	 -1	 3	 -1	 1	 -1	 1	 0	 -2	 0	 -1	 -2	 1	 -1	 20.00	 16.00	 28.00	 24.00	 44.00	 2.63	 2.72	 40	 15	 0.375	 0.217391304347826	 0.0815217391304348	 -1
-0.62	 3	 12.3	 0.151	 -0.13	 68.2	 -1	 -4	 2	 5	 -3	 -2	 0	 -3	 1	 -3	 -2	 0	 -1	 2	 0	 0	 -1	 -2	 -3	 -2	 0	 -1	 2	 3	 -3	 -1	 2	 -2	 -2	 -3	 -3	 1	 -3	 -2	 -3	 3	 0	 -4	 1	 -2	 23.00	 27.00	 21.00	 25.00	 48.00	 2.03	 2.36	 67	 25	 0.373134328358209	 0.345360824742268	 0.128865979381443	 -1
-1.1	 3	 11.3	 0.219	 -0.36	 103	 -1	 -3	 -1	 1	 -3	 -2	 -1	 -3	 5	 -2	 -1	 0	 -1	 1	 2	 0	 -1	 -2	 -3	 -2	 -2	 2	 -1	 -1	 -3	 0	 0	 -2	 0	 -2	 1	 3	 2	 0	 -3	 0	 0	 -2	 2	 -2	 21.00	 22.00	 29.00	 30.00	 51.00	 4.32	 5.27	 27	 27	 1	 0.131707317073171	 0.131707317073171	 -1
-0.69	 0.2	 10.5	 0.18	 -0.11	 68.7	 -1	 -3	 0	 2	 -3	 -2	 0	 -3	 1	 -2	 0	 0	 -1	 5	 1	 0	 -1	 -2	 -2	 -1	 -1	 1	 3	 1	 -3	 2	 0	 -2	 1	 0	 0	 0	 0	 -2	 -3	 1	 0	 -4	 -2	 -2	 13.00	 8.00	 31.00	 26.00	 39.00	 2.53	 3.02	 65	 16	 0.246153846153846	 0.328282828282828	 0.0808080808080808	 -1
