0.500000	0.500000
0.379743	0.620257
0.409004	0.590996
0.321272	0.678728
0.430957	0.569043
0.766818	0.233182
0.553735	0.446265
0.660662	0.339338
0.374535	0.625465
0.572410	0.427590
0.690922	0.309078
0.229669	0.770331
0.286908	0.713092
0.164658	0.835342
0.393644	0.606356
0.259358	0.740642
0.619823	0.380177
0.389370	0.610630
0.608468	0.391532
0.302307	0.697693
0.282282	0.717718
0.175585	0.824415
0.448688	0.551312
0.769625	0.230375
0.570569	0.429431
0.331182	0.668818
0.210090	0.789910
0.562022	0.437978
0.656894	0.343106
0.167626	0.832374
0.364290	0.635710
0.830502	0.169498
