0.152145	0.847855
0.695248	0.304752
0.160177	0.839823
0.682269	0.317731
0.176930	0.823070
0.288265	0.711735
0.590364	0.409636
0.408929	0.591071
0.719422	0.280578
0.677349	0.322651
0.168918	0.831082
0.633146	0.366854
0.542521	0.457479
0.434729	0.565271
0.552386	0.447614
0.274045	0.725955
0.593196	0.406804
0.439222	0.560778
0.467609	0.532391
0.854991	0.145009
0.500000	0.500000
0.643882	0.356118
0.751389	0.248611
0.455128	0.544872
0.354391	0.645609
0.636728	0.363272
0.299052	0.700948
0.399409	0.600591
0.164318	0.835682
0.680288	0.319712
0.391811	0.608189
