0.906373	0.093627
0.986333	0.013667
0.969542	0.030458
0.999646	0.000354
0.002658	0.997342
0.049719	0.950281
0.999318	0.000682
0.620756	0.379244
0.064765	0.935235
0.355640	0.644360
0.998995	0.001005
0.004012	0.995988
0.003900	0.996100
0.579365	0.420635
0.275716	0.724284
0.359418	0.640582
0.634051	0.365949
0.968539	0.031461
0.915946	0.084054
0.693427	0.306573
0.478260	0.521740
0.998327	0.001673
0.999962	0.000038
0.004257	0.995743
0.009459	0.990541
0.998831	0.001169
0.486548	0.513452
0.001461	0.998539
0.799091	0.200909
0.850978	0.149022
0.979173	0.020827
