0.028912	0.971088
0.895769	0.104231
0.892519	0.107481
0.997412	0.002588
0.974842	0.025158
0.013519	0.986481
0.009275	0.990725
0.000038	0.999962
0.997055	0.002945
0.001599	0.998401
0.795023	0.204977
0.740927	0.259073
0.038204	0.961796
0.997554	0.002446
0.592182	0.407818
0.013967	0.986033
0.938055	0.061945
0.019040	0.980960
0.308044	0.691956
0.999961	0.000039
0.999363	0.000637
0.995854	0.004146
0.120755	0.879245
0.197523	0.802477
0.004120	0.995880
0.983298	0.016702
0.949744	0.050256
0.975221	0.024779
0.994059	0.005941
0.000826	0.999174
0.147869	0.852131
