0.001891	0.998109
0.980957	0.019043
0.384010	0.615990
0.000817	0.999183
0.113003	0.886997
0.971380	0.028620
0.053568	0.946432
0.033649	0.966351
0.000668	0.999332
0.896105	0.103895
0.998872	0.001128
0.991035	0.008965
0.998288	0.001712
0.995073	0.004927
0.999622	0.000378
0.640707	0.359293
0.999562	0.000438
0.272011	0.727989
0.992987	0.007013
0.731258	0.268742
0.000170	0.999830
0.895826	0.104174
0.017952	0.982048
0.527431	0.472569
0.781542	0.218458
0.998866	0.001134
0.008446	0.991554
0.753867	0.246133
0.905374	0.094626
0.039619	0.960381
0.821832	0.178168
