0.984121	0.015879
0.999811	0.000189
0.999933	0.000067
0.874861	0.125139
0.077577	0.922423
0.998580	0.001420
0.999024	0.000976
0.867412	0.132588
0.024287	0.975713
0.001566	0.998434
0.000986	0.999014
0.469072	0.530928
0.930313	0.069687
0.000419	0.999581
0.925749	0.074251
0.763870	0.236130
0.998575	0.001425
0.986841	0.013159
0.693872	0.306128
0.999744	0.000256
0.993846	0.006154
0.055711	0.944289
0.999215	0.000785
0.999171	0.000829
0.969111	0.030889
0.794013	0.205987
0.030361	0.969639
0.897572	0.102428
0.989061	0.010939
0.699123	0.300877
0.003260	0.996740
0.936006	0.063994
