0.808235	0.191765
0.019395	0.980605
0.082911	0.917089
0.975508	0.024492
0.036055	0.963945
0.953262	0.046738
0.838268	0.161732
0.923297	0.076703
0.999342	0.000658
0.048172	0.951828
0.963050	0.036950
0.737189	0.262811
0.627565	0.372435
0.979601	0.020399
0.001577	0.998423
0.827999	0.172001
0.479916	0.520084
0.004160	0.995840
0.970589	0.029411
0.037049	0.962951
0.859923	0.140077
0.999728	0.000272
0.962869	0.037131
0.897747	0.102253
0.784689	0.215311
0.601341	0.398659
0.001596	0.998404
0.087584	0.912416
0.009115	0.990885
0.010199	0.989801
0.764815	0.235185
0.009507	0.990493
