0.009946	0.990054
0.959113	0.040887
0.994483	0.005517
0.993918	0.006082
0.053217	0.946783
0.003471	0.996529
0.184738	0.815262
0.999049	0.000951
0.009249	0.990751
0.000298	0.999702
0.908861	0.091139
0.000595	0.999405
0.651006	0.348994
0.885987	0.114013
0.829394	0.170606
0.746632	0.253368
0.000670	0.999330
0.790585	0.209415
0.000722	0.999278
0.997526	0.002474
0.001493	0.998507
0.002754	0.997246
0.906475	0.093525
0.003822	0.996178
0.026606	0.973394
0.992924	0.007076
0.548556	0.451444
0.079465	0.920535
0.996977	0.003023
0.092747	0.907253
0.115226	0.884774
