-1.1	 3	 11.3	 0.219	 -0.36	 103	 -1	 -3	 -1	 1	 -3	 -2	 -1	 -3	 5	 -2	 -1	 0	 -1	 1	 2	 0	 -1	 -2	 -3	 -2	 -2	 1	 -2	 -2	 -5	 1	 -1	 -3	 -2	 -4	 -3	 7	 2	 -4	 -3	 -2	 -2	 -4	 -3	 -3	 27.00	 27.00	 27.00	 27.00	 54.00	 3.98	 3.79	 50	 50	 1	 0.24390243902439	 0.24390243902439	 1
-0.4	 -0.5	 10.4	 0.23	 0.41	 50.7	 -2	 -3	 -1	 0	 -1	 -2	 8	 -3	 -1	 -3	 -2	 1	 -2	 0	 0	 -1	 -2	 -3	 -2	 2	 1	 -1	 -1	 -1	 -2	 1	 0	 -1	 3	 -2	 -2	 -1	 -2	 -2	 5	 0	 -1	 -3	 -1	 -2	 17.00	 17.00	 25.00	 25.00	 42.00	 1.96	 2.75	 152	 69	 0.453947368421053	 0.826086956521739	 0.375	 1
0.02	 -2.3	 6.2	 0.298	 0.66	 55.2	 -2	 -2	 -3	 -2	 3	 -3	 2	 -1	 -2	 -1	 -1	 -2	 -3	 -1	 -2	 -2	 -2	 -1	 2	 7	 -1	 3	 -1	 -2	 -3	 3	 0	 -2	 3	 -2	 0	 0	 0	 0	 -2	 0	 0	 -2	 2	 -1	 11.00	 15.00	 19.00	 23.00	 34.00	 2.35	 2.80	 124	 87	 0.701612903225806	 0.558558558558559	 0.391891891891892	 -1
-0.26	 0.3	 9.2	 0.062	 -0.33	 42	 1	 -1	 0	 0	 -2	 0	 -1	 -2	 0	 -2	 -1	 1	 -1	 0	 -1	 4	 1	 -2	 -3	 -2	 0	 1	 3	 5	 -1	 -1	 -2	 -2	 2	 -1	 -4	 -2	 -2	 0	 -7	 1	 -3	 -1	 1	 -2	 22.00	 25.00	 23.00	 26.00	 48.00	 6.18	 6.45	 3	 3	 1	 0.0230769230769231	 0.0230769230769231	 -1
-0.26	 0.3	 9.2	 0.062	 -0.33	 42	 1	 -1	 0	 0	 -2	 0	 -1	 -2	 0	 -2	 -1	 1	 -1	 0	 -1	 4	 1	 -2	 -3	 -2	 0	 -1	 1	 3	 -2	 0	 0	 -1	 -1	 -3	 -3	 0	 -2	 -3	 -1	 3	 1	 -3	 -2	 -2	 13.00	 14.00	 16.00	 17.00	 30.00	 2.24	 2.00	 42	 7	 0.166666666666667	 0.323076923076923	 0.0538461538461538	 -1
0.37	 -3.4	 5.4	 0.409	 0.83	 34.7	 -3	 -2	 -4	 -3	 1	 -2	 -2	 -3	 -3	 -2	 -1	 -4	 -4	 -2	 -3	 -3	 -2	 -3	 11	 2	 0	 1	 3	 1	 -3	 -1	 -2	 1	 -1	 -2	 -2	 -2	 -2	 -1	 -2	 0	 1	 1	 3	 -1	 24.00	 26.00	 25.00	 27.00	 51.00	 4.32	 5.69	 116	 115	 0.991379310344828	 0.511013215859031	 0.506607929515419	 1
-1.1	 3	 11.3	 0.219	 -0.36	 103	 -1	 -3	 -1	 1	 -3	 -2	 -1	 -3	 5	 -2	 -1	 0	 -1	 1	 2	 0	 -1	 -2	 -3	 -2	 -1	 2	 0	 -1	 -3	 1	 1	 -2	 -1	 -3	 -3	 5	 -2	 -3	 -1	 0	 -1	 -3	 -2	 -2	 16.00	 15.00	 26.00	 25.00	 41.00	 2.45	 2.00	 87	 45	 0.517241379310345	 0.424390243902439	 0.219512195121951	 -1
-1.76	 3	 10.5	 0.291	 0.27	 94.7	 -1	 -3	 -2	 0	 -3	 -2	 0	 -3	 2	 -2	 -1	 0	 -2	 1	 5	 -1	 -1	 -3	 -3	 -2	 -1	 4	 0	 -1	 0	 1	 -1	 -1	 -1	 0	 -2	 2	 0	 -3	 -1	 0	 -1	 -4	 -3	 0	 19.00	 14.00	 22.00	 17.00	 36.00	 2.01	 2.29	 192	 75	 0.390625	 0.774193548387097	 0.30241935483871	 -1
-0.72	 3	 13	 0.105	 -0.38	 60.6	 -2	 -3	 6	 2	 -3	 -1	 -1	 -3	 -1	 -4	 -3	 1	 -1	 0	 -2	 0	 -1	 -3	 -4	 -3	 -2	 -1	 5	 4	 -3	 0	 0	 -1	 0	 -3	 -4	 0	 -3	 -3	 -2	 0	 0	 -4	 -3	 -3	 17.00	 19.00	 16.00	 18.00	 35.00	 1.77	 2.36	 152	 60	 0.394736842105263	 0.932515337423313	 0.368098159509202	 -1
-0.18	 -0.4	 8.6	 0.108	 -0.18	 45	 0	 -1	 -1	 -1	 -2	 -2	 -2	 -1	 -1	 -1	 -1	 0	 -1	 -1	 -1	 1	 5	 0	 -2	 -2	 0	 -1	 -1	 0	 -2	 -1	 0	 -2	 -2	 -1	 0	 1	 -1	 -3	 -2	 1	 5	 -3	 -2	 -1	 10.00	 15.00	 24.00	 29.00	 39.00	 2.33	 2.72	 51	 15	 0.294117647058824	 0.359154929577465	 0.105633802816901	 -1
-0.72	 3	 13	 0.105	 -0.38	 60.6	 -2	 -3	 6	 2	 -3	 -1	 -1	 -3	 -1	 -4	 -3	 1	 -1	 0	 -2	 0	 -1	 -3	 -4	 -3	 -3	 -1	 4	 1	 -4	 1	 0	 2	 3	 -1	 -2	 0	 -4	 -4	 -2	 1	 -1	 -6	 -1	 -5	 23.00	 21.00	 24.00	 22.00	 45.00	 2.06	 2.72	 130	 98	 0.753846153846154	 0.797546012269939	 0.601226993865031	 1
-0.26	 0.3	 9.2	 0.062	 -0.33	 42	 1	 -1	 0	 0	 -2	 0	 -1	 -2	 0	 -2	 -1	 1	 -1	 0	 -1	 4	 1	 -2	 -3	 -2	 1	 -1	 0	 0	 -1	 0	 0	 -1	 -1	 -2	 -2	 0	 -1	 -2	 -1	 4	 2	 -3	 -2	 -1	 26.00	 29.00	 20.00	 23.00	 49.00	 5.70	 5.78	 36	 36	 1	 0.276923076923077	 0.276923076923077	 1
-1.76	 3	 10.5	 0.291	 0.27	 94.7	 -1	 -3	 -2	 0	 -3	 -2	 0	 -3	 2	 -2	 -1	 0	 -2	 1	 5	 -1	 -1	 -3	 -3	 -2	 0	 2	 -1	 -2	 3	 0	 -1	 4	 -2	 -3	 -3	 2	 -2	 -3	 -2	 -1	 -1	 -3	 -3	 -3	 28.00	 21.00	 27.00	 20.00	 48.00	 6.11	 6.25	 102	 96	 0.941176470588235	 0.411290322580645	 0.387096774193548	 -1
-0.26	 0.3	 9.2	 0.062	 -0.33	 42	 1	 -1	 0	 0	 -2	 0	 -1	 -2	 0	 -2	 -1	 1	 -1	 0	 -1	 4	 1	 -2	 -3	 -2	 1	 -1	 2	 2	 -3	 1	 -1	 -3	 3	 -3	 -2	 -1	 -3	 0	 -1	 2	 2	 -4	 -1	 -2	 21.00	 21.00	 28.00	 28.00	 49.00	 4.83	 5.21	 12	 12	 1	 0.0923076923076923	 0.0923076923076923	 -1
-0.72	 3	 13	 0.105	 -0.38	 60.6	 -2	 -3	 6	 2	 -3	 -1	 -1	 -3	 -1	 -4	 -3	 1	 -1	 0	 -2	 0	 -1	 -3	 -4	 -3	 -2	 -2	 1	 6	 -4	 0	 2	 -1	 -1	 -3	 -4	 -1	 -3	 -4	 -2	 0	 -1	 -5	 -3	 -3	 19.00	 22.00	 27.00	 30.00	 49.00	 5.66	 5.28	 53	 45	 0.849056603773585	 0.325153374233129	 0.276073619631902	 1
-0.72	 3	 13	 0.105	 -0.38	 60.6	 -2	 -3	 6	 2	 -3	 -1	 -1	 -3	 -1	 -4	 -3	 1	 -1	 0	 -2	 0	 -1	 -3	 -4	 -3	 -3	 1	 -2	 3	 -5	 2	 4	 -4	 0	 -1	 -4	 2	 -2	 -5	 -3	 -1	 -1	 -5	 -4	 -4	 15.00	 9.00	 31.00	 25.00	 40.00	 1.86	 2.00	 75	 1	 0.0133333333333333	 0.460122699386503	 0.00613496932515337	 -1
-0.26	 0.3	 9.2	 0.062	 -0.33	 42	 1	 -1	 0	 0	 -2	 0	 -1	 -2	 0	 -2	 -1	 1	 -1	 0	 -1	 4	 1	 -2	 -3	 -2	 0	 0	 3	 0	 -2	 -1	 1	 -1	 -1	 -2	 -3	 0	 -1	 -2	 2	 2	 0	 -3	 0	 -2	 11.00	 14.00	 22.00	 25.00	 36.00	 2.42	 2.00	 92	 53	 0.576086956521739	 0.707692307692308	 0.407692307692308	 -1
-0.26	 0.3	 9.2	 0.062	 -0.33	 42	 1	 -1	 0	 0	 -2	 0	 -1	 -2	 0	 -2	 -1	 1	 -1	 0	 -1	 4	 1	 -2	 -3	 -2	 0	 -2	 2	 0	 0	 -1	 -1	 0	 -2	 -2	 -2	 0	 1	 -2	 1	 2	 2	 -3	 0	 -1	 22.00	 27.00	 14.00	 19.00	 41.00	 3.44	 2.94	 13	 12	 0.923076923076923	 0.1	 0.0923076923076923	 -1
0.61	 -2.5	 5.2	 0.29	 0.82	 25.5	 -2	 -2	 -3	 -3	 6	 -3	 -1	 0	 -3	 0	 0	 -3	 -4	 -3	 -3	 -2	 -2	 -1	 1	 3	 2	 -1	 -1	 1	 -3	 1	 1	 -1	 -2	 0	 -2	 0	 0	 -1	 -2	 2	 2	 -4	 -2	 -1	 18.00	 17.00	 27.00	 26.00	 44.00	 2.98	 3.96	 76	 49	 0.644736842105263	 0.385786802030457	 0.248730964467005	 -1
-0.26	 0.3	 9.2	 0.062	 -0.33	 42	 1	 -1	 0	 0	 -2	 0	 -1	 -2	 0	 -2	 -1	 1	 -1	 0	 -1	 4	 1	 -2	 -3	 -2	 3	 -1	 0	 -1	 -1	 0	 0	 0	 -1	 -2	 -2	 0	 -1	 -3	 -1	 3	 1	 -3	 -2	 -1	 27.00	 25.00	 21.00	 19.00	 46.00	 6.33	 6.64	 31	 31	 1	 0.238461538461538	 0.238461538461538	 -1
-0.72	 3	 13	 0.105	 -0.38	 60.6	 -2	 -3	 6	 2	 -3	 -1	 -1	 -3	 -1	 -4	 -3	 1	 -1	 0	 -2	 0	 -1	 -3	 -4	 -3	 -1	 0	 3	 1	 -3	 1	 1	 -1	 2	 -1	 -2	 1	 -1	 -2	 0	 0	 0	 -3	 3	 -2	 19.00	 12.00	 27.00	 20.00	 39.00	 2.43	 2.29	 72	 51	 0.708333333333333	 0.441717791411043	 0.312883435582822	 -1
-0.64	 2	 11.6	 0.134	 0.12	 60.1	 -2	 -3	 1	 0	 -3	 0	 1	 -3	 0	 -3	 -2	 6	 -2	 0	 0	 1	 0	 -3	 -4	 -2	 3	 -1	 3	 -2	 -3	 -1	 -1	 1	 -2	 -3	 -3	 -2	 -3	 -4	 3	 1	 0	 -4	 -3	 -2	 24.00	 15.00	 26.00	 17.00	 41.00	 2.17	 2.00	 22	 0	 0	 0.140127388535032	 0	 -1
0.02	 -2.3	 6.2	 0.298	 0.66	 55.2	 -2	 -2	 -3	 -2	 3	 -3	 2	 -1	 -2	 -1	 -1	 -2	 -3	 -1	 -2	 -2	 -2	 -1	 2	 7	 -2	 -1	 -2	 1	 -2	 0	 -2	 -3	 -1	 0	 1	 -1	 2	 2	 -2	 -2	 -1	 3	 3	 1	 25.00	 23.00	 19.00	 17.00	 42.00	 6.71	 6.43	 125	 121	 0.968	 0.563063063063063	 0.545045045045045	 1
-0.69	 0.2	 10.5	 0.18	 -0.11	 68.7	 -1	 -3	 0	 2	 -3	 -2	 0	 -3	 1	 -2	 0	 0	 -1	 5	 1	 0	 -1	 -2	 -2	 -1	 -1	 1	 0	 -2	 -3	 2	 -1	 -3	 2	 1	 0	 1	 1	 -3	 -1	 0	 1	 -3	 -2	 0	 15.00	 16.00	 20.00	 21.00	 36.00	 1.95	 2.44	 161	 84	 0.521739130434783	 0.813131313131313	 0.424242424242424	 -1
-1.76	 3	 10.5	 0.291	 0.27	 94.7	 -1	 -3	 -2	 0	 -3	 -2	 0	 -3	 2	 -2	 -1	 0	 -2	 1	 5	 -1	 -1	 -3	 -3	 -2	 -1	 5	 0	 -2	 -3	 1	 0	 -2	 0	 -3	 -2	 2	 -1	 -3	 -2	 -1	 -1	 -3	 -2	 -3	 28.00	 28.00	 22.00	 22.00	 50.00	 8.51	 8.92	 3	 3	 1	 0.0120967741935484	 0.0120967741935484	 1
-0.62	 3	 12.3	 0.151	 -0.13	 68.2	 -1	 -4	 2	 5	 -3	 -2	 0	 -3	 1	 -3	 -2	 0	 -1	 2	 0	 0	 -1	 -2	 -3	 -2	 -1	 -1	 1	 -1	 -4	 3	 -1	 3	 0	 -3	 -3	 -1	 -2	 -3	 -2	 2	 2	 -5	 -2	 -3	 13.00	 8.00	 24.00	 19.00	 32.00	 2.31	 2.00	 93	 50	 0.537634408602151	 0.479381443298969	 0.257731958762887	 -1
-0.62	 3	 12.3	 0.151	 -0.13	 68.2	 -1	 -4	 2	 5	 -3	 -2	 0	 -3	 1	 -3	 -2	 0	 -1	 2	 0	 0	 -1	 -2	 -3	 -2	 -1	 0	 -1	 0	 -2	 1	 3	 -2	 -1	 1	 -1	 2	 -1	 -2	 -2	 -1	 -1	 -3	 -2	 1	 16.00	 16.00	 20.00	 20.00	 36.00	 2.58	 2.58	 58	 45	 0.775862068965517	 0.298969072164948	 0.231958762886598	 1
-1.1	 3	 11.3	 0.219	 -0.36	 103	 -1	 -3	 -1	 1	 -3	 -2	 -1	 -3	 5	 -2	 -1	 0	 -1	 1	 2	 0	 -1	 -2	 -3	 -2	 1	 5	 -1	 -2	 -3	 1	 0	 -2	 -1	 -3	 -2	 3	 -1	 -3	 -2	 0	 -1	 -3	 -2	 -2	 7.00	 11.00	 20.00	 24.00	 31.00	 1.99	 2.47	 157	 54	 0.343949044585987	 0.765853658536585	 0.263414634146341	 -1
-0.18	 -0.4	 8.6	 0.108	 -0.18	 45	 0	 -1	 -1	 -1	 -2	 -2	 -2	 -1	 -1	 -1	 -1	 0	 -1	 -1	 -1	 1	 5	 0	 -2	 -2	 -1	 1	 -1	 0	 -2	 1	 3	 -2	 -1	 -1	 0	 0	 0	 -2	 -2	 0	 2	 -3	 -2	 -1	 13.00	 13.00	 26.00	 26.00	 39.00	 2.84	 3.45	 52	 23	 0.442307692307692	 0.366197183098592	 0.161971830985915	 -1
-1.76	 3	 10.5	 0.291	 0.27	 94.7	 -1	 -3	 -2	 0	 -3	 -2	 0	 -3	 2	 -2	 -1	 0	 -2	 1	 5	 -1	 -1	 -3	 -3	 -2	 -1	 4	 -1	 -1	 -3	 3	 1	 0	 1	 -3	 -1	 2	 -2	 -3	 -2	 -1	 -2	 1	 -1	 -2	 19.00	 19.00	 18.00	 18.00	 37.00	 2.01	 2.00	 161	 126	 0.782608695652174	 0.649193548387097	 0.508064516129032	 -1
-0.07	 0	 8	 0.131	 -0.25	 51.5	 -1	 -3	 -1	 -1	 -4	 -2	 -2	 -3	 -1	 -3	 -2	 -2	 7	 -1	 -2	 -1	 -1	 -2	 -4	 -3	 -1	 -2	 -2	 -2	 -3	 -1	 -1	 -2	 -2	 -3	 -3	 -1	 -3	 -4	 8	 -1	 -1	 -4	 -3	 -3	 23.00	 23.00	 13.00	 13.00	 36.00	 2.22	 2.76	 30	 1	 0.0333333333333333	 0.220588235294118	 0.00735294117647059	 1
