0.466285	0.533715
0.234363	0.765637
0.650830	0.349170
0.277226	0.722774
0.887271	0.112729
0.604268	0.395732
0.284435	0.715565
0.159635	0.840365
0.757886	0.242114
0.387779	0.612221
0.143465	0.856535
0.376254	0.623746
0.740889	0.259111
0.870492	0.129508
0.263444	0.736556
0.373042	0.626958
0.636750	0.363250
0.856800	0.143200
0.619499	0.380501
0.679952	0.320048
0.658169	0.341831
0.845384	0.154616
0.491509	0.508491
0.600026	0.399974
0.811237	0.188763
0.488385	0.511615
0.184235	0.815765
0.858047	0.141953
0.835814	0.164186
0.670397	0.329603
0.402300	0.597700
