0.686631	0.313369
0.715691	0.284309
0.640533	0.359467
0.617841	0.382159
0.500000	0.500000
0.441903	0.558097
0.781925	0.218075
0.598719	0.401281
0.689134	0.310866
0.480477	0.519523
0.693864	0.306136
0.582428	0.417572
0.442068	0.557932
0.440446	0.559554
0.662145	0.337855
0.765153	0.234847
0.606766	0.393234
0.437534	0.562466
0.697554	0.302446
0.292850	0.707150
0.558407	0.441593
0.647988	0.352012
0.695033	0.304967
0.601702	0.398298
0.548301	0.451699
0.373087	0.626913
0.404337	0.595663
0.405315	0.594685
0.314046	0.685954
0.528047	0.471953
0.398152	0.601848
