0.339229	0.660771
0.706009	0.293991
0.280483	0.719517
0.458799	0.541201
0.800561	0.199439
0.385786	0.614214
0.275005	0.724995
0.500000	0.500000
0.207328	0.792672
0.417733	0.582267
0.500000	0.500000
0.539453	0.460547
0.215842	0.784158
0.500000	0.500000
0.757099	0.242901
0.523816	0.476184
0.301495	0.698505
0.507313	0.492687
0.607992	0.392008
0.524713	0.475287
0.717462	0.282538
0.429247	0.570753
0.622924	0.377076
0.362830	0.637170
0.427253	0.572747
0.818603	0.181397
0.155453	0.844547
0.589237	0.410763
0.220109	0.779891
0.775808	0.224192
0.297459	0.702541
0.520781	0.479219
