0.858743	0.141257
0.107933	0.892067
0.190451	0.809549
0.535206	0.464794
0.169012	0.830988
0.598487	0.401513
0.435406	0.564594
0.569237	0.430763
0.182615	0.817385
0.169178	0.830822
0.341986	0.658014
0.875524	0.124476
0.450603	0.549397
0.506342	0.493658
0.274740	0.725260
0.627090	0.372910
0.631051	0.368949
0.159800	0.840200
0.632057	0.367943
0.691373	0.308627
0.645637	0.354363
0.845336	0.154664
0.724012	0.275988
0.183641	0.816359
0.730679	0.269321
0.488029	0.511971
0.152572	0.847428
0.818207	0.181793
0.500000	0.500000
0.527853	0.472147
0.277428	0.722572
