0.228966	0.771034
0.429585	0.570415
0.766774	0.233226
0.214838	0.785162
0.541912	0.458088
0.655501	0.344499
0.400124	0.599876
0.602029	0.397971
0.627593	0.372407
0.316021	0.683979
0.509493	0.490507
0.230152	0.769848
0.480338	0.519662
0.487744	0.512256
0.593343	0.406657
0.520878	0.479122
0.792606	0.207394
0.265795	0.734205
0.637064	0.362936
0.355149	0.644851
0.670287	0.329713
0.394691	0.605309
0.474341	0.525659
0.514300	0.485700
0.242606	0.757394
0.634914	0.365086
0.531396	0.468604
0.216726	0.783274
0.670978	0.329022
0.312321	0.687679
0.805168	0.194832
