0.337702	0.662298
0.599642	0.400358
0.600586	0.399414
0.655167	0.344833
0.500000	0.500000
0.740201	0.259799
0.618376	0.381624
0.725326	0.274674
0.587718	0.412282
0.682313	0.317687
0.395959	0.604041
0.610856	0.389144
0.869056	0.130944
0.380576	0.619424
0.627379	0.372621
0.805598	0.194402
0.694000	0.306000
0.191080	0.808920
0.277766	0.722234
0.689468	0.310532
0.628320	0.371680
0.834244	0.165756
0.347085	0.652915
0.307647	0.692353
0.301952	0.698048
0.617535	0.382465
0.669011	0.330989
0.725970	0.274030
0.462605	0.537395
0.699604	0.300396
0.665256	0.334744
