0.989301	0.010699
0.946589	0.053411
0.831911	0.168089
0.998355	0.001645
0.056688	0.943312
0.011282	0.988718
0.006484	0.993516
0.949122	0.050878
0.988901	0.011099
0.951588	0.048412
0.005037	0.994963
0.002969	0.997031
0.002372	0.997628
0.238030	0.761970
0.998838	0.001162
0.593707	0.406293
0.850615	0.149385
0.859625	0.140375
0.275709	0.724291
0.140285	0.859715
0.289314	0.710686
0.967682	0.032318
0.959735	0.040265
0.971203	0.028797
0.001104	0.998896
0.888826	0.111174
0.522701	0.477299
0.767789	0.232211
0.884515	0.115485
0.905333	0.094667
0.975223	0.024777
