0.002325	0.997675
0.181360	0.818640
0.999807	0.000193
0.007461	0.992539
0.656391	0.343609
0.999949	0.000051
0.526463	0.473537
0.037309	0.962691
0.037209	0.962791
0.996235	0.003765
0.598840	0.401160
0.957909	0.042091
0.878597	0.121403
0.161343	0.838657
0.146871	0.853129
0.030851	0.969149
0.999005	0.000995
0.048950	0.951050
0.002858	0.997142
0.006914	0.993086
0.022526	0.977474
0.003428	0.996572
0.940202	0.059798
0.995774	0.004226
0.994308	0.005692
0.990168	0.009832
0.998646	0.001354
0.498839	0.501161
0.741620	0.258380
0.999476	0.000524
0.108418	0.891582
0.998056	0.001944
