0.585439	0.414561
0.710281	0.289719
0.332823	0.667177
0.472410	0.527590
0.506894	0.493106
0.373201	0.626799
0.225795	0.774205
0.552833	0.447167
0.559436	0.440564
0.646650	0.353350
0.225087	0.774913
0.683309	0.316691
0.362721	0.637279
0.154425	0.845575
0.779725	0.220275
0.472705	0.527295
0.444848	0.555152
0.298186	0.701814
0.698083	0.301917
0.384927	0.615073
0.653034	0.346966
0.467332	0.532668
0.678799	0.321201
0.818165	0.181835
0.655074	0.344926
0.663916	0.336084
0.306072	0.693928
0.351539	0.648461
0.473839	0.526161
0.476634	0.523366
0.234334	0.765666
