0.245981	0.754019
0.348587	0.651413
0.738819	0.261181
0.423966	0.576034
0.337188	0.662812
0.693897	0.306103
0.553076	0.446924
0.607671	0.392329
0.227005	0.772995
0.402998	0.597002
0.657577	0.342423
0.661406	0.338594
0.309547	0.690453
0.195957	0.804043
0.845557	0.154443
0.559182	0.440818
0.226124	0.773876
0.302819	0.697181
0.143212	0.856788
0.434231	0.565769
0.541627	0.458373
0.234798	0.765202
0.308346	0.691654
0.585574	0.414426
0.589951	0.410049
0.560429	0.439571
0.818800	0.181200
0.459154	0.540846
0.702980	0.297020
0.404690	0.595310
0.709086	0.290914
