0.923727	0.076273
0.667693	0.332307
0.311759	0.688241
0.540951	0.459049
0.438514	0.561486
0.500000	0.500000
0.431527	0.568473
0.577100	0.422900
0.353581	0.646419
0.653499	0.346501
0.253806	0.746194
0.408134	0.591866
0.699414	0.300586
0.207579	0.792421
0.666915	0.333085
0.563743	0.436257
0.787697	0.212303
0.425204	0.574796
0.591301	0.408699
0.595960	0.404040
0.513488	0.486512
0.796666	0.203334
0.345890	0.654110
0.644247	0.355753
0.846127	0.153873
0.613544	0.386456
0.662924	0.337076
0.603074	0.396926
0.819094	0.180906
0.671977	0.328023
0.656344	0.343656
