0.004833	0.995167
0.011466	0.988534
0.004796	0.995204
0.850174	0.149826
0.242610	0.757390
0.999335	0.000665
0.002764	0.997236
0.769836	0.230164
0.999392	0.000608
0.999495	0.000505
0.923121	0.076879
0.646169	0.353831
0.978410	0.021590
0.040151	0.959849
0.999128	0.000872
0.995467	0.004533
0.982389	0.017611
0.959372	0.040628
0.998842	0.001158
0.993878	0.006122
0.885189	0.114811
0.999941	0.000059
0.109550	0.890450
0.999956	0.000044
0.926655	0.073345
0.998709	0.001291
0.081403	0.918597
0.146799	0.853201
0.995711	0.004289
0.804001	0.195999
0.340150	0.659850
