0.962056	0.037944
0.637796	0.362204
0.994347	0.005653
0.720761	0.279239
0.999974	0.000026
0.418488	0.581512
0.186005	0.813995
0.015823	0.984177
0.000014	0.999986
0.707380	0.292620
0.004246	0.995754
0.121445	0.878555
0.146970	0.853030
0.997571	0.002429
0.999812	0.000188
0.951119	0.048881
0.321615	0.678385
0.612042	0.387958
0.000132	0.999868
0.026624	0.973376
0.000306	0.999694
0.992501	0.007499
0.312842	0.687158
0.000828	0.999172
0.001526	0.998474
0.000123	0.999877
0.937652	0.062348
0.000005	0.999995
0.001631	0.998369
0.972437	0.027563
0.000411	0.999589
0.012868	0.987132
