0.404274	0.595726
0.305917	0.694083
0.972905	0.027095
0.121053	0.878947
0.007867	0.992133
0.999722	0.000278
0.540615	0.459385
0.000285	0.999715
0.194758	0.805242
0.919276	0.080724
0.999879	0.000121
0.518853	0.481147
0.835077	0.164923
0.992125	0.007875
0.191863	0.808137
0.996434	0.003566
0.006189	0.993811
0.765173	0.234827
0.000264	0.999736
0.002737	0.997263
0.999661	0.000339
0.964784	0.035216
0.902521	0.097479
0.934597	0.065403
0.265322	0.734678
0.998854	0.001146
0.991318	0.008682
0.000327	0.999673
0.223684	0.776316
0.622243	0.377757
0.023940	0.976060
