0.986356	0.013644
0.919394	0.080606
0.998970	0.001030
0.001135	0.998865
0.973047	0.026953
0.003843	0.996157
0.952875	0.047125
0.021445	0.978555
0.962247	0.037753
0.992953	0.007047
0.501586	0.498414
0.001488	0.998512
0.040466	0.959534
0.971885	0.028115
0.000874	0.999126
0.907882	0.092118
0.964361	0.035639
0.856497	0.143503
0.830682	0.169318
0.599310	0.400690
0.559290	0.440710
0.018430	0.981570
0.108039	0.891961
0.002508	0.997492
0.947354	0.052646
0.996509	0.003491
0.989446	0.010554
0.000600	0.999400
0.008200	0.991800
0.832832	0.167168
0.057406	0.942594
