0.474234	0.525766
0.837544	0.162456
0.635803	0.364197
0.482727	0.517273
0.334096	0.665904
0.826956	0.173044
0.602918	0.397082
0.475463	0.524537
0.608401	0.391599
0.305756	0.694244
0.366755	0.633245
0.278520	0.721480
0.447305	0.552695
0.818644	0.181356
0.526506	0.473494
0.686359	0.313641
0.646161	0.353839
0.641836	0.358164
0.592283	0.407717
0.277848	0.722152
0.623120	0.376880
0.580019	0.419981
0.594047	0.405953
0.662991	0.337009
0.715548	0.284452
0.493716	0.506284
0.171063	0.828937
0.857851	0.142149
0.768446	0.231554
0.280556	0.719444
0.353120	0.646880
0.479321	0.520679
